%!PS-Adobe-3.0 EPSF-3.0
%%Creator: (MATLAB, The Mathworks, Inc. Version 9.1.0.441655 \(R2016b\). Operating System: Windows 8)
%%Title: C:/Users/Eigenaar/WIT/NLA/paper-nla/presentatie/fig71.eps
%%CreationDate: 2016-12-15T18:52:39
%%Pages: (atend)
%%BoundingBox: 0 0 404 386
%%LanguageLevel: 3
%%EndComments
%%BeginProlog
%%BeginResource: procset (Apache XML Graphics Std ProcSet) 1.2 0
%%Version: 1.2 0
%%Copyright: (Copyright 2001-2003,2010 The Apache Software Foundation. License terms: http://www.apache.org/licenses/LICENSE-2.0)
/bd{bind def}bind def
/ld{load def}bd
/GR/grestore ld
/M/moveto ld
/LJ/setlinejoin ld
/C/curveto ld
/f/fill ld
/LW/setlinewidth ld
/GC/setgray ld
/t/show ld
/N/newpath ld
/CT/concat ld
/cp/closepath ld
/S/stroke ld
/L/lineto ld
/CC/setcmykcolor ld
/A/ashow ld
/GS/gsave ld
/RC/setrgbcolor ld
/RM/rmoveto ld
/ML/setmiterlimit ld
/re {4 2 roll M
1 index 0 rlineto
0 exch rlineto
neg 0 rlineto
cp } bd
/_ctm matrix def
/_tm matrix def
/BT { _ctm currentmatrix pop matrix _tm copy pop 0 0 moveto } bd
/ET { _ctm setmatrix } bd
/iTm { _ctm setmatrix _tm concat } bd
/Tm { _tm astore pop iTm 0 0 moveto } bd
/ux 0.0 def
/uy 0.0 def
/F {
  /Tp exch def
  /Tf exch def
  Tf findfont Tp scalefont setfont
  /cf Tf def  /cs Tp def
} bd
/ULS {currentpoint /uy exch def /ux exch def} bd
/ULE {
  /Tcx currentpoint pop def
  gsave
  newpath
  cf findfont cs scalefont dup
  /FontMatrix get 0 get /Ts exch def /FontInfo get dup
  /UnderlinePosition get Ts mul /To exch def
  /UnderlineThickness get Ts mul /Tt exch def
  ux uy To add moveto  Tcx uy To add lineto
  Tt setlinewidth stroke
  grestore
} bd
/OLE {
  /Tcx currentpoint pop def
  gsave
  newpath
  cf findfont cs scalefont dup
  /FontMatrix get 0 get /Ts exch def /FontInfo get dup
  /UnderlinePosition get Ts mul /To exch def
  /UnderlineThickness get Ts mul /Tt exch def
  ux uy To add cs add moveto Tcx uy To add cs add lineto
  Tt setlinewidth stroke
  grestore
} bd
/SOE {
  /Tcx currentpoint pop def
  gsave
  newpath
  cf findfont cs scalefont dup
  /FontMatrix get 0 get /Ts exch def /FontInfo get dup
  /UnderlinePosition get Ts mul /To exch def
  /UnderlineThickness get Ts mul /Tt exch def
  ux uy To add cs 10 mul 26 idiv add moveto Tcx uy To add cs 10 mul 26 idiv add lineto
  Tt setlinewidth stroke
  grestore
} bd
/QT {
/Y22 exch store
/X22 exch store
/Y21 exch store
/X21 exch store
currentpoint
/Y21 load 2 mul add 3 div exch
/X21 load 2 mul add 3 div exch
/X21 load 2 mul /X22 load add 3 div
/Y21 load 2 mul /Y22 load add 3 div
/X22 load /Y22 load curveto
} bd
/SSPD {
dup length /d exch dict def
{
/v exch def
/k exch def
currentpagedevice k known {
/cpdv currentpagedevice k get def
v cpdv ne {
/upd false def
/nullv v type /nulltype eq def
/nullcpdv cpdv type /nulltype eq def
nullv nullcpdv or
{
/upd true def
} {
/sametype v type cpdv type eq def
sametype {
v type /arraytype eq {
/vlen v length def
/cpdvlen cpdv length def
vlen cpdvlen eq {
0 1 vlen 1 sub {
/i exch def
/obj v i get def
/cpdobj cpdv i get def
obj cpdobj ne {
/upd true def
exit
} if
} for
} {
/upd true def
} ifelse
} {
v type /dicttype eq {
v {
/dv exch def
/dk exch def
/cpddv cpdv dk get def
dv cpddv ne {
/upd true def
exit
} if
} forall
} {
/upd true def
} ifelse
} ifelse
} if
} ifelse
upd true eq {
d k v put
} if
} if
} if
} forall
d length 0 gt {
d setpagedevice
} if
} bd
/RE { % /NewFontName [NewEncodingArray] /FontName RE -
  findfont dup length dict begin
  {
    1 index /FID ne
    {def} {pop pop} ifelse
  } forall
  /Encoding exch def
  /FontName 1 index def
  currentdict definefont pop
  end
} bind def
%%EndResource
%%BeginResource: procset (Apache XML Graphics EPS ProcSet) 1.0 0
%%Version: 1.0 0
%%Copyright: (Copyright 2002-2003 The Apache Software Foundation. License terms: http://www.apache.org/licenses/LICENSE-2.0)
/BeginEPSF { %def
/b4_Inc_state save def         % Save state for cleanup
/dict_count countdictstack def % Count objects on dict stack
/op_count count 1 sub def      % Count objects on operand stack
userdict begin                 % Push userdict on dict stack
/showpage { } def              % Redefine showpage, { } = null proc
0 setgray 0 setlinecap         % Prepare graphics state
1 setlinewidth 0 setlinejoin
10 setmiterlimit [ ] 0 setdash newpath
/languagelevel where           % If level not equal to 1 then
{pop languagelevel             % set strokeadjust and
1 ne                           % overprint to their defaults.
{false setstrokeadjust false setoverprint
} if
} if
} bd
/EndEPSF { %def
count op_count sub {pop} repeat            % Clean up stacks
countdictstack dict_count sub {end} repeat
b4_Inc_state restore
} bd
%%EndResource
%FOPBeginFontDict
%%IncludeResource: font Courier-Bold
%%IncludeResource: font Helvetica
%%IncludeResource: font Courier-BoldOblique
%%IncludeResource: font Courier-Oblique
%%IncludeResource: font Times-Roman
%%IncludeResource: font Helvetica-BoldOblique
%%IncludeResource: font Helvetica-Bold
%%IncludeResource: font Helvetica-Oblique
%%IncludeResource: font Times-BoldItalic
%%IncludeResource: font Courier
%%IncludeResource: font Times-Italic
%%IncludeResource: font Times-Bold
%%IncludeResource: font Symbol
%%IncludeResource: font ZapfDingbats
%FOPEndFontDict
%%BeginResource: encoding WinAnsiEncoding
/WinAnsiEncoding [
/.notdef /.notdef /.notdef /.notdef /.notdef
/.notdef /.notdef /.notdef /.notdef /.notdef
/.notdef /.notdef /.notdef /.notdef /.notdef
/.notdef /.notdef /.notdef /.notdef /.notdef
/.notdef /.notdef /.notdef /.notdef /.notdef
/.notdef /.notdef /.notdef /.notdef /.notdef
/.notdef /.notdef /space /exclam /quotedbl
/numbersign /dollar /percent /ampersand /quotesingle
/parenleft /parenright /asterisk /plus /comma
/hyphen /period /slash /zero /one
/two /three /four /five /six
/seven /eight /nine /colon /semicolon
/less /equal /greater /question /at
/A /B /C /D /E
/F /G /H /I /J
/K /L /M /N /O
/P /Q /R /S /T
/U /V /W /X /Y
/Z /bracketleft /backslash /bracketright /asciicircum
/underscore /quoteleft /a /b /c
/d /e /f /g /h
/i /j /k /l /m
/n /o /p /q /r
/s /t /u /v /w
/x /y /z /braceleft /bar
/braceright /asciitilde /bullet /Euro /bullet
/quotesinglbase /florin /quotedblbase /ellipsis /dagger
/daggerdbl /circumflex /perthousand /Scaron /guilsinglleft
/OE /bullet /Zcaron /bullet /bullet
/quoteleft /quoteright /quotedblleft /quotedblright /bullet
/endash /emdash /asciitilde /trademark /scaron
/guilsinglright /oe /bullet /zcaron /Ydieresis
/space /exclamdown /cent /sterling /currency
/yen /brokenbar /section /dieresis /copyright
/ordfeminine /guillemotleft /logicalnot /sfthyphen /registered
/macron /degree /plusminus /twosuperior /threesuperior
/acute /mu /paragraph /middot /cedilla
/onesuperior /ordmasculine /guillemotright /onequarter /onehalf
/threequarters /questiondown /Agrave /Aacute /Acircumflex
/Atilde /Adieresis /Aring /AE /Ccedilla
/Egrave /Eacute /Ecircumflex /Edieresis /Igrave
/Iacute /Icircumflex /Idieresis /Eth /Ntilde
/Ograve /Oacute /Ocircumflex /Otilde /Odieresis
/multiply /Oslash /Ugrave /Uacute /Ucircumflex
/Udieresis /Yacute /Thorn /germandbls /agrave
/aacute /acircumflex /atilde /adieresis /aring
/ae /ccedilla /egrave /eacute /ecircumflex
/edieresis /igrave /iacute /icircumflex /idieresis
/eth /ntilde /ograve /oacute /ocircumflex
/otilde /odieresis /divide /oslash /ugrave
/uacute /ucircumflex /udieresis /yacute /thorn
/ydieresis
] def
%%EndResource
%FOPBeginFontReencode
/Courier-Bold findfont
dup length dict begin
  {1 index /FID ne {def} {pop pop} ifelse} forall
  /Encoding WinAnsiEncoding def
  currentdict
end
/Courier-Bold exch definefont pop
/Helvetica findfont
dup length dict begin
  {1 index /FID ne {def} {pop pop} ifelse} forall
  /Encoding WinAnsiEncoding def
  currentdict
end
/Helvetica exch definefont pop
/Courier-BoldOblique findfont
dup length dict begin
  {1 index /FID ne {def} {pop pop} ifelse} forall
  /Encoding WinAnsiEncoding def
  currentdict
end
/Courier-BoldOblique exch definefont pop
/Courier-Oblique findfont
dup length dict begin
  {1 index /FID ne {def} {pop pop} ifelse} forall
  /Encoding WinAnsiEncoding def
  currentdict
end
/Courier-Oblique exch definefont pop
/Times-Roman findfont
dup length dict begin
  {1 index /FID ne {def} {pop pop} ifelse} forall
  /Encoding WinAnsiEncoding def
  currentdict
end
/Times-Roman exch definefont pop
/Helvetica-BoldOblique findfont
dup length dict begin
  {1 index /FID ne {def} {pop pop} ifelse} forall
  /Encoding WinAnsiEncoding def
  currentdict
end
/Helvetica-BoldOblique exch definefont pop
/Helvetica-Bold findfont
dup length dict begin
  {1 index /FID ne {def} {pop pop} ifelse} forall
  /Encoding WinAnsiEncoding def
  currentdict
end
/Helvetica-Bold exch definefont pop
/Helvetica-Oblique findfont
dup length dict begin
  {1 index /FID ne {def} {pop pop} ifelse} forall
  /Encoding WinAnsiEncoding def
  currentdict
end
/Helvetica-Oblique exch definefont pop
/Times-BoldItalic findfont
dup length dict begin
  {1 index /FID ne {def} {pop pop} ifelse} forall
  /Encoding WinAnsiEncoding def
  currentdict
end
/Times-BoldItalic exch definefont pop
/Courier findfont
dup length dict begin
  {1 index /FID ne {def} {pop pop} ifelse} forall
  /Encoding WinAnsiEncoding def
  currentdict
end
/Courier exch definefont pop
/Times-Italic findfont
dup length dict begin
  {1 index /FID ne {def} {pop pop} ifelse} forall
  /Encoding WinAnsiEncoding def
  currentdict
end
/Times-Italic exch definefont pop
/Times-Bold findfont
dup length dict begin
  {1 index /FID ne {def} {pop pop} ifelse} forall
  /Encoding WinAnsiEncoding def
  currentdict
end
/Times-Bold exch definefont pop
%FOPEndFontReencode
%%EndProlog
%%Page: 1 1
%%PageBoundingBox: 0 0 404 386
%%BeginPageSetup
[1 0 0 -1 0 386] CT
%%EndPageSetup
GS
[0.75 0 0 0.75 0 0.5] CT
1 GC
N
0 0 538 514 re
f
GR
GS
[0.75 0 0 0.75 0 0.5] CT
1 GC
N
0 0 538 514 re
f
GR
GS
[0.75 0 0 0.75 0 0.5] CT
1 GC
N
70 457 M
487 457 L
487 39 L
70 39 L
cp
f
GR
GS
[0.75 0 0 0.75 0 0.5] CT
0.149 GC
2 setlinecap
1 LJ
0.667 LW
N
70 457 M
487 457 L
S
GR
GS
[0.75 0 0 0.75 0 0.5] CT
0.149 GC
2 setlinecap
1 LJ
0.667 LW
N
70 39 M
487 39 L
S
GR
GS
[0.75 0 0 0.75 0 0.5] CT
0.149 GC
2 setlinecap
1 LJ
0.667 LW
N
70 457 M
70 452.82 L
S
GR
GS
[0.75 0 0 0.75 0 0.5] CT
0.149 GC
2 setlinecap
1 LJ
0.667 LW
N
174.25 457 M
174.25 452.82 L
S
GR
GS
[0.75 0 0 0.75 0 0.5] CT
0.149 GC
2 setlinecap
1 LJ
0.667 LW
N
278.5 457 M
278.5 452.82 L
S
GR
GS
[0.75 0 0 0.75 0 0.5] CT
0.149 GC
2 setlinecap
1 LJ
0.667 LW
N
382.75 457 M
382.75 452.82 L
S
GR
GS
[0.75 0 0 0.75 0 0.5] CT
0.149 GC
2 setlinecap
1 LJ
0.667 LW
N
487 457 M
487 452.82 L
S
GR
GS
[0.75 0 0 0.75 0 0.5] CT
0.149 GC
2 setlinecap
1 LJ
0.667 LW
N
70 39 M
70 43.18 L
S
GR
GS
[0.75 0 0 0.75 0 0.5] CT
0.149 GC
2 setlinecap
1 LJ
0.667 LW
N
174.25 39 M
174.25 43.18 L
S
GR
GS
[0.75 0 0 0.75 0 0.5] CT
0.149 GC
2 setlinecap
1 LJ
0.667 LW
N
278.5 39 M
278.5 43.18 L
S
GR
GS
[0.75 0 0 0.75 0 0.5] CT
0.149 GC
2 setlinecap
1 LJ
0.667 LW
N
382.75 39 M
382.75 43.18 L
S
GR
GS
[0.75 0 0 0.75 0 0.5] CT
0.149 GC
2 setlinecap
1 LJ
0.667 LW
N
487 39 M
487 43.18 L
S
GR
GS
[0.75 0 0 0.75 52.5 347.25001] CT
0.149 GC
/Helvetica 13.333 F
GS
[1 0 0 1 0 0] CT
-4 14 moveto 
1 -1 scale
(0) t 
GR
GR
GS
[0.75 0 0 0.75 130.6875 347.25001] CT
0.149 GC
/Helvetica 13.333 F
GS
[1 0 0 1 0 0] CT
-7.5 14 moveto 
1 -1 scale
(50) t 
GR
GR
GS
[0.75 0 0 0.75 208.875 347.25001] CT
0.149 GC
/Helvetica 13.333 F
GS
[1 0 0 1 0 0] CT
-11 14 moveto 
1 -1 scale
(100) t 
GR
GR
GS
[0.75 0 0 0.75 287.0625 347.25001] CT
0.149 GC
/Helvetica 13.333 F
GS
[1 0 0 1 0 0] CT
-11 14 moveto 
1 -1 scale
(150) t 
GR
GR
GS
[0.75 0 0 0.75 365.25 347.25001] CT
0.149 GC
/Helvetica 13.333 F
GS
[1 0 0 1 0 0] CT
-11 14 moveto 
1 -1 scale
(200) t 
GR
GR
GS
[0.75 0 0 0.75 208.87516 360.99999] CT
0.149 GC
/Helvetica 14.667 F
GS
[1 0 0 1 0 0] CT
-18.5 16 moveto 
1 -1 scale
(Index) t 
GR
GR
GS
[0.75 0 0 0.75 0 0.5] CT
0.149 GC
2 setlinecap
1 LJ
0.667 LW
N
70 457 M
70 39 L
S
GR
GS
[0.75 0 0 0.75 0 0.5] CT
0.149 GC
2 setlinecap
1 LJ
0.667 LW
N
487 457 M
487 39 L
S
GR
GS
[0.75 0 0 0.75 0 0.5] CT
0.149 GC
2 setlinecap
1 LJ
0.667 LW
N
70 457 M
74.18 457 L
S
GR
GS
[0.75 0 0 0.75 0 0.5] CT
0.149 GC
2 setlinecap
1 LJ
0.667 LW
N
70 373.4 M
74.18 373.4 L
S
GR
GS
[0.75 0 0 0.75 0 0.5] CT
0.149 GC
2 setlinecap
1 LJ
0.667 LW
N
70 289.8 M
74.18 289.8 L
S
GR
GS
[0.75 0 0 0.75 0 0.5] CT
0.149 GC
2 setlinecap
1 LJ
0.667 LW
N
70 206.2 M
74.18 206.2 L
S
GR
GS
[0.75 0 0 0.75 0 0.5] CT
0.149 GC
2 setlinecap
1 LJ
0.667 LW
N
70 122.6 M
74.18 122.6 L
S
GR
GS
[0.75 0 0 0.75 0 0.5] CT
0.149 GC
2 setlinecap
1 LJ
0.667 LW
N
70 39 M
74.18 39 L
S
GR
GS
[0.75 0 0 0.75 0 0.5] CT
0.149 GC
2 setlinecap
1 LJ
0.667 LW
N
487 457 M
482.82 457 L
S
GR
GS
[0.75 0 0 0.75 0 0.5] CT
0.149 GC
2 setlinecap
1 LJ
0.667 LW
N
487 373.4 M
482.82 373.4 L
S
GR
GS
[0.75 0 0 0.75 0 0.5] CT
0.149 GC
2 setlinecap
1 LJ
0.667 LW
N
487 289.8 M
482.82 289.8 L
S
GR
GS
[0.75 0 0 0.75 0 0.5] CT
0.149 GC
2 setlinecap
1 LJ
0.667 LW
N
487 206.2 M
482.82 206.2 L
S
GR
GS
[0.75 0 0 0.75 0 0.5] CT
0.149 GC
2 setlinecap
1 LJ
0.667 LW
N
487 122.6 M
482.82 122.6 L
S
GR
GS
[0.75 0 0 0.75 0 0.5] CT
0.149 GC
2 setlinecap
1 LJ
0.667 LW
N
487 39 M
482.82 39 L
S
GR
GS
[0.75 0 0 0.75 0 0.5] CT
0.149 GC
2 setlinecap
1 LJ
0.667 LW
N
70 457 M
72.09 457 L
S
GR
GS
[0.75 0 0 0.75 0 0.5] CT
0.149 GC
2 setlinecap
1 LJ
0.667 LW
N
70 440.28 M
72.09 440.28 L
S
GR
GS
[0.75 0 0 0.75 0 0.5] CT
0.149 GC
2 setlinecap
1 LJ
0.667 LW
N
70 423.56 M
72.09 423.56 L
S
GR
GS
[0.75 0 0 0.75 0 0.5] CT
0.149 GC
2 setlinecap
1 LJ
0.667 LW
N
70 406.84 M
72.09 406.84 L
S
GR
GS
[0.75 0 0 0.75 0 0.5] CT
0.149 GC
2 setlinecap
1 LJ
0.667 LW
N
70 390.12 M
72.09 390.12 L
S
GR
GS
[0.75 0 0 0.75 0 0.5] CT
0.149 GC
2 setlinecap
1 LJ
0.667 LW
N
70 373.4 M
72.09 373.4 L
S
GR
GS
[0.75 0 0 0.75 0 0.5] CT
0.149 GC
2 setlinecap
1 LJ
0.667 LW
N
70 356.68 M
72.09 356.68 L
S
GR
GS
[0.75 0 0 0.75 0 0.5] CT
0.149 GC
2 setlinecap
1 LJ
0.667 LW
N
70 339.96 M
72.09 339.96 L
S
GR
GS
[0.75 0 0 0.75 0 0.5] CT
0.149 GC
2 setlinecap
1 LJ
0.667 LW
N
70 323.24 M
72.09 323.24 L
S
GR
GS
[0.75 0 0 0.75 0 0.5] CT
0.149 GC
2 setlinecap
1 LJ
0.667 LW
N
70 306.52 M
72.09 306.52 L
S
GR
GS
[0.75 0 0 0.75 0 0.5] CT
0.149 GC
2 setlinecap
1 LJ
0.667 LW
N
70 289.8 M
72.09 289.8 L
S
GR
GS
[0.75 0 0 0.75 0 0.5] CT
0.149 GC
2 setlinecap
1 LJ
0.667 LW
N
70 273.08 M
72.09 273.08 L
S
GR
GS
[0.75 0 0 0.75 0 0.5] CT
0.149 GC
2 setlinecap
1 LJ
0.667 LW
N
70 256.36 M
72.09 256.36 L
S
GR
GS
[0.75 0 0 0.75 0 0.5] CT
0.149 GC
2 setlinecap
1 LJ
0.667 LW
N
70 239.64 M
72.09 239.64 L
S
GR
GS
[0.75 0 0 0.75 0 0.5] CT
0.149 GC
2 setlinecap
1 LJ
0.667 LW
N
70 222.92 M
72.09 222.92 L
S
GR
GS
[0.75 0 0 0.75 0 0.5] CT
0.149 GC
2 setlinecap
1 LJ
0.667 LW
N
70 206.2 M
72.09 206.2 L
S
GR
GS
[0.75 0 0 0.75 0 0.5] CT
0.149 GC
2 setlinecap
1 LJ
0.667 LW
N
70 189.48 M
72.09 189.48 L
S
GR
GS
[0.75 0 0 0.75 0 0.5] CT
0.149 GC
2 setlinecap
1 LJ
0.667 LW
N
70 172.76 M
72.09 172.76 L
S
GR
GS
[0.75 0 0 0.75 0 0.5] CT
0.149 GC
2 setlinecap
1 LJ
0.667 LW
N
70 156.04 M
72.09 156.04 L
S
GR
GS
[0.75 0 0 0.75 0 0.5] CT
0.149 GC
2 setlinecap
1 LJ
0.667 LW
N
70 139.32 M
72.09 139.32 L
S
GR
GS
[0.75 0 0 0.75 0 0.5] CT
0.149 GC
2 setlinecap
1 LJ
0.667 LW
N
70 122.6 M
72.09 122.6 L
S
GR
GS
[0.75 0 0 0.75 0 0.5] CT
0.149 GC
2 setlinecap
1 LJ
0.667 LW
N
70 105.88 M
72.09 105.88 L
S
GR
GS
[0.75 0 0 0.75 0 0.5] CT
0.149 GC
2 setlinecap
1 LJ
0.667 LW
N
70 89.16 M
72.09 89.16 L
S
GR
GS
[0.75 0 0 0.75 0 0.5] CT
0.149 GC
2 setlinecap
1 LJ
0.667 LW
N
70 72.44 M
72.09 72.44 L
S
GR
GS
[0.75 0 0 0.75 0 0.5] CT
0.149 GC
2 setlinecap
1 LJ
0.667 LW
N
70 55.72 M
72.09 55.72 L
S
GR
GS
[0.75 0 0 0.75 0 0.5] CT
0.149 GC
2 setlinecap
1 LJ
0.667 LW
N
70 39 M
72.09 39 L
S
GR
GS
[0.75 0 0 0.75 0 0.5] CT
0.149 GC
2 setlinecap
1 LJ
0.667 LW
N
487 457 M
484.91 457 L
S
GR
GS
[0.75 0 0 0.75 0 0.5] CT
0.149 GC
2 setlinecap
1 LJ
0.667 LW
N
487 440.28 M
484.91 440.28 L
S
GR
GS
[0.75 0 0 0.75 0 0.5] CT
0.149 GC
2 setlinecap
1 LJ
0.667 LW
N
487 423.56 M
484.91 423.56 L
S
GR
GS
[0.75 0 0 0.75 0 0.5] CT
0.149 GC
2 setlinecap
1 LJ
0.667 LW
N
487 406.84 M
484.91 406.84 L
S
GR
GS
[0.75 0 0 0.75 0 0.5] CT
0.149 GC
2 setlinecap
1 LJ
0.667 LW
N
487 390.12 M
484.91 390.12 L
S
GR
GS
[0.75 0 0 0.75 0 0.5] CT
0.149 GC
2 setlinecap
1 LJ
0.667 LW
N
487 373.4 M
484.91 373.4 L
S
GR
GS
[0.75 0 0 0.75 0 0.5] CT
0.149 GC
2 setlinecap
1 LJ
0.667 LW
N
487 356.68 M
484.91 356.68 L
S
GR
GS
[0.75 0 0 0.75 0 0.5] CT
0.149 GC
2 setlinecap
1 LJ
0.667 LW
N
487 339.96 M
484.91 339.96 L
S
GR
GS
[0.75 0 0 0.75 0 0.5] CT
0.149 GC
2 setlinecap
1 LJ
0.667 LW
N
487 323.24 M
484.91 323.24 L
S
GR
GS
[0.75 0 0 0.75 0 0.5] CT
0.149 GC
2 setlinecap
1 LJ
0.667 LW
N
487 306.52 M
484.91 306.52 L
S
GR
GS
[0.75 0 0 0.75 0 0.5] CT
0.149 GC
2 setlinecap
1 LJ
0.667 LW
N
487 289.8 M
484.91 289.8 L
S
GR
GS
[0.75 0 0 0.75 0 0.5] CT
0.149 GC
2 setlinecap
1 LJ
0.667 LW
N
487 273.08 M
484.91 273.08 L
S
GR
GS
[0.75 0 0 0.75 0 0.5] CT
0.149 GC
2 setlinecap
1 LJ
0.667 LW
N
487 256.36 M
484.91 256.36 L
S
GR
GS
[0.75 0 0 0.75 0 0.5] CT
0.149 GC
2 setlinecap
1 LJ
0.667 LW
N
487 239.64 M
484.91 239.64 L
S
GR
GS
[0.75 0 0 0.75 0 0.5] CT
0.149 GC
2 setlinecap
1 LJ
0.667 LW
N
487 222.92 M
484.91 222.92 L
S
GR
GS
[0.75 0 0 0.75 0 0.5] CT
0.149 GC
2 setlinecap
1 LJ
0.667 LW
N
487 206.2 M
484.91 206.2 L
S
GR
GS
[0.75 0 0 0.75 0 0.5] CT
0.149 GC
2 setlinecap
1 LJ
0.667 LW
N
487 189.48 M
484.91 189.48 L
S
GR
GS
[0.75 0 0 0.75 0 0.5] CT
0.149 GC
2 setlinecap
1 LJ
0.667 LW
N
487 172.76 M
484.91 172.76 L
S
GR
GS
[0.75 0 0 0.75 0 0.5] CT
0.149 GC
2 setlinecap
1 LJ
0.667 LW
N
487 156.04 M
484.91 156.04 L
S
GR
GS
[0.75 0 0 0.75 0 0.5] CT
0.149 GC
2 setlinecap
1 LJ
0.667 LW
N
487 139.32 M
484.91 139.32 L
S
GR
GS
[0.75 0 0 0.75 0 0.5] CT
0.149 GC
2 setlinecap
1 LJ
0.667 LW
N
487 122.6 M
484.91 122.6 L
S
GR
GS
[0.75 0 0 0.75 0 0.5] CT
0.149 GC
2 setlinecap
1 LJ
0.667 LW
N
487 105.88 M
484.91 105.88 L
S
GR
GS
[0.75 0 0 0.75 0 0.5] CT
0.149 GC
2 setlinecap
1 LJ
0.667 LW
N
487 89.16 M
484.91 89.16 L
S
GR
GS
[0.75 0 0 0.75 0 0.5] CT
0.149 GC
2 setlinecap
1 LJ
0.667 LW
N
487 72.44 M
484.91 72.44 L
S
GR
GS
[0.75 0 0 0.75 0 0.5] CT
0.149 GC
2 setlinecap
1 LJ
0.667 LW
N
487 55.72 M
484.91 55.72 L
S
GR
GS
[0.75 0 0 0.75 0 0.5] CT
0.149 GC
2 setlinecap
1 LJ
0.667 LW
N
487 39 M
484.91 39 L
S
GR
GS
[0.75 0 0 0.75 25.5 349.25] CT
0.149 GC
/Helvetica 13.333 F
GS
[1 0 0 1 0 0] CT
0 0 moveto 
1 -1 scale
(10) t 
GR
GR
GS
[0.75 0 0 0.75 36.75 344.75] CT
0.149 GC
/Helvetica 10.667 F
GS
[1 0 0 1 0 0] CT
0 0 moveto 
1 -1 scale
(-20) t 
GR
GR
GS
[0.75 0 0 0.75 25.5 286.25] CT
0.149 GC
/Helvetica 13.333 F
GS
[1 0 0 1 0 0] CT
0 0 moveto 
1 -1 scale
(10) t 
GR
GR
GS
[0.75 0 0 0.75 36.75 281.75] CT
0.149 GC
/Helvetica 10.667 F
GS
[1 0 0 1 0 0] CT
0 0 moveto 
1 -1 scale
(-15) t 
GR
GR
GS
[0.75 0 0 0.75 25.5 224] CT
0.149 GC
/Helvetica 13.333 F
GS
[1 0 0 1 0 0] CT
0 0 moveto 
1 -1 scale
(10) t 
GR
GR
GS
[0.75 0 0 0.75 36.75 219.5] CT
0.149 GC
/Helvetica 10.667 F
GS
[1 0 0 1 0 0] CT
0 0 moveto 
1 -1 scale
(-10) t 
GR
GR
GS
[0.75 0 0 0.75 30 161] CT
0.149 GC
/Helvetica 13.333 F
GS
[1 0 0 1 0 0] CT
0 0 moveto 
1 -1 scale
(10) t 
GR
GR
GS
[0.75 0 0 0.75 41.25 156.5] CT
0.149 GC
/Helvetica 10.667 F
GS
[1 0 0 1 0 0] CT
0 0 moveto 
1 -1 scale
(-5) t 
GR
GR
GS
[0.75 0 0 0.75 32.25 98.75] CT
0.149 GC
/Helvetica 13.333 F
GS
[1 0 0 1 0 0] CT
0 0 moveto 
1 -1 scale
(10) t 
GR
GR
GS
[0.75 0 0 0.75 43.5 94.25] CT
0.149 GC
/Helvetica 10.667 F
GS
[1 0 0 1 0 0] CT
0 0 moveto 
1 -1 scale
(0) t 
GR
GR
GS
[0.75 0 0 0.75 32.25 35.75] CT
0.149 GC
/Helvetica 13.333 F
GS
[1 0 0 1 0 0] CT
0 0 moveto 
1 -1 scale
(10) t 
GR
GR
GS
[0.75 0 0 0.75 43.5 31.25] CT
0.149 GC
/Helvetica 10.667 F
GS
[1 0 0 1 0 0] CT
0 0 moveto 
1 -1 scale
(5) t 
GR
GR
GS
[0 -0.75 0.75 0 22.25 186.49985] CT
0.149 GC
/Helvetica 14.667 F
GS
[1 0 0 1 0 0] CT
-66 -4 moveto 
1 -1 scale
(Approximation error) t 
GR
GR
GS
[0.75 0 0 0.75 208.87521 27.68751] CT
/Helvetica-Bold 14.667 F
GS
[1 0 0 1 0 0] CT
-188.5 -4 moveto 
1 -1 scale
(Upper and lower bounds errors and numerical errors) t 
GR
GR
GS
[0.75 0 0 0.75 0 0.5] CT
0 0.447 0.741 RC
1 LJ
0.667 LW
N
72.085 124.025 M
74.17 124.6 L
76.255 125.286 L
78.34 125.557 L
80.425 126.088 L
82.51 126.96 L
84.595 126.987 L
86.68 127.234 L
88.765 127.958 L
90.85 128.013 L
92.935 132.336 L
95.02 132.602 L
97.105 135.436 L
99.19 136.581 L
101.275 137.463 L
103.36 138.735 L
105.445 138.827 L
107.53 139.117 L
109.615 142.521 L
111.7 143.328 L
113.785 145.711 L
115.87 146.47 L
117.955 147.347 L
120.04 147.354 L
122.125 148.072 L
124.21 148.547 L
126.295 152.292 L
128.38 153.616 L
130.465 153.628 L
132.55 154.131 L
134.635 154.448 L
136.72 156.705 L
138.805 157.348 L
140.89 160.117 L
142.975 160.885 L
145.06 160.899 L
147.145 161.464 L
149.23 162.642 L
151.315 165.951 L
153.4 168.292 L
155.485 168.613 L
157.57 168.776 L
159.655 170.995 L
161.74 170.995 L
163.825 173.664 L
165.91 173.672 L
167.995 176.164 L
170.08 176.267 L
172.165 176.884 L
174.25 176.928 L
176.335 179.363 L
178.42 180.69 L
180.505 183.793 L
182.59 185.08 L
184.675 185.865 L
186.76 187.302 L
188.845 188.137 L
190.93 188.302 L
193.015 190.551 L
195.1 192.581 L
197.185 194.476 L
199.27 195.446 L
201.355 195.462 L
203.44 196.271 L
205.525 197.418 L
207.61 197.576 L
209.695 200.014 L
211.78 200.585 L
213.865 204.697 L
215.95 205.169 L
218.035 205.204 L
220.12 206.03 L
222.205 206.907 L
224.29 207.981 L
226.375 208.41 L
228.46 208.41 L
230.545 210.208 L
232.63 214.047 L
234.715 215.269 L
236.8 215.904 L
238.885 216.695 L
240.97 218.358 L
243.055 218.548 L
245.14 219.15 L
247.225 219.432 L
249.31 220.146 L
251.395 220.234 L
253.48 225.974 L
255.565 226.1 L
257.65 227.444 L
259.735 228.983 L
261.82 231.681 L
263.905 231.788 L
265.99 233.444 L
268.075 233.448 L
270.16 234.967 L
272.245 237.565 L
274.33 237.599 L
276.415 240.647 L
278.5 241.888 L
280.585 241.925 L
282.67 241.964 L
284.755 244.677 L
286.84 246.481 L
288.925 246.585 L
291.01 247.632 L
293.095 248.149 L
295.18 248.325 L
297.265 255.265 L
299.35 255.474 L
301.435 256.092 L
303.52 256.564 L
305.605 259.35 L
307.69 259.481 L
309.775 261.769 L
311.86 263.522 L
313.945 264.279 L
316.03 265.421 L
318.115 266.483 L
320.2 266.846 L
322.285 268.268 L
324.37 268.914 L
326.455 270.294 L
328.54 272.762 L
330.625 273.618 L
332.71 273.663 L
334.795 275.082 L
336.88 277.348 L
338.965 278.991 L
341.05 279.058 L
343.135 279.069 L
345.22 281.016 L
347.305 282.915 L
349.39 285.669 L
351.475 285.948 L
353.56 286.606 L
355.645 289.278 L
357.73 290.348 L
359.815 291.14 L
361.9 293.781 L
363.985 294.786 L
366.07 297.205 L
368.155 297.491 L
370.24 297.493 L
372.325 298.689 L
374.41 299.402 L
376.495 301.115 L
378.58 301.221 L
380.665 303.403 L
382.75 306.447 L
384.835 308.291 L
386.92 310.683 L
389.005 310.821 L
391.09 310.834 L
393.175 310.859 L
395.26 312.688 L
397.345 314.347 L
399.43 314.875 L
401.515 320.707 L
403.6 321.547 L
405.685 321.569 L
407.77 324.211 L
409.855 324.411 L
411.94 325.111 L
414.025 325.382 L
416.11 327.941 L
418.195 329.027 L
420.28 329.475 L
422.365 330.977 L
424.45 332.029 L
426.535 332.692 L
428.62 333.561 L
430.705 333.686 L
432.79 338.907 L
434.875 338.914 L
436.96 339.737 L
439.045 341.827 L
441.13 341.833 L
443.215 346.623 L
445.3 347.422 L
447.385 347.438 L
449.47 348.345 L
451.555 348.385 L
453.64 348.809 L
455.725 349.941 L
457.81 352.717 L
459.895 352.719 L
461.98 356.643 L
464.065 357.638 L
466.15 358.074 L
468.235 358.764 L
470.32 359.364 L
472.405 362.286 L
474.49 363.404 L
476.575 363.762 L
478.66 364.367 L
480.745 368.036 L
482.83 368.034 L
484.915 368.403 L
487 374.154 L
S
GR
GS
[0.75 0 0 0.75 0 0.5] CT
0.851 0.325 0.098 RC
1 LJ
0.667 LW
N
72.085 123.924 M
74.17 125.248 L
76.255 126.572 L
78.34 127.896 L
80.425 129.22 L
82.51 130.543 L
84.595 131.867 L
86.68 133.191 L
88.765 134.515 L
90.85 135.839 L
92.935 137.163 L
95.02 138.487 L
97.105 139.811 L
99.19 141.135 L
101.275 142.459 L
103.36 143.783 L
105.445 145.106 L
107.53 146.43 L
109.615 147.754 L
111.7 149.078 L
113.785 150.402 L
115.87 151.726 L
117.955 153.05 L
120.04 154.374 L
122.125 155.698 L
124.21 157.022 L
126.295 158.346 L
128.38 159.669 L
130.465 160.993 L
132.55 162.317 L
134.635 163.641 L
136.72 164.965 L
138.805 166.289 L
140.89 167.613 L
142.975 168.937 L
145.06 170.261 L
147.145 171.585 L
149.23 172.909 L
151.315 174.233 L
153.4 175.556 L
155.485 176.88 L
157.57 178.204 L
159.655 179.528 L
161.74 180.852 L
163.825 182.176 L
165.91 183.5 L
167.995 184.824 L
170.08 186.148 L
172.165 187.472 L
174.25 188.796 L
176.335 190.119 L
178.42 191.443 L
180.505 192.767 L
182.59 194.091 L
184.675 195.415 L
186.76 196.739 L
188.845 198.063 L
190.93 199.387 L
193.015 200.711 L
195.1 202.035 L
197.185 203.359 L
199.27 204.682 L
201.355 206.006 L
203.44 207.33 L
205.525 208.654 L
207.61 209.978 L
209.695 211.302 L
211.78 212.626 L
213.865 213.95 L
215.95 215.274 L
218.035 216.598 L
220.12 217.922 L
222.205 219.245 L
224.29 220.569 L
226.375 221.893 L
228.46 223.217 L
230.545 224.541 L
232.63 225.865 L
234.715 227.189 L
236.8 228.513 L
238.885 229.837 L
240.97 231.161 L
243.055 232.485 L
245.14 233.808 L
247.225 235.132 L
249.31 236.456 L
251.395 237.78 L
253.48 239.104 L
255.565 240.428 L
257.65 241.752 L
259.735 243.076 L
261.82 244.4 L
263.905 245.724 L
265.99 247.048 L
268.075 248.371 L
270.16 249.695 L
272.245 251.019 L
274.33 252.343 L
276.415 253.667 L
278.5 254.991 L
280.585 256.315 L
282.67 257.639 L
284.755 258.963 L
286.84 260.287 L
288.925 261.611 L
291.01 262.935 L
293.095 264.258 L
295.18 265.582 L
297.265 266.906 L
299.35 268.23 L
301.435 269.554 L
303.52 270.878 L
305.605 272.202 L
307.69 273.526 L
309.775 274.85 L
311.86 276.174 L
313.945 277.498 L
316.03 278.821 L
318.115 280.145 L
320.2 281.469 L
322.285 282.793 L
324.37 284.117 L
326.455 285.441 L
328.54 286.765 L
330.625 288.089 L
332.71 289.413 L
334.795 290.737 L
336.88 292.061 L
338.965 293.384 L
341.05 294.708 L
343.135 296.032 L
345.22 297.356 L
347.305 298.68 L
349.39 300.004 L
351.475 301.328 L
353.56 302.652 L
355.645 303.976 L
357.73 305.3 L
359.815 306.624 L
361.9 307.947 L
363.985 309.271 L
366.07 310.595 L
368.155 311.919 L
370.24 313.243 L
372.325 314.567 L
374.41 315.891 L
376.495 317.215 L
378.58 318.539 L
380.665 319.863 L
382.75 321.187 L
384.835 322.51 L
386.92 323.834 L
389.005 325.158 L
391.09 326.482 L
393.175 327.806 L
395.26 329.13 L
397.345 330.454 L
399.43 331.778 L
401.515 333.102 L
403.6 334.426 L
405.685 335.75 L
407.77 337.073 L
409.855 338.397 L
411.94 339.721 L
414.025 341.045 L
416.11 342.369 L
418.195 343.693 L
420.28 345.017 L
422.365 346.341 L
424.45 347.665 L
426.535 348.989 L
428.62 350.313 L
430.705 351.637 L
432.79 352.96 L
434.875 354.284 L
436.96 355.608 L
439.045 356.932 L
441.13 358.256 L
443.215 359.58 L
445.3 360.904 L
447.385 362.228 L
449.47 363.552 L
451.555 364.876 L
453.64 366.2 L
455.725 367.523 L
457.81 368.847 L
459.895 370.171 L
461.98 371.495 L
464.065 372.819 L
466.15 374.143 L
468.235 375.467 L
470.32 376.791 L
472.405 378.115 L
474.49 379.439 L
476.575 380.763 L
478.66 382.086 L
480.745 383.41 L
482.83 384.734 L
484.915 386.058 L
487 387.382 L
S
GR
GS
[0.75 0 0 0.75 0 0.5] CT
0.929 0.694 0.125 RC
1 LJ
0.667 LW
N
72.085 89.999 M
74.17 88.823 L
76.255 88.683 L
78.34 88.966 L
80.425 89.483 L
82.51 90.147 L
84.595 90.913 L
86.68 91.754 L
88.765 92.651 L
90.85 93.593 L
92.935 94.572 L
95.02 95.581 L
97.105 96.615 L
99.19 97.67 L
101.275 98.744 L
103.36 99.834 L
105.445 100.938 L
107.53 102.055 L
109.615 103.183 L
111.7 104.321 L
113.785 105.468 L
115.87 106.624 L
117.955 107.786 L
120.04 108.956 L
122.125 110.132 L
124.21 111.314 L
126.295 112.501 L
128.38 113.693 L
130.465 114.89 L
132.55 116.091 L
134.635 117.296 L
136.72 118.504 L
138.805 119.717 L
140.89 120.932 L
142.975 122.151 L
145.06 123.373 L
147.145 124.598 L
149.23 125.825 L
151.315 127.054 L
153.4 128.287 L
155.485 129.521 L
157.57 130.757 L
159.655 131.996 L
161.74 133.237 L
163.825 134.479 L
165.91 135.723 L
167.995 136.969 L
170.08 138.217 L
172.165 139.466 L
174.25 140.716 L
176.335 141.969 L
178.42 143.222 L
180.505 144.477 L
182.59 145.733 L
184.675 146.99 L
186.76 148.249 L
188.845 149.509 L
190.93 150.769 L
193.015 152.031 L
195.1 153.294 L
197.185 154.558 L
199.27 155.823 L
201.355 157.089 L
203.44 158.356 L
205.525 159.624 L
207.61 160.892 L
209.695 162.161 L
211.78 163.432 L
213.865 164.703 L
215.95 165.974 L
218.035 167.247 L
220.12 168.52 L
222.205 169.794 L
224.29 171.068 L
226.375 172.344 L
228.46 173.619 L
230.545 174.896 L
232.63 176.173 L
234.715 177.451 L
236.8 178.729 L
238.885 180.008 L
240.97 181.287 L
243.055 182.567 L
245.14 183.848 L
247.225 185.129 L
249.31 186.41 L
251.395 187.692 L
253.48 188.975 L
255.565 190.257 L
257.65 191.541 L
259.735 192.825 L
261.82 194.109 L
263.905 195.394 L
265.99 196.679 L
268.075 197.964 L
270.16 199.25 L
272.245 200.536 L
274.33 201.823 L
276.415 203.11 L
278.5 204.398 L
280.585 205.686 L
282.67 206.974 L
284.755 208.262 L
286.84 209.551 L
288.925 210.84 L
291.01 212.13 L
293.095 213.42 L
295.18 214.71 L
297.265 216 L
299.35 217.291 L
301.435 218.582 L
303.52 219.873 L
305.605 221.165 L
307.69 222.457 L
309.775 223.749 L
311.86 225.042 L
313.945 226.335 L
316.03 227.628 L
318.115 228.921 L
320.2 230.214 L
322.285 231.508 L
324.37 232.802 L
326.455 234.097 L
328.54 235.391 L
330.625 236.686 L
332.71 237.981 L
334.795 239.276 L
336.88 240.572 L
338.965 241.867 L
341.05 243.163 L
343.135 244.459 L
345.22 245.756 L
347.305 247.052 L
349.39 248.349 L
351.475 249.646 L
353.56 250.943 L
355.645 252.24 L
357.73 253.538 L
359.815 254.835 L
361.9 256.133 L
363.985 257.431 L
366.07 258.73 L
368.155 260.028 L
370.24 261.327 L
372.325 262.626 L
374.41 263.925 L
376.495 265.224 L
378.58 266.523 L
380.665 267.823 L
382.75 269.122 L
384.835 270.422 L
386.92 271.722 L
389.005 273.022 L
391.09 274.322 L
393.175 275.623 L
395.26 276.923 L
397.345 278.224 L
399.43 279.525 L
401.515 280.826 L
403.6 282.127 L
405.685 283.428 L
407.77 284.73 L
409.855 286.031 L
411.94 287.333 L
414.025 288.635 L
416.11 289.937 L
418.195 291.239 L
420.28 292.541 L
422.365 293.844 L
424.45 295.146 L
426.535 296.449 L
428.62 297.752 L
430.705 299.054 L
432.79 300.357 L
434.875 301.661 L
436.96 302.964 L
439.045 304.267 L
441.13 305.571 L
443.215 306.874 L
445.3 308.178 L
447.385 309.482 L
449.47 310.786 L
451.555 312.09 L
453.64 313.394 L
455.725 314.698 L
457.81 316.002 L
459.895 317.307 L
461.98 318.611 L
464.065 319.916 L
466.15 321.221 L
468.235 322.526 L
470.32 323.831 L
472.405 325.136 L
474.49 326.441 L
476.575 327.746 L
478.66 329.051 L
480.745 330.357 L
482.83 331.662 L
484.915 332.968 L
S
GR
GS
[0.75 0 0 0.75 0 0.5] CT
1 GC
N
352 105 M
352 52 L
474 52 L
474 105 L
cp
f
GR
GS
[0.75 0 0 0.75 291.75 47] CT
/Helvetica 12 F
GS
[1 0 0 1 0 0] CT
0 5 moveto 
1 -1 scale
(numerical error) t 
GR
GR
GS
[0.75 0 0 0.75 0 0.5] CT
0 0.447 0.741 RC
1 LJ
0.667 LW
N
356 62 M
386 62 L
S
GR
GS
[0.75 0 0 0.75 291.75 59.375] CT
/Helvetica 12 F
GS
[1 0 0 1 0 0] CT
0 5 moveto 
1 -1 scale
(singular value) t 
GR
GR
GS
[0.75 0 0 0.75 0 0.5] CT
0.851 0.325 0.098 RC
1 LJ
0.667 LW
N
356 78.5 M
386 78.5 L
S
GR
GS
[0.75 0 0 0.75 291.75 71.75] CT
/Helvetica 12 F
GS
[1 0 0 1 0 0] CT
0 5 moveto 
1 -1 scale
(upper bound) t 
GR
GR
GS
[0.75 0 0 0.75 0 0.5] CT
0.929 0.694 0.125 RC
1 LJ
0.667 LW
N
356 95 M
386 95 L
S
GR
GS
[0.75 0 0 0.75 0 0.5] CT
0.149 GC
10.0 ML
0.667 LW
N
352 105 M
352 52 L
474 52 L
474 105 L
cp
S
GR
%%Trailer
%%Pages: 1
%%EOF
