%!PS-Adobe-3.0 EPSF-3.0
%%Creator: (MATLAB, The Mathworks, Inc. Version 9.1.0.441655 \(R2016b\). Operating System: Windows 8)
%%Title: C:/Users/simon/Documents/Unief/M1/Numerical_linear_algebra/Homework_2/git/Verslag/slow_decay_30_eig.eps
%%CreationDate: 2016-12-01T14:10:02
%%Pages: (atend)
%%BoundingBox: 0 0 420 315
%%LanguageLevel: 3
%%EndComments
%%BeginProlog
%%BeginResource: procset (Apache XML Graphics Std ProcSet) 1.2 0
%%Version: 1.2 0
%%Copyright: (Copyright 2001-2003,2010 The Apache Software Foundation. License terms: http://www.apache.org/licenses/LICENSE-2.0)
/bd{bind def}bind def
/ld{load def}bd
/GR/grestore ld
/M/moveto ld
/LJ/setlinejoin ld
/C/curveto ld
/f/fill ld
/LW/setlinewidth ld
/GC/setgray ld
/t/show ld
/N/newpath ld
/CT/concat ld
/cp/closepath ld
/S/stroke ld
/L/lineto ld
/CC/setcmykcolor ld
/A/ashow ld
/GS/gsave ld
/RC/setrgbcolor ld
/RM/rmoveto ld
/ML/setmiterlimit ld
/re {4 2 roll M
1 index 0 rlineto
0 exch rlineto
neg 0 rlineto
cp } bd
/_ctm matrix def
/_tm matrix def
/BT { _ctm currentmatrix pop matrix _tm copy pop 0 0 moveto } bd
/ET { _ctm setmatrix } bd
/iTm { _ctm setmatrix _tm concat } bd
/Tm { _tm astore pop iTm 0 0 moveto } bd
/ux 0.0 def
/uy 0.0 def
/F {
  /Tp exch def
  /Tf exch def
  Tf findfont Tp scalefont setfont
  /cf Tf def  /cs Tp def
} bd
/ULS {currentpoint /uy exch def /ux exch def} bd
/ULE {
  /Tcx currentpoint pop def
  gsave
  newpath
  cf findfont cs scalefont dup
  /FontMatrix get 0 get /Ts exch def /FontInfo get dup
  /UnderlinePosition get Ts mul /To exch def
  /UnderlineThickness get Ts mul /Tt exch def
  ux uy To add moveto  Tcx uy To add lineto
  Tt setlinewidth stroke
  grestore
} bd
/OLE {
  /Tcx currentpoint pop def
  gsave
  newpath
  cf findfont cs scalefont dup
  /FontMatrix get 0 get /Ts exch def /FontInfo get dup
  /UnderlinePosition get Ts mul /To exch def
  /UnderlineThickness get Ts mul /Tt exch def
  ux uy To add cs add moveto Tcx uy To add cs add lineto
  Tt setlinewidth stroke
  grestore
} bd
/SOE {
  /Tcx currentpoint pop def
  gsave
  newpath
  cf findfont cs scalefont dup
  /FontMatrix get 0 get /Ts exch def /FontInfo get dup
  /UnderlinePosition get Ts mul /To exch def
  /UnderlineThickness get Ts mul /Tt exch def
  ux uy To add cs 10 mul 26 idiv add moveto Tcx uy To add cs 10 mul 26 idiv add lineto
  Tt setlinewidth stroke
  grestore
} bd
/QT {
/Y22 exch store
/X22 exch store
/Y21 exch store
/X21 exch store
currentpoint
/Y21 load 2 mul add 3 div exch
/X21 load 2 mul add 3 div exch
/X21 load 2 mul /X22 load add 3 div
/Y21 load 2 mul /Y22 load add 3 div
/X22 load /Y22 load curveto
} bd
/SSPD {
dup length /d exch dict def
{
/v exch def
/k exch def
currentpagedevice k known {
/cpdv currentpagedevice k get def
v cpdv ne {
/upd false def
/nullv v type /nulltype eq def
/nullcpdv cpdv type /nulltype eq def
nullv nullcpdv or
{
/upd true def
} {
/sametype v type cpdv type eq def
sametype {
v type /arraytype eq {
/vlen v length def
/cpdvlen cpdv length def
vlen cpdvlen eq {
0 1 vlen 1 sub {
/i exch def
/obj v i get def
/cpdobj cpdv i get def
obj cpdobj ne {
/upd true def
exit
} if
} for
} {
/upd true def
} ifelse
} {
v type /dicttype eq {
v {
/dv exch def
/dk exch def
/cpddv cpdv dk get def
dv cpddv ne {
/upd true def
exit
} if
} forall
} {
/upd true def
} ifelse
} ifelse
} if
} ifelse
upd true eq {
d k v put
} if
} if
} if
} forall
d length 0 gt {
d setpagedevice
} if
} bd
/RE { % /NewFontName [NewEncodingArray] /FontName RE -
  findfont dup length dict begin
  {
    1 index /FID ne
    {def} {pop pop} ifelse
  } forall
  /Encoding exch def
  /FontName 1 index def
  currentdict definefont pop
  end
} bind def
%%EndResource
%%BeginResource: procset (Apache XML Graphics EPS ProcSet) 1.0 0
%%Version: 1.0 0
%%Copyright: (Copyright 2002-2003 The Apache Software Foundation. License terms: http://www.apache.org/licenses/LICENSE-2.0)
/BeginEPSF { %def
/b4_Inc_state save def         % Save state for cleanup
/dict_count countdictstack def % Count objects on dict stack
/op_count count 1 sub def      % Count objects on operand stack
userdict begin                 % Push userdict on dict stack
/showpage { } def              % Redefine showpage, { } = null proc
0 setgray 0 setlinecap         % Prepare graphics state
1 setlinewidth 0 setlinejoin
10 setmiterlimit [ ] 0 setdash newpath
/languagelevel where           % If level not equal to 1 then
{pop languagelevel             % set strokeadjust and
1 ne                           % overprint to their defaults.
{false setstrokeadjust false setoverprint
} if
} if
} bd
/EndEPSF { %def
count op_count sub {pop} repeat            % Clean up stacks
countdictstack dict_count sub {end} repeat
b4_Inc_state restore
} bd
%%EndResource
%FOPBeginFontDict
%%IncludeResource: font Courier-Bold
%%IncludeResource: font Helvetica
%%IncludeResource: font Courier-BoldOblique
%%IncludeResource: font Courier-Oblique
%%IncludeResource: font Times-Roman
%%IncludeResource: font Helvetica-BoldOblique
%%IncludeResource: font Helvetica-Bold
%%IncludeResource: font Helvetica-Oblique
%%IncludeResource: font Times-BoldItalic
%%IncludeResource: font Courier
%%IncludeResource: font Times-Italic
%%IncludeResource: font Times-Bold
%%IncludeResource: font Symbol
%%IncludeResource: font ZapfDingbats
%FOPEndFontDict
%%BeginResource: encoding WinAnsiEncoding
/WinAnsiEncoding [
/.notdef /.notdef /.notdef /.notdef /.notdef
/.notdef /.notdef /.notdef /.notdef /.notdef
/.notdef /.notdef /.notdef /.notdef /.notdef
/.notdef /.notdef /.notdef /.notdef /.notdef
/.notdef /.notdef /.notdef /.notdef /.notdef
/.notdef /.notdef /.notdef /.notdef /.notdef
/.notdef /.notdef /space /exclam /quotedbl
/numbersign /dollar /percent /ampersand /quotesingle
/parenleft /parenright /asterisk /plus /comma
/hyphen /period /slash /zero /one
/two /three /four /five /six
/seven /eight /nine /colon /semicolon
/less /equal /greater /question /at
/A /B /C /D /E
/F /G /H /I /J
/K /L /M /N /O
/P /Q /R /S /T
/U /V /W /X /Y
/Z /bracketleft /backslash /bracketright /asciicircum
/underscore /quoteleft /a /b /c
/d /e /f /g /h
/i /j /k /l /m
/n /o /p /q /r
/s /t /u /v /w
/x /y /z /braceleft /bar
/braceright /asciitilde /bullet /Euro /bullet
/quotesinglbase /florin /quotedblbase /ellipsis /dagger
/daggerdbl /circumflex /perthousand /Scaron /guilsinglleft
/OE /bullet /Zcaron /bullet /bullet
/quoteleft /quoteright /quotedblleft /quotedblright /bullet
/endash /emdash /asciitilde /trademark /scaron
/guilsinglright /oe /bullet /zcaron /Ydieresis
/space /exclamdown /cent /sterling /currency
/yen /brokenbar /section /dieresis /copyright
/ordfeminine /guillemotleft /logicalnot /sfthyphen /registered
/macron /degree /plusminus /twosuperior /threesuperior
/acute /mu /paragraph /middot /cedilla
/onesuperior /ordmasculine /guillemotright /onequarter /onehalf
/threequarters /questiondown /Agrave /Aacute /Acircumflex
/Atilde /Adieresis /Aring /AE /Ccedilla
/Egrave /Eacute /Ecircumflex /Edieresis /Igrave
/Iacute /Icircumflex /Idieresis /Eth /Ntilde
/Ograve /Oacute /Ocircumflex /Otilde /Odieresis
/multiply /Oslash /Ugrave /Uacute /Ucircumflex
/Udieresis /Yacute /Thorn /germandbls /agrave
/aacute /acircumflex /atilde /adieresis /aring
/ae /ccedilla /egrave /eacute /ecircumflex
/edieresis /igrave /iacute /icircumflex /idieresis
/eth /ntilde /ograve /oacute /ocircumflex
/otilde /odieresis /divide /oslash /ugrave
/uacute /ucircumflex /udieresis /yacute /thorn
/ydieresis
] def
%%EndResource
%FOPBeginFontReencode
/Courier-Bold findfont
dup length dict begin
  {1 index /FID ne {def} {pop pop} ifelse} forall
  /Encoding WinAnsiEncoding def
  currentdict
end
/Courier-Bold exch definefont pop
/Helvetica findfont
dup length dict begin
  {1 index /FID ne {def} {pop pop} ifelse} forall
  /Encoding WinAnsiEncoding def
  currentdict
end
/Helvetica exch definefont pop
/Courier-BoldOblique findfont
dup length dict begin
  {1 index /FID ne {def} {pop pop} ifelse} forall
  /Encoding WinAnsiEncoding def
  currentdict
end
/Courier-BoldOblique exch definefont pop
/Courier-Oblique findfont
dup length dict begin
  {1 index /FID ne {def} {pop pop} ifelse} forall
  /Encoding WinAnsiEncoding def
  currentdict
end
/Courier-Oblique exch definefont pop
/Times-Roman findfont
dup length dict begin
  {1 index /FID ne {def} {pop pop} ifelse} forall
  /Encoding WinAnsiEncoding def
  currentdict
end
/Times-Roman exch definefont pop
/Helvetica-BoldOblique findfont
dup length dict begin
  {1 index /FID ne {def} {pop pop} ifelse} forall
  /Encoding WinAnsiEncoding def
  currentdict
end
/Helvetica-BoldOblique exch definefont pop
/Helvetica-Bold findfont
dup length dict begin
  {1 index /FID ne {def} {pop pop} ifelse} forall
  /Encoding WinAnsiEncoding def
  currentdict
end
/Helvetica-Bold exch definefont pop
/Helvetica-Oblique findfont
dup length dict begin
  {1 index /FID ne {def} {pop pop} ifelse} forall
  /Encoding WinAnsiEncoding def
  currentdict
end
/Helvetica-Oblique exch definefont pop
/Times-BoldItalic findfont
dup length dict begin
  {1 index /FID ne {def} {pop pop} ifelse} forall
  /Encoding WinAnsiEncoding def
  currentdict
end
/Times-BoldItalic exch definefont pop
/Courier findfont
dup length dict begin
  {1 index /FID ne {def} {pop pop} ifelse} forall
  /Encoding WinAnsiEncoding def
  currentdict
end
/Courier exch definefont pop
/Times-Italic findfont
dup length dict begin
  {1 index /FID ne {def} {pop pop} ifelse} forall
  /Encoding WinAnsiEncoding def
  currentdict
end
/Times-Italic exch definefont pop
/Times-Bold findfont
dup length dict begin
  {1 index /FID ne {def} {pop pop} ifelse} forall
  /Encoding WinAnsiEncoding def
  currentdict
end
/Times-Bold exch definefont pop
%FOPEndFontReencode
%%EndProlog
%%Page: 1 1
%%PageBoundingBox: 0 0 420 315
%%BeginPageSetup
[1 0 0 -1 0 315] CT
%%EndPageSetup
GS
[0.6 0 0 0.6 0 0] CT
1 GC
N
0 0 700 525 re
f
GR
GS
[0.6 0 0 0.6 0 0] CT
1 GC
N
0 0 700 525 re
f
GR
GS
[0.6 0 0 0.6 0 0] CT
1 GC
N
91 467 M
634 467 L
634 39 L
91 39 L
cp
f
GR
GS
[0.6 0 0 0.6 0 0] CT
0.149 GC
2 setlinecap
1 LJ
0.833 LW
N
91 467 M
634 467 L
S
GR
GS
[0.6 0 0 0.6 0 0] CT
0.149 GC
2 setlinecap
1 LJ
0.833 LW
N
91 39 M
634 39 L
S
GR
GS
[0.6 0 0 0.6 0 0] CT
0.149 GC
2 setlinecap
1 LJ
0.833 LW
N
91 467 M
91 461.57 L
S
GR
GS
[0.6 0 0 0.6 0 0] CT
0.149 GC
2 setlinecap
1 LJ
0.833 LW
N
145.3 467 M
145.3 461.57 L
S
GR
GS
[0.6 0 0 0.6 0 0] CT
0.149 GC
2 setlinecap
1 LJ
0.833 LW
N
199.6 467 M
199.6 461.57 L
S
GR
GS
[0.6 0 0 0.6 0 0] CT
0.149 GC
2 setlinecap
1 LJ
0.833 LW
N
253.9 467 M
253.9 461.57 L
S
GR
GS
[0.6 0 0 0.6 0 0] CT
0.149 GC
2 setlinecap
1 LJ
0.833 LW
N
308.2 467 M
308.2 461.57 L
S
GR
GS
[0.6 0 0 0.6 0 0] CT
0.149 GC
2 setlinecap
1 LJ
0.833 LW
N
362.5 467 M
362.5 461.57 L
S
GR
GS
[0.6 0 0 0.6 0 0] CT
0.149 GC
2 setlinecap
1 LJ
0.833 LW
N
416.8 467 M
416.8 461.57 L
S
GR
GS
[0.6 0 0 0.6 0 0] CT
0.149 GC
2 setlinecap
1 LJ
0.833 LW
N
471.1 467 M
471.1 461.57 L
S
GR
GS
[0.6 0 0 0.6 0 0] CT
0.149 GC
2 setlinecap
1 LJ
0.833 LW
N
525.4 467 M
525.4 461.57 L
S
GR
GS
[0.6 0 0 0.6 0 0] CT
0.149 GC
2 setlinecap
1 LJ
0.833 LW
N
579.7 467 M
579.7 461.57 L
S
GR
GS
[0.6 0 0 0.6 0 0] CT
0.149 GC
2 setlinecap
1 LJ
0.833 LW
N
634 467 M
634 461.57 L
S
GR
GS
[0.6 0 0 0.6 0 0] CT
0.149 GC
2 setlinecap
1 LJ
0.833 LW
N
91 39 M
91 44.43 L
S
GR
GS
[0.6 0 0 0.6 0 0] CT
0.149 GC
2 setlinecap
1 LJ
0.833 LW
N
145.3 39 M
145.3 44.43 L
S
GR
GS
[0.6 0 0 0.6 0 0] CT
0.149 GC
2 setlinecap
1 LJ
0.833 LW
N
199.6 39 M
199.6 44.43 L
S
GR
GS
[0.6 0 0 0.6 0 0] CT
0.149 GC
2 setlinecap
1 LJ
0.833 LW
N
253.9 39 M
253.9 44.43 L
S
GR
GS
[0.6 0 0 0.6 0 0] CT
0.149 GC
2 setlinecap
1 LJ
0.833 LW
N
308.2 39 M
308.2 44.43 L
S
GR
GS
[0.6 0 0 0.6 0 0] CT
0.149 GC
2 setlinecap
1 LJ
0.833 LW
N
362.5 39 M
362.5 44.43 L
S
GR
GS
[0.6 0 0 0.6 0 0] CT
0.149 GC
2 setlinecap
1 LJ
0.833 LW
N
416.8 39 M
416.8 44.43 L
S
GR
GS
[0.6 0 0 0.6 0 0] CT
0.149 GC
2 setlinecap
1 LJ
0.833 LW
N
471.1 39 M
471.1 44.43 L
S
GR
GS
[0.6 0 0 0.6 0 0] CT
0.149 GC
2 setlinecap
1 LJ
0.833 LW
N
525.4 39 M
525.4 44.43 L
S
GR
GS
[0.6 0 0 0.6 0 0] CT
0.149 GC
2 setlinecap
1 LJ
0.833 LW
N
579.7 39 M
579.7 44.43 L
S
GR
GS
[0.6 0 0 0.6 0 0] CT
0.149 GC
2 setlinecap
1 LJ
0.833 LW
N
634 39 M
634 44.43 L
S
GR
GS
[0.6 0 0 0.6 54.6 284.19999] CT
0.149 GC
/Helvetica 16.667 F
GS
[1 0 0 1 0 0] CT
-5 18 moveto 
1 -1 scale
(0) t 
GR
GR
GS
[0.6 0 0 0.6 87.18 284.19999] CT
0.149 GC
/Helvetica 16.667 F
GS
[1 0 0 1 0 0] CT
-9.5 18 moveto 
1 -1 scale
(10) t 
GR
GR
GS
[0.6 0 0 0.6 119.76 284.19999] CT
0.149 GC
/Helvetica 16.667 F
GS
[1 0 0 1 0 0] CT
-9.5 18 moveto 
1 -1 scale
(20) t 
GR
GR
GS
[0.6 0 0 0.6 152.34 284.19999] CT
0.149 GC
/Helvetica 16.667 F
GS
[1 0 0 1 0 0] CT
-9.5 18 moveto 
1 -1 scale
(30) t 
GR
GR
GS
[0.6 0 0 0.6 184.92001 284.19999] CT
0.149 GC
/Helvetica 16.667 F
GS
[1 0 0 1 0 0] CT
-9.5 18 moveto 
1 -1 scale
(40) t 
GR
GR
GS
[0.6 0 0 0.6 217.5 284.19999] CT
0.149 GC
/Helvetica 16.667 F
GS
[1 0 0 1 0 0] CT
-9.5 18 moveto 
1 -1 scale
(50) t 
GR
GR
GS
[0.6 0 0 0.6 250.07999 284.19999] CT
0.149 GC
/Helvetica 16.667 F
GS
[1 0 0 1 0 0] CT
-9.5 18 moveto 
1 -1 scale
(60) t 
GR
GR
GS
[0.6 0 0 0.6 282.66 284.19999] CT
0.149 GC
/Helvetica 16.667 F
GS
[1 0 0 1 0 0] CT
-9.5 18 moveto 
1 -1 scale
(70) t 
GR
GR
GS
[0.6 0 0 0.6 315.24001 284.19999] CT
0.149 GC
/Helvetica 16.667 F
GS
[1 0 0 1 0 0] CT
-9.5 18 moveto 
1 -1 scale
(80) t 
GR
GR
GS
[0.6 0 0 0.6 347.82001 284.19999] CT
0.149 GC
/Helvetica 16.667 F
GS
[1 0 0 1 0 0] CT
-9.5 18 moveto 
1 -1 scale
(90) t 
GR
GR
GS
[0.6 0 0 0.6 380.4 284.19999] CT
0.149 GC
/Helvetica 16.667 F
GS
[1 0 0 1 0 0] CT
-14.5 18 moveto 
1 -1 scale
(100) t 
GR
GR
GS
[0.6 0 0 0.6 217.50016 298.40001] CT
0.149 GC
/Helvetica 18.333 F
GS
[1 0 0 1 0 0] CT
-2 19 moveto 
1 -1 scale
(l) t 
GR
GR
GS
[0.6 0 0 0.6 0 0] CT
0.149 GC
2 setlinecap
1 LJ
0.833 LW
N
91 467 M
91 39 L
S
GR
GS
[0.6 0 0 0.6 0 0] CT
0.149 GC
2 setlinecap
1 LJ
0.833 LW
N
634 467 M
634 39 L
S
GR
GS
[0.6 0 0 0.6 0 0] CT
0.149 GC
2 setlinecap
1 LJ
0.833 LW
N
91 467 M
96.43 467 L
S
GR
GS
[0.6 0 0 0.6 0 0] CT
0.149 GC
2 setlinecap
1 LJ
0.833 LW
N
91 424.2 M
96.43 424.2 L
S
GR
GS
[0.6 0 0 0.6 0 0] CT
0.149 GC
2 setlinecap
1 LJ
0.833 LW
N
91 381.4 M
96.43 381.4 L
S
GR
GS
[0.6 0 0 0.6 0 0] CT
0.149 GC
2 setlinecap
1 LJ
0.833 LW
N
91 338.6 M
96.43 338.6 L
S
GR
GS
[0.6 0 0 0.6 0 0] CT
0.149 GC
2 setlinecap
1 LJ
0.833 LW
N
91 295.8 M
96.43 295.8 L
S
GR
GS
[0.6 0 0 0.6 0 0] CT
0.149 GC
2 setlinecap
1 LJ
0.833 LW
N
91 253 M
96.43 253 L
S
GR
GS
[0.6 0 0 0.6 0 0] CT
0.149 GC
2 setlinecap
1 LJ
0.833 LW
N
91 210.2 M
96.43 210.2 L
S
GR
GS
[0.6 0 0 0.6 0 0] CT
0.149 GC
2 setlinecap
1 LJ
0.833 LW
N
91 167.4 M
96.43 167.4 L
S
GR
GS
[0.6 0 0 0.6 0 0] CT
0.149 GC
2 setlinecap
1 LJ
0.833 LW
N
91 124.6 M
96.43 124.6 L
S
GR
GS
[0.6 0 0 0.6 0 0] CT
0.149 GC
2 setlinecap
1 LJ
0.833 LW
N
91 81.8 M
96.43 81.8 L
S
GR
GS
[0.6 0 0 0.6 0 0] CT
0.149 GC
2 setlinecap
1 LJ
0.833 LW
N
91 39 M
96.43 39 L
S
GR
GS
[0.6 0 0 0.6 0 0] CT
0.149 GC
2 setlinecap
1 LJ
0.833 LW
N
634 467 M
628.57 467 L
S
GR
GS
[0.6 0 0 0.6 0 0] CT
0.149 GC
2 setlinecap
1 LJ
0.833 LW
N
634 424.2 M
628.57 424.2 L
S
GR
GS
[0.6 0 0 0.6 0 0] CT
0.149 GC
2 setlinecap
1 LJ
0.833 LW
N
634 381.4 M
628.57 381.4 L
S
GR
GS
[0.6 0 0 0.6 0 0] CT
0.149 GC
2 setlinecap
1 LJ
0.833 LW
N
634 338.6 M
628.57 338.6 L
S
GR
GS
[0.6 0 0 0.6 0 0] CT
0.149 GC
2 setlinecap
1 LJ
0.833 LW
N
634 295.8 M
628.57 295.8 L
S
GR
GS
[0.6 0 0 0.6 0 0] CT
0.149 GC
2 setlinecap
1 LJ
0.833 LW
N
634 253 M
628.57 253 L
S
GR
GS
[0.6 0 0 0.6 0 0] CT
0.149 GC
2 setlinecap
1 LJ
0.833 LW
N
634 210.2 M
628.57 210.2 L
S
GR
GS
[0.6 0 0 0.6 0 0] CT
0.149 GC
2 setlinecap
1 LJ
0.833 LW
N
634 167.4 M
628.57 167.4 L
S
GR
GS
[0.6 0 0 0.6 0 0] CT
0.149 GC
2 setlinecap
1 LJ
0.833 LW
N
634 124.6 M
628.57 124.6 L
S
GR
GS
[0.6 0 0 0.6 0 0] CT
0.149 GC
2 setlinecap
1 LJ
0.833 LW
N
634 81.8 M
628.57 81.8 L
S
GR
GS
[0.6 0 0 0.6 0 0] CT
0.149 GC
2 setlinecap
1 LJ
0.833 LW
N
634 39 M
628.57 39 L
S
GR
GS
[0.6 0 0 0.6 50.6 280.2] CT
0.149 GC
/Helvetica 16.667 F
GS
[1 0 0 1 0 0] CT
-24 7 moveto 
1 -1 scale
(0.1) t 
GR
GR
GS
[0.6 0 0 0.6 50.6 254.52001] CT
0.149 GC
/Helvetica 16.667 F
GS
[1 0 0 1 0 0] CT
-24 7 moveto 
1 -1 scale
(0.2) t 
GR
GR
GS
[0.6 0 0 0.6 50.6 228.84] CT
0.149 GC
/Helvetica 16.667 F
GS
[1 0 0 1 0 0] CT
-24 7 moveto 
1 -1 scale
(0.3) t 
GR
GR
GS
[0.6 0 0 0.6 50.6 203.16] CT
0.149 GC
/Helvetica 16.667 F
GS
[1 0 0 1 0 0] CT
-24 7 moveto 
1 -1 scale
(0.4) t 
GR
GR
GS
[0.6 0 0 0.6 50.6 177.47999] CT
0.149 GC
/Helvetica 16.667 F
GS
[1 0 0 1 0 0] CT
-24 7 moveto 
1 -1 scale
(0.5) t 
GR
GR
GS
[0.6 0 0 0.6 50.6 151.79999] CT
0.149 GC
/Helvetica 16.667 F
GS
[1 0 0 1 0 0] CT
-24 7 moveto 
1 -1 scale
(0.6) t 
GR
GR
GS
[0.6 0 0 0.6 50.6 126.12001] CT
0.149 GC
/Helvetica 16.667 F
GS
[1 0 0 1 0 0] CT
-24 7 moveto 
1 -1 scale
(0.7) t 
GR
GR
GS
[0.6 0 0 0.6 50.6 100.44] CT
0.149 GC
/Helvetica 16.667 F
GS
[1 0 0 1 0 0] CT
-24 7 moveto 
1 -1 scale
(0.8) t 
GR
GR
GS
[0.6 0 0 0.6 50.6 74.76001] CT
0.149 GC
/Helvetica 16.667 F
GS
[1 0 0 1 0 0] CT
-24 7 moveto 
1 -1 scale
(0.9) t 
GR
GR
GS
[0.6 0 0 0.6 50.6 49.08] CT
0.149 GC
/Helvetica 16.667 F
GS
[1 0 0 1 0 0] CT
-10 7 moveto 
1 -1 scale
(1) t 
GR
GR
GS
[0.6 0 0 0.6 50.6 23.39999] CT
0.149 GC
/Helvetica 16.667 F
GS
[1 0 0 1 0 0] CT
-24 7 moveto 
1 -1 scale
(1.1) t 
GR
GR
GS
[0 -0.6 0.6 0 33.2 151.79987] CT
0.149 GC
/Helvetica 18.333 F
GS
[1 0 0 1 0 0] CT
-42.5 -4 moveto 
1 -1 scale
(magnitude) t 
GR
GR
GS
[0.6 0 0 0.6 217.50022 21.74999] CT
/Helvetica-Bold 18.333 F
GS
[1 0 0 1 0 0] CT
-132.5 -4 moveto 
1 -1 scale
(Estimated Eigenvalues lambda) t 
GR
GR
GS
[0.6 0 0 0.6 0 0] CT
0 0.447 0.741 RC
1 LJ
0.833 LW
N
96.43 81.8 M
101.86 81.8 L
107.29 81.8 L
112.72 81.8 L
118.15 81.8 L
123.58 81.8 L
129.01 81.8 L
134.44 81.8 L
139.87 81.8 L
145.3 81.8 L
150.73 81.8 L
156.16 81.8 L
161.59 81.8 L
167.02 81.8 L
172.45 81.8 L
177.88 81.8 L
183.31 81.8 L
188.74 81.836 L
194.17 81.846 L
199.6 81.905 L
205.03 82.039 L
210.46 82.08 L
215.89 82.234 L
221.32 82.376 L
226.75 82.513 L
232.18 82.912 L
237.61 83.49 L
243.04 83.731 L
248.47 84.378 L
253.9 85.192 L
259.33 85.787 L
264.76 86.237 L
270.19 87.469 L
275.62 87.564 L
281.05 87.803 L
286.48 87.996 L
291.91 89.502 L
297.34 90.734 L
302.77 92.046 L
308.2 92.896 L
313.63 94.521 L
319.06 94.644 L
324.49 95.452 L
329.92 95.96 L
335.35 98.302 L
340.78 98.621 L
346.21 99.404 L
351.64 101.607 L
357.07 102.996 L
362.5 104.98 L
367.93 106.091 L
373.36 106.886 L
378.79 109.054 L
384.22 109.806 L
389.65 111.439 L
395.08 111.75 L
400.51 111.789 L
405.94 113.264 L
411.37 113.602 L
416.8 114.779 L
422.23 115.955 L
427.66 119.114 L
433.09 120.515 L
438.52 126.154 L
443.95 126.357 L
449.38 126.689 L
454.81 131.407 L
460.24 132.47 L
465.67 135.973 L
471.1 137.372 L
476.53 141.629 L
481.96 142.71 L
487.39 146.002 L
492.82 146.116 L
498.25 146.434 L
503.68 148.12 L
509.11 148.16 L
514.54 156.618 L
519.97 157.628 L
525.4 159.428 L
530.83 161.805 L
536.26 163.356 L
541.69 164.701 L
547.12 167.048 L
552.55 169.017 L
557.98 169.43 L
563.41 170.33 L
568.84 171.808 L
574.27 176.972 L
579.7 184.648 L
585.13 186.693 L
590.56 187.53 L
595.99 188.651 L
601.42 188.748 L
606.85 197.927 L
612.28 202.178 L
617.71 202.723 L
623.14 203.1 L
628.57 204.072 L
634 204.078 L
S
GR
GS
[0.6 0 0 0.6 57.858 49.08] CT
0 0.447 0.741 RC
10.0 ML
0.833 LW
N
-3.536 -3.536 M
3.536 3.536 L
-3.536 3.536 M
3.536 -3.536 L
S
GR
GS
[0.6 0 0 0.6 61.116 49.08] CT
0 0.447 0.741 RC
10.0 ML
0.833 LW
N
-3.536 -3.536 M
3.536 3.536 L
-3.536 3.536 M
3.536 -3.536 L
S
GR
GS
[0.6 0 0 0.6 64.374 49.08] CT
0 0.447 0.741 RC
10.0 ML
0.833 LW
N
-3.536 -3.536 M
3.536 3.536 L
-3.536 3.536 M
3.536 -3.536 L
S
GR
GS
[0.6 0 0 0.6 67.632 49.08] CT
0 0.447 0.741 RC
10.0 ML
0.833 LW
N
-3.536 -3.536 M
3.536 3.536 L
-3.536 3.536 M
3.536 -3.536 L
S
GR
GS
[0.6 0 0 0.6 70.89 49.08] CT
0 0.447 0.741 RC
10.0 ML
0.833 LW
N
-3.536 -3.536 M
3.536 3.536 L
-3.536 3.536 M
3.536 -3.536 L
S
GR
GS
[0.6 0 0 0.6 74.148 49.08] CT
0 0.447 0.741 RC
10.0 ML
0.833 LW
N
-3.536 -3.536 M
3.536 3.536 L
-3.536 3.536 M
3.536 -3.536 L
S
GR
GS
[0.6 0 0 0.6 77.406 49.08] CT
0 0.447 0.741 RC
10.0 ML
0.833 LW
N
-3.536 -3.536 M
3.536 3.536 L
-3.536 3.536 M
3.536 -3.536 L
S
GR
GS
[0.6 0 0 0.6 80.664 49.08] CT
0 0.447 0.741 RC
10.0 ML
0.833 LW
N
-3.536 -3.536 M
3.536 3.536 L
-3.536 3.536 M
3.536 -3.536 L
S
GR
GS
[0.6 0 0 0.6 83.922 49.08] CT
0 0.447 0.741 RC
10.0 ML
0.833 LW
N
-3.536 -3.536 M
3.536 3.536 L
-3.536 3.536 M
3.536 -3.536 L
S
GR
GS
[0.6 0 0 0.6 87.18 49.08] CT
0 0.447 0.741 RC
10.0 ML
0.833 LW
N
-3.536 -3.536 M
3.536 3.536 L
-3.536 3.536 M
3.536 -3.536 L
S
GR
GS
[0.6 0 0 0.6 90.438 49.08] CT
0 0.447 0.741 RC
10.0 ML
0.833 LW
N
-3.536 -3.536 M
3.536 3.536 L
-3.536 3.536 M
3.536 -3.536 L
S
GR
GS
[0.6 0 0 0.6 93.696 49.08] CT
0 0.447 0.741 RC
10.0 ML
0.833 LW
N
-3.536 -3.536 M
3.536 3.536 L
-3.536 3.536 M
3.536 -3.536 L
S
GR
GS
[0.6 0 0 0.6 96.954 49.08] CT
0 0.447 0.741 RC
10.0 ML
0.833 LW
N
-3.536 -3.536 M
3.536 3.536 L
-3.536 3.536 M
3.536 -3.536 L
S
GR
GS
[0.6 0 0 0.6 100.212 49.08] CT
0 0.447 0.741 RC
10.0 ML
0.833 LW
N
-3.536 -3.536 M
3.536 3.536 L
-3.536 3.536 M
3.536 -3.536 L
S
GR
GS
[0.6 0 0 0.6 103.47 49.08] CT
0 0.447 0.741 RC
10.0 ML
0.833 LW
N
-3.536 -3.536 M
3.536 3.536 L
-3.536 3.536 M
3.536 -3.536 L
S
GR
GS
[0.6 0 0 0.6 106.728 49.08] CT
0 0.447 0.741 RC
10.0 ML
0.833 LW
N
-3.536 -3.536 M
3.536 3.536 L
-3.536 3.536 M
3.536 -3.536 L
S
GR
GS
[0.6 0 0 0.6 109.986 49.08] CT
0 0.447 0.741 RC
10.0 ML
0.833 LW
N
-3.536 -3.536 M
3.536 3.536 L
-3.536 3.536 M
3.536 -3.536 L
S
GR
GS
[0.6 0 0 0.6 113.244 49.1014] CT
0 0.447 0.741 RC
10.0 ML
0.833 LW
N
-3.536 -3.536 M
3.536 3.536 L
-3.536 3.536 M
3.536 -3.536 L
S
GR
GS
[0.6 0 0 0.6 116.502 49.10789] CT
0 0.447 0.741 RC
10.0 ML
0.833 LW
N
-3.536 -3.536 M
3.536 3.536 L
-3.536 3.536 M
3.536 -3.536 L
S
GR
GS
[0.6 0 0 0.6 119.76 49.1432] CT
0 0.447 0.741 RC
10.0 ML
0.833 LW
N
-3.536 -3.536 M
3.536 3.536 L
-3.536 3.536 M
3.536 -3.536 L
S
GR
GS
[0.6 0 0 0.6 123.018 49.22354] CT
0 0.447 0.741 RC
10.0 ML
0.833 LW
N
-3.536 -3.536 M
3.536 3.536 L
-3.536 3.536 M
3.536 -3.536 L
S
GR
GS
[0.6 0 0 0.6 126.276 49.24802] CT
0 0.447 0.741 RC
10.0 ML
0.833 LW
N
-3.536 -3.536 M
3.536 3.536 L
-3.536 3.536 M
3.536 -3.536 L
S
GR
GS
[0.6 0 0 0.6 129.534 49.34068] CT
0 0.447 0.741 RC
10.0 ML
0.833 LW
N
-3.536 -3.536 M
3.536 3.536 L
-3.536 3.536 M
3.536 -3.536 L
S
GR
GS
[0.6 0 0 0.6 132.792 49.42568] CT
0 0.447 0.741 RC
10.0 ML
0.833 LW
N
-3.536 -3.536 M
3.536 3.536 L
-3.536 3.536 M
3.536 -3.536 L
S
GR
GS
[0.6 0 0 0.6 136.05 49.50809] CT
0 0.447 0.741 RC
10.0 ML
0.833 LW
N
-3.536 -3.536 M
3.536 3.536 L
-3.536 3.536 M
3.536 -3.536 L
S
GR
GS
[0.6 0 0 0.6 139.308 49.74735] CT
0 0.447 0.741 RC
10.0 ML
0.833 LW
N
-3.536 -3.536 M
3.536 3.536 L
-3.536 3.536 M
3.536 -3.536 L
S
GR
GS
[0.6 0 0 0.6 142.566 50.09407] CT
0 0.447 0.741 RC
10.0 ML
0.833 LW
N
-3.536 -3.536 M
3.536 3.536 L
-3.536 3.536 M
3.536 -3.536 L
S
GR
GS
[0.6 0 0 0.6 145.824 50.23862] CT
0 0.447 0.741 RC
10.0 ML
0.833 LW
N
-3.536 -3.536 M
3.536 3.536 L
-3.536 3.536 M
3.536 -3.536 L
S
GR
GS
[0.6 0 0 0.6 149.082 50.62687] CT
0 0.447 0.741 RC
10.0 ML
0.833 LW
N
-3.536 -3.536 M
3.536 3.536 L
-3.536 3.536 M
3.536 -3.536 L
S
GR
GS
[0.6 0 0 0.6 152.34 51.11539] CT
0 0.447 0.741 RC
10.0 ML
0.833 LW
N
-3.536 -3.536 M
3.536 3.536 L
-3.536 3.536 M
3.536 -3.536 L
S
GR
GS
[0.6 0 0 0.6 155.59799 51.47248] CT
0 0.447 0.741 RC
10.0 ML
0.833 LW
N
-3.536 -3.536 M
3.536 3.536 L
-3.536 3.536 M
3.536 -3.536 L
S
GR
GS
[0.6 0 0 0.6 158.85601 51.7423] CT
0 0.447 0.741 RC
10.0 ML
0.833 LW
N
-3.536 -3.536 M
3.536 3.536 L
-3.536 3.536 M
3.536 -3.536 L
S
GR
GS
[0.6 0 0 0.6 162.114 52.48127] CT
0 0.447 0.741 RC
10.0 ML
0.833 LW
N
-3.536 -3.536 M
3.536 3.536 L
-3.536 3.536 M
3.536 -3.536 L
S
GR
GS
[0.6 0 0 0.6 165.372 52.53847] CT
0 0.447 0.741 RC
10.0 ML
0.833 LW
N
-3.536 -3.536 M
3.536 3.536 L
-3.536 3.536 M
3.536 -3.536 L
S
GR
GS
[0.6 0 0 0.6 168.62999 52.68201] CT
0 0.447 0.741 RC
10.0 ML
0.833 LW
N
-3.536 -3.536 M
3.536 3.536 L
-3.536 3.536 M
3.536 -3.536 L
S
GR
GS
[0.6 0 0 0.6 171.88801 52.79736] CT
0 0.447 0.741 RC
10.0 ML
0.833 LW
N
-3.536 -3.536 M
3.536 3.536 L
-3.536 3.536 M
3.536 -3.536 L
S
GR
GS
[0.6 0 0 0.6 175.146 53.70101] CT
0 0.447 0.741 RC
10.0 ML
0.833 LW
N
-3.536 -3.536 M
3.536 3.536 L
-3.536 3.536 M
3.536 -3.536 L
S
GR
GS
[0.6 0 0 0.6 178.404 54.44025] CT
0 0.447 0.741 RC
10.0 ML
0.833 LW
N
-3.536 -3.536 M
3.536 3.536 L
-3.536 3.536 M
3.536 -3.536 L
S
GR
GS
[0.6 0 0 0.6 181.66199 55.2278] CT
0 0.447 0.741 RC
10.0 ML
0.833 LW
N
-3.536 -3.536 M
3.536 3.536 L
-3.536 3.536 M
3.536 -3.536 L
S
GR
GS
[0.6 0 0 0.6 184.92001 55.7376] CT
0 0.447 0.741 RC
10.0 ML
0.833 LW
N
-3.536 -3.536 M
3.536 3.536 L
-3.536 3.536 M
3.536 -3.536 L
S
GR
GS
[0.6 0 0 0.6 188.178 56.71234] CT
0 0.447 0.741 RC
10.0 ML
0.833 LW
N
-3.536 -3.536 M
3.536 3.536 L
-3.536 3.536 M
3.536 -3.536 L
S
GR
GS
[0.6 0 0 0.6 191.436 56.78664] CT
0 0.447 0.741 RC
10.0 ML
0.833 LW
N
-3.536 -3.536 M
3.536 3.536 L
-3.536 3.536 M
3.536 -3.536 L
S
GR
GS
[0.6 0 0 0.6 194.69399 57.2713] CT
0 0.447 0.741 RC
10.0 ML
0.833 LW
N
-3.536 -3.536 M
3.536 3.536 L
-3.536 3.536 M
3.536 -3.536 L
S
GR
GS
[0.6 0 0 0.6 197.95201 57.57586] CT
0 0.447 0.741 RC
10.0 ML
0.833 LW
N
-3.536 -3.536 M
3.536 3.536 L
-3.536 3.536 M
3.536 -3.536 L
S
GR
GS
[0.6 0 0 0.6 201.21 58.98133] CT
0 0.447 0.741 RC
10.0 ML
0.833 LW
N
-3.536 -3.536 M
3.536 3.536 L
-3.536 3.536 M
3.536 -3.536 L
S
GR
GS
[0.6 0 0 0.6 204.468 59.17258] CT
0 0.447 0.741 RC
10.0 ML
0.833 LW
N
-3.536 -3.536 M
3.536 3.536 L
-3.536 3.536 M
3.536 -3.536 L
S
GR
GS
[0.6 0 0 0.6 207.72599 59.64225] CT
0 0.447 0.741 RC
10.0 ML
0.833 LW
N
-3.536 -3.536 M
3.536 3.536 L
-3.536 3.536 M
3.536 -3.536 L
S
GR
GS
[0.6 0 0 0.6 210.98401 60.96399] CT
0 0.447 0.741 RC
10.0 ML
0.833 LW
N
-3.536 -3.536 M
3.536 3.536 L
-3.536 3.536 M
3.536 -3.536 L
S
GR
GS
[0.6 0 0 0.6 214.242 61.79734] CT
0 0.447 0.741 RC
10.0 ML
0.833 LW
N
-3.536 -3.536 M
3.536 3.536 L
-3.536 3.536 M
3.536 -3.536 L
S
GR
GS
[0.6 0 0 0.6 217.5 62.98801] CT
0 0.447 0.741 RC
10.0 ML
0.833 LW
N
-3.536 -3.536 M
3.536 3.536 L
-3.536 3.536 M
3.536 -3.536 L
S
GR
GS
[0.6 0 0 0.6 220.758 63.65441] CT
0 0.447 0.741 RC
10.0 ML
0.833 LW
N
-3.536 -3.536 M
3.536 3.536 L
-3.536 3.536 M
3.536 -3.536 L
S
GR
GS
[0.6 0 0 0.6 224.01599 64.13159] CT
0 0.447 0.741 RC
10.0 ML
0.833 LW
N
-3.536 -3.536 M
3.536 3.536 L
-3.536 3.536 M
3.536 -3.536 L
S
GR
GS
[0.6 0 0 0.6 227.27401 65.43258] CT
0 0.447 0.741 RC
10.0 ML
0.833 LW
N
-3.536 -3.536 M
3.536 3.536 L
-3.536 3.536 M
3.536 -3.536 L
S
GR
GS
[0.6 0 0 0.6 230.532 65.88355] CT
0 0.447 0.741 RC
10.0 ML
0.833 LW
N
-3.536 -3.536 M
3.536 3.536 L
-3.536 3.536 M
3.536 -3.536 L
S
GR
GS
[0.6 0 0 0.6 233.79 66.86331] CT
0 0.447 0.741 RC
10.0 ML
0.833 LW
N
-3.536 -3.536 M
3.536 3.536 L
-3.536 3.536 M
3.536 -3.536 L
S
GR
GS
[0.6 0 0 0.6 237.04799 67.04989] CT
0 0.447 0.741 RC
10.0 ML
0.833 LW
N
-3.536 -3.536 M
3.536 3.536 L
-3.536 3.536 M
3.536 -3.536 L
S
GR
GS
[0.6 0 0 0.6 240.30601 67.07357] CT
0 0.447 0.741 RC
10.0 ML
0.833 LW
N
-3.536 -3.536 M
3.536 3.536 L
-3.536 3.536 M
3.536 -3.536 L
S
GR
GS
[0.6 0 0 0.6 243.564 67.95864] CT
0 0.447 0.741 RC
10.0 ML
0.833 LW
N
-3.536 -3.536 M
3.536 3.536 L
-3.536 3.536 M
3.536 -3.536 L
S
GR
GS
[0.6 0 0 0.6 246.822 68.16145] CT
0 0.447 0.741 RC
10.0 ML
0.833 LW
N
-3.536 -3.536 M
3.536 3.536 L
-3.536 3.536 M
3.536 -3.536 L
S
GR
GS
[0.6 0 0 0.6 250.07999 68.86721] CT
0 0.447 0.741 RC
10.0 ML
0.833 LW
N
-3.536 -3.536 M
3.536 3.536 L
-3.536 3.536 M
3.536 -3.536 L
S
GR
GS
[0.6 0 0 0.6 253.33801 69.57304] CT
0 0.447 0.741 RC
10.0 ML
0.833 LW
N
-3.536 -3.536 M
3.536 3.536 L
-3.536 3.536 M
3.536 -3.536 L
S
GR
GS
[0.6 0 0 0.6 256.596 71.46824] CT
0 0.447 0.741 RC
10.0 ML
0.833 LW
N
-3.536 -3.536 M
3.536 3.536 L
-3.536 3.536 M
3.536 -3.536 L
S
GR
GS
[0.6 0 0 0.6 259.854 72.30913] CT
0 0.447 0.741 RC
10.0 ML
0.833 LW
N
-3.536 -3.536 M
3.536 3.536 L
-3.536 3.536 M
3.536 -3.536 L
S
GR
GS
[0.6 0 0 0.6 263.11199 75.69256] CT
0 0.447 0.741 RC
10.0 ML
0.833 LW
N
-3.536 -3.536 M
3.536 3.536 L
-3.536 3.536 M
3.536 -3.536 L
S
GR
GS
[0.6 0 0 0.6 266.37001 75.81442] CT
0 0.447 0.741 RC
10.0 ML
0.833 LW
N
-3.536 -3.536 M
3.536 3.536 L
-3.536 3.536 M
3.536 -3.536 L
S
GR
GS
[0.6 0 0 0.6 269.628 76.01338] CT
0 0.447 0.741 RC
10.0 ML
0.833 LW
N
-3.536 -3.536 M
3.536 3.536 L
-3.536 3.536 M
3.536 -3.536 L
S
GR
GS
[0.6 0 0 0.6 272.886 78.8441] CT
0 0.447 0.741 RC
10.0 ML
0.833 LW
N
-3.536 -3.536 M
3.536 3.536 L
-3.536 3.536 M
3.536 -3.536 L
S
GR
GS
[0.6 0 0 0.6 276.14399 79.4821] CT
0 0.447 0.741 RC
10.0 ML
0.833 LW
N
-3.536 -3.536 M
3.536 3.536 L
-3.536 3.536 M
3.536 -3.536 L
S
GR
GS
[0.6 0 0 0.6 279.40201 81.58371] CT
0 0.447 0.741 RC
10.0 ML
0.833 LW
N
-3.536 -3.536 M
3.536 3.536 L
-3.536 3.536 M
3.536 -3.536 L
S
GR
GS
[0.6 0 0 0.6 282.66 82.42324] CT
0 0.447 0.741 RC
10.0 ML
0.833 LW
N
-3.536 -3.536 M
3.536 3.536 L
-3.536 3.536 M
3.536 -3.536 L
S
GR
GS
[0.6 0 0 0.6 285.918 84.97717] CT
0 0.447 0.741 RC
10.0 ML
0.833 LW
N
-3.536 -3.536 M
3.536 3.536 L
-3.536 3.536 M
3.536 -3.536 L
S
GR
GS
[0.6 0 0 0.6 289.17599 85.6262] CT
0 0.447 0.741 RC
10.0 ML
0.833 LW
N
-3.536 -3.536 M
3.536 3.536 L
-3.536 3.536 M
3.536 -3.536 L
S
GR
GS
[0.6 0 0 0.6 292.43401 87.60129] CT
0 0.447 0.741 RC
10.0 ML
0.833 LW
N
-3.536 -3.536 M
3.536 3.536 L
-3.536 3.536 M
3.536 -3.536 L
S
GR
GS
[0.6 0 0 0.6 295.692 87.66959] CT
0 0.447 0.741 RC
10.0 ML
0.833 LW
N
-3.536 -3.536 M
3.536 3.536 L
-3.536 3.536 M
3.536 -3.536 L
S
GR
GS
[0.6 0 0 0.6 298.95 87.86022] CT
0 0.447 0.741 RC
10.0 ML
0.833 LW
N
-3.536 -3.536 M
3.536 3.536 L
-3.536 3.536 M
3.536 -3.536 L
S
GR
GS
[0.6 0 0 0.6 302.208 88.8723] CT
0 0.447 0.741 RC
10.0 ML
0.833 LW
N
-3.536 -3.536 M
3.536 3.536 L
-3.536 3.536 M
3.536 -3.536 L
S
GR
GS
[0.6 0 0 0.6 305.46599 88.89619] CT
0 0.447 0.741 RC
10.0 ML
0.833 LW
N
-3.536 -3.536 M
3.536 3.536 L
-3.536 3.536 M
3.536 -3.536 L
S
GR
GS
[0.6 0 0 0.6 308.72399 93.97101] CT
0 0.447 0.741 RC
10.0 ML
0.833 LW
N
-3.536 -3.536 M
3.536 3.536 L
-3.536 3.536 M
3.536 -3.536 L
S
GR
GS
[0.6 0 0 0.6 311.98198 94.57653] CT
0 0.447 0.741 RC
10.0 ML
0.833 LW
N
-3.536 -3.536 M
3.536 3.536 L
-3.536 3.536 M
3.536 -3.536 L
S
GR
GS
[0.6 0 0 0.6 315.24001 95.65704] CT
0 0.447 0.741 RC
10.0 ML
0.833 LW
N
-3.536 -3.536 M
3.536 3.536 L
-3.536 3.536 M
3.536 -3.536 L
S
GR
GS
[0.6 0 0 0.6 318.49801 97.08289] CT
0 0.447 0.741 RC
10.0 ML
0.833 LW
N
-3.536 -3.536 M
3.536 3.536 L
-3.536 3.536 M
3.536 -3.536 L
S
GR
GS
[0.6 0 0 0.6 321.75601 98.01343] CT
0 0.447 0.741 RC
10.0 ML
0.833 LW
N
-3.536 -3.536 M
3.536 3.536 L
-3.536 3.536 M
3.536 -3.536 L
S
GR
GS
[0.6 0 0 0.6 325.014 98.82031] CT
0 0.447 0.741 RC
10.0 ML
0.833 LW
N
-3.536 -3.536 M
3.536 3.536 L
-3.536 3.536 M
3.536 -3.536 L
S
GR
GS
[0.6 0 0 0.6 328.272 100.2286] CT
0 0.447 0.741 RC
10.0 ML
0.833 LW
N
-3.536 -3.536 M
3.536 3.536 L
-3.536 3.536 M
3.536 -3.536 L
S
GR
GS
[0.6 0 0 0.6 331.52999 101.41034] CT
0 0.447 0.741 RC
10.0 ML
0.833 LW
N
-3.536 -3.536 M
3.536 3.536 L
-3.536 3.536 M
3.536 -3.536 L
S
GR
GS
[0.6 0 0 0.6 334.78799 101.6583] CT
0 0.447 0.741 RC
10.0 ML
0.833 LW
N
-3.536 -3.536 M
3.536 3.536 L
-3.536 3.536 M
3.536 -3.536 L
S
GR
GS
[0.6 0 0 0.6 338.04598 102.1981] CT
0 0.447 0.741 RC
10.0 ML
0.833 LW
N
-3.536 -3.536 M
3.536 3.536 L
-3.536 3.536 M
3.536 -3.536 L
S
GR
GS
[0.6 0 0 0.6 341.30402 103.08486] CT
0 0.447 0.741 RC
10.0 ML
0.833 LW
N
-3.536 -3.536 M
3.536 3.536 L
-3.536 3.536 M
3.536 -3.536 L
S
GR
GS
[0.6 0 0 0.6 344.56201 106.18295] CT
0 0.447 0.741 RC
10.0 ML
0.833 LW
N
-3.536 -3.536 M
3.536 3.536 L
-3.536 3.536 M
3.536 -3.536 L
S
GR
GS
[0.6 0 0 0.6 347.82001 110.78878] CT
0 0.447 0.741 RC
10.0 ML
0.833 LW
N
-3.536 -3.536 M
3.536 3.536 L
-3.536 3.536 M
3.536 -3.536 L
S
GR
GS
[0.6 0 0 0.6 351.078 112.01598] CT
0 0.447 0.741 RC
10.0 ML
0.833 LW
N
-3.536 -3.536 M
3.536 3.536 L
-3.536 3.536 M
3.536 -3.536 L
S
GR
GS
[0.6 0 0 0.6 354.336 112.51775] CT
0 0.447 0.741 RC
10.0 ML
0.833 LW
N
-3.536 -3.536 M
3.536 3.536 L
-3.536 3.536 M
3.536 -3.536 L
S
GR
GS
[0.6 0 0 0.6 357.59399 113.19035] CT
0 0.447 0.741 RC
10.0 ML
0.833 LW
N
-3.536 -3.536 M
3.536 3.536 L
-3.536 3.536 M
3.536 -3.536 L
S
GR
GS
[0.6 0 0 0.6 360.85199 113.24899] CT
0 0.447 0.741 RC
10.0 ML
0.833 LW
N
-3.536 -3.536 M
3.536 3.536 L
-3.536 3.536 M
3.536 -3.536 L
S
GR
GS
[0.6 0 0 0.6 364.10999 118.75646] CT
0 0.447 0.741 RC
10.0 ML
0.833 LW
N
-3.536 -3.536 M
3.536 3.536 L
-3.536 3.536 M
3.536 -3.536 L
S
GR
GS
[0.6 0 0 0.6 367.36802 121.30659] CT
0 0.447 0.741 RC
10.0 ML
0.833 LW
N
-3.536 -3.536 M
3.536 3.536 L
-3.536 3.536 M
3.536 -3.536 L
S
GR
GS
[0.6 0 0 0.6 370.62601 121.63361] CT
0 0.447 0.741 RC
10.0 ML
0.833 LW
N
-3.536 -3.536 M
3.536 3.536 L
-3.536 3.536 M
3.536 -3.536 L
S
GR
GS
[0.6 0 0 0.6 373.88401 121.85978] CT
0 0.447 0.741 RC
10.0 ML
0.833 LW
N
-3.536 -3.536 M
3.536 3.536 L
-3.536 3.536 M
3.536 -3.536 L
S
GR
GS
[0.6 0 0 0.6 377.142 122.44345] CT
0 0.447 0.741 RC
10.0 ML
0.833 LW
N
-3.536 -3.536 M
3.536 3.536 L
-3.536 3.536 M
3.536 -3.536 L
S
GR
GS
[0.6 0 0 0.6 380.4 122.44653] CT
0 0.447 0.741 RC
10.0 ML
0.833 LW
N
-3.536 -3.536 M
3.536 3.536 L
-3.536 3.536 M
3.536 -3.536 L
S
GR
GS
[0.6 0 0 0.6 0 0] CT
0.851 0.325 0.098 RC
1 LJ
0.833 LW
N
96.43 82.895 M
101.86 91.223 L
107.29 91.223 L
112.72 92.581 L
118.15 94.574 L
123.58 94.574 L
129.01 98.921 L
134.44 98.921 L
139.87 102.02 L
145.3 102.02 L
150.73 105.673 L
156.16 105.673 L
161.59 108.251 L
167.02 111.718 L
172.45 111.718 L
177.88 113.436 L
183.31 113.436 L
188.74 115.385 L
194.17 116.428 L
199.6 117.704 L
205.03 117.704 L
210.46 123.381 L
215.89 123.381 L
221.32 126.763 L
226.75 128.755 L
232.18 128.755 L
237.61 132.389 L
243.04 132.389 L
248.47 135.388 L
253.9 135.388 L
259.33 137.765 L
264.76 141.205 L
270.19 141.205 L
275.62 147.269 L
281.05 147.818 L
286.48 147.818 L
291.91 153.195 L
297.34 153.195 L
302.77 155.133 L
308.2 155.133 L
313.63 162.439 L
319.06 164.218 L
324.49 169.503 L
329.92 169.503 L
335.35 170.782 L
340.78 170.782 L
346.21 175.247 L
351.64 175.247 L
357.07 181.213 L
362.5 181.213 L
367.93 185.613 L
373.36 191.08 L
378.79 191.08 L
384.22 195.06 L
389.65 195.06 L
395.08 202.125 L
400.51 203.63 L
405.94 203.63 L
411.37 210.475 L
416.8 218.227 L
422.23 218.227 L
427.66 222.332 L
433.09 226.21 L
438.52 226.21 L
443.95 227.872 L
449.38 231.506 L
454.81 238.016 L
460.24 238.016 L
465.67 251.96 L
471.1 251.96 L
476.53 252.306 L
481.96 252.306 L
487.39 264.301 L
492.82 264.301 L
498.25 272.648 L
503.68 277.324 L
509.11 287.995 L
514.54 288.614 L
519.97 288.614 L
525.4 299.849 L
530.83 299.849 L
536.26 300.686 L
541.69 313.182 L
547.12 322.116 L
552.55 322.116 L
557.98 327.678 L
563.41 332.635 L
568.84 332.635 L
574.27 347.463 L
579.7 354.191 L
585.13 354.191 L
590.56 363.793 L
595.99 363.793 L
601.42 377.528 L
606.85 377.528 L
612.28 386.255 L
617.71 406.263 L
623.14 408.293 L
628.57 423.715 L
634 436.799 L
S
GR
GS
[0.6 0 0 0.6 57.858 49.73725] CT
0.851 0.325 0.098 RC
10.0 ML
0.833 LW
N
-3.536 -3.536 M
3.536 3.536 L
-3.536 3.536 M
3.536 -3.536 L
S
GR
GS
[0.6 0 0 0.6 61.116 54.73377] CT
0.851 0.325 0.098 RC
10.0 ML
0.833 LW
N
-3.536 -3.536 M
3.536 3.536 L
-3.536 3.536 M
3.536 -3.536 L
S
GR
GS
[0.6 0 0 0.6 64.374 54.73377] CT
0.851 0.325 0.098 RC
10.0 ML
0.833 LW
N
-3.536 -3.536 M
3.536 3.536 L
-3.536 3.536 M
3.536 -3.536 L
S
GR
GS
[0.6 0 0 0.6 67.632 55.54887] CT
0.851 0.325 0.098 RC
10.0 ML
0.833 LW
N
-3.536 -3.536 M
3.536 3.536 L
-3.536 3.536 M
3.536 -3.536 L
S
GR
GS
[0.6 0 0 0.6 70.89 56.74441] CT
0.851 0.325 0.098 RC
10.0 ML
0.833 LW
N
-3.536 -3.536 M
3.536 3.536 L
-3.536 3.536 M
3.536 -3.536 L
S
GR
GS
[0.6 0 0 0.6 74.148 56.74441] CT
0.851 0.325 0.098 RC
10.0 ML
0.833 LW
N
-3.536 -3.536 M
3.536 3.536 L
-3.536 3.536 M
3.536 -3.536 L
S
GR
GS
[0.6 0 0 0.6 77.406 59.35248] CT
0.851 0.325 0.098 RC
10.0 ML
0.833 LW
N
-3.536 -3.536 M
3.536 3.536 L
-3.536 3.536 M
3.536 -3.536 L
S
GR
GS
[0.6 0 0 0.6 80.664 59.35248] CT
0.851 0.325 0.098 RC
10.0 ML
0.833 LW
N
-3.536 -3.536 M
3.536 3.536 L
-3.536 3.536 M
3.536 -3.536 L
S
GR
GS
[0.6 0 0 0.6 83.922 61.21222] CT
0.851 0.325 0.098 RC
10.0 ML
0.833 LW
N
-3.536 -3.536 M
3.536 3.536 L
-3.536 3.536 M
3.536 -3.536 L
S
GR
GS
[0.6 0 0 0.6 87.18 61.21222] CT
0.851 0.325 0.098 RC
10.0 ML
0.833 LW
N
-3.536 -3.536 M
3.536 3.536 L
-3.536 3.536 M
3.536 -3.536 L
S
GR
GS
[0.6 0 0 0.6 90.438 63.40401] CT
0.851 0.325 0.098 RC
10.0 ML
0.833 LW
N
-3.536 -3.536 M
3.536 3.536 L
-3.536 3.536 M
3.536 -3.536 L
S
GR
GS
[0.6 0 0 0.6 93.696 63.40401] CT
0.851 0.325 0.098 RC
10.0 ML
0.833 LW
N
-3.536 -3.536 M
3.536 3.536 L
-3.536 3.536 M
3.536 -3.536 L
S
GR
GS
[0.6 0 0 0.6 96.954 64.95045] CT
0.851 0.325 0.098 RC
10.0 ML
0.833 LW
N
-3.536 -3.536 M
3.536 3.536 L
-3.536 3.536 M
3.536 -3.536 L
S
GR
GS
[0.6 0 0 0.6 100.212 67.03068] CT
0.851 0.325 0.098 RC
10.0 ML
0.833 LW
N
-3.536 -3.536 M
3.536 3.536 L
-3.536 3.536 M
3.536 -3.536 L
S
GR
GS
[0.6 0 0 0.6 103.47 67.03068] CT
0.851 0.325 0.098 RC
10.0 ML
0.833 LW
N
-3.536 -3.536 M
3.536 3.536 L
-3.536 3.536 M
3.536 -3.536 L
S
GR
GS
[0.6 0 0 0.6 106.728 68.06145] CT
0.851 0.325 0.098 RC
10.0 ML
0.833 LW
N
-3.536 -3.536 M
3.536 3.536 L
-3.536 3.536 M
3.536 -3.536 L
S
GR
GS
[0.6 0 0 0.6 109.986 68.06145] CT
0.851 0.325 0.098 RC
10.0 ML
0.833 LW
N
-3.536 -3.536 M
3.536 3.536 L
-3.536 3.536 M
3.536 -3.536 L
S
GR
GS
[0.6 0 0 0.6 113.244 69.23086] CT
0.851 0.325 0.098 RC
10.0 ML
0.833 LW
N
-3.536 -3.536 M
3.536 3.536 L
-3.536 3.536 M
3.536 -3.536 L
S
GR
GS
[0.6 0 0 0.6 116.502 69.85682] CT
0.851 0.325 0.098 RC
10.0 ML
0.833 LW
N
-3.536 -3.536 M
3.536 3.536 L
-3.536 3.536 M
3.536 -3.536 L
S
GR
GS
[0.6 0 0 0.6 119.76 70.62245] CT
0.851 0.325 0.098 RC
10.0 ML
0.833 LW
N
-3.536 -3.536 M
3.536 3.536 L
-3.536 3.536 M
3.536 -3.536 L
S
GR
GS
[0.6 0 0 0.6 123.018 70.62245] CT
0.851 0.325 0.098 RC
10.0 ML
0.833 LW
N
-3.536 -3.536 M
3.536 3.536 L
-3.536 3.536 M
3.536 -3.536 L
S
GR
GS
[0.6 0 0 0.6 126.276 74.02869] CT
0.851 0.325 0.098 RC
10.0 ML
0.833 LW
N
-3.536 -3.536 M
3.536 3.536 L
-3.536 3.536 M
3.536 -3.536 L
S
GR
GS
[0.6 0 0 0.6 129.534 74.02869] CT
0.851 0.325 0.098 RC
10.0 ML
0.833 LW
N
-3.536 -3.536 M
3.536 3.536 L
-3.536 3.536 M
3.536 -3.536 L
S
GR
GS
[0.6 0 0 0.6 132.792 76.05783] CT
0.851 0.325 0.098 RC
10.0 ML
0.833 LW
N
-3.536 -3.536 M
3.536 3.536 L
-3.536 3.536 M
3.536 -3.536 L
S
GR
GS
[0.6 0 0 0.6 136.05 77.25319] CT
0.851 0.325 0.098 RC
10.0 ML
0.833 LW
N
-3.536 -3.536 M
3.536 3.536 L
-3.536 3.536 M
3.536 -3.536 L
S
GR
GS
[0.6 0 0 0.6 139.308 77.25319] CT
0.851 0.325 0.098 RC
10.0 ML
0.833 LW
N
-3.536 -3.536 M
3.536 3.536 L
-3.536 3.536 M
3.536 -3.536 L
S
GR
GS
[0.6 0 0 0.6 142.566 79.43329] CT
0.851 0.325 0.098 RC
10.0 ML
0.833 LW
N
-3.536 -3.536 M
3.536 3.536 L
-3.536 3.536 M
3.536 -3.536 L
S
GR
GS
[0.6 0 0 0.6 145.824 79.43329] CT
0.851 0.325 0.098 RC
10.0 ML
0.833 LW
N
-3.536 -3.536 M
3.536 3.536 L
-3.536 3.536 M
3.536 -3.536 L
S
GR
GS
[0.6 0 0 0.6 149.082 81.23254] CT
0.851 0.325 0.098 RC
10.0 ML
0.833 LW
N
-3.536 -3.536 M
3.536 3.536 L
-3.536 3.536 M
3.536 -3.536 L
S
GR
GS
[0.6 0 0 0.6 152.34 81.23254] CT
0.851 0.325 0.098 RC
10.0 ML
0.833 LW
N
-3.536 -3.536 M
3.536 3.536 L
-3.536 3.536 M
3.536 -3.536 L
S
GR
GS
[0.6 0 0 0.6 155.59799 82.65882] CT
0.851 0.325 0.098 RC
10.0 ML
0.833 LW
N
-3.536 -3.536 M
3.536 3.536 L
-3.536 3.536 M
3.536 -3.536 L
S
GR
GS
[0.6 0 0 0.6 158.85601 84.72299] CT
0.851 0.325 0.098 RC
10.0 ML
0.833 LW
N
-3.536 -3.536 M
3.536 3.536 L
-3.536 3.536 M
3.536 -3.536 L
S
GR
GS
[0.6 0 0 0.6 162.114 84.72299] CT
0.851 0.325 0.098 RC
10.0 ML
0.833 LW
N
-3.536 -3.536 M
3.536 3.536 L
-3.536 3.536 M
3.536 -3.536 L
S
GR
GS
[0.6 0 0 0.6 165.372 88.36166] CT
0.851 0.325 0.098 RC
10.0 ML
0.833 LW
N
-3.536 -3.536 M
3.536 3.536 L
-3.536 3.536 M
3.536 -3.536 L
S
GR
GS
[0.6 0 0 0.6 168.62999 88.69062] CT
0.851 0.325 0.098 RC
10.0 ML
0.833 LW
N
-3.536 -3.536 M
3.536 3.536 L
-3.536 3.536 M
3.536 -3.536 L
S
GR
GS
[0.6 0 0 0.6 171.88801 88.69062] CT
0.851 0.325 0.098 RC
10.0 ML
0.833 LW
N
-3.536 -3.536 M
3.536 3.536 L
-3.536 3.536 M
3.536 -3.536 L
S
GR
GS
[0.6 0 0 0.6 175.146 91.91729] CT
0.851 0.325 0.098 RC
10.0 ML
0.833 LW
N
-3.536 -3.536 M
3.536 3.536 L
-3.536 3.536 M
3.536 -3.536 L
S
GR
GS
[0.6 0 0 0.6 178.404 91.91729] CT
0.851 0.325 0.098 RC
10.0 ML
0.833 LW
N
-3.536 -3.536 M
3.536 3.536 L
-3.536 3.536 M
3.536 -3.536 L
S
GR
GS
[0.6 0 0 0.6 181.66199 93.07953] CT
0.851 0.325 0.098 RC
10.0 ML
0.833 LW
N
-3.536 -3.536 M
3.536 3.536 L
-3.536 3.536 M
3.536 -3.536 L
S
GR
GS
[0.6 0 0 0.6 184.92001 93.07953] CT
0.851 0.325 0.098 RC
10.0 ML
0.833 LW
N
-3.536 -3.536 M
3.536 3.536 L
-3.536 3.536 M
3.536 -3.536 L
S
GR
GS
[0.6 0 0 0.6 188.178 97.46349] CT
0.851 0.325 0.098 RC
10.0 ML
0.833 LW
N
-3.536 -3.536 M
3.536 3.536 L
-3.536 3.536 M
3.536 -3.536 L
S
GR
GS
[0.6 0 0 0.6 191.436 98.53052] CT
0.851 0.325 0.098 RC
10.0 ML
0.833 LW
N
-3.536 -3.536 M
3.536 3.536 L
-3.536 3.536 M
3.536 -3.536 L
S
GR
GS
[0.6 0 0 0.6 194.69399 101.70165] CT
0.851 0.325 0.098 RC
10.0 ML
0.833 LW
N
-3.536 -3.536 M
3.536 3.536 L
-3.536 3.536 M
3.536 -3.536 L
S
GR
GS
[0.6 0 0 0.6 197.95201 101.70165] CT
0.851 0.325 0.098 RC
10.0 ML
0.833 LW
N
-3.536 -3.536 M
3.536 3.536 L
-3.536 3.536 M
3.536 -3.536 L
S
GR
GS
[0.6 0 0 0.6 201.21 102.46946] CT
0.851 0.325 0.098 RC
10.0 ML
0.833 LW
N
-3.536 -3.536 M
3.536 3.536 L
-3.536 3.536 M
3.536 -3.536 L
S
GR
GS
[0.6 0 0 0.6 204.468 102.46946] CT
0.851 0.325 0.098 RC
10.0 ML
0.833 LW
N
-3.536 -3.536 M
3.536 3.536 L
-3.536 3.536 M
3.536 -3.536 L
S
GR
GS
[0.6 0 0 0.6 207.72599 105.14791] CT
0.851 0.325 0.098 RC
10.0 ML
0.833 LW
N
-3.536 -3.536 M
3.536 3.536 L
-3.536 3.536 M
3.536 -3.536 L
S
GR
GS
[0.6 0 0 0.6 210.98401 105.14791] CT
0.851 0.325 0.098 RC
10.0 ML
0.833 LW
N
-3.536 -3.536 M
3.536 3.536 L
-3.536 3.536 M
3.536 -3.536 L
S
GR
GS
[0.6 0 0 0.6 214.242 108.72765] CT
0.851 0.325 0.098 RC
10.0 ML
0.833 LW
N
-3.536 -3.536 M
3.536 3.536 L
-3.536 3.536 M
3.536 -3.536 L
S
GR
GS
[0.6 0 0 0.6 217.5 108.72765] CT
0.851 0.325 0.098 RC
10.0 ML
0.833 LW
N
-3.536 -3.536 M
3.536 3.536 L
-3.536 3.536 M
3.536 -3.536 L
S
GR
GS
[0.6 0 0 0.6 220.758 111.3677] CT
0.851 0.325 0.098 RC
10.0 ML
0.833 LW
N
-3.536 -3.536 M
3.536 3.536 L
-3.536 3.536 M
3.536 -3.536 L
S
GR
GS
[0.6 0 0 0.6 224.01599 114.6482] CT
0.851 0.325 0.098 RC
10.0 ML
0.833 LW
N
-3.536 -3.536 M
3.536 3.536 L
-3.536 3.536 M
3.536 -3.536 L
S
GR
GS
[0.6 0 0 0.6 227.27401 114.6482] CT
0.851 0.325 0.098 RC
10.0 ML
0.833 LW
N
-3.536 -3.536 M
3.536 3.536 L
-3.536 3.536 M
3.536 -3.536 L
S
GR
GS
[0.6 0 0 0.6 230.532 117.03571] CT
0.851 0.325 0.098 RC
10.0 ML
0.833 LW
N
-3.536 -3.536 M
3.536 3.536 L
-3.536 3.536 M
3.536 -3.536 L
S
GR
GS
[0.6 0 0 0.6 233.79 117.03571] CT
0.851 0.325 0.098 RC
10.0 ML
0.833 LW
N
-3.536 -3.536 M
3.536 3.536 L
-3.536 3.536 M
3.536 -3.536 L
S
GR
GS
[0.6 0 0 0.6 237.04799 121.27475] CT
0.851 0.325 0.098 RC
10.0 ML
0.833 LW
N
-3.536 -3.536 M
3.536 3.536 L
-3.536 3.536 M
3.536 -3.536 L
S
GR
GS
[0.6 0 0 0.6 240.30601 122.17825] CT
0.851 0.325 0.098 RC
10.0 ML
0.833 LW
N
-3.536 -3.536 M
3.536 3.536 L
-3.536 3.536 M
3.536 -3.536 L
S
GR
GS
[0.6 0 0 0.6 243.564 122.17825] CT
0.851 0.325 0.098 RC
10.0 ML
0.833 LW
N
-3.536 -3.536 M
3.536 3.536 L
-3.536 3.536 M
3.536 -3.536 L
S
GR
GS
[0.6 0 0 0.6 246.822 126.28481] CT
0.851 0.325 0.098 RC
10.0 ML
0.833 LW
N
-3.536 -3.536 M
3.536 3.536 L
-3.536 3.536 M
3.536 -3.536 L
S
GR
GS
[0.6 0 0 0.6 250.07999 130.93618] CT
0.851 0.325 0.098 RC
10.0 ML
0.833 LW
N
-3.536 -3.536 M
3.536 3.536 L
-3.536 3.536 M
3.536 -3.536 L
S
GR
GS
[0.6 0 0 0.6 253.33801 130.93618] CT
0.851 0.325 0.098 RC
10.0 ML
0.833 LW
N
-3.536 -3.536 M
3.536 3.536 L
-3.536 3.536 M
3.536 -3.536 L
S
GR
GS
[0.6 0 0 0.6 256.596 133.39919] CT
0.851 0.325 0.098 RC
10.0 ML
0.833 LW
N
-3.536 -3.536 M
3.536 3.536 L
-3.536 3.536 M
3.536 -3.536 L
S
GR
GS
[0.6 0 0 0.6 259.854 135.72598] CT
0.851 0.325 0.098 RC
10.0 ML
0.833 LW
N
-3.536 -3.536 M
3.536 3.536 L
-3.536 3.536 M
3.536 -3.536 L
S
GR
GS
[0.6 0 0 0.6 263.11199 135.72598] CT
0.851 0.325 0.098 RC
10.0 ML
0.833 LW
N
-3.536 -3.536 M
3.536 3.536 L
-3.536 3.536 M
3.536 -3.536 L
S
GR
GS
[0.6 0 0 0.6 266.37001 136.72341] CT
0.851 0.325 0.098 RC
10.0 ML
0.833 LW
N
-3.536 -3.536 M
3.536 3.536 L
-3.536 3.536 M
3.536 -3.536 L
S
GR
GS
[0.6 0 0 0.6 269.628 138.90374] CT
0.851 0.325 0.098 RC
10.0 ML
0.833 LW
N
-3.536 -3.536 M
3.536 3.536 L
-3.536 3.536 M
3.536 -3.536 L
S
GR
GS
[0.6 0 0 0.6 272.886 142.8097] CT
0.851 0.325 0.098 RC
10.0 ML
0.833 LW
N
-3.536 -3.536 M
3.536 3.536 L
-3.536 3.536 M
3.536 -3.536 L
S
GR
GS
[0.6 0 0 0.6 276.14399 142.8097] CT
0.851 0.325 0.098 RC
10.0 ML
0.833 LW
N
-3.536 -3.536 M
3.536 3.536 L
-3.536 3.536 M
3.536 -3.536 L
S
GR
GS
[0.6 0 0 0.6 279.40201 151.17621] CT
0.851 0.325 0.098 RC
10.0 ML
0.833 LW
N
-3.536 -3.536 M
3.536 3.536 L
-3.536 3.536 M
3.536 -3.536 L
S
GR
GS
[0.6 0 0 0.6 282.66 151.17621] CT
0.851 0.325 0.098 RC
10.0 ML
0.833 LW
N
-3.536 -3.536 M
3.536 3.536 L
-3.536 3.536 M
3.536 -3.536 L
S
GR
GS
[0.6 0 0 0.6 285.918 151.38372] CT
0.851 0.325 0.098 RC
10.0 ML
0.833 LW
N
-3.536 -3.536 M
3.536 3.536 L
-3.536 3.536 M
3.536 -3.536 L
S
GR
GS
[0.6 0 0 0.6 289.17599 151.38372] CT
0.851 0.325 0.098 RC
10.0 ML
0.833 LW
N
-3.536 -3.536 M
3.536 3.536 L
-3.536 3.536 M
3.536 -3.536 L
S
GR
GS
[0.6 0 0 0.6 292.43401 158.58078] CT
0.851 0.325 0.098 RC
10.0 ML
0.833 LW
N
-3.536 -3.536 M
3.536 3.536 L
-3.536 3.536 M
3.536 -3.536 L
S
GR
GS
[0.6 0 0 0.6 295.692 158.58078] CT
0.851 0.325 0.098 RC
10.0 ML
0.833 LW
N
-3.536 -3.536 M
3.536 3.536 L
-3.536 3.536 M
3.536 -3.536 L
S
GR
GS
[0.6 0 0 0.6 298.95 163.58895] CT
0.851 0.325 0.098 RC
10.0 ML
0.833 LW
N
-3.536 -3.536 M
3.536 3.536 L
-3.536 3.536 M
3.536 -3.536 L
S
GR
GS
[0.6 0 0 0.6 302.208 166.39429] CT
0.851 0.325 0.098 RC
10.0 ML
0.833 LW
N
-3.536 -3.536 M
3.536 3.536 L
-3.536 3.536 M
3.536 -3.536 L
S
GR
GS
[0.6 0 0 0.6 305.46599 172.79685] CT
0.851 0.325 0.098 RC
10.0 ML
0.833 LW
N
-3.536 -3.536 M
3.536 3.536 L
-3.536 3.536 M
3.536 -3.536 L
S
GR
GS
[0.6 0 0 0.6 308.72399 173.16863] CT
0.851 0.325 0.098 RC
10.0 ML
0.833 LW
N
-3.536 -3.536 M
3.536 3.536 L
-3.536 3.536 M
3.536 -3.536 L
S
GR
GS
[0.6 0 0 0.6 311.98198 173.16863] CT
0.851 0.325 0.098 RC
10.0 ML
0.833 LW
N
-3.536 -3.536 M
3.536 3.536 L
-3.536 3.536 M
3.536 -3.536 L
S
GR
GS
[0.6 0 0 0.6 315.24001 179.90938] CT
0.851 0.325 0.098 RC
10.0 ML
0.833 LW
N
-3.536 -3.536 M
3.536 3.536 L
-3.536 3.536 M
3.536 -3.536 L
S
GR
GS
[0.6 0 0 0.6 318.49801 179.90938] CT
0.851 0.325 0.098 RC
10.0 ML
0.833 LW
N
-3.536 -3.536 M
3.536 3.536 L
-3.536 3.536 M
3.536 -3.536 L
S
GR
GS
[0.6 0 0 0.6 321.75601 180.41188] CT
0.851 0.325 0.098 RC
10.0 ML
0.833 LW
N
-3.536 -3.536 M
3.536 3.536 L
-3.536 3.536 M
3.536 -3.536 L
S
GR
GS
[0.6 0 0 0.6 325.014 187.90902] CT
0.851 0.325 0.098 RC
10.0 ML
0.833 LW
N
-3.536 -3.536 M
3.536 3.536 L
-3.536 3.536 M
3.536 -3.536 L
S
GR
GS
[0.6 0 0 0.6 328.272 193.2698] CT
0.851 0.325 0.098 RC
10.0 ML
0.833 LW
N
-3.536 -3.536 M
3.536 3.536 L
-3.536 3.536 M
3.536 -3.536 L
S
GR
GS
[0.6 0 0 0.6 331.52999 193.2698] CT
0.851 0.325 0.098 RC
10.0 ML
0.833 LW
N
-3.536 -3.536 M
3.536 3.536 L
-3.536 3.536 M
3.536 -3.536 L
S
GR
GS
[0.6 0 0 0.6 334.78799 196.6066] CT
0.851 0.325 0.098 RC
10.0 ML
0.833 LW
N
-3.536 -3.536 M
3.536 3.536 L
-3.536 3.536 M
3.536 -3.536 L
S
GR
GS
[0.6 0 0 0.6 338.04598 199.58084] CT
0.851 0.325 0.098 RC
10.0 ML
0.833 LW
N
-3.536 -3.536 M
3.536 3.536 L
-3.536 3.536 M
3.536 -3.536 L
S
GR
GS
[0.6 0 0 0.6 341.30402 199.58084] CT
0.851 0.325 0.098 RC
10.0 ML
0.833 LW
N
-3.536 -3.536 M
3.536 3.536 L
-3.536 3.536 M
3.536 -3.536 L
S
GR
GS
[0.6 0 0 0.6 344.56201 208.47768] CT
0.851 0.325 0.098 RC
10.0 ML
0.833 LW
N
-3.536 -3.536 M
3.536 3.536 L
-3.536 3.536 M
3.536 -3.536 L
S
GR
GS
[0.6 0 0 0.6 347.82001 212.5149] CT
0.851 0.325 0.098 RC
10.0 ML
0.833 LW
N
-3.536 -3.536 M
3.536 3.536 L
-3.536 3.536 M
3.536 -3.536 L
S
GR
GS
[0.6 0 0 0.6 351.078 212.5149] CT
0.851 0.325 0.098 RC
10.0 ML
0.833 LW
N
-3.536 -3.536 M
3.536 3.536 L
-3.536 3.536 M
3.536 -3.536 L
S
GR
GS
[0.6 0 0 0.6 354.336 218.27582] CT
0.851 0.325 0.098 RC
10.0 ML
0.833 LW
N
-3.536 -3.536 M
3.536 3.536 L
-3.536 3.536 M
3.536 -3.536 L
S
GR
GS
[0.6 0 0 0.6 357.59399 218.27582] CT
0.851 0.325 0.098 RC
10.0 ML
0.833 LW
N
-3.536 -3.536 M
3.536 3.536 L
-3.536 3.536 M
3.536 -3.536 L
S
GR
GS
[0.6 0 0 0.6 360.85199 226.51675] CT
0.851 0.325 0.098 RC
10.0 ML
0.833 LW
N
-3.536 -3.536 M
3.536 3.536 L
-3.536 3.536 M
3.536 -3.536 L
S
GR
GS
[0.6 0 0 0.6 364.10999 226.51675] CT
0.851 0.325 0.098 RC
10.0 ML
0.833 LW
N
-3.536 -3.536 M
3.536 3.536 L
-3.536 3.536 M
3.536 -3.536 L
S
GR
GS
[0.6 0 0 0.6 367.36802 231.75282] CT
0.851 0.325 0.098 RC
10.0 ML
0.833 LW
N
-3.536 -3.536 M
3.536 3.536 L
-3.536 3.536 M
3.536 -3.536 L
S
GR
GS
[0.6 0 0 0.6 370.62601 243.75807] CT
0.851 0.325 0.098 RC
10.0 ML
0.833 LW
N
-3.536 -3.536 M
3.536 3.536 L
-3.536 3.536 M
3.536 -3.536 L
S
GR
GS
[0.6 0 0 0.6 373.88401 244.97554] CT
0.851 0.325 0.098 RC
10.0 ML
0.833 LW
N
-3.536 -3.536 M
3.536 3.536 L
-3.536 3.536 M
3.536 -3.536 L
S
GR
GS
[0.6 0 0 0.6 377.142 254.22903] CT
0.851 0.325 0.098 RC
10.0 ML
0.833 LW
N
-3.536 -3.536 M
3.536 3.536 L
-3.536 3.536 M
3.536 -3.536 L
S
GR
GS
[0.6 0 0 0.6 380.4 262.0795] CT
0.851 0.325 0.098 RC
10.0 ML
0.833 LW
N
-3.536 -3.536 M
3.536 3.536 L
-3.536 3.536 M
3.536 -3.536 L
S
GR
GS
[0.6 0 0 0.6 0 0] CT
0.929 0.694 0.125 RC
1 LJ
0.833 LW
N
96.43 51.306 M
101.86 60.672 L
107.29 66.131 L
112.72 68.88 L
118.15 68.88 L
123.58 73.291 L
129.01 73.291 L
134.44 75.932 L
139.87 75.932 L
145.3 76.77 L
150.73 78.963 L
156.16 78.963 L
161.59 78.988 L
167.02 78.988 L
172.45 81.484 L
177.88 81.739 L
183.31 81.739 L
188.74 82.205 L
194.17 82.205 L
199.6 83.409 L
205.03 85.023 L
210.46 85.023 L
215.89 85.55 L
221.32 85.55 L
226.75 85.989 L
232.18 87.869 L
237.61 87.869 L
243.04 89.455 L
248.47 89.455 L
253.9 90.353 L
259.33 90.353 L
264.76 90.722 L
270.19 93.84 L
275.62 93.84 L
281.05 96.373 L
286.48 96.538 L
291.91 96.538 L
297.34 101.815 L
302.77 101.815 L
308.2 103.777 L
313.63 103.777 L
319.06 103.976 L
324.49 103.976 L
329.92 104.09 L
335.35 106.883 L
340.78 106.883 L
346.21 108.934 L
351.64 108.934 L
357.07 110.298 L
362.5 112.244 L
367.93 112.244 L
373.36 114.808 L
378.79 114.808 L
384.22 120.279 L
389.65 122.296 L
395.08 122.296 L
400.51 127.938 L
405.94 127.938 L
411.37 129.276 L
416.8 129.276 L
422.23 130.976 L
427.66 133.552 L
433.09 133.552 L
438.52 142.688 L
443.95 142.688 L
449.38 143.025 L
454.81 147.58 L
460.24 147.58 L
465.67 151.064 L
471.1 151.064 L
476.53 151.525 L
481.96 151.525 L
487.39 158.637 L
492.82 158.637 L
498.25 159.551 L
503.68 159.551 L
509.11 162.86 L
514.54 168.422 L
519.97 168.422 L
525.4 173.637 L
530.83 173.637 L
536.26 178.743 L
541.69 178.743 L
547.12 183.307 L
552.55 183.307 L
557.98 193.083 L
563.41 193.562 L
568.84 193.562 L
574.27 199.12 L
579.7 199.12 L
585.13 203.654 L
590.56 203.654 L
595.99 215.474 L
601.42 221.261 L
606.85 234.4 L
612.28 234.4 L
617.71 244.893 L
623.14 258.578 L
628.57 265.751 L
634 265.751 L
S
GR
GS
[0.6 0 0 0.6 57.858 30.78368] CT
0.929 0.694 0.125 RC
10.0 ML
0.833 LW
N
-3.536 -3.536 M
3.536 3.536 L
-3.536 3.536 M
3.536 -3.536 L
S
GR
GS
[0.6 0 0 0.6 61.116 36.40324] CT
0.929 0.694 0.125 RC
10.0 ML
0.833 LW
N
-3.536 -3.536 M
3.536 3.536 L
-3.536 3.536 M
3.536 -3.536 L
S
GR
GS
[0.6 0 0 0.6 64.374 39.67864] CT
0.929 0.694 0.125 RC
10.0 ML
0.833 LW
N
-3.536 -3.536 M
3.536 3.536 L
-3.536 3.536 M
3.536 -3.536 L
S
GR
GS
[0.6 0 0 0.6 67.632 41.32794] CT
0.929 0.694 0.125 RC
10.0 ML
0.833 LW
N
-3.536 -3.536 M
3.536 3.536 L
-3.536 3.536 M
3.536 -3.536 L
S
GR
GS
[0.6 0 0 0.6 70.89 41.32794] CT
0.929 0.694 0.125 RC
10.0 ML
0.833 LW
N
-3.536 -3.536 M
3.536 3.536 L
-3.536 3.536 M
3.536 -3.536 L
S
GR
GS
[0.6 0 0 0.6 74.148 43.97449] CT
0.929 0.694 0.125 RC
10.0 ML
0.833 LW
N
-3.536 -3.536 M
3.536 3.536 L
-3.536 3.536 M
3.536 -3.536 L
S
GR
GS
[0.6 0 0 0.6 77.406 43.97449] CT
0.929 0.694 0.125 RC
10.0 ML
0.833 LW
N
-3.536 -3.536 M
3.536 3.536 L
-3.536 3.536 M
3.536 -3.536 L
S
GR
GS
[0.6 0 0 0.6 80.664 45.55933] CT
0.929 0.694 0.125 RC
10.0 ML
0.833 LW
N
-3.536 -3.536 M
3.536 3.536 L
-3.536 3.536 M
3.536 -3.536 L
S
GR
GS
[0.6 0 0 0.6 83.922 45.55933] CT
0.929 0.694 0.125 RC
10.0 ML
0.833 LW
N
-3.536 -3.536 M
3.536 3.536 L
-3.536 3.536 M
3.536 -3.536 L
S
GR
GS
[0.6 0 0 0.6 87.18 46.0619] CT
0.929 0.694 0.125 RC
10.0 ML
0.833 LW
N
-3.536 -3.536 M
3.536 3.536 L
-3.536 3.536 M
3.536 -3.536 L
S
GR
GS
[0.6 0 0 0.6 90.438 47.37764] CT
0.929 0.694 0.125 RC
10.0 ML
0.833 LW
N
-3.536 -3.536 M
3.536 3.536 L
-3.536 3.536 M
3.536 -3.536 L
S
GR
GS
[0.6 0 0 0.6 93.696 47.37764] CT
0.929 0.694 0.125 RC
10.0 ML
0.833 LW
N
-3.536 -3.536 M
3.536 3.536 L
-3.536 3.536 M
3.536 -3.536 L
S
GR
GS
[0.6 0 0 0.6 96.954 47.39262] CT
0.929 0.694 0.125 RC
10.0 ML
0.833 LW
N
-3.536 -3.536 M
3.536 3.536 L
-3.536 3.536 M
3.536 -3.536 L
S
GR
GS
[0.6 0 0 0.6 100.212 47.39262] CT
0.929 0.694 0.125 RC
10.0 ML
0.833 LW
N
-3.536 -3.536 M
3.536 3.536 L
-3.536 3.536 M
3.536 -3.536 L
S
GR
GS
[0.6 0 0 0.6 103.47 48.89038] CT
0.929 0.694 0.125 RC
10.0 ML
0.833 LW
N
-3.536 -3.536 M
3.536 3.536 L
-3.536 3.536 M
3.536 -3.536 L
S
GR
GS
[0.6 0 0 0.6 106.728 49.04345] CT
0.929 0.694 0.125 RC
10.0 ML
0.833 LW
N
-3.536 -3.536 M
3.536 3.536 L
-3.536 3.536 M
3.536 -3.536 L
S
GR
GS
[0.6 0 0 0.6 109.986 49.04345] CT
0.929 0.694 0.125 RC
10.0 ML
0.833 LW
N
-3.536 -3.536 M
3.536 3.536 L
-3.536 3.536 M
3.536 -3.536 L
S
GR
GS
[0.6 0 0 0.6 113.244 49.32299] CT
0.929 0.694 0.125 RC
10.0 ML
0.833 LW
N
-3.536 -3.536 M
3.536 3.536 L
-3.536 3.536 M
3.536 -3.536 L
S
GR
GS
[0.6 0 0 0.6 116.502 49.32299] CT
0.929 0.694 0.125 RC
10.0 ML
0.833 LW
N
-3.536 -3.536 M
3.536 3.536 L
-3.536 3.536 M
3.536 -3.536 L
S
GR
GS
[0.6 0 0 0.6 119.76 50.0453] CT
0.929 0.694 0.125 RC
10.0 ML
0.833 LW
N
-3.536 -3.536 M
3.536 3.536 L
-3.536 3.536 M
3.536 -3.536 L
S
GR
GS
[0.6 0 0 0.6 123.018 51.01376] CT
0.929 0.694 0.125 RC
10.0 ML
0.833 LW
N
-3.536 -3.536 M
3.536 3.536 L
-3.536 3.536 M
3.536 -3.536 L
S
GR
GS
[0.6 0 0 0.6 126.276 51.01376] CT
0.929 0.694 0.125 RC
10.0 ML
0.833 LW
N
-3.536 -3.536 M
3.536 3.536 L
-3.536 3.536 M
3.536 -3.536 L
S
GR
GS
[0.6 0 0 0.6 129.534 51.32984] CT
0.929 0.694 0.125 RC
10.0 ML
0.833 LW
N
-3.536 -3.536 M
3.536 3.536 L
-3.536 3.536 M
3.536 -3.536 L
S
GR
GS
[0.6 0 0 0.6 132.792 51.32984] CT
0.929 0.694 0.125 RC
10.0 ML
0.833 LW
N
-3.536 -3.536 M
3.536 3.536 L
-3.536 3.536 M
3.536 -3.536 L
S
GR
GS
[0.6 0 0 0.6 136.05 51.59331] CT
0.929 0.694 0.125 RC
10.0 ML
0.833 LW
N
-3.536 -3.536 M
3.536 3.536 L
-3.536 3.536 M
3.536 -3.536 L
S
GR
GS
[0.6 0 0 0.6 139.308 52.72147] CT
0.929 0.694 0.125 RC
10.0 ML
0.833 LW
N
-3.536 -3.536 M
3.536 3.536 L
-3.536 3.536 M
3.536 -3.536 L
S
GR
GS
[0.6 0 0 0.6 142.566 52.72147] CT
0.929 0.694 0.125 RC
10.0 ML
0.833 LW
N
-3.536 -3.536 M
3.536 3.536 L
-3.536 3.536 M
3.536 -3.536 L
S
GR
GS
[0.6 0 0 0.6 145.824 53.67329] CT
0.929 0.694 0.125 RC
10.0 ML
0.833 LW
N
-3.536 -3.536 M
3.536 3.536 L
-3.536 3.536 M
3.536 -3.536 L
S
GR
GS
[0.6 0 0 0.6 149.082 53.67329] CT
0.929 0.694 0.125 RC
10.0 ML
0.833 LW
N
-3.536 -3.536 M
3.536 3.536 L
-3.536 3.536 M
3.536 -3.536 L
S
GR
GS
[0.6 0 0 0.6 152.34 54.21186] CT
0.929 0.694 0.125 RC
10.0 ML
0.833 LW
N
-3.536 -3.536 M
3.536 3.536 L
-3.536 3.536 M
3.536 -3.536 L
S
GR
GS
[0.6 0 0 0.6 155.59799 54.21186] CT
0.929 0.694 0.125 RC
10.0 ML
0.833 LW
N
-3.536 -3.536 M
3.536 3.536 L
-3.536 3.536 M
3.536 -3.536 L
S
GR
GS
[0.6 0 0 0.6 158.85601 54.4331] CT
0.929 0.694 0.125 RC
10.0 ML
0.833 LW
N
-3.536 -3.536 M
3.536 3.536 L
-3.536 3.536 M
3.536 -3.536 L
S
GR
GS
[0.6 0 0 0.6 162.114 56.30383] CT
0.929 0.694 0.125 RC
10.0 ML
0.833 LW
N
-3.536 -3.536 M
3.536 3.536 L
-3.536 3.536 M
3.536 -3.536 L
S
GR
GS
[0.6 0 0 0.6 165.372 56.30383] CT
0.929 0.694 0.125 RC
10.0 ML
0.833 LW
N
-3.536 -3.536 M
3.536 3.536 L
-3.536 3.536 M
3.536 -3.536 L
S
GR
GS
[0.6 0 0 0.6 168.62999 57.82376] CT
0.929 0.694 0.125 RC
10.0 ML
0.833 LW
N
-3.536 -3.536 M
3.536 3.536 L
-3.536 3.536 M
3.536 -3.536 L
S
GR
GS
[0.6 0 0 0.6 171.88801 57.9227] CT
0.929 0.694 0.125 RC
10.0 ML
0.833 LW
N
-3.536 -3.536 M
3.536 3.536 L
-3.536 3.536 M
3.536 -3.536 L
S
GR
GS
[0.6 0 0 0.6 175.146 57.9227] CT
0.929 0.694 0.125 RC
10.0 ML
0.833 LW
N
-3.536 -3.536 M
3.536 3.536 L
-3.536 3.536 M
3.536 -3.536 L
S
GR
GS
[0.6 0 0 0.6 178.404 61.08917] CT
0.929 0.694 0.125 RC
10.0 ML
0.833 LW
N
-3.536 -3.536 M
3.536 3.536 L
-3.536 3.536 M
3.536 -3.536 L
S
GR
GS
[0.6 0 0 0.6 181.66199 61.08917] CT
0.929 0.694 0.125 RC
10.0 ML
0.833 LW
N
-3.536 -3.536 M
3.536 3.536 L
-3.536 3.536 M
3.536 -3.536 L
S
GR
GS
[0.6 0 0 0.6 184.92001 62.2665] CT
0.929 0.694 0.125 RC
10.0 ML
0.833 LW
N
-3.536 -3.536 M
3.536 3.536 L
-3.536 3.536 M
3.536 -3.536 L
S
GR
GS
[0.6 0 0 0.6 188.178 62.2665] CT
0.929 0.694 0.125 RC
10.0 ML
0.833 LW
N
-3.536 -3.536 M
3.536 3.536 L
-3.536 3.536 M
3.536 -3.536 L
S
GR
GS
[0.6 0 0 0.6 191.436 62.38533] CT
0.929 0.694 0.125 RC
10.0 ML
0.833 LW
N
-3.536 -3.536 M
3.536 3.536 L
-3.536 3.536 M
3.536 -3.536 L
S
GR
GS
[0.6 0 0 0.6 194.69399 62.38533] CT
0.929 0.694 0.125 RC
10.0 ML
0.833 LW
N
-3.536 -3.536 M
3.536 3.536 L
-3.536 3.536 M
3.536 -3.536 L
S
GR
GS
[0.6 0 0 0.6 197.95201 62.45391] CT
0.929 0.694 0.125 RC
10.0 ML
0.833 LW
N
-3.536 -3.536 M
3.536 3.536 L
-3.536 3.536 M
3.536 -3.536 L
S
GR
GS
[0.6 0 0 0.6 201.21 64.12955] CT
0.929 0.694 0.125 RC
10.0 ML
0.833 LW
N
-3.536 -3.536 M
3.536 3.536 L
-3.536 3.536 M
3.536 -3.536 L
S
GR
GS
[0.6 0 0 0.6 204.468 64.12955] CT
0.929 0.694 0.125 RC
10.0 ML
0.833 LW
N
-3.536 -3.536 M
3.536 3.536 L
-3.536 3.536 M
3.536 -3.536 L
S
GR
GS
[0.6 0 0 0.6 207.72599 65.36024] CT
0.929 0.694 0.125 RC
10.0 ML
0.833 LW
N
-3.536 -3.536 M
3.536 3.536 L
-3.536 3.536 M
3.536 -3.536 L
S
GR
GS
[0.6 0 0 0.6 210.98401 65.36024] CT
0.929 0.694 0.125 RC
10.0 ML
0.833 LW
N
-3.536 -3.536 M
3.536 3.536 L
-3.536 3.536 M
3.536 -3.536 L
S
GR
GS
[0.6 0 0 0.6 214.242 66.17852] CT
0.929 0.694 0.125 RC
10.0 ML
0.833 LW
N
-3.536 -3.536 M
3.536 3.536 L
-3.536 3.536 M
3.536 -3.536 L
S
GR
GS
[0.6 0 0 0.6 217.5 67.34665] CT
0.929 0.694 0.125 RC
10.0 ML
0.833 LW
N
-3.536 -3.536 M
3.536 3.536 L
-3.536 3.536 M
3.536 -3.536 L
S
GR
GS
[0.6 0 0 0.6 220.758 67.34665] CT
0.929 0.694 0.125 RC
10.0 ML
0.833 LW
N
-3.536 -3.536 M
3.536 3.536 L
-3.536 3.536 M
3.536 -3.536 L
S
GR
GS
[0.6 0 0 0.6 224.01599 68.88491] CT
0.929 0.694 0.125 RC
10.0 ML
0.833 LW
N
-3.536 -3.536 M
3.536 3.536 L
-3.536 3.536 M
3.536 -3.536 L
S
GR
GS
[0.6 0 0 0.6 227.27401 68.88491] CT
0.929 0.694 0.125 RC
10.0 ML
0.833 LW
N
-3.536 -3.536 M
3.536 3.536 L
-3.536 3.536 M
3.536 -3.536 L
S
GR
GS
[0.6 0 0 0.6 230.532 72.16767] CT
0.929 0.694 0.125 RC
10.0 ML
0.833 LW
N
-3.536 -3.536 M
3.536 3.536 L
-3.536 3.536 M
3.536 -3.536 L
S
GR
GS
[0.6 0 0 0.6 233.79 73.37748] CT
0.929 0.694 0.125 RC
10.0 ML
0.833 LW
N
-3.536 -3.536 M
3.536 3.536 L
-3.536 3.536 M
3.536 -3.536 L
S
GR
GS
[0.6 0 0 0.6 237.04799 73.37748] CT
0.929 0.694 0.125 RC
10.0 ML
0.833 LW
N
-3.536 -3.536 M
3.536 3.536 L
-3.536 3.536 M
3.536 -3.536 L
S
GR
GS
[0.6 0 0 0.6 240.30601 76.76297] CT
0.929 0.694 0.125 RC
10.0 ML
0.833 LW
N
-3.536 -3.536 M
3.536 3.536 L
-3.536 3.536 M
3.536 -3.536 L
S
GR
GS
[0.6 0 0 0.6 243.564 76.76297] CT
0.929 0.694 0.125 RC
10.0 ML
0.833 LW
N
-3.536 -3.536 M
3.536 3.536 L
-3.536 3.536 M
3.536 -3.536 L
S
GR
GS
[0.6 0 0 0.6 246.822 77.56557] CT
0.929 0.694 0.125 RC
10.0 ML
0.833 LW
N
-3.536 -3.536 M
3.536 3.536 L
-3.536 3.536 M
3.536 -3.536 L
S
GR
GS
[0.6 0 0 0.6 250.07999 77.56557] CT
0.929 0.694 0.125 RC
10.0 ML
0.833 LW
N
-3.536 -3.536 M
3.536 3.536 L
-3.536 3.536 M
3.536 -3.536 L
S
GR
GS
[0.6 0 0 0.6 253.33801 78.58543] CT
0.929 0.694 0.125 RC
10.0 ML
0.833 LW
N
-3.536 -3.536 M
3.536 3.536 L
-3.536 3.536 M
3.536 -3.536 L
S
GR
GS
[0.6 0 0 0.6 256.596 80.13149] CT
0.929 0.694 0.125 RC
10.0 ML
0.833 LW
N
-3.536 -3.536 M
3.536 3.536 L
-3.536 3.536 M
3.536 -3.536 L
S
GR
GS
[0.6 0 0 0.6 259.854 80.13149] CT
0.929 0.694 0.125 RC
10.0 ML
0.833 LW
N
-3.536 -3.536 M
3.536 3.536 L
-3.536 3.536 M
3.536 -3.536 L
S
GR
GS
[0.6 0 0 0.6 263.11199 85.613] CT
0.929 0.694 0.125 RC
10.0 ML
0.833 LW
N
-3.536 -3.536 M
3.536 3.536 L
-3.536 3.536 M
3.536 -3.536 L
S
GR
GS
[0.6 0 0 0.6 266.37001 85.613] CT
0.929 0.694 0.125 RC
10.0 ML
0.833 LW
N
-3.536 -3.536 M
3.536 3.536 L
-3.536 3.536 M
3.536 -3.536 L
S
GR
GS
[0.6 0 0 0.6 269.628 85.81511] CT
0.929 0.694 0.125 RC
10.0 ML
0.833 LW
N
-3.536 -3.536 M
3.536 3.536 L
-3.536 3.536 M
3.536 -3.536 L
S
GR
GS
[0.6 0 0 0.6 272.886 88.54821] CT
0.929 0.694 0.125 RC
10.0 ML
0.833 LW
N
-3.536 -3.536 M
3.536 3.536 L
-3.536 3.536 M
3.536 -3.536 L
S
GR
GS
[0.6 0 0 0.6 276.14399 88.54821] CT
0.929 0.694 0.125 RC
10.0 ML
0.833 LW
N
-3.536 -3.536 M
3.536 3.536 L
-3.536 3.536 M
3.536 -3.536 L
S
GR
GS
[0.6 0 0 0.6 279.40201 90.63819] CT
0.929 0.694 0.125 RC
10.0 ML
0.833 LW
N
-3.536 -3.536 M
3.536 3.536 L
-3.536 3.536 M
3.536 -3.536 L
S
GR
GS
[0.6 0 0 0.6 282.66 90.63819] CT
0.929 0.694 0.125 RC
10.0 ML
0.833 LW
N
-3.536 -3.536 M
3.536 3.536 L
-3.536 3.536 M
3.536 -3.536 L
S
GR
GS
[0.6 0 0 0.6 285.918 90.91502] CT
0.929 0.694 0.125 RC
10.0 ML
0.833 LW
N
-3.536 -3.536 M
3.536 3.536 L
-3.536 3.536 M
3.536 -3.536 L
S
GR
GS
[0.6 0 0 0.6 289.17599 90.91502] CT
0.929 0.694 0.125 RC
10.0 ML
0.833 LW
N
-3.536 -3.536 M
3.536 3.536 L
-3.536 3.536 M
3.536 -3.536 L
S
GR
GS
[0.6 0 0 0.6 292.43401 95.18206] CT
0.929 0.694 0.125 RC
10.0 ML
0.833 LW
N
-3.536 -3.536 M
3.536 3.536 L
-3.536 3.536 M
3.536 -3.536 L
S
GR
GS
[0.6 0 0 0.6 295.692 95.18206] CT
0.929 0.694 0.125 RC
10.0 ML
0.833 LW
N
-3.536 -3.536 M
3.536 3.536 L
-3.536 3.536 M
3.536 -3.536 L
S
GR
GS
[0.6 0 0 0.6 298.95 95.73073] CT
0.929 0.694 0.125 RC
10.0 ML
0.833 LW
N
-3.536 -3.536 M
3.536 3.536 L
-3.536 3.536 M
3.536 -3.536 L
S
GR
GS
[0.6 0 0 0.6 302.208 95.73073] CT
0.929 0.694 0.125 RC
10.0 ML
0.833 LW
N
-3.536 -3.536 M
3.536 3.536 L
-3.536 3.536 M
3.536 -3.536 L
S
GR
GS
[0.6 0 0 0.6 305.46599 97.716] CT
0.929 0.694 0.125 RC
10.0 ML
0.833 LW
N
-3.536 -3.536 M
3.536 3.536 L
-3.536 3.536 M
3.536 -3.536 L
S
GR
GS
[0.6 0 0 0.6 308.72399 101.05326] CT
0.929 0.694 0.125 RC
10.0 ML
0.833 LW
N
-3.536 -3.536 M
3.536 3.536 L
-3.536 3.536 M
3.536 -3.536 L
S
GR
GS
[0.6 0 0 0.6 311.98198 101.05326] CT
0.929 0.694 0.125 RC
10.0 ML
0.833 LW
N
-3.536 -3.536 M
3.536 3.536 L
-3.536 3.536 M
3.536 -3.536 L
S
GR
GS
[0.6 0 0 0.6 315.24001 104.18249] CT
0.929 0.694 0.125 RC
10.0 ML
0.833 LW
N
-3.536 -3.536 M
3.536 3.536 L
-3.536 3.536 M
3.536 -3.536 L
S
GR
GS
[0.6 0 0 0.6 318.49801 104.18249] CT
0.929 0.694 0.125 RC
10.0 ML
0.833 LW
N
-3.536 -3.536 M
3.536 3.536 L
-3.536 3.536 M
3.536 -3.536 L
S
GR
GS
[0.6 0 0 0.6 321.75601 107.24556] CT
0.929 0.694 0.125 RC
10.0 ML
0.833 LW
N
-3.536 -3.536 M
3.536 3.536 L
-3.536 3.536 M
3.536 -3.536 L
S
GR
GS
[0.6 0 0 0.6 325.014 107.24556] CT
0.929 0.694 0.125 RC
10.0 ML
0.833 LW
N
-3.536 -3.536 M
3.536 3.536 L
-3.536 3.536 M
3.536 -3.536 L
S
GR
GS
[0.6 0 0 0.6 328.272 109.98445] CT
0.929 0.694 0.125 RC
10.0 ML
0.833 LW
N
-3.536 -3.536 M
3.536 3.536 L
-3.536 3.536 M
3.536 -3.536 L
S
GR
GS
[0.6 0 0 0.6 331.52999 109.98445] CT
0.929 0.694 0.125 RC
10.0 ML
0.833 LW
N
-3.536 -3.536 M
3.536 3.536 L
-3.536 3.536 M
3.536 -3.536 L
S
GR
GS
[0.6 0 0 0.6 334.78799 115.84991] CT
0.929 0.694 0.125 RC
10.0 ML
0.833 LW
N
-3.536 -3.536 M
3.536 3.536 L
-3.536 3.536 M
3.536 -3.536 L
S
GR
GS
[0.6 0 0 0.6 338.04598 116.13734] CT
0.929 0.694 0.125 RC
10.0 ML
0.833 LW
N
-3.536 -3.536 M
3.536 3.536 L
-3.536 3.536 M
3.536 -3.536 L
S
GR
GS
[0.6 0 0 0.6 341.30402 116.13734] CT
0.929 0.694 0.125 RC
10.0 ML
0.833 LW
N
-3.536 -3.536 M
3.536 3.536 L
-3.536 3.536 M
3.536 -3.536 L
S
GR
GS
[0.6 0 0 0.6 344.56201 119.4721] CT
0.929 0.694 0.125 RC
10.0 ML
0.833 LW
N
-3.536 -3.536 M
3.536 3.536 L
-3.536 3.536 M
3.536 -3.536 L
S
GR
GS
[0.6 0 0 0.6 347.82001 119.4721] CT
0.929 0.694 0.125 RC
10.0 ML
0.833 LW
N
-3.536 -3.536 M
3.536 3.536 L
-3.536 3.536 M
3.536 -3.536 L
S
GR
GS
[0.6 0 0 0.6 351.078 122.19217] CT
0.929 0.694 0.125 RC
10.0 ML
0.833 LW
N
-3.536 -3.536 M
3.536 3.536 L
-3.536 3.536 M
3.536 -3.536 L
S
GR
GS
[0.6 0 0 0.6 354.336 122.19217] CT
0.929 0.694 0.125 RC
10.0 ML
0.833 LW
N
-3.536 -3.536 M
3.536 3.536 L
-3.536 3.536 M
3.536 -3.536 L
S
GR
GS
[0.6 0 0 0.6 357.59399 129.28439] CT
0.929 0.694 0.125 RC
10.0 ML
0.833 LW
N
-3.536 -3.536 M
3.536 3.536 L
-3.536 3.536 M
3.536 -3.536 L
S
GR
GS
[0.6 0 0 0.6 360.85199 132.75667] CT
0.929 0.694 0.125 RC
10.0 ML
0.833 LW
N
-3.536 -3.536 M
3.536 3.536 L
-3.536 3.536 M
3.536 -3.536 L
S
GR
GS
[0.6 0 0 0.6 364.10999 140.64009] CT
0.929 0.694 0.125 RC
10.0 ML
0.833 LW
N
-3.536 -3.536 M
3.536 3.536 L
-3.536 3.536 M
3.536 -3.536 L
S
GR
GS
[0.6 0 0 0.6 367.36802 140.64009] CT
0.929 0.694 0.125 RC
10.0 ML
0.833 LW
N
-3.536 -3.536 M
3.536 3.536 L
-3.536 3.536 M
3.536 -3.536 L
S
GR
GS
[0.6 0 0 0.6 370.62601 146.93579] CT
0.929 0.694 0.125 RC
10.0 ML
0.833 LW
N
-3.536 -3.536 M
3.536 3.536 L
-3.536 3.536 M
3.536 -3.536 L
S
GR
GS
[0.6 0 0 0.6 373.88401 155.14702] CT
0.929 0.694 0.125 RC
10.0 ML
0.833 LW
N
-3.536 -3.536 M
3.536 3.536 L
-3.536 3.536 M
3.536 -3.536 L
S
GR
GS
[0.6 0 0 0.6 377.142 159.45033] CT
0.929 0.694 0.125 RC
10.0 ML
0.833 LW
N
-3.536 -3.536 M
3.536 3.536 L
-3.536 3.536 M
3.536 -3.536 L
S
GR
GS
[0.6 0 0 0.6 380.4 159.45033] CT
0.929 0.694 0.125 RC
10.0 ML
0.833 LW
N
-3.536 -3.536 M
3.536 3.536 L
-3.536 3.536 M
3.536 -3.536 L
S
GR
GS
[0.6 0 0 0.6 0 0] CT
0.494 0.184 0.557 RC
1 LJ
0.833 LW
N
96.43 41.629 M
101.86 58.996 L
107.29 61.535 L
112.72 63.43 L
118.15 64.651 L
123.58 69.901 L
129.01 71.124 L
134.44 71.124 L
139.87 73.256 L
145.3 73.256 L
150.73 75.129 L
156.16 75.638 L
161.59 75.638 L
167.02 77.139 L
172.45 77.139 L
177.88 78.984 L
183.31 79.933 L
188.74 79.933 L
194.17 80.696 L
199.6 80.696 L
205.03 80.727 L
210.46 81.83 L
215.89 82.812 L
221.32 82.812 L
226.75 83.048 L
232.18 83.142 L
237.61 83.142 L
243.04 85.164 L
248.47 85.164 L
253.9 86.024 L
259.33 86.024 L
264.76 87.02 L
270.19 87.049 L
275.62 87.049 L
281.05 89.421 L
286.48 89.745 L
291.91 89.745 L
297.34 90.169 L
302.77 91.66 L
308.2 91.66 L
313.63 95.326 L
319.06 95.326 L
324.49 97.361 L
329.92 99.004 L
335.35 99.004 L
340.78 99.817 L
346.21 99.817 L
351.64 100.076 L
357.07 104.262 L
362.5 104.262 L
367.93 107.87 L
373.36 109.808 L
378.79 109.808 L
384.22 111.299 L
389.65 111.299 L
395.08 112.237 L
400.51 114.134 L
405.94 114.134 L
411.37 114.166 L
416.8 114.166 L
422.23 119.623 L
427.66 123.388 L
433.09 123.547 L
438.52 129.437 L
443.95 132.586 L
449.38 132.586 L
454.81 132.981 L
460.24 135.121 L
465.67 135.121 L
471.1 141.771 L
476.53 142.123 L
481.96 142.123 L
487.39 144.531 L
492.82 145.443 L
498.25 149.2 L
503.68 149.2 L
509.11 151.738 L
514.54 151.76 L
519.97 151.76 L
525.4 153.422 L
530.83 155.854 L
536.26 157.32 L
541.69 157.32 L
547.12 160.171 L
552.55 165.176 L
557.98 171.174 L
563.41 171.174 L
568.84 171.937 L
574.27 171.937 L
579.7 180.529 L
585.13 180.529 L
590.56 187.418 L
595.99 196.329 L
601.42 196.329 L
606.85 203.305 L
612.28 206.381 L
617.71 211.94 L
623.14 215.569 L
628.57 227.873 L
634 246.732 L
S
GR
GS
[0.6 0 0 0.6 57.858 24.97763] CT
0.494 0.184 0.557 RC
10.0 ML
0.833 LW
N
-3.536 -3.536 M
3.536 3.536 L
-3.536 3.536 M
3.536 -3.536 L
S
GR
GS
[0.6 0 0 0.6 61.116 35.39776] CT
0.494 0.184 0.557 RC
10.0 ML
0.833 LW
N
-3.536 -3.536 M
3.536 3.536 L
-3.536 3.536 M
3.536 -3.536 L
S
GR
GS
[0.6 0 0 0.6 64.374 36.92112] CT
0.494 0.184 0.557 RC
10.0 ML
0.833 LW
N
-3.536 -3.536 M
3.536 3.536 L
-3.536 3.536 M
3.536 -3.536 L
S
GR
GS
[0.6 0 0 0.6 67.632 38.05781] CT
0.494 0.184 0.557 RC
10.0 ML
0.833 LW
N
-3.536 -3.536 M
3.536 3.536 L
-3.536 3.536 M
3.536 -3.536 L
S
GR
GS
[0.6 0 0 0.6 70.89 38.79068] CT
0.494 0.184 0.557 RC
10.0 ML
0.833 LW
N
-3.536 -3.536 M
3.536 3.536 L
-3.536 3.536 M
3.536 -3.536 L
S
GR
GS
[0.6 0 0 0.6 74.148 41.94078] CT
0.494 0.184 0.557 RC
10.0 ML
0.833 LW
N
-3.536 -3.536 M
3.536 3.536 L
-3.536 3.536 M
3.536 -3.536 L
S
GR
GS
[0.6 0 0 0.6 77.406 42.6743] CT
0.494 0.184 0.557 RC
10.0 ML
0.833 LW
N
-3.536 -3.536 M
3.536 3.536 L
-3.536 3.536 M
3.536 -3.536 L
S
GR
GS
[0.6 0 0 0.6 80.664 42.6743] CT
0.494 0.184 0.557 RC
10.0 ML
0.833 LW
N
-3.536 -3.536 M
3.536 3.536 L
-3.536 3.536 M
3.536 -3.536 L
S
GR
GS
[0.6 0 0 0.6 83.922 43.95356] CT
0.494 0.184 0.557 RC
10.0 ML
0.833 LW
N
-3.536 -3.536 M
3.536 3.536 L
-3.536 3.536 M
3.536 -3.536 L
S
GR
GS
[0.6 0 0 0.6 87.18 43.95356] CT
0.494 0.184 0.557 RC
10.0 ML
0.833 LW
N
-3.536 -3.536 M
3.536 3.536 L
-3.536 3.536 M
3.536 -3.536 L
S
GR
GS
[0.6 0 0 0.6 90.438 45.07742] CT
0.494 0.184 0.557 RC
10.0 ML
0.833 LW
N
-3.536 -3.536 M
3.536 3.536 L
-3.536 3.536 M
3.536 -3.536 L
S
GR
GS
[0.6 0 0 0.6 93.696 45.38297] CT
0.494 0.184 0.557 RC
10.0 ML
0.833 LW
N
-3.536 -3.536 M
3.536 3.536 L
-3.536 3.536 M
3.536 -3.536 L
S
GR
GS
[0.6 0 0 0.6 96.954 45.38297] CT
0.494 0.184 0.557 RC
10.0 ML
0.833 LW
N
-3.536 -3.536 M
3.536 3.536 L
-3.536 3.536 M
3.536 -3.536 L
S
GR
GS
[0.6 0 0 0.6 100.212 46.28332] CT
0.494 0.184 0.557 RC
10.0 ML
0.833 LW
N
-3.536 -3.536 M
3.536 3.536 L
-3.536 3.536 M
3.536 -3.536 L
S
GR
GS
[0.6 0 0 0.6 103.47 46.28332] CT
0.494 0.184 0.557 RC
10.0 ML
0.833 LW
N
-3.536 -3.536 M
3.536 3.536 L
-3.536 3.536 M
3.536 -3.536 L
S
GR
GS
[0.6 0 0 0.6 106.728 47.39044] CT
0.494 0.184 0.557 RC
10.0 ML
0.833 LW
N
-3.536 -3.536 M
3.536 3.536 L
-3.536 3.536 M
3.536 -3.536 L
S
GR
GS
[0.6 0 0 0.6 109.986 47.95975] CT
0.494 0.184 0.557 RC
10.0 ML
0.833 LW
N
-3.536 -3.536 M
3.536 3.536 L
-3.536 3.536 M
3.536 -3.536 L
S
GR
GS
[0.6 0 0 0.6 113.244 47.95975] CT
0.494 0.184 0.557 RC
10.0 ML
0.833 LW
N
-3.536 -3.536 M
3.536 3.536 L
-3.536 3.536 M
3.536 -3.536 L
S
GR
GS
[0.6 0 0 0.6 116.502 48.41741] CT
0.494 0.184 0.557 RC
10.0 ML
0.833 LW
N
-3.536 -3.536 M
3.536 3.536 L
-3.536 3.536 M
3.536 -3.536 L
S
GR
GS
[0.6 0 0 0.6 119.76 48.41741] CT
0.494 0.184 0.557 RC
10.0 ML
0.833 LW
N
-3.536 -3.536 M
3.536 3.536 L
-3.536 3.536 M
3.536 -3.536 L
S
GR
GS
[0.6 0 0 0.6 123.018 48.43612] CT
0.494 0.184 0.557 RC
10.0 ML
0.833 LW
N
-3.536 -3.536 M
3.536 3.536 L
-3.536 3.536 M
3.536 -3.536 L
S
GR
GS
[0.6 0 0 0.6 126.276 49.09792] CT
0.494 0.184 0.557 RC
10.0 ML
0.833 LW
N
-3.536 -3.536 M
3.536 3.536 L
-3.536 3.536 M
3.536 -3.536 L
S
GR
GS
[0.6 0 0 0.6 129.534 49.68715] CT
0.494 0.184 0.557 RC
10.0 ML
0.833 LW
N
-3.536 -3.536 M
3.536 3.536 L
-3.536 3.536 M
3.536 -3.536 L
S
GR
GS
[0.6 0 0 0.6 132.792 49.68715] CT
0.494 0.184 0.557 RC
10.0 ML
0.833 LW
N
-3.536 -3.536 M
3.536 3.536 L
-3.536 3.536 M
3.536 -3.536 L
S
GR
GS
[0.6 0 0 0.6 136.05 49.82872] CT
0.494 0.184 0.557 RC
10.0 ML
0.833 LW
N
-3.536 -3.536 M
3.536 3.536 L
-3.536 3.536 M
3.536 -3.536 L
S
GR
GS
[0.6 0 0 0.6 139.308 49.88534] CT
0.494 0.184 0.557 RC
10.0 ML
0.833 LW
N
-3.536 -3.536 M
3.536 3.536 L
-3.536 3.536 M
3.536 -3.536 L
S
GR
GS
[0.6 0 0 0.6 142.566 49.88534] CT
0.494 0.184 0.557 RC
10.0 ML
0.833 LW
N
-3.536 -3.536 M
3.536 3.536 L
-3.536 3.536 M
3.536 -3.536 L
S
GR
GS
[0.6 0 0 0.6 145.824 51.09836] CT
0.494 0.184 0.557 RC
10.0 ML
0.833 LW
N
-3.536 -3.536 M
3.536 3.536 L
-3.536 3.536 M
3.536 -3.536 L
S
GR
GS
[0.6 0 0 0.6 149.082 51.09836] CT
0.494 0.184 0.557 RC
10.0 ML
0.833 LW
N
-3.536 -3.536 M
3.536 3.536 L
-3.536 3.536 M
3.536 -3.536 L
S
GR
GS
[0.6 0 0 0.6 152.34 51.61469] CT
0.494 0.184 0.557 RC
10.0 ML
0.833 LW
N
-3.536 -3.536 M
3.536 3.536 L
-3.536 3.536 M
3.536 -3.536 L
S
GR
GS
[0.6 0 0 0.6 155.59799 51.61469] CT
0.494 0.184 0.557 RC
10.0 ML
0.833 LW
N
-3.536 -3.536 M
3.536 3.536 L
-3.536 3.536 M
3.536 -3.536 L
S
GR
GS
[0.6 0 0 0.6 158.85601 52.21212] CT
0.494 0.184 0.557 RC
10.0 ML
0.833 LW
N
-3.536 -3.536 M
3.536 3.536 L
-3.536 3.536 M
3.536 -3.536 L
S
GR
GS
[0.6 0 0 0.6 162.114 52.22925] CT
0.494 0.184 0.557 RC
10.0 ML
0.833 LW
N
-3.536 -3.536 M
3.536 3.536 L
-3.536 3.536 M
3.536 -3.536 L
S
GR
GS
[0.6 0 0 0.6 165.372 52.22925] CT
0.494 0.184 0.557 RC
10.0 ML
0.833 LW
N
-3.536 -3.536 M
3.536 3.536 L
-3.536 3.536 M
3.536 -3.536 L
S
GR
GS
[0.6 0 0 0.6 168.62999 53.65232] CT
0.494 0.184 0.557 RC
10.0 ML
0.833 LW
N
-3.536 -3.536 M
3.536 3.536 L
-3.536 3.536 M
3.536 -3.536 L
S
GR
GS
[0.6 0 0 0.6 171.88801 53.84728] CT
0.494 0.184 0.557 RC
10.0 ML
0.833 LW
N
-3.536 -3.536 M
3.536 3.536 L
-3.536 3.536 M
3.536 -3.536 L
S
GR
GS
[0.6 0 0 0.6 175.146 53.84728] CT
0.494 0.184 0.557 RC
10.0 ML
0.833 LW
N
-3.536 -3.536 M
3.536 3.536 L
-3.536 3.536 M
3.536 -3.536 L
S
GR
GS
[0.6 0 0 0.6 178.404 54.10135] CT
0.494 0.184 0.557 RC
10.0 ML
0.833 LW
N
-3.536 -3.536 M
3.536 3.536 L
-3.536 3.536 M
3.536 -3.536 L
S
GR
GS
[0.6 0 0 0.6 181.66199 54.99586] CT
0.494 0.184 0.557 RC
10.0 ML
0.833 LW
N
-3.536 -3.536 M
3.536 3.536 L
-3.536 3.536 M
3.536 -3.536 L
S
GR
GS
[0.6 0 0 0.6 184.92001 54.99586] CT
0.494 0.184 0.557 RC
10.0 ML
0.833 LW
N
-3.536 -3.536 M
3.536 3.536 L
-3.536 3.536 M
3.536 -3.536 L
S
GR
GS
[0.6 0 0 0.6 188.178 57.19557] CT
0.494 0.184 0.557 RC
10.0 ML
0.833 LW
N
-3.536 -3.536 M
3.536 3.536 L
-3.536 3.536 M
3.536 -3.536 L
S
GR
GS
[0.6 0 0 0.6 191.436 57.19557] CT
0.494 0.184 0.557 RC
10.0 ML
0.833 LW
N
-3.536 -3.536 M
3.536 3.536 L
-3.536 3.536 M
3.536 -3.536 L
S
GR
GS
[0.6 0 0 0.6 194.69399 58.41638] CT
0.494 0.184 0.557 RC
10.0 ML
0.833 LW
N
-3.536 -3.536 M
3.536 3.536 L
-3.536 3.536 M
3.536 -3.536 L
S
GR
GS
[0.6 0 0 0.6 197.95201 59.40267] CT
0.494 0.184 0.557 RC
10.0 ML
0.833 LW
N
-3.536 -3.536 M
3.536 3.536 L
-3.536 3.536 M
3.536 -3.536 L
S
GR
GS
[0.6 0 0 0.6 201.21 59.40267] CT
0.494 0.184 0.557 RC
10.0 ML
0.833 LW
N
-3.536 -3.536 M
3.536 3.536 L
-3.536 3.536 M
3.536 -3.536 L
S
GR
GS
[0.6 0 0 0.6 204.468 59.89047] CT
0.494 0.184 0.557 RC
10.0 ML
0.833 LW
N
-3.536 -3.536 M
3.536 3.536 L
-3.536 3.536 M
3.536 -3.536 L
S
GR
GS
[0.6 0 0 0.6 207.72599 59.89047] CT
0.494 0.184 0.557 RC
10.0 ML
0.833 LW
N
-3.536 -3.536 M
3.536 3.536 L
-3.536 3.536 M
3.536 -3.536 L
S
GR
GS
[0.6 0 0 0.6 210.98401 60.04568] CT
0.494 0.184 0.557 RC
10.0 ML
0.833 LW
N
-3.536 -3.536 M
3.536 3.536 L
-3.536 3.536 M
3.536 -3.536 L
S
GR
GS
[0.6 0 0 0.6 214.242 62.55735] CT
0.494 0.184 0.557 RC
10.0 ML
0.833 LW
N
-3.536 -3.536 M
3.536 3.536 L
-3.536 3.536 M
3.536 -3.536 L
S
GR
GS
[0.6 0 0 0.6 217.5 62.55735] CT
0.494 0.184 0.557 RC
10.0 ML
0.833 LW
N
-3.536 -3.536 M
3.536 3.536 L
-3.536 3.536 M
3.536 -3.536 L
S
GR
GS
[0.6 0 0 0.6 220.758 64.72175] CT
0.494 0.184 0.557 RC
10.0 ML
0.833 LW
N
-3.536 -3.536 M
3.536 3.536 L
-3.536 3.536 M
3.536 -3.536 L
S
GR
GS
[0.6 0 0 0.6 224.01599 65.88475] CT
0.494 0.184 0.557 RC
10.0 ML
0.833 LW
N
-3.536 -3.536 M
3.536 3.536 L
-3.536 3.536 M
3.536 -3.536 L
S
GR
GS
[0.6 0 0 0.6 227.27401 65.88475] CT
0.494 0.184 0.557 RC
10.0 ML
0.833 LW
N
-3.536 -3.536 M
3.536 3.536 L
-3.536 3.536 M
3.536 -3.536 L
S
GR
GS
[0.6 0 0 0.6 230.532 66.7792] CT
0.494 0.184 0.557 RC
10.0 ML
0.833 LW
N
-3.536 -3.536 M
3.536 3.536 L
-3.536 3.536 M
3.536 -3.536 L
S
GR
GS
[0.6 0 0 0.6 233.79 66.7792] CT
0.494 0.184 0.557 RC
10.0 ML
0.833 LW
N
-3.536 -3.536 M
3.536 3.536 L
-3.536 3.536 M
3.536 -3.536 L
S
GR
GS
[0.6 0 0 0.6 237.04799 67.34221] CT
0.494 0.184 0.557 RC
10.0 ML
0.833 LW
N
-3.536 -3.536 M
3.536 3.536 L
-3.536 3.536 M
3.536 -3.536 L
S
GR
GS
[0.6 0 0 0.6 240.30601 68.48019] CT
0.494 0.184 0.557 RC
10.0 ML
0.833 LW
N
-3.536 -3.536 M
3.536 3.536 L
-3.536 3.536 M
3.536 -3.536 L
S
GR
GS
[0.6 0 0 0.6 243.564 68.48019] CT
0.494 0.184 0.557 RC
10.0 ML
0.833 LW
N
-3.536 -3.536 M
3.536 3.536 L
-3.536 3.536 M
3.536 -3.536 L
S
GR
GS
[0.6 0 0 0.6 246.822 68.49986] CT
0.494 0.184 0.557 RC
10.0 ML
0.833 LW
N
-3.536 -3.536 M
3.536 3.536 L
-3.536 3.536 M
3.536 -3.536 L
S
GR
GS
[0.6 0 0 0.6 250.07999 68.49986] CT
0.494 0.184 0.557 RC
10.0 ML
0.833 LW
N
-3.536 -3.536 M
3.536 3.536 L
-3.536 3.536 M
3.536 -3.536 L
S
GR
GS
[0.6 0 0 0.6 253.33801 71.77365] CT
0.494 0.184 0.557 RC
10.0 ML
0.833 LW
N
-3.536 -3.536 M
3.536 3.536 L
-3.536 3.536 M
3.536 -3.536 L
S
GR
GS
[0.6 0 0 0.6 256.596 74.03304] CT
0.494 0.184 0.557 RC
10.0 ML
0.833 LW
N
-3.536 -3.536 M
3.536 3.536 L
-3.536 3.536 M
3.536 -3.536 L
S
GR
GS
[0.6 0 0 0.6 259.854 74.12799] CT
0.494 0.184 0.557 RC
10.0 ML
0.833 LW
N
-3.536 -3.536 M
3.536 3.536 L
-3.536 3.536 M
3.536 -3.536 L
S
GR
GS
[0.6 0 0 0.6 263.11199 77.66214] CT
0.494 0.184 0.557 RC
10.0 ML
0.833 LW
N
-3.536 -3.536 M
3.536 3.536 L
-3.536 3.536 M
3.536 -3.536 L
S
GR
GS
[0.6 0 0 0.6 266.37001 79.55162] CT
0.494 0.184 0.557 RC
10.0 ML
0.833 LW
N
-3.536 -3.536 M
3.536 3.536 L
-3.536 3.536 M
3.536 -3.536 L
S
GR
GS
[0.6 0 0 0.6 269.628 79.55162] CT
0.494 0.184 0.557 RC
10.0 ML
0.833 LW
N
-3.536 -3.536 M
3.536 3.536 L
-3.536 3.536 M
3.536 -3.536 L
S
GR
GS
[0.6 0 0 0.6 272.886 79.78863] CT
0.494 0.184 0.557 RC
10.0 ML
0.833 LW
N
-3.536 -3.536 M
3.536 3.536 L
-3.536 3.536 M
3.536 -3.536 L
S
GR
GS
[0.6 0 0 0.6 276.14399 81.07273] CT
0.494 0.184 0.557 RC
10.0 ML
0.833 LW
N
-3.536 -3.536 M
3.536 3.536 L
-3.536 3.536 M
3.536 -3.536 L
S
GR
GS
[0.6 0 0 0.6 279.40201 81.07273] CT
0.494 0.184 0.557 RC
10.0 ML
0.833 LW
N
-3.536 -3.536 M
3.536 3.536 L
-3.536 3.536 M
3.536 -3.536 L
S
GR
GS
[0.6 0 0 0.6 282.66 85.0629] CT
0.494 0.184 0.557 RC
10.0 ML
0.833 LW
N
-3.536 -3.536 M
3.536 3.536 L
-3.536 3.536 M
3.536 -3.536 L
S
GR
GS
[0.6 0 0 0.6 285.918 85.27386] CT
0.494 0.184 0.557 RC
10.0 ML
0.833 LW
N
-3.536 -3.536 M
3.536 3.536 L
-3.536 3.536 M
3.536 -3.536 L
S
GR
GS
[0.6 0 0 0.6 289.17599 85.27386] CT
0.494 0.184 0.557 RC
10.0 ML
0.833 LW
N
-3.536 -3.536 M
3.536 3.536 L
-3.536 3.536 M
3.536 -3.536 L
S
GR
GS
[0.6 0 0 0.6 292.43401 86.71875] CT
0.494 0.184 0.557 RC
10.0 ML
0.833 LW
N
-3.536 -3.536 M
3.536 3.536 L
-3.536 3.536 M
3.536 -3.536 L
S
GR
GS
[0.6 0 0 0.6 295.692 87.2655] CT
0.494 0.184 0.557 RC
10.0 ML
0.833 LW
N
-3.536 -3.536 M
3.536 3.536 L
-3.536 3.536 M
3.536 -3.536 L
S
GR
GS
[0.6 0 0 0.6 298.95 89.52017] CT
0.494 0.184 0.557 RC
10.0 ML
0.833 LW
N
-3.536 -3.536 M
3.536 3.536 L
-3.536 3.536 M
3.536 -3.536 L
S
GR
GS
[0.6 0 0 0.6 302.208 89.52017] CT
0.494 0.184 0.557 RC
10.0 ML
0.833 LW
N
-3.536 -3.536 M
3.536 3.536 L
-3.536 3.536 M
3.536 -3.536 L
S
GR
GS
[0.6 0 0 0.6 305.46599 91.0431] CT
0.494 0.184 0.557 RC
10.0 ML
0.833 LW
N
-3.536 -3.536 M
3.536 3.536 L
-3.536 3.536 M
3.536 -3.536 L
S
GR
GS
[0.6 0 0 0.6 308.72399 91.05621] CT
0.494 0.184 0.557 RC
10.0 ML
0.833 LW
N
-3.536 -3.536 M
3.536 3.536 L
-3.536 3.536 M
3.536 -3.536 L
S
GR
GS
[0.6 0 0 0.6 311.98198 91.05621] CT
0.494 0.184 0.557 RC
10.0 ML
0.833 LW
N
-3.536 -3.536 M
3.536 3.536 L
-3.536 3.536 M
3.536 -3.536 L
S
GR
GS
[0.6 0 0 0.6 315.24001 92.053] CT
0.494 0.184 0.557 RC
10.0 ML
0.833 LW
N
-3.536 -3.536 M
3.536 3.536 L
-3.536 3.536 M
3.536 -3.536 L
S
GR
GS
[0.6 0 0 0.6 318.49801 93.51258] CT
0.494 0.184 0.557 RC
10.0 ML
0.833 LW
N
-3.536 -3.536 M
3.536 3.536 L
-3.536 3.536 M
3.536 -3.536 L
S
GR
GS
[0.6 0 0 0.6 321.75601 94.39174] CT
0.494 0.184 0.557 RC
10.0 ML
0.833 LW
N
-3.536 -3.536 M
3.536 3.536 L
-3.536 3.536 M
3.536 -3.536 L
S
GR
GS
[0.6 0 0 0.6 325.014 94.39174] CT
0.494 0.184 0.557 RC
10.0 ML
0.833 LW
N
-3.536 -3.536 M
3.536 3.536 L
-3.536 3.536 M
3.536 -3.536 L
S
GR
GS
[0.6 0 0 0.6 328.272 96.10242] CT
0.494 0.184 0.557 RC
10.0 ML
0.833 LW
N
-3.536 -3.536 M
3.536 3.536 L
-3.536 3.536 M
3.536 -3.536 L
S
GR
GS
[0.6 0 0 0.6 331.52999 99.10556] CT
0.494 0.184 0.557 RC
10.0 ML
0.833 LW
N
-3.536 -3.536 M
3.536 3.536 L
-3.536 3.536 M
3.536 -3.536 L
S
GR
GS
[0.6 0 0 0.6 334.78799 102.70438] CT
0.494 0.184 0.557 RC
10.0 ML
0.833 LW
N
-3.536 -3.536 M
3.536 3.536 L
-3.536 3.536 M
3.536 -3.536 L
S
GR
GS
[0.6 0 0 0.6 338.04598 102.70438] CT
0.494 0.184 0.557 RC
10.0 ML
0.833 LW
N
-3.536 -3.536 M
3.536 3.536 L
-3.536 3.536 M
3.536 -3.536 L
S
GR
GS
[0.6 0 0 0.6 341.30402 103.16234] CT
0.494 0.184 0.557 RC
10.0 ML
0.833 LW
N
-3.536 -3.536 M
3.536 3.536 L
-3.536 3.536 M
3.536 -3.536 L
S
GR
GS
[0.6 0 0 0.6 344.56201 103.16234] CT
0.494 0.184 0.557 RC
10.0 ML
0.833 LW
N
-3.536 -3.536 M
3.536 3.536 L
-3.536 3.536 M
3.536 -3.536 L
S
GR
GS
[0.6 0 0 0.6 347.82001 108.31755] CT
0.494 0.184 0.557 RC
10.0 ML
0.833 LW
N
-3.536 -3.536 M
3.536 3.536 L
-3.536 3.536 M
3.536 -3.536 L
S
GR
GS
[0.6 0 0 0.6 351.078 108.31755] CT
0.494 0.184 0.557 RC
10.0 ML
0.833 LW
N
-3.536 -3.536 M
3.536 3.536 L
-3.536 3.536 M
3.536 -3.536 L
S
GR
GS
[0.6 0 0 0.6 354.336 112.45097] CT
0.494 0.184 0.557 RC
10.0 ML
0.833 LW
N
-3.536 -3.536 M
3.536 3.536 L
-3.536 3.536 M
3.536 -3.536 L
S
GR
GS
[0.6 0 0 0.6 357.59399 117.79714] CT
0.494 0.184 0.557 RC
10.0 ML
0.833 LW
N
-3.536 -3.536 M
3.536 3.536 L
-3.536 3.536 M
3.536 -3.536 L
S
GR
GS
[0.6 0 0 0.6 360.85199 117.79714] CT
0.494 0.184 0.557 RC
10.0 ML
0.833 LW
N
-3.536 -3.536 M
3.536 3.536 L
-3.536 3.536 M
3.536 -3.536 L
S
GR
GS
[0.6 0 0 0.6 364.10999 121.98285] CT
0.494 0.184 0.557 RC
10.0 ML
0.833 LW
N
-3.536 -3.536 M
3.536 3.536 L
-3.536 3.536 M
3.536 -3.536 L
S
GR
GS
[0.6 0 0 0.6 367.36802 123.82835] CT
0.494 0.184 0.557 RC
10.0 ML
0.833 LW
N
-3.536 -3.536 M
3.536 3.536 L
-3.536 3.536 M
3.536 -3.536 L
S
GR
GS
[0.6 0 0 0.6 370.62601 127.16392] CT
0.494 0.184 0.557 RC
10.0 ML
0.833 LW
N
-3.536 -3.536 M
3.536 3.536 L
-3.536 3.536 M
3.536 -3.536 L
S
GR
GS
[0.6 0 0 0.6 373.88401 129.34167] CT
0.494 0.184 0.557 RC
10.0 ML
0.833 LW
N
-3.536 -3.536 M
3.536 3.536 L
-3.536 3.536 M
3.536 -3.536 L
S
GR
GS
[0.6 0 0 0.6 377.142 136.72386] CT
0.494 0.184 0.557 RC
10.0 ML
0.833 LW
N
-3.536 -3.536 M
3.536 3.536 L
-3.536 3.536 M
3.536 -3.536 L
S
GR
GS
[0.6 0 0 0.6 380.4 148.03916] CT
0.494 0.184 0.557 RC
10.0 ML
0.833 LW
N
-3.536 -3.536 M
3.536 3.536 L
-3.536 3.536 M
3.536 -3.536 L
S
GR
GS
[0.6 0 0 0.6 0 0] CT
0.467 0.675 0.188 RC
1 LJ
0.833 LW
N
96.43 41.758 M
101.86 53.616 L
107.29 59.662 L
112.72 61.137 L
118.15 63.28 L
123.58 67.919 L
129.01 70.093 L
134.44 71.157 L
139.87 71.897 L
145.3 73.529 L
150.73 73.857 L
156.16 73.857 L
161.59 75.64 L
167.02 76.17 L
172.45 76.17 L
177.88 77.895 L
183.31 77.895 L
188.74 77.963 L
194.17 79.371 L
199.6 79.984 L
205.03 80.036 L
210.46 80.036 L
215.89 81.32 L
221.32 81.32 L
226.75 82.849 L
232.18 82.849 L
237.61 83.229 L
243.04 83.229 L
248.47 83.31 L
253.9 83.597 L
259.33 84.246 L
264.76 84.246 L
270.19 85.728 L
275.62 85.728 L
281.05 86.6 L
286.48 87.172 L
291.91 87.57 L
297.34 88.923 L
302.77 91.107 L
308.2 91.107 L
313.63 91.94 L
319.06 93.058 L
324.49 95.426 L
329.92 95.426 L
335.35 98.142 L
340.78 98.792 L
346.21 100.893 L
351.64 101.812 L
357.07 101.812 L
362.5 104.03 L
367.93 104.219 L
373.36 104.219 L
378.79 108.66 L
384.22 108.66 L
389.65 109.565 L
395.08 111.04 L
400.51 111.04 L
405.94 111.674 L
411.37 114.13 L
416.8 114.13 L
422.23 116.757 L
427.66 116.757 L
433.09 123.576 L
438.52 123.576 L
443.95 124.713 L
449.38 126.005 L
454.81 129.486 L
460.24 133.39 L
465.67 133.39 L
471.1 137.11 L
476.53 137.868 L
481.96 141.112 L
487.39 141.112 L
492.82 143.853 L
498.25 143.853 L
503.68 145.755 L
509.11 148.6 L
514.54 149.683 L
519.97 149.683 L
525.4 150.702 L
530.83 150.702 L
536.26 152.262 L
541.69 155.097 L
547.12 160.434 L
552.55 161.678 L
557.98 165.111 L
563.41 166.44 L
568.84 166.44 L
574.27 168.156 L
579.7 171.766 L
585.13 175.838 L
590.56 175.838 L
595.99 188.4 L
601.42 188.4 L
606.85 191.282 L
612.28 199.816 L
617.71 205.865 L
623.14 217.012 L
628.57 221.651 L
634 221.651 L
S
GR
GS
[0.6 0 0 0.6 57.858 25.05484] CT
0.467 0.675 0.188 RC
10.0 ML
0.833 LW
N
-3.536 -3.536 M
3.536 3.536 L
-3.536 3.536 M
3.536 -3.536 L
S
GR
GS
[0.6 0 0 0.6 61.116 32.16972] CT
0.467 0.675 0.188 RC
10.0 ML
0.833 LW
N
-3.536 -3.536 M
3.536 3.536 L
-3.536 3.536 M
3.536 -3.536 L
S
GR
GS
[0.6 0 0 0.6 64.374 35.79716] CT
0.467 0.675 0.188 RC
10.0 ML
0.833 LW
N
-3.536 -3.536 M
3.536 3.536 L
-3.536 3.536 M
3.536 -3.536 L
S
GR
GS
[0.6 0 0 0.6 67.632 36.68225] CT
0.467 0.675 0.188 RC
10.0 ML
0.833 LW
N
-3.536 -3.536 M
3.536 3.536 L
-3.536 3.536 M
3.536 -3.536 L
S
GR
GS
[0.6 0 0 0.6 70.89 37.9683] CT
0.467 0.675 0.188 RC
10.0 ML
0.833 LW
N
-3.536 -3.536 M
3.536 3.536 L
-3.536 3.536 M
3.536 -3.536 L
S
GR
GS
[0.6 0 0 0.6 74.148 40.75126] CT
0.467 0.675 0.188 RC
10.0 ML
0.833 LW
N
-3.536 -3.536 M
3.536 3.536 L
-3.536 3.536 M
3.536 -3.536 L
S
GR
GS
[0.6 0 0 0.6 77.406 42.05574] CT
0.467 0.675 0.188 RC
10.0 ML
0.833 LW
N
-3.536 -3.536 M
3.536 3.536 L
-3.536 3.536 M
3.536 -3.536 L
S
GR
GS
[0.6 0 0 0.6 80.664 42.69432] CT
0.467 0.675 0.188 RC
10.0 ML
0.833 LW
N
-3.536 -3.536 M
3.536 3.536 L
-3.536 3.536 M
3.536 -3.536 L
S
GR
GS
[0.6 0 0 0.6 83.922 43.13824] CT
0.467 0.675 0.188 RC
10.0 ML
0.833 LW
N
-3.536 -3.536 M
3.536 3.536 L
-3.536 3.536 M
3.536 -3.536 L
S
GR
GS
[0.6 0 0 0.6 87.18 44.11743] CT
0.467 0.675 0.188 RC
10.0 ML
0.833 LW
N
-3.536 -3.536 M
3.536 3.536 L
-3.536 3.536 M
3.536 -3.536 L
S
GR
GS
[0.6 0 0 0.6 90.438 44.31424] CT
0.467 0.675 0.188 RC
10.0 ML
0.833 LW
N
-3.536 -3.536 M
3.536 3.536 L
-3.536 3.536 M
3.536 -3.536 L
S
GR
GS
[0.6 0 0 0.6 93.696 44.31424] CT
0.467 0.675 0.188 RC
10.0 ML
0.833 LW
N
-3.536 -3.536 M
3.536 3.536 L
-3.536 3.536 M
3.536 -3.536 L
S
GR
GS
[0.6 0 0 0.6 96.954 45.38394] CT
0.467 0.675 0.188 RC
10.0 ML
0.833 LW
N
-3.536 -3.536 M
3.536 3.536 L
-3.536 3.536 M
3.536 -3.536 L
S
GR
GS
[0.6 0 0 0.6 100.212 45.70229] CT
0.467 0.675 0.188 RC
10.0 ML
0.833 LW
N
-3.536 -3.536 M
3.536 3.536 L
-3.536 3.536 M
3.536 -3.536 L
S
GR
GS
[0.6 0 0 0.6 103.47 45.70229] CT
0.467 0.675 0.188 RC
10.0 ML
0.833 LW
N
-3.536 -3.536 M
3.536 3.536 L
-3.536 3.536 M
3.536 -3.536 L
S
GR
GS
[0.6 0 0 0.6 106.728 46.73676] CT
0.467 0.675 0.188 RC
10.0 ML
0.833 LW
N
-3.536 -3.536 M
3.536 3.536 L
-3.536 3.536 M
3.536 -3.536 L
S
GR
GS
[0.6 0 0 0.6 109.986 46.73676] CT
0.467 0.675 0.188 RC
10.0 ML
0.833 LW
N
-3.536 -3.536 M
3.536 3.536 L
-3.536 3.536 M
3.536 -3.536 L
S
GR
GS
[0.6 0 0 0.6 113.244 46.77751] CT
0.467 0.675 0.188 RC
10.0 ML
0.833 LW
N
-3.536 -3.536 M
3.536 3.536 L
-3.536 3.536 M
3.536 -3.536 L
S
GR
GS
[0.6 0 0 0.6 116.502 47.62273] CT
0.467 0.675 0.188 RC
10.0 ML
0.833 LW
N
-3.536 -3.536 M
3.536 3.536 L
-3.536 3.536 M
3.536 -3.536 L
S
GR
GS
[0.6 0 0 0.6 119.76 47.99027] CT
0.467 0.675 0.188 RC
10.0 ML
0.833 LW
N
-3.536 -3.536 M
3.536 3.536 L
-3.536 3.536 M
3.536 -3.536 L
S
GR
GS
[0.6 0 0 0.6 123.018 48.02165] CT
0.467 0.675 0.188 RC
10.0 ML
0.833 LW
N
-3.536 -3.536 M
3.536 3.536 L
-3.536 3.536 M
3.536 -3.536 L
S
GR
GS
[0.6 0 0 0.6 126.276 48.02165] CT
0.467 0.675 0.188 RC
10.0 ML
0.833 LW
N
-3.536 -3.536 M
3.536 3.536 L
-3.536 3.536 M
3.536 -3.536 L
S
GR
GS
[0.6 0 0 0.6 129.534 48.79172] CT
0.467 0.675 0.188 RC
10.0 ML
0.833 LW
N
-3.536 -3.536 M
3.536 3.536 L
-3.536 3.536 M
3.536 -3.536 L
S
GR
GS
[0.6 0 0 0.6 132.792 48.79172] CT
0.467 0.675 0.188 RC
10.0 ML
0.833 LW
N
-3.536 -3.536 M
3.536 3.536 L
-3.536 3.536 M
3.536 -3.536 L
S
GR
GS
[0.6 0 0 0.6 136.05 49.70954] CT
0.467 0.675 0.188 RC
10.0 ML
0.833 LW
N
-3.536 -3.536 M
3.536 3.536 L
-3.536 3.536 M
3.536 -3.536 L
S
GR
GS
[0.6 0 0 0.6 139.308 49.70954] CT
0.467 0.675 0.188 RC
10.0 ML
0.833 LW
N
-3.536 -3.536 M
3.536 3.536 L
-3.536 3.536 M
3.536 -3.536 L
S
GR
GS
[0.6 0 0 0.6 142.566 49.93732] CT
0.467 0.675 0.188 RC
10.0 ML
0.833 LW
N
-3.536 -3.536 M
3.536 3.536 L
-3.536 3.536 M
3.536 -3.536 L
S
GR
GS
[0.6 0 0 0.6 145.824 49.93732] CT
0.467 0.675 0.188 RC
10.0 ML
0.833 LW
N
-3.536 -3.536 M
3.536 3.536 L
-3.536 3.536 M
3.536 -3.536 L
S
GR
GS
[0.6 0 0 0.6 149.082 49.98599] CT
0.467 0.675 0.188 RC
10.0 ML
0.833 LW
N
-3.536 -3.536 M
3.536 3.536 L
-3.536 3.536 M
3.536 -3.536 L
S
GR
GS
[0.6 0 0 0.6 152.34 50.15847] CT
0.467 0.675 0.188 RC
10.0 ML
0.833 LW
N
-3.536 -3.536 M
3.536 3.536 L
-3.536 3.536 M
3.536 -3.536 L
S
GR
GS
[0.6 0 0 0.6 155.59799 50.54734] CT
0.467 0.675 0.188 RC
10.0 ML
0.833 LW
N
-3.536 -3.536 M
3.536 3.536 L
-3.536 3.536 M
3.536 -3.536 L
S
GR
GS
[0.6 0 0 0.6 158.85601 50.54734] CT
0.467 0.675 0.188 RC
10.0 ML
0.833 LW
N
-3.536 -3.536 M
3.536 3.536 L
-3.536 3.536 M
3.536 -3.536 L
S
GR
GS
[0.6 0 0 0.6 162.114 51.43665] CT
0.467 0.675 0.188 RC
10.0 ML
0.833 LW
N
-3.536 -3.536 M
3.536 3.536 L
-3.536 3.536 M
3.536 -3.536 L
S
GR
GS
[0.6 0 0 0.6 165.372 51.43665] CT
0.467 0.675 0.188 RC
10.0 ML
0.833 LW
N
-3.536 -3.536 M
3.536 3.536 L
-3.536 3.536 M
3.536 -3.536 L
S
GR
GS
[0.6 0 0 0.6 168.62999 51.95973] CT
0.467 0.675 0.188 RC
10.0 ML
0.833 LW
N
-3.536 -3.536 M
3.536 3.536 L
-3.536 3.536 M
3.536 -3.536 L
S
GR
GS
[0.6 0 0 0.6 171.88801 52.30301] CT
0.467 0.675 0.188 RC
10.0 ML
0.833 LW
N
-3.536 -3.536 M
3.536 3.536 L
-3.536 3.536 M
3.536 -3.536 L
S
GR
GS
[0.6 0 0 0.6 175.146 52.54212] CT
0.467 0.675 0.188 RC
10.0 ML
0.833 LW
N
-3.536 -3.536 M
3.536 3.536 L
-3.536 3.536 M
3.536 -3.536 L
S
GR
GS
[0.6 0 0 0.6 178.404 53.35397] CT
0.467 0.675 0.188 RC
10.0 ML
0.833 LW
N
-3.536 -3.536 M
3.536 3.536 L
-3.536 3.536 M
3.536 -3.536 L
S
GR
GS
[0.6 0 0 0.6 181.66199 54.66397] CT
0.467 0.675 0.188 RC
10.0 ML
0.833 LW
N
-3.536 -3.536 M
3.536 3.536 L
-3.536 3.536 M
3.536 -3.536 L
S
GR
GS
[0.6 0 0 0.6 184.92001 54.66397] CT
0.467 0.675 0.188 RC
10.0 ML
0.833 LW
N
-3.536 -3.536 M
3.536 3.536 L
-3.536 3.536 M
3.536 -3.536 L
S
GR
GS
[0.6 0 0 0.6 188.178 55.16376] CT
0.467 0.675 0.188 RC
10.0 ML
0.833 LW
N
-3.536 -3.536 M
3.536 3.536 L
-3.536 3.536 M
3.536 -3.536 L
S
GR
GS
[0.6 0 0 0.6 191.436 55.8347] CT
0.467 0.675 0.188 RC
10.0 ML
0.833 LW
N
-3.536 -3.536 M
3.536 3.536 L
-3.536 3.536 M
3.536 -3.536 L
S
GR
GS
[0.6 0 0 0.6 194.69399 57.25546] CT
0.467 0.675 0.188 RC
10.0 ML
0.833 LW
N
-3.536 -3.536 M
3.536 3.536 L
-3.536 3.536 M
3.536 -3.536 L
S
GR
GS
[0.6 0 0 0.6 197.95201 57.25546] CT
0.467 0.675 0.188 RC
10.0 ML
0.833 LW
N
-3.536 -3.536 M
3.536 3.536 L
-3.536 3.536 M
3.536 -3.536 L
S
GR
GS
[0.6 0 0 0.6 201.21 58.8852] CT
0.467 0.675 0.188 RC
10.0 ML
0.833 LW
N
-3.536 -3.536 M
3.536 3.536 L
-3.536 3.536 M
3.536 -3.536 L
S
GR
GS
[0.6 0 0 0.6 204.468 59.27523] CT
0.467 0.675 0.188 RC
10.0 ML
0.833 LW
N
-3.536 -3.536 M
3.536 3.536 L
-3.536 3.536 M
3.536 -3.536 L
S
GR
GS
[0.6 0 0 0.6 207.72599 60.53579] CT
0.467 0.675 0.188 RC
10.0 ML
0.833 LW
N
-3.536 -3.536 M
3.536 3.536 L
-3.536 3.536 M
3.536 -3.536 L
S
GR
GS
[0.6 0 0 0.6 210.98401 61.08742] CT
0.467 0.675 0.188 RC
10.0 ML
0.833 LW
N
-3.536 -3.536 M
3.536 3.536 L
-3.536 3.536 M
3.536 -3.536 L
S
GR
GS
[0.6 0 0 0.6 214.242 61.08742] CT
0.467 0.675 0.188 RC
10.0 ML
0.833 LW
N
-3.536 -3.536 M
3.536 3.536 L
-3.536 3.536 M
3.536 -3.536 L
S
GR
GS
[0.6 0 0 0.6 217.5 62.41792] CT
0.467 0.675 0.188 RC
10.0 ML
0.833 LW
N
-3.536 -3.536 M
3.536 3.536 L
-3.536 3.536 M
3.536 -3.536 L
S
GR
GS
[0.6 0 0 0.6 220.758 62.53169] CT
0.467 0.675 0.188 RC
10.0 ML
0.833 LW
N
-3.536 -3.536 M
3.536 3.536 L
-3.536 3.536 M
3.536 -3.536 L
S
GR
GS
[0.6 0 0 0.6 224.01599 62.53169] CT
0.467 0.675 0.188 RC
10.0 ML
0.833 LW
N
-3.536 -3.536 M
3.536 3.536 L
-3.536 3.536 M
3.536 -3.536 L
S
GR
GS
[0.6 0 0 0.6 227.27401 65.19608] CT
0.467 0.675 0.188 RC
10.0 ML
0.833 LW
N
-3.536 -3.536 M
3.536 3.536 L
-3.536 3.536 M
3.536 -3.536 L
S
GR
GS
[0.6 0 0 0.6 230.532 65.19608] CT
0.467 0.675 0.188 RC
10.0 ML
0.833 LW
N
-3.536 -3.536 M
3.536 3.536 L
-3.536 3.536 M
3.536 -3.536 L
S
GR
GS
[0.6 0 0 0.6 233.79 65.73891] CT
0.467 0.675 0.188 RC
10.0 ML
0.833 LW
N
-3.536 -3.536 M
3.536 3.536 L
-3.536 3.536 M
3.536 -3.536 L
S
GR
GS
[0.6 0 0 0.6 237.04799 66.62427] CT
0.467 0.675 0.188 RC
10.0 ML
0.833 LW
N
-3.536 -3.536 M
3.536 3.536 L
-3.536 3.536 M
3.536 -3.536 L
S
GR
GS
[0.6 0 0 0.6 240.30601 66.62427] CT
0.467 0.675 0.188 RC
10.0 ML
0.833 LW
N
-3.536 -3.536 M
3.536 3.536 L
-3.536 3.536 M
3.536 -3.536 L
S
GR
GS
[0.6 0 0 0.6 243.564 67.00423] CT
0.467 0.675 0.188 RC
10.0 ML
0.833 LW
N
-3.536 -3.536 M
3.536 3.536 L
-3.536 3.536 M
3.536 -3.536 L
S
GR
GS
[0.6 0 0 0.6 246.822 68.47776] CT
0.467 0.675 0.188 RC
10.0 ML
0.833 LW
N
-3.536 -3.536 M
3.536 3.536 L
-3.536 3.536 M
3.536 -3.536 L
S
GR
GS
[0.6 0 0 0.6 250.07999 68.47776] CT
0.467 0.675 0.188 RC
10.0 ML
0.833 LW
N
-3.536 -3.536 M
3.536 3.536 L
-3.536 3.536 M
3.536 -3.536 L
S
GR
GS
[0.6 0 0 0.6 253.33801 70.05406] CT
0.467 0.675 0.188 RC
10.0 ML
0.833 LW
N
-3.536 -3.536 M
3.536 3.536 L
-3.536 3.536 M
3.536 -3.536 L
S
GR
GS
[0.6 0 0 0.6 256.596 70.05406] CT
0.467 0.675 0.188 RC
10.0 ML
0.833 LW
N
-3.536 -3.536 M
3.536 3.536 L
-3.536 3.536 M
3.536 -3.536 L
S
GR
GS
[0.6 0 0 0.6 259.854 74.14536] CT
0.467 0.675 0.188 RC
10.0 ML
0.833 LW
N
-3.536 -3.536 M
3.536 3.536 L
-3.536 3.536 M
3.536 -3.536 L
S
GR
GS
[0.6 0 0 0.6 263.11199 74.14536] CT
0.467 0.675 0.188 RC
10.0 ML
0.833 LW
N
-3.536 -3.536 M
3.536 3.536 L
-3.536 3.536 M
3.536 -3.536 L
S
GR
GS
[0.6 0 0 0.6 266.37001 74.82783] CT
0.467 0.675 0.188 RC
10.0 ML
0.833 LW
N
-3.536 -3.536 M
3.536 3.536 L
-3.536 3.536 M
3.536 -3.536 L
S
GR
GS
[0.6 0 0 0.6 269.628 75.60284] CT
0.467 0.675 0.188 RC
10.0 ML
0.833 LW
N
-3.536 -3.536 M
3.536 3.536 L
-3.536 3.536 M
3.536 -3.536 L
S
GR
GS
[0.6 0 0 0.6 272.886 77.69156] CT
0.467 0.675 0.188 RC
10.0 ML
0.833 LW
N
-3.536 -3.536 M
3.536 3.536 L
-3.536 3.536 M
3.536 -3.536 L
S
GR
GS
[0.6 0 0 0.6 276.14399 80.03396] CT
0.467 0.675 0.188 RC
10.0 ML
0.833 LW
N
-3.536 -3.536 M
3.536 3.536 L
-3.536 3.536 M
3.536 -3.536 L
S
GR
GS
[0.6 0 0 0.6 279.40201 80.03396] CT
0.467 0.675 0.188 RC
10.0 ML
0.833 LW
N
-3.536 -3.536 M
3.536 3.536 L
-3.536 3.536 M
3.536 -3.536 L
S
GR
GS
[0.6 0 0 0.6 282.66 82.26622] CT
0.467 0.675 0.188 RC
10.0 ML
0.833 LW
N
-3.536 -3.536 M
3.536 3.536 L
-3.536 3.536 M
3.536 -3.536 L
S
GR
GS
[0.6 0 0 0.6 285.918 82.72067] CT
0.467 0.675 0.188 RC
10.0 ML
0.833 LW
N
-3.536 -3.536 M
3.536 3.536 L
-3.536 3.536 M
3.536 -3.536 L
S
GR
GS
[0.6 0 0 0.6 289.17599 84.66698] CT
0.467 0.675 0.188 RC
10.0 ML
0.833 LW
N
-3.536 -3.536 M
3.536 3.536 L
-3.536 3.536 M
3.536 -3.536 L
S
GR
GS
[0.6 0 0 0.6 292.43401 84.66698] CT
0.467 0.675 0.188 RC
10.0 ML
0.833 LW
N
-3.536 -3.536 M
3.536 3.536 L
-3.536 3.536 M
3.536 -3.536 L
S
GR
GS
[0.6 0 0 0.6 295.692 86.31197] CT
0.467 0.675 0.188 RC
10.0 ML
0.833 LW
N
-3.536 -3.536 M
3.536 3.536 L
-3.536 3.536 M
3.536 -3.536 L
S
GR
GS
[0.6 0 0 0.6 298.95 86.31197] CT
0.467 0.675 0.188 RC
10.0 ML
0.833 LW
N
-3.536 -3.536 M
3.536 3.536 L
-3.536 3.536 M
3.536 -3.536 L
S
GR
GS
[0.6 0 0 0.6 302.208 87.45272] CT
0.467 0.675 0.188 RC
10.0 ML
0.833 LW
N
-3.536 -3.536 M
3.536 3.536 L
-3.536 3.536 M
3.536 -3.536 L
S
GR
GS
[0.6 0 0 0.6 305.46599 89.16021] CT
0.467 0.675 0.188 RC
10.0 ML
0.833 LW
N
-3.536 -3.536 M
3.536 3.536 L
-3.536 3.536 M
3.536 -3.536 L
S
GR
GS
[0.6 0 0 0.6 308.72399 89.80963] CT
0.467 0.675 0.188 RC
10.0 ML
0.833 LW
N
-3.536 -3.536 M
3.536 3.536 L
-3.536 3.536 M
3.536 -3.536 L
S
GR
GS
[0.6 0 0 0.6 311.98198 89.80963] CT
0.467 0.675 0.188 RC
10.0 ML
0.833 LW
N
-3.536 -3.536 M
3.536 3.536 L
-3.536 3.536 M
3.536 -3.536 L
S
GR
GS
[0.6 0 0 0.6 315.24001 90.42142] CT
0.467 0.675 0.188 RC
10.0 ML
0.833 LW
N
-3.536 -3.536 M
3.536 3.536 L
-3.536 3.536 M
3.536 -3.536 L
S
GR
GS
[0.6 0 0 0.6 318.49801 90.42142] CT
0.467 0.675 0.188 RC
10.0 ML
0.833 LW
N
-3.536 -3.536 M
3.536 3.536 L
-3.536 3.536 M
3.536 -3.536 L
S
GR
GS
[0.6 0 0 0.6 321.75601 91.35732] CT
0.467 0.675 0.188 RC
10.0 ML
0.833 LW
N
-3.536 -3.536 M
3.536 3.536 L
-3.536 3.536 M
3.536 -3.536 L
S
GR
GS
[0.6 0 0 0.6 325.014 93.05828] CT
0.467 0.675 0.188 RC
10.0 ML
0.833 LW
N
-3.536 -3.536 M
3.536 3.536 L
-3.536 3.536 M
3.536 -3.536 L
S
GR
GS
[0.6 0 0 0.6 328.272 96.26026] CT
0.467 0.675 0.188 RC
10.0 ML
0.833 LW
N
-3.536 -3.536 M
3.536 3.536 L
-3.536 3.536 M
3.536 -3.536 L
S
GR
GS
[0.6 0 0 0.6 331.52999 97.00702] CT
0.467 0.675 0.188 RC
10.0 ML
0.833 LW
N
-3.536 -3.536 M
3.536 3.536 L
-3.536 3.536 M
3.536 -3.536 L
S
GR
GS
[0.6 0 0 0.6 334.78799 99.06635] CT
0.467 0.675 0.188 RC
10.0 ML
0.833 LW
N
-3.536 -3.536 M
3.536 3.536 L
-3.536 3.536 M
3.536 -3.536 L
S
GR
GS
[0.6 0 0 0.6 338.04598 99.86386] CT
0.467 0.675 0.188 RC
10.0 ML
0.833 LW
N
-3.536 -3.536 M
3.536 3.536 L
-3.536 3.536 M
3.536 -3.536 L
S
GR
GS
[0.6 0 0 0.6 341.30402 99.86386] CT
0.467 0.675 0.188 RC
10.0 ML
0.833 LW
N
-3.536 -3.536 M
3.536 3.536 L
-3.536 3.536 M
3.536 -3.536 L
S
GR
GS
[0.6 0 0 0.6 344.56201 100.89333] CT
0.467 0.675 0.188 RC
10.0 ML
0.833 LW
N
-3.536 -3.536 M
3.536 3.536 L
-3.536 3.536 M
3.536 -3.536 L
S
GR
GS
[0.6 0 0 0.6 347.82001 103.0598] CT
0.467 0.675 0.188 RC
10.0 ML
0.833 LW
N
-3.536 -3.536 M
3.536 3.536 L
-3.536 3.536 M
3.536 -3.536 L
S
GR
GS
[0.6 0 0 0.6 351.078 105.50269] CT
0.467 0.675 0.188 RC
10.0 ML
0.833 LW
N
-3.536 -3.536 M
3.536 3.536 L
-3.536 3.536 M
3.536 -3.536 L
S
GR
GS
[0.6 0 0 0.6 354.336 105.50269] CT
0.467 0.675 0.188 RC
10.0 ML
0.833 LW
N
-3.536 -3.536 M
3.536 3.536 L
-3.536 3.536 M
3.536 -3.536 L
S
GR
GS
[0.6 0 0 0.6 357.59399 113.04023] CT
0.467 0.675 0.188 RC
10.0 ML
0.833 LW
N
-3.536 -3.536 M
3.536 3.536 L
-3.536 3.536 M
3.536 -3.536 L
S
GR
GS
[0.6 0 0 0.6 360.85199 113.04023] CT
0.467 0.675 0.188 RC
10.0 ML
0.833 LW
N
-3.536 -3.536 M
3.536 3.536 L
-3.536 3.536 M
3.536 -3.536 L
S
GR
GS
[0.6 0 0 0.6 364.10999 114.76932] CT
0.467 0.675 0.188 RC
10.0 ML
0.833 LW
N
-3.536 -3.536 M
3.536 3.536 L
-3.536 3.536 M
3.536 -3.536 L
S
GR
GS
[0.6 0 0 0.6 367.36802 119.88985] CT
0.467 0.675 0.188 RC
10.0 ML
0.833 LW
N
-3.536 -3.536 M
3.536 3.536 L
-3.536 3.536 M
3.536 -3.536 L
S
GR
GS
[0.6 0 0 0.6 370.62601 123.51875] CT
0.467 0.675 0.188 RC
10.0 ML
0.833 LW
N
-3.536 -3.536 M
3.536 3.536 L
-3.536 3.536 M
3.536 -3.536 L
S
GR
GS
[0.6 0 0 0.6 373.88401 130.20735] CT
0.467 0.675 0.188 RC
10.0 ML
0.833 LW
N
-3.536 -3.536 M
3.536 3.536 L
-3.536 3.536 M
3.536 -3.536 L
S
GR
GS
[0.6 0 0 0.6 377.142 132.99064] CT
0.467 0.675 0.188 RC
10.0 ML
0.833 LW
N
-3.536 -3.536 M
3.536 3.536 L
-3.536 3.536 M
3.536 -3.536 L
S
GR
GS
[0.6 0 0 0.6 380.4 132.99064] CT
0.467 0.675 0.188 RC
10.0 ML
0.833 LW
N
-3.536 -3.536 M
3.536 3.536 L
-3.536 3.536 M
3.536 -3.536 L
S
GR
GS
[0.6 0 0 0.6 0 0] CT
1 GC
N
530 163 M
530 56 L
617 56 L
617 163 L
cp
f
GR
GS
[0.6 0 0 0.6 345.6705 41.06511] CT
/Helvetica 15 F
GS
[1 0 0 1 0 0] CT
0 6 moveto 
1 -1 scale
(exact) t 
GR
GR
GS
[0.6 0 0 0.6 0 0] CT
0 0.447 0.741 RC
1 LJ
0.833 LW
N
534.986 68.442 M
572.378 68.442 L
S
GR
GS
[0.6 0 0 0.6 332.20917 41.06512] CT
0 0.447 0.741 RC
10.0 ML
0.833 LW
N
-3.536 -3.536 M
3.536 3.536 L
-3.536 3.536 M
3.536 -3.536 L
S
GR
GS
[0.6 0 0 0.6 345.6705 53.38256] CT
/Helvetica 15 F
GS
[1 0 0 1 0 0] CT
0 6 moveto 
1 -1 scale
(q = 0) t 
GR
GR
GS
[0.6 0 0 0.6 0 0] CT
0.851 0.325 0.098 RC
1 LJ
0.833 LW
N
534.986 88.971 M
572.378 88.971 L
S
GR
GS
[0.6 0 0 0.6 332.20917 53.38256] CT
0.851 0.325 0.098 RC
10.0 ML
0.833 LW
N
-3.536 -3.536 M
3.536 3.536 L
-3.536 3.536 M
3.536 -3.536 L
S
GR
GS
[0.6 0 0 0.6 345.6705 65.7] CT
/Helvetica 15 F
GS
[1 0 0 1 0 0] CT
0 6 moveto 
1 -1 scale
(q = 1) t 
GR
GR
GS
[0.6 0 0 0.6 0 0] CT
0.929 0.694 0.125 RC
1 LJ
0.833 LW
N
534.986 109.5 M
572.378 109.5 L
S
GR
GS
[0.6 0 0 0.6 332.20917 65.7] CT
0.929 0.694 0.125 RC
10.0 ML
0.833 LW
N
-3.536 -3.536 M
3.536 3.536 L
-3.536 3.536 M
3.536 -3.536 L
S
GR
GS
[0.6 0 0 0.6 345.6705 78.01744] CT
/Helvetica 15 F
GS
[1 0 0 1 0 0] CT
0 6 moveto 
1 -1 scale
(q = 2) t 
GR
GR
GS
[0.6 0 0 0.6 0 0] CT
0.494 0.184 0.557 RC
1 LJ
0.833 LW
N
534.986 130.029 M
572.378 130.029 L
S
GR
GS
[0.6 0 0 0.6 332.20917 78.01744] CT
0.494 0.184 0.557 RC
10.0 ML
0.833 LW
N
-3.536 -3.536 M
3.536 3.536 L
-3.536 3.536 M
3.536 -3.536 L
S
GR
GS
[0.6 0 0 0.6 345.6705 90.33488] CT
/Helvetica 15 F
GS
[1 0 0 1 0 0] CT
0 6 moveto 
1 -1 scale
(q = 3) t 
GR
GR
GS
[0.6 0 0 0.6 0 0] CT
0.467 0.675 0.188 RC
1 LJ
0.833 LW
N
534.986 150.558 M
572.378 150.558 L
S
GR
GS
[0.6 0 0 0.6 332.20917 90.33488] CT
0.467 0.675 0.188 RC
10.0 ML
0.833 LW
N
-3.536 -3.536 M
3.536 3.536 L
-3.536 3.536 M
3.536 -3.536 L
S
GR
GS
[0.6 0 0 0.6 0 0] CT
0.149 GC
10.0 ML
0.833 LW
N
530 163 M
530 56 L
617 56 L
617 163 L
cp
S
GR
%%Trailer
%%Pages: 1
%%EOF
