%!PS-Adobe-3.0 EPSF-3.0
%%Creator: (MATLAB, The Mathworks, Inc. Version 9.1.0.441655 \(R2016b\). Operating System: Windows 8)
%%Title: C:/Users/simon/Documents/Unief/M1/Numerical_linear_algebra/Homework_2/git/Verslag/slow_decay_30_error.eps
%%CreationDate: 2016-12-01T14:12:18
%%Pages: (atend)
%%BoundingBox: 0 0 420 315
%%LanguageLevel: 3
%%EndComments
%%BeginProlog
%%BeginResource: procset (Apache XML Graphics Std ProcSet) 1.2 0
%%Version: 1.2 0
%%Copyright: (Copyright 2001-2003,2010 The Apache Software Foundation. License terms: http://www.apache.org/licenses/LICENSE-2.0)
/bd{bind def}bind def
/ld{load def}bd
/GR/grestore ld
/M/moveto ld
/LJ/setlinejoin ld
/C/curveto ld
/f/fill ld
/LW/setlinewidth ld
/GC/setgray ld
/t/show ld
/N/newpath ld
/CT/concat ld
/cp/closepath ld
/S/stroke ld
/L/lineto ld
/CC/setcmykcolor ld
/A/ashow ld
/GS/gsave ld
/RC/setrgbcolor ld
/RM/rmoveto ld
/ML/setmiterlimit ld
/re {4 2 roll M
1 index 0 rlineto
0 exch rlineto
neg 0 rlineto
cp } bd
/_ctm matrix def
/_tm matrix def
/BT { _ctm currentmatrix pop matrix _tm copy pop 0 0 moveto } bd
/ET { _ctm setmatrix } bd
/iTm { _ctm setmatrix _tm concat } bd
/Tm { _tm astore pop iTm 0 0 moveto } bd
/ux 0.0 def
/uy 0.0 def
/F {
  /Tp exch def
  /Tf exch def
  Tf findfont Tp scalefont setfont
  /cf Tf def  /cs Tp def
} bd
/ULS {currentpoint /uy exch def /ux exch def} bd
/ULE {
  /Tcx currentpoint pop def
  gsave
  newpath
  cf findfont cs scalefont dup
  /FontMatrix get 0 get /Ts exch def /FontInfo get dup
  /UnderlinePosition get Ts mul /To exch def
  /UnderlineThickness get Ts mul /Tt exch def
  ux uy To add moveto  Tcx uy To add lineto
  Tt setlinewidth stroke
  grestore
} bd
/OLE {
  /Tcx currentpoint pop def
  gsave
  newpath
  cf findfont cs scalefont dup
  /FontMatrix get 0 get /Ts exch def /FontInfo get dup
  /UnderlinePosition get Ts mul /To exch def
  /UnderlineThickness get Ts mul /Tt exch def
  ux uy To add cs add moveto Tcx uy To add cs add lineto
  Tt setlinewidth stroke
  grestore
} bd
/SOE {
  /Tcx currentpoint pop def
  gsave
  newpath
  cf findfont cs scalefont dup
  /FontMatrix get 0 get /Ts exch def /FontInfo get dup
  /UnderlinePosition get Ts mul /To exch def
  /UnderlineThickness get Ts mul /Tt exch def
  ux uy To add cs 10 mul 26 idiv add moveto Tcx uy To add cs 10 mul 26 idiv add lineto
  Tt setlinewidth stroke
  grestore
} bd
/QT {
/Y22 exch store
/X22 exch store
/Y21 exch store
/X21 exch store
currentpoint
/Y21 load 2 mul add 3 div exch
/X21 load 2 mul add 3 div exch
/X21 load 2 mul /X22 load add 3 div
/Y21 load 2 mul /Y22 load add 3 div
/X22 load /Y22 load curveto
} bd
/SSPD {
dup length /d exch dict def
{
/v exch def
/k exch def
currentpagedevice k known {
/cpdv currentpagedevice k get def
v cpdv ne {
/upd false def
/nullv v type /nulltype eq def
/nullcpdv cpdv type /nulltype eq def
nullv nullcpdv or
{
/upd true def
} {
/sametype v type cpdv type eq def
sametype {
v type /arraytype eq {
/vlen v length def
/cpdvlen cpdv length def
vlen cpdvlen eq {
0 1 vlen 1 sub {
/i exch def
/obj v i get def
/cpdobj cpdv i get def
obj cpdobj ne {
/upd true def
exit
} if
} for
} {
/upd true def
} ifelse
} {
v type /dicttype eq {
v {
/dv exch def
/dk exch def
/cpddv cpdv dk get def
dv cpddv ne {
/upd true def
exit
} if
} forall
} {
/upd true def
} ifelse
} ifelse
} if
} ifelse
upd true eq {
d k v put
} if
} if
} if
} forall
d length 0 gt {
d setpagedevice
} if
} bd
/RE { % /NewFontName [NewEncodingArray] /FontName RE -
  findfont dup length dict begin
  {
    1 index /FID ne
    {def} {pop pop} ifelse
  } forall
  /Encoding exch def
  /FontName 1 index def
  currentdict definefont pop
  end
} bind def
%%EndResource
%%BeginResource: procset (Apache XML Graphics EPS ProcSet) 1.0 0
%%Version: 1.0 0
%%Copyright: (Copyright 2002-2003 The Apache Software Foundation. License terms: http://www.apache.org/licenses/LICENSE-2.0)
/BeginEPSF { %def
/b4_Inc_state save def         % Save state for cleanup
/dict_count countdictstack def % Count objects on dict stack
/op_count count 1 sub def      % Count objects on operand stack
userdict begin                 % Push userdict on dict stack
/showpage { } def              % Redefine showpage, { } = null proc
0 setgray 0 setlinecap         % Prepare graphics state
1 setlinewidth 0 setlinejoin
10 setmiterlimit [ ] 0 setdash newpath
/languagelevel where           % If level not equal to 1 then
{pop languagelevel             % set strokeadjust and
1 ne                           % overprint to their defaults.
{false setstrokeadjust false setoverprint
} if
} if
} bd
/EndEPSF { %def
count op_count sub {pop} repeat            % Clean up stacks
countdictstack dict_count sub {end} repeat
b4_Inc_state restore
} bd
%%EndResource
%FOPBeginFontDict
%%IncludeResource: font Courier-Bold
%%IncludeResource: font Helvetica
%%IncludeResource: font Courier-BoldOblique
%%IncludeResource: font Courier-Oblique
%%IncludeResource: font Times-Roman
%%IncludeResource: font Helvetica-BoldOblique
%%IncludeResource: font Helvetica-Bold
%%IncludeResource: font Helvetica-Oblique
%%IncludeResource: font Times-BoldItalic
%%IncludeResource: font Courier
%%IncludeResource: font Times-Italic
%%IncludeResource: font Times-Bold
%%IncludeResource: font Symbol
%%IncludeResource: font ZapfDingbats
%FOPEndFontDict
%%BeginResource: encoding WinAnsiEncoding
/WinAnsiEncoding [
/.notdef /.notdef /.notdef /.notdef /.notdef
/.notdef /.notdef /.notdef /.notdef /.notdef
/.notdef /.notdef /.notdef /.notdef /.notdef
/.notdef /.notdef /.notdef /.notdef /.notdef
/.notdef /.notdef /.notdef /.notdef /.notdef
/.notdef /.notdef /.notdef /.notdef /.notdef
/.notdef /.notdef /space /exclam /quotedbl
/numbersign /dollar /percent /ampersand /quotesingle
/parenleft /parenright /asterisk /plus /comma
/hyphen /period /slash /zero /one
/two /three /four /five /six
/seven /eight /nine /colon /semicolon
/less /equal /greater /question /at
/A /B /C /D /E
/F /G /H /I /J
/K /L /M /N /O
/P /Q /R /S /T
/U /V /W /X /Y
/Z /bracketleft /backslash /bracketright /asciicircum
/underscore /quoteleft /a /b /c
/d /e /f /g /h
/i /j /k /l /m
/n /o /p /q /r
/s /t /u /v /w
/x /y /z /braceleft /bar
/braceright /asciitilde /bullet /Euro /bullet
/quotesinglbase /florin /quotedblbase /ellipsis /dagger
/daggerdbl /circumflex /perthousand /Scaron /guilsinglleft
/OE /bullet /Zcaron /bullet /bullet
/quoteleft /quoteright /quotedblleft /quotedblright /bullet
/endash /emdash /asciitilde /trademark /scaron
/guilsinglright /oe /bullet /zcaron /Ydieresis
/space /exclamdown /cent /sterling /currency
/yen /brokenbar /section /dieresis /copyright
/ordfeminine /guillemotleft /logicalnot /sfthyphen /registered
/macron /degree /plusminus /twosuperior /threesuperior
/acute /mu /paragraph /middot /cedilla
/onesuperior /ordmasculine /guillemotright /onequarter /onehalf
/threequarters /questiondown /Agrave /Aacute /Acircumflex
/Atilde /Adieresis /Aring /AE /Ccedilla
/Egrave /Eacute /Ecircumflex /Edieresis /Igrave
/Iacute /Icircumflex /Idieresis /Eth /Ntilde
/Ograve /Oacute /Ocircumflex /Otilde /Odieresis
/multiply /Oslash /Ugrave /Uacute /Ucircumflex
/Udieresis /Yacute /Thorn /germandbls /agrave
/aacute /acircumflex /atilde /adieresis /aring
/ae /ccedilla /egrave /eacute /ecircumflex
/edieresis /igrave /iacute /icircumflex /idieresis
/eth /ntilde /ograve /oacute /ocircumflex
/otilde /odieresis /divide /oslash /ugrave
/uacute /ucircumflex /udieresis /yacute /thorn
/ydieresis
] def
%%EndResource
%FOPBeginFontReencode
/Courier-Bold findfont
dup length dict begin
  {1 index /FID ne {def} {pop pop} ifelse} forall
  /Encoding WinAnsiEncoding def
  currentdict
end
/Courier-Bold exch definefont pop
/Helvetica findfont
dup length dict begin
  {1 index /FID ne {def} {pop pop} ifelse} forall
  /Encoding WinAnsiEncoding def
  currentdict
end
/Helvetica exch definefont pop
/Courier-BoldOblique findfont
dup length dict begin
  {1 index /FID ne {def} {pop pop} ifelse} forall
  /Encoding WinAnsiEncoding def
  currentdict
end
/Courier-BoldOblique exch definefont pop
/Courier-Oblique findfont
dup length dict begin
  {1 index /FID ne {def} {pop pop} ifelse} forall
  /Encoding WinAnsiEncoding def
  currentdict
end
/Courier-Oblique exch definefont pop
/Times-Roman findfont
dup length dict begin
  {1 index /FID ne {def} {pop pop} ifelse} forall
  /Encoding WinAnsiEncoding def
  currentdict
end
/Times-Roman exch definefont pop
/Helvetica-BoldOblique findfont
dup length dict begin
  {1 index /FID ne {def} {pop pop} ifelse} forall
  /Encoding WinAnsiEncoding def
  currentdict
end
/Helvetica-BoldOblique exch definefont pop
/Helvetica-Bold findfont
dup length dict begin
  {1 index /FID ne {def} {pop pop} ifelse} forall
  /Encoding WinAnsiEncoding def
  currentdict
end
/Helvetica-Bold exch definefont pop
/Helvetica-Oblique findfont
dup length dict begin
  {1 index /FID ne {def} {pop pop} ifelse} forall
  /Encoding WinAnsiEncoding def
  currentdict
end
/Helvetica-Oblique exch definefont pop
/Times-BoldItalic findfont
dup length dict begin
  {1 index /FID ne {def} {pop pop} ifelse} forall
  /Encoding WinAnsiEncoding def
  currentdict
end
/Times-BoldItalic exch definefont pop
/Courier findfont
dup length dict begin
  {1 index /FID ne {def} {pop pop} ifelse} forall
  /Encoding WinAnsiEncoding def
  currentdict
end
/Courier exch definefont pop
/Times-Italic findfont
dup length dict begin
  {1 index /FID ne {def} {pop pop} ifelse} forall
  /Encoding WinAnsiEncoding def
  currentdict
end
/Times-Italic exch definefont pop
/Times-Bold findfont
dup length dict begin
  {1 index /FID ne {def} {pop pop} ifelse} forall
  /Encoding WinAnsiEncoding def
  currentdict
end
/Times-Bold exch definefont pop
%FOPEndFontReencode
%%EndProlog
%%Page: 1 1
%%PageBoundingBox: 0 0 420 315
%%BeginPageSetup
[1 0 0 -1 0 315] CT
%%EndPageSetup
GS
[0.6 0 0 0.6 0 0] CT
1 GC
N
0 0 700 525 re
f
GR
GS
[0.6 0 0 0.6 0 0] CT
1 GC
N
0 0 700 525 re
f
GR
GS
[0.6 0 0 0.6 0 0] CT
1 GC
N
91 467 M
634 467 L
634 39 L
91 39 L
cp
f
GR
GS
[0.6 0 0 0.6 0 0] CT
0.149 GC
2 setlinecap
1 LJ
0.833 LW
N
91 467 M
634 467 L
S
GR
GS
[0.6 0 0 0.6 0 0] CT
0.149 GC
2 setlinecap
1 LJ
0.833 LW
N
91 39 M
634 39 L
S
GR
GS
[0.6 0 0 0.6 0 0] CT
0.149 GC
2 setlinecap
1 LJ
0.833 LW
N
91 467 M
91 461.57 L
S
GR
GS
[0.6 0 0 0.6 0 0] CT
0.149 GC
2 setlinecap
1 LJ
0.833 LW
N
145.3 467 M
145.3 461.57 L
S
GR
GS
[0.6 0 0 0.6 0 0] CT
0.149 GC
2 setlinecap
1 LJ
0.833 LW
N
199.6 467 M
199.6 461.57 L
S
GR
GS
[0.6 0 0 0.6 0 0] CT
0.149 GC
2 setlinecap
1 LJ
0.833 LW
N
253.9 467 M
253.9 461.57 L
S
GR
GS
[0.6 0 0 0.6 0 0] CT
0.149 GC
2 setlinecap
1 LJ
0.833 LW
N
308.2 467 M
308.2 461.57 L
S
GR
GS
[0.6 0 0 0.6 0 0] CT
0.149 GC
2 setlinecap
1 LJ
0.833 LW
N
362.5 467 M
362.5 461.57 L
S
GR
GS
[0.6 0 0 0.6 0 0] CT
0.149 GC
2 setlinecap
1 LJ
0.833 LW
N
416.8 467 M
416.8 461.57 L
S
GR
GS
[0.6 0 0 0.6 0 0] CT
0.149 GC
2 setlinecap
1 LJ
0.833 LW
N
471.1 467 M
471.1 461.57 L
S
GR
GS
[0.6 0 0 0.6 0 0] CT
0.149 GC
2 setlinecap
1 LJ
0.833 LW
N
525.4 467 M
525.4 461.57 L
S
GR
GS
[0.6 0 0 0.6 0 0] CT
0.149 GC
2 setlinecap
1 LJ
0.833 LW
N
579.7 467 M
579.7 461.57 L
S
GR
GS
[0.6 0 0 0.6 0 0] CT
0.149 GC
2 setlinecap
1 LJ
0.833 LW
N
634 467 M
634 461.57 L
S
GR
GS
[0.6 0 0 0.6 0 0] CT
0.149 GC
2 setlinecap
1 LJ
0.833 LW
N
91 39 M
91 44.43 L
S
GR
GS
[0.6 0 0 0.6 0 0] CT
0.149 GC
2 setlinecap
1 LJ
0.833 LW
N
145.3 39 M
145.3 44.43 L
S
GR
GS
[0.6 0 0 0.6 0 0] CT
0.149 GC
2 setlinecap
1 LJ
0.833 LW
N
199.6 39 M
199.6 44.43 L
S
GR
GS
[0.6 0 0 0.6 0 0] CT
0.149 GC
2 setlinecap
1 LJ
0.833 LW
N
253.9 39 M
253.9 44.43 L
S
GR
GS
[0.6 0 0 0.6 0 0] CT
0.149 GC
2 setlinecap
1 LJ
0.833 LW
N
308.2 39 M
308.2 44.43 L
S
GR
GS
[0.6 0 0 0.6 0 0] CT
0.149 GC
2 setlinecap
1 LJ
0.833 LW
N
362.5 39 M
362.5 44.43 L
S
GR
GS
[0.6 0 0 0.6 0 0] CT
0.149 GC
2 setlinecap
1 LJ
0.833 LW
N
416.8 39 M
416.8 44.43 L
S
GR
GS
[0.6 0 0 0.6 0 0] CT
0.149 GC
2 setlinecap
1 LJ
0.833 LW
N
471.1 39 M
471.1 44.43 L
S
GR
GS
[0.6 0 0 0.6 0 0] CT
0.149 GC
2 setlinecap
1 LJ
0.833 LW
N
525.4 39 M
525.4 44.43 L
S
GR
GS
[0.6 0 0 0.6 0 0] CT
0.149 GC
2 setlinecap
1 LJ
0.833 LW
N
579.7 39 M
579.7 44.43 L
S
GR
GS
[0.6 0 0 0.6 0 0] CT
0.149 GC
2 setlinecap
1 LJ
0.833 LW
N
634 39 M
634 44.43 L
S
GR
GS
[0.6 0 0 0.6 54.6 284.19999] CT
0.149 GC
/Helvetica 16.667 F
GS
[1 0 0 1 0 0] CT
-5 18 moveto 
1 -1 scale
(0) t 
GR
GR
GS
[0.6 0 0 0.6 87.18 284.19999] CT
0.149 GC
/Helvetica 16.667 F
GS
[1 0 0 1 0 0] CT
-9.5 18 moveto 
1 -1 scale
(10) t 
GR
GR
GS
[0.6 0 0 0.6 119.76 284.19999] CT
0.149 GC
/Helvetica 16.667 F
GS
[1 0 0 1 0 0] CT
-9.5 18 moveto 
1 -1 scale
(20) t 
GR
GR
GS
[0.6 0 0 0.6 152.34 284.19999] CT
0.149 GC
/Helvetica 16.667 F
GS
[1 0 0 1 0 0] CT
-9.5 18 moveto 
1 -1 scale
(30) t 
GR
GR
GS
[0.6 0 0 0.6 184.92001 284.19999] CT
0.149 GC
/Helvetica 16.667 F
GS
[1 0 0 1 0 0] CT
-9.5 18 moveto 
1 -1 scale
(40) t 
GR
GR
GS
[0.6 0 0 0.6 217.5 284.19999] CT
0.149 GC
/Helvetica 16.667 F
GS
[1 0 0 1 0 0] CT
-9.5 18 moveto 
1 -1 scale
(50) t 
GR
GR
GS
[0.6 0 0 0.6 250.07999 284.19999] CT
0.149 GC
/Helvetica 16.667 F
GS
[1 0 0 1 0 0] CT
-9.5 18 moveto 
1 -1 scale
(60) t 
GR
GR
GS
[0.6 0 0 0.6 282.66 284.19999] CT
0.149 GC
/Helvetica 16.667 F
GS
[1 0 0 1 0 0] CT
-9.5 18 moveto 
1 -1 scale
(70) t 
GR
GR
GS
[0.6 0 0 0.6 315.24001 284.19999] CT
0.149 GC
/Helvetica 16.667 F
GS
[1 0 0 1 0 0] CT
-9.5 18 moveto 
1 -1 scale
(80) t 
GR
GR
GS
[0.6 0 0 0.6 347.82001 284.19999] CT
0.149 GC
/Helvetica 16.667 F
GS
[1 0 0 1 0 0] CT
-9.5 18 moveto 
1 -1 scale
(90) t 
GR
GR
GS
[0.6 0 0 0.6 380.4 284.19999] CT
0.149 GC
/Helvetica 16.667 F
GS
[1 0 0 1 0 0] CT
-14.5 18 moveto 
1 -1 scale
(100) t 
GR
GR
GS
[0.6 0 0 0.6 217.50015 298.40001] CT
0.149 GC
/Helvetica 18.333 F
GS
[1 0 0 1 0 0] CT
-2 19 moveto 
1 -1 scale
(l) t 
GR
GR
GS
[0.6 0 0 0.6 0 0] CT
0.149 GC
2 setlinecap
1 LJ
0.833 LW
N
91 467 M
91 39 L
S
GR
GS
[0.6 0 0 0.6 0 0] CT
0.149 GC
2 setlinecap
1 LJ
0.833 LW
N
634 467 M
634 39 L
S
GR
GS
[0.6 0 0 0.6 0 0] CT
0.149 GC
2 setlinecap
1 LJ
0.833 LW
N
91 467 M
96.43 467 L
S
GR
GS
[0.6 0 0 0.6 0 0] CT
0.149 GC
2 setlinecap
1 LJ
0.833 LW
N
91 395.667 M
96.43 395.667 L
S
GR
GS
[0.6 0 0 0.6 0 0] CT
0.149 GC
2 setlinecap
1 LJ
0.833 LW
N
91 324.333 M
96.43 324.333 L
S
GR
GS
[0.6 0 0 0.6 0 0] CT
0.149 GC
2 setlinecap
1 LJ
0.833 LW
N
91 253 M
96.43 253 L
S
GR
GS
[0.6 0 0 0.6 0 0] CT
0.149 GC
2 setlinecap
1 LJ
0.833 LW
N
91 181.667 M
96.43 181.667 L
S
GR
GS
[0.6 0 0 0.6 0 0] CT
0.149 GC
2 setlinecap
1 LJ
0.833 LW
N
91 110.333 M
96.43 110.333 L
S
GR
GS
[0.6 0 0 0.6 0 0] CT
0.149 GC
2 setlinecap
1 LJ
0.833 LW
N
91 39 M
96.43 39 L
S
GR
GS
[0.6 0 0 0.6 0 0] CT
0.149 GC
2 setlinecap
1 LJ
0.833 LW
N
634 467 M
628.57 467 L
S
GR
GS
[0.6 0 0 0.6 0 0] CT
0.149 GC
2 setlinecap
1 LJ
0.833 LW
N
634 395.667 M
628.57 395.667 L
S
GR
GS
[0.6 0 0 0.6 0 0] CT
0.149 GC
2 setlinecap
1 LJ
0.833 LW
N
634 324.333 M
628.57 324.333 L
S
GR
GS
[0.6 0 0 0.6 0 0] CT
0.149 GC
2 setlinecap
1 LJ
0.833 LW
N
634 253 M
628.57 253 L
S
GR
GS
[0.6 0 0 0.6 0 0] CT
0.149 GC
2 setlinecap
1 LJ
0.833 LW
N
634 181.667 M
628.57 181.667 L
S
GR
GS
[0.6 0 0 0.6 0 0] CT
0.149 GC
2 setlinecap
1 LJ
0.833 LW
N
634 110.333 M
628.57 110.333 L
S
GR
GS
[0.6 0 0 0.6 0 0] CT
0.149 GC
2 setlinecap
1 LJ
0.833 LW
N
634 39 M
628.57 39 L
S
GR
GS
[0.6 0 0 0.6 50.6 280.2] CT
0.149 GC
/Helvetica 16.667 F
GS
[1 0 0 1 0 0] CT
-24 7 moveto 
1 -1 scale
(0.7) t 
GR
GR
GS
[0.6 0 0 0.6 50.6 237.39999] CT
0.149 GC
/Helvetica 16.667 F
GS
[1 0 0 1 0 0] CT
-24 7 moveto 
1 -1 scale
(0.8) t 
GR
GR
GS
[0.6 0 0 0.6 50.6 194.60001] CT
0.149 GC
/Helvetica 16.667 F
GS
[1 0 0 1 0 0] CT
-24 7 moveto 
1 -1 scale
(0.9) t 
GR
GR
GS
[0.6 0 0 0.6 50.6 151.8] CT
0.149 GC
/Helvetica 16.667 F
GS
[1 0 0 1 0 0] CT
-10 7 moveto 
1 -1 scale
(1) t 
GR
GR
GS
[0.6 0 0 0.6 50.6 108.99999] CT
0.149 GC
/Helvetica 16.667 F
GS
[1 0 0 1 0 0] CT
-24 7 moveto 
1 -1 scale
(1.1) t 
GR
GR
GS
[0.6 0 0 0.6 50.6 66.19998] CT
0.149 GC
/Helvetica 16.667 F
GS
[1 0 0 1 0 0] CT
-24 7 moveto 
1 -1 scale
(1.2) t 
GR
GR
GS
[0.6 0 0 0.6 50.6 23.40002] CT
0.149 GC
/Helvetica 16.667 F
GS
[1 0 0 1 0 0] CT
-24 7 moveto 
1 -1 scale
(1.3) t 
GR
GR
GS
[0 -0.6 0.6 0 33.2 151.7999] CT
0.149 GC
/Helvetica 18.333 F
GS
[1 0 0 1 0 0] CT
-42.5 -4 moveto 
1 -1 scale
(magnitude) t 
GR
GR
GS
[0.6 0 0 0.6 217.50022 21.75003] CT
/Helvetica-Bold 18.333 F
GS
[1 0 0 1 0 0] CT
-97.5 -4 moveto 
1 -1 scale
(Approximation error el) t 
GR
GR
GS
[0.6 0 0 0.6 0 0] CT
0 0.447 0.741 RC
1 LJ
0.833 LW
N
96.43 77.7 M
101.86 130.692 L
107.29 147.513 L
112.72 156.434 L
118.15 162.137 L
123.58 168.275 L
129.01 169.399 L
134.44 174.083 L
139.87 177.377 L
145.3 184.94 L
150.73 188.326 L
156.16 189.313 L
161.59 192.576 L
167.02 195.564 L
172.45 197.83 L
177.88 198.681 L
183.31 201.243 L
188.74 202.675 L
194.17 202.888 L
199.6 206.391 L
205.03 209.473 L
210.46 209.587 L
215.89 214.817 L
221.32 215.728 L
226.75 220.566 L
232.18 222.911 L
237.61 222.919 L
243.04 224.162 L
248.47 229.258 L
253.9 229.604 L
259.33 235.027 L
264.76 236.373 L
270.19 240.102 L
275.62 240.475 L
281.05 244.609 L
286.48 245.019 L
291.91 245.293 L
297.34 247.478 L
302.77 247.781 L
308.2 249.107 L
313.63 249.128 L
319.06 252.596 L
324.49 253.598 L
329.92 256.609 L
335.35 258.884 L
340.78 261.619 L
346.21 263.864 L
351.64 265.738 L
357.07 268.839 L
362.5 269.393 L
367.93 272.126 L
373.36 275.736 L
378.79 276.736 L
384.22 278.14 L
389.65 278.672 L
395.08 281.61 L
400.51 284.597 L
405.94 285.701 L
411.37 286.602 L
416.8 288.75 L
422.23 292.984 L
427.66 293.626 L
433.09 295.477 L
438.52 300.939 L
443.95 308.171 L
449.38 309.685 L
454.81 312.686 L
460.24 320.31 L
465.67 322.18 L
471.1 327.587 L
476.53 331.517 L
481.96 335.403 L
487.39 338.74 L
492.82 339.178 L
498.25 339.307 L
503.68 340.165 L
509.11 342.317 L
514.54 349.763 L
519.97 353.84 L
525.4 354.446 L
530.83 355.042 L
536.26 356.182 L
541.69 357.206 L
547.12 357.93 L
552.55 361.625 L
557.98 365.286 L
563.41 366.653 L
568.84 367.78 L
574.27 372.902 L
579.7 375.881 L
585.13 378.834 L
590.56 387.033 L
595.99 392.432 L
601.42 403.704 L
606.85 405.769 L
612.28 407.203 L
617.71 424.936 L
623.14 428.529 L
628.57 430.171 L
634 436.557 L
S
GR
GS
[0.6 0 0 0.6 57.858 46.62009] CT
0 0.447 0.741 RC
10.0 ML
0.833 LW
N
-3.536 -3.536 M
3.536 3.536 L
-3.536 3.536 M
3.536 -3.536 L
S
GR
GS
[0.6 0 0 0.6 61.116 78.41541] CT
0 0.447 0.741 RC
10.0 ML
0.833 LW
N
-3.536 -3.536 M
3.536 3.536 L
-3.536 3.536 M
3.536 -3.536 L
S
GR
GS
[0.6 0 0 0.6 64.374 88.50789] CT
0 0.447 0.741 RC
10.0 ML
0.833 LW
N
-3.536 -3.536 M
3.536 3.536 L
-3.536 3.536 M
3.536 -3.536 L
S
GR
GS
[0.6 0 0 0.6 67.632 93.86036] CT
0 0.447 0.741 RC
10.0 ML
0.833 LW
N
-3.536 -3.536 M
3.536 3.536 L
-3.536 3.536 M
3.536 -3.536 L
S
GR
GS
[0.6 0 0 0.6 70.89 97.28207] CT
0 0.447 0.741 RC
10.0 ML
0.833 LW
N
-3.536 -3.536 M
3.536 3.536 L
-3.536 3.536 M
3.536 -3.536 L
S
GR
GS
[0.6 0 0 0.6 74.148 100.9647] CT
0 0.447 0.741 RC
10.0 ML
0.833 LW
N
-3.536 -3.536 M
3.536 3.536 L
-3.536 3.536 M
3.536 -3.536 L
S
GR
GS
[0.6 0 0 0.6 77.406 101.63941] CT
0 0.447 0.741 RC
10.0 ML
0.833 LW
N
-3.536 -3.536 M
3.536 3.536 L
-3.536 3.536 M
3.536 -3.536 L
S
GR
GS
[0.6 0 0 0.6 80.664 104.44989] CT
0 0.447 0.741 RC
10.0 ML
0.833 LW
N
-3.536 -3.536 M
3.536 3.536 L
-3.536 3.536 M
3.536 -3.536 L
S
GR
GS
[0.6 0 0 0.6 83.922 106.42615] CT
0 0.447 0.741 RC
10.0 ML
0.833 LW
N
-3.536 -3.536 M
3.536 3.536 L
-3.536 3.536 M
3.536 -3.536 L
S
GR
GS
[0.6 0 0 0.6 87.18 110.96371] CT
0 0.447 0.741 RC
10.0 ML
0.833 LW
N
-3.536 -3.536 M
3.536 3.536 L
-3.536 3.536 M
3.536 -3.536 L
S
GR
GS
[0.6 0 0 0.6 90.438 112.99559] CT
0 0.447 0.741 RC
10.0 ML
0.833 LW
N
-3.536 -3.536 M
3.536 3.536 L
-3.536 3.536 M
3.536 -3.536 L
S
GR
GS
[0.6 0 0 0.6 93.696 113.58785] CT
0 0.447 0.741 RC
10.0 ML
0.833 LW
N
-3.536 -3.536 M
3.536 3.536 L
-3.536 3.536 M
3.536 -3.536 L
S
GR
GS
[0.6 0 0 0.6 96.954 115.5457] CT
0 0.447 0.741 RC
10.0 ML
0.833 LW
N
-3.536 -3.536 M
3.536 3.536 L
-3.536 3.536 M
3.536 -3.536 L
S
GR
GS
[0.6 0 0 0.6 100.212 117.33865] CT
0 0.447 0.741 RC
10.0 ML
0.833 LW
N
-3.536 -3.536 M
3.536 3.536 L
-3.536 3.536 M
3.536 -3.536 L
S
GR
GS
[0.6 0 0 0.6 103.47 118.69782] CT
0 0.447 0.741 RC
10.0 ML
0.833 LW
N
-3.536 -3.536 M
3.536 3.536 L
-3.536 3.536 M
3.536 -3.536 L
S
GR
GS
[0.6 0 0 0.6 106.728 119.20869] CT
0 0.447 0.741 RC
10.0 ML
0.833 LW
N
-3.536 -3.536 M
3.536 3.536 L
-3.536 3.536 M
3.536 -3.536 L
S
GR
GS
[0.6 0 0 0.6 109.986 120.74557] CT
0 0.447 0.741 RC
10.0 ML
0.833 LW
N
-3.536 -3.536 M
3.536 3.536 L
-3.536 3.536 M
3.536 -3.536 L
S
GR
GS
[0.6 0 0 0.6 113.244 121.60482] CT
0 0.447 0.741 RC
10.0 ML
0.833 LW
N
-3.536 -3.536 M
3.536 3.536 L
-3.536 3.536 M
3.536 -3.536 L
S
GR
GS
[0.6 0 0 0.6 116.502 121.73263] CT
0 0.447 0.741 RC
10.0 ML
0.833 LW
N
-3.536 -3.536 M
3.536 3.536 L
-3.536 3.536 M
3.536 -3.536 L
S
GR
GS
[0.6 0 0 0.6 119.76 123.83451] CT
0 0.447 0.741 RC
10.0 ML
0.833 LW
N
-3.536 -3.536 M
3.536 3.536 L
-3.536 3.536 M
3.536 -3.536 L
S
GR
GS
[0.6 0 0 0.6 123.018 125.68379] CT
0 0.447 0.741 RC
10.0 ML
0.833 LW
N
-3.536 -3.536 M
3.536 3.536 L
-3.536 3.536 M
3.536 -3.536 L
S
GR
GS
[0.6 0 0 0.6 126.276 125.75247] CT
0 0.447 0.741 RC
10.0 ML
0.833 LW
N
-3.536 -3.536 M
3.536 3.536 L
-3.536 3.536 M
3.536 -3.536 L
S
GR
GS
[0.6 0 0 0.6 129.534 128.89035] CT
0 0.447 0.741 RC
10.0 ML
0.833 LW
N
-3.536 -3.536 M
3.536 3.536 L
-3.536 3.536 M
3.536 -3.536 L
S
GR
GS
[0.6 0 0 0.6 132.792 129.43658] CT
0 0.447 0.741 RC
10.0 ML
0.833 LW
N
-3.536 -3.536 M
3.536 3.536 L
-3.536 3.536 M
3.536 -3.536 L
S
GR
GS
[0.6 0 0 0.6 136.05 132.33951] CT
0 0.447 0.741 RC
10.0 ML
0.833 LW
N
-3.536 -3.536 M
3.536 3.536 L
-3.536 3.536 M
3.536 -3.536 L
S
GR
GS
[0.6 0 0 0.6 139.308 133.74684] CT
0 0.447 0.741 RC
10.0 ML
0.833 LW
N
-3.536 -3.536 M
3.536 3.536 L
-3.536 3.536 M
3.536 -3.536 L
S
GR
GS
[0.6 0 0 0.6 142.566 133.75112] CT
0 0.447 0.741 RC
10.0 ML
0.833 LW
N
-3.536 -3.536 M
3.536 3.536 L
-3.536 3.536 M
3.536 -3.536 L
S
GR
GS
[0.6 0 0 0.6 145.824 134.49746] CT
0 0.447 0.741 RC
10.0 ML
0.833 LW
N
-3.536 -3.536 M
3.536 3.536 L
-3.536 3.536 M
3.536 -3.536 L
S
GR
GS
[0.6 0 0 0.6 149.082 137.55493] CT
0 0.447 0.741 RC
10.0 ML
0.833 LW
N
-3.536 -3.536 M
3.536 3.536 L
-3.536 3.536 M
3.536 -3.536 L
S
GR
GS
[0.6 0 0 0.6 152.34 137.76264] CT
0 0.447 0.741 RC
10.0 ML
0.833 LW
N
-3.536 -3.536 M
3.536 3.536 L
-3.536 3.536 M
3.536 -3.536 L
S
GR
GS
[0.6 0 0 0.6 155.59799 141.01639] CT
0 0.447 0.741 RC
10.0 ML
0.833 LW
N
-3.536 -3.536 M
3.536 3.536 L
-3.536 3.536 M
3.536 -3.536 L
S
GR
GS
[0.6 0 0 0.6 158.85601 141.82386] CT
0 0.447 0.741 RC
10.0 ML
0.833 LW
N
-3.536 -3.536 M
3.536 3.536 L
-3.536 3.536 M
3.536 -3.536 L
S
GR
GS
[0.6 0 0 0.6 162.114 144.0611] CT
0 0.447 0.741 RC
10.0 ML
0.833 LW
N
-3.536 -3.536 M
3.536 3.536 L
-3.536 3.536 M
3.536 -3.536 L
S
GR
GS
[0.6 0 0 0.6 165.372 144.28523] CT
0 0.447 0.741 RC
10.0 ML
0.833 LW
N
-3.536 -3.536 M
3.536 3.536 L
-3.536 3.536 M
3.536 -3.536 L
S
GR
GS
[0.6 0 0 0.6 168.62999 146.7656] CT
0 0.447 0.741 RC
10.0 ML
0.833 LW
N
-3.536 -3.536 M
3.536 3.536 L
-3.536 3.536 M
3.536 -3.536 L
S
GR
GS
[0.6 0 0 0.6 171.88801 147.01111] CT
0 0.447 0.741 RC
10.0 ML
0.833 LW
N
-3.536 -3.536 M
3.536 3.536 L
-3.536 3.536 M
3.536 -3.536 L
S
GR
GS
[0.6 0 0 0.6 175.146 147.17576] CT
0 0.447 0.741 RC
10.0 ML
0.833 LW
N
-3.536 -3.536 M
3.536 3.536 L
-3.536 3.536 M
3.536 -3.536 L
S
GR
GS
[0.6 0 0 0.6 178.404 148.48702] CT
0 0.447 0.741 RC
10.0 ML
0.833 LW
N
-3.536 -3.536 M
3.536 3.536 L
-3.536 3.536 M
3.536 -3.536 L
S
GR
GS
[0.6 0 0 0.6 181.66199 148.66845] CT
0 0.447 0.741 RC
10.0 ML
0.833 LW
N
-3.536 -3.536 M
3.536 3.536 L
-3.536 3.536 M
3.536 -3.536 L
S
GR
GS
[0.6 0 0 0.6 184.92001 149.46439] CT
0 0.447 0.741 RC
10.0 ML
0.833 LW
N
-3.536 -3.536 M
3.536 3.536 L
-3.536 3.536 M
3.536 -3.536 L
S
GR
GS
[0.6 0 0 0.6 188.178 149.47668] CT
0 0.447 0.741 RC
10.0 ML
0.833 LW
N
-3.536 -3.536 M
3.536 3.536 L
-3.536 3.536 M
3.536 -3.536 L
S
GR
GS
[0.6 0 0 0.6 191.436 151.5576] CT
0 0.447 0.741 RC
10.0 ML
0.833 LW
N
-3.536 -3.536 M
3.536 3.536 L
-3.536 3.536 M
3.536 -3.536 L
S
GR
GS
[0.6 0 0 0.6 194.69399 152.15896] CT
0 0.447 0.741 RC
10.0 ML
0.833 LW
N
-3.536 -3.536 M
3.536 3.536 L
-3.536 3.536 M
3.536 -3.536 L
S
GR
GS
[0.6 0 0 0.6 197.95201 153.96539] CT
0 0.447 0.741 RC
10.0 ML
0.833 LW
N
-3.536 -3.536 M
3.536 3.536 L
-3.536 3.536 M
3.536 -3.536 L
S
GR
GS
[0.6 0 0 0.6 201.21 155.33046] CT
0 0.447 0.741 RC
10.0 ML
0.833 LW
N
-3.536 -3.536 M
3.536 3.536 L
-3.536 3.536 M
3.536 -3.536 L
S
GR
GS
[0.6 0 0 0.6 204.468 156.97112] CT
0 0.447 0.741 RC
10.0 ML
0.833 LW
N
-3.536 -3.536 M
3.536 3.536 L
-3.536 3.536 M
3.536 -3.536 L
S
GR
GS
[0.6 0 0 0.6 207.72599 158.31812] CT
0 0.447 0.741 RC
10.0 ML
0.833 LW
N
-3.536 -3.536 M
3.536 3.536 L
-3.536 3.536 M
3.536 -3.536 L
S
GR
GS
[0.6 0 0 0.6 210.98401 159.44286] CT
0 0.447 0.741 RC
10.0 ML
0.833 LW
N
-3.536 -3.536 M
3.536 3.536 L
-3.536 3.536 M
3.536 -3.536 L
S
GR
GS
[0.6 0 0 0.6 214.242 161.30369] CT
0 0.447 0.741 RC
10.0 ML
0.833 LW
N
-3.536 -3.536 M
3.536 3.536 L
-3.536 3.536 M
3.536 -3.536 L
S
GR
GS
[0.6 0 0 0.6 217.5 161.63586] CT
0 0.447 0.741 RC
10.0 ML
0.833 LW
N
-3.536 -3.536 M
3.536 3.536 L
-3.536 3.536 M
3.536 -3.536 L
S
GR
GS
[0.6 0 0 0.6 220.758 163.2759] CT
0 0.447 0.741 RC
10.0 ML
0.833 LW
N
-3.536 -3.536 M
3.536 3.536 L
-3.536 3.536 M
3.536 -3.536 L
S
GR
GS
[0.6 0 0 0.6 224.01599 165.44147] CT
0 0.447 0.741 RC
10.0 ML
0.833 LW
N
-3.536 -3.536 M
3.536 3.536 L
-3.536 3.536 M
3.536 -3.536 L
S
GR
GS
[0.6 0 0 0.6 227.27401 166.04172] CT
0 0.447 0.741 RC
10.0 ML
0.833 LW
N
-3.536 -3.536 M
3.536 3.536 L
-3.536 3.536 M
3.536 -3.536 L
S
GR
GS
[0.6 0 0 0.6 230.532 166.88379] CT
0 0.447 0.741 RC
10.0 ML
0.833 LW
N
-3.536 -3.536 M
3.536 3.536 L
-3.536 3.536 M
3.536 -3.536 L
S
GR
GS
[0.6 0 0 0.6 233.79 167.20309] CT
0 0.447 0.741 RC
10.0 ML
0.833 LW
N
-3.536 -3.536 M
3.536 3.536 L
-3.536 3.536 M
3.536 -3.536 L
S
GR
GS
[0.6 0 0 0.6 237.04799 168.96627] CT
0 0.447 0.741 RC
10.0 ML
0.833 LW
N
-3.536 -3.536 M
3.536 3.536 L
-3.536 3.536 M
3.536 -3.536 L
S
GR
GS
[0.6 0 0 0.6 240.30601 170.75847] CT
0 0.447 0.741 RC
10.0 ML
0.833 LW
N
-3.536 -3.536 M
3.536 3.536 L
-3.536 3.536 M
3.536 -3.536 L
S
GR
GS
[0.6 0 0 0.6 243.564 171.42039] CT
0 0.447 0.741 RC
10.0 ML
0.833 LW
N
-3.536 -3.536 M
3.536 3.536 L
-3.536 3.536 M
3.536 -3.536 L
S
GR
GS
[0.6 0 0 0.6 246.822 171.96103] CT
0 0.447 0.741 RC
10.0 ML
0.833 LW
N
-3.536 -3.536 M
3.536 3.536 L
-3.536 3.536 M
3.536 -3.536 L
S
GR
GS
[0.6 0 0 0.6 250.07999 173.24971] CT
0 0.447 0.741 RC
10.0 ML
0.833 LW
N
-3.536 -3.536 M
3.536 3.536 L
-3.536 3.536 M
3.536 -3.536 L
S
GR
GS
[0.6 0 0 0.6 253.33801 175.79052] CT
0 0.447 0.741 RC
10.0 ML
0.833 LW
N
-3.536 -3.536 M
3.536 3.536 L
-3.536 3.536 M
3.536 -3.536 L
S
GR
GS
[0.6 0 0 0.6 256.596 176.17553] CT
0 0.447 0.741 RC
10.0 ML
0.833 LW
N
-3.536 -3.536 M
3.536 3.536 L
-3.536 3.536 M
3.536 -3.536 L
S
GR
GS
[0.6 0 0 0.6 259.854 177.2863] CT
0 0.447 0.741 RC
10.0 ML
0.833 LW
N
-3.536 -3.536 M
3.536 3.536 L
-3.536 3.536 M
3.536 -3.536 L
S
GR
GS
[0.6 0 0 0.6 263.11199 180.5631] CT
0 0.447 0.741 RC
10.0 ML
0.833 LW
N
-3.536 -3.536 M
3.536 3.536 L
-3.536 3.536 M
3.536 -3.536 L
S
GR
GS
[0.6 0 0 0.6 266.37001 184.90267] CT
0 0.447 0.741 RC
10.0 ML
0.833 LW
N
-3.536 -3.536 M
3.536 3.536 L
-3.536 3.536 M
3.536 -3.536 L
S
GR
GS
[0.6 0 0 0.6 269.628 185.81102] CT
0 0.447 0.741 RC
10.0 ML
0.833 LW
N
-3.536 -3.536 M
3.536 3.536 L
-3.536 3.536 M
3.536 -3.536 L
S
GR
GS
[0.6 0 0 0.6 272.886 187.61146] CT
0 0.447 0.741 RC
10.0 ML
0.833 LW
N
-3.536 -3.536 M
3.536 3.536 L
-3.536 3.536 M
3.536 -3.536 L
S
GR
GS
[0.6 0 0 0.6 276.14399 192.18615] CT
0 0.447 0.741 RC
10.0 ML
0.833 LW
N
-3.536 -3.536 M
3.536 3.536 L
-3.536 3.536 M
3.536 -3.536 L
S
GR
GS
[0.6 0 0 0.6 279.40201 193.30812] CT
0 0.447 0.741 RC
10.0 ML
0.833 LW
N
-3.536 -3.536 M
3.536 3.536 L
-3.536 3.536 M
3.536 -3.536 L
S
GR
GS
[0.6 0 0 0.6 282.66 196.55224] CT
0 0.447 0.741 RC
10.0 ML
0.833 LW
N
-3.536 -3.536 M
3.536 3.536 L
-3.536 3.536 M
3.536 -3.536 L
S
GR
GS
[0.6 0 0 0.6 285.918 198.91035] CT
0 0.447 0.741 RC
10.0 ML
0.833 LW
N
-3.536 -3.536 M
3.536 3.536 L
-3.536 3.536 M
3.536 -3.536 L
S
GR
GS
[0.6 0 0 0.6 289.17599 201.24203] CT
0 0.447 0.741 RC
10.0 ML
0.833 LW
N
-3.536 -3.536 M
3.536 3.536 L
-3.536 3.536 M
3.536 -3.536 L
S
GR
GS
[0.6 0 0 0.6 292.43401 203.24429] CT
0 0.447 0.741 RC
10.0 ML
0.833 LW
N
-3.536 -3.536 M
3.536 3.536 L
-3.536 3.536 M
3.536 -3.536 L
S
GR
GS
[0.6 0 0 0.6 295.692 203.50697] CT
0 0.447 0.741 RC
10.0 ML
0.833 LW
N
-3.536 -3.536 M
3.536 3.536 L
-3.536 3.536 M
3.536 -3.536 L
S
GR
GS
[0.6 0 0 0.6 298.95 203.58395] CT
0 0.447 0.741 RC
10.0 ML
0.833 LW
N
-3.536 -3.536 M
3.536 3.536 L
-3.536 3.536 M
3.536 -3.536 L
S
GR
GS
[0.6 0 0 0.6 302.208 204.09901] CT
0 0.447 0.741 RC
10.0 ML
0.833 LW
N
-3.536 -3.536 M
3.536 3.536 L
-3.536 3.536 M
3.536 -3.536 L
S
GR
GS
[0.6 0 0 0.6 305.46599 205.39047] CT
0 0.447 0.741 RC
10.0 ML
0.833 LW
N
-3.536 -3.536 M
3.536 3.536 L
-3.536 3.536 M
3.536 -3.536 L
S
GR
GS
[0.6 0 0 0.6 308.72399 209.85784] CT
0 0.447 0.741 RC
10.0 ML
0.833 LW
N
-3.536 -3.536 M
3.536 3.536 L
-3.536 3.536 M
3.536 -3.536 L
S
GR
GS
[0.6 0 0 0.6 311.98198 212.30376] CT
0 0.447 0.741 RC
10.0 ML
0.833 LW
N
-3.536 -3.536 M
3.536 3.536 L
-3.536 3.536 M
3.536 -3.536 L
S
GR
GS
[0.6 0 0 0.6 315.24001 212.66754] CT
0 0.447 0.741 RC
10.0 ML
0.833 LW
N
-3.536 -3.536 M
3.536 3.536 L
-3.536 3.536 M
3.536 -3.536 L
S
GR
GS
[0.6 0 0 0.6 318.49801 213.02543] CT
0 0.447 0.741 RC
10.0 ML
0.833 LW
N
-3.536 -3.536 M
3.536 3.536 L
-3.536 3.536 M
3.536 -3.536 L
S
GR
GS
[0.6 0 0 0.6 321.75601 213.70909] CT
0 0.447 0.741 RC
10.0 ML
0.833 LW
N
-3.536 -3.536 M
3.536 3.536 L
-3.536 3.536 M
3.536 -3.536 L
S
GR
GS
[0.6 0 0 0.6 325.014 214.32363] CT
0 0.447 0.741 RC
10.0 ML
0.833 LW
N
-3.536 -3.536 M
3.536 3.536 L
-3.536 3.536 M
3.536 -3.536 L
S
GR
GS
[0.6 0 0 0.6 328.272 214.75792] CT
0 0.447 0.741 RC
10.0 ML
0.833 LW
N
-3.536 -3.536 M
3.536 3.536 L
-3.536 3.536 M
3.536 -3.536 L
S
GR
GS
[0.6 0 0 0.6 331.52999 216.97476] CT
0 0.447 0.741 RC
10.0 ML
0.833 LW
N
-3.536 -3.536 M
3.536 3.536 L
-3.536 3.536 M
3.536 -3.536 L
S
GR
GS
[0.6 0 0 0.6 334.78799 219.17159] CT
0 0.447 0.741 RC
10.0 ML
0.833 LW
N
-3.536 -3.536 M
3.536 3.536 L
-3.536 3.536 M
3.536 -3.536 L
S
GR
GS
[0.6 0 0 0.6 338.04598 219.99197] CT
0 0.447 0.741 RC
10.0 ML
0.833 LW
N
-3.536 -3.536 M
3.536 3.536 L
-3.536 3.536 M
3.536 -3.536 L
S
GR
GS
[0.6 0 0 0.6 341.30402 220.66783] CT
0 0.447 0.741 RC
10.0 ML
0.833 LW
N
-3.536 -3.536 M
3.536 3.536 L
-3.536 3.536 M
3.536 -3.536 L
S
GR
GS
[0.6 0 0 0.6 344.56201 223.74104] CT
0 0.447 0.741 RC
10.0 ML
0.833 LW
N
-3.536 -3.536 M
3.536 3.536 L
-3.536 3.536 M
3.536 -3.536 L
S
GR
GS
[0.6 0 0 0.6 347.82001 225.52831] CT
0 0.447 0.741 RC
10.0 ML
0.833 LW
N
-3.536 -3.536 M
3.536 3.536 L
-3.536 3.536 M
3.536 -3.536 L
S
GR
GS
[0.6 0 0 0.6 351.078 227.30063] CT
0 0.447 0.741 RC
10.0 ML
0.833 LW
N
-3.536 -3.536 M
3.536 3.536 L
-3.536 3.536 M
3.536 -3.536 L
S
GR
GS
[0.6 0 0 0.6 354.336 232.21996] CT
0 0.447 0.741 RC
10.0 ML
0.833 LW
N
-3.536 -3.536 M
3.536 3.536 L
-3.536 3.536 M
3.536 -3.536 L
S
GR
GS
[0.6 0 0 0.6 357.59399 235.45917] CT
0 0.447 0.741 RC
10.0 ML
0.833 LW
N
-3.536 -3.536 M
3.536 3.536 L
-3.536 3.536 M
3.536 -3.536 L
S
GR
GS
[0.6 0 0 0.6 360.85199 242.22235] CT
0 0.447 0.741 RC
10.0 ML
0.833 LW
N
-3.536 -3.536 M
3.536 3.536 L
-3.536 3.536 M
3.536 -3.536 L
S
GR
GS
[0.6 0 0 0.6 364.10999 243.46161] CT
0 0.447 0.741 RC
10.0 ML
0.833 LW
N
-3.536 -3.536 M
3.536 3.536 L
-3.536 3.536 M
3.536 -3.536 L
S
GR
GS
[0.6 0 0 0.6 367.36802 244.32197] CT
0 0.447 0.741 RC
10.0 ML
0.833 LW
N
-3.536 -3.536 M
3.536 3.536 L
-3.536 3.536 M
3.536 -3.536 L
S
GR
GS
[0.6 0 0 0.6 370.62601 254.96147] CT
0 0.447 0.741 RC
10.0 ML
0.833 LW
N
-3.536 -3.536 M
3.536 3.536 L
-3.536 3.536 M
3.536 -3.536 L
S
GR
GS
[0.6 0 0 0.6 373.88401 257.1175] CT
0 0.447 0.741 RC
10.0 ML
0.833 LW
N
-3.536 -3.536 M
3.536 3.536 L
-3.536 3.536 M
3.536 -3.536 L
S
GR
GS
[0.6 0 0 0.6 377.142 258.1025] CT
0 0.447 0.741 RC
10.0 ML
0.833 LW
N
-3.536 -3.536 M
3.536 3.536 L
-3.536 3.536 M
3.536 -3.536 L
S
GR
GS
[0.6 0 0 0.6 380.4 261.93433] CT
0 0.447 0.741 RC
10.0 ML
0.833 LW
N
-3.536 -3.536 M
3.536 3.536 L
-3.536 3.536 M
3.536 -3.536 L
S
GR
GS
[0.6 0 0 0.6 0 0] CT
0.851 0.325 0.098 RC
1 LJ
0.833 LW
N
96.43 60.65 M
101.86 65.131 L
107.29 67.756 L
112.72 74.564 L
118.15 71.321 L
123.58 69.667 L
129.01 70.721 L
134.44 77.62 L
139.87 82.254 L
145.3 73.984 L
150.73 80.514 L
156.16 90.352 L
161.59 76.808 L
167.02 92.351 L
172.45 96.688 L
177.88 98.327 L
183.31 102.351 L
188.74 95.69 L
194.17 94.182 L
199.6 103.791 L
205.03 106.992 L
210.46 103.119 L
215.89 84.005 L
221.32 98.998 L
226.75 103.521 L
232.18 107.691 L
237.61 101.804 L
243.04 110.038 L
248.47 113.765 L
253.9 137.808 L
259.33 138.449 L
264.76 117.361 L
270.19 116.308 L
275.62 128.692 L
281.05 113.801 L
286.48 129.449 L
291.91 117.94 L
297.34 144.552 L
302.77 136.69 L
308.2 123.741 L
313.63 154.583 L
319.06 140.159 L
324.49 149.308 L
329.92 132.62 L
335.35 145.876 L
340.78 154.545 L
346.21 155.995 L
351.64 148.833 L
357.07 161.841 L
362.5 143.512 L
367.93 135.454 L
373.36 139.84 L
378.79 155.038 L
384.22 165.813 L
389.65 172.868 L
395.08 169.063 L
400.51 175.165 L
405.94 157.55 L
411.37 162.079 L
416.8 159.996 L
422.23 187.708 L
427.66 180.986 L
433.09 168.892 L
438.52 176.055 L
443.95 195.898 L
449.38 176.373 L
454.81 177.244 L
460.24 189.142 L
465.67 171.212 L
471.1 188.799 L
476.53 195.227 L
481.96 182.983 L
487.39 197.652 L
492.82 186.571 L
498.25 187.083 L
503.68 203.581 L
509.11 206.875 L
514.54 187.913 L
519.97 201.136 L
525.4 197.073 L
530.83 209.794 L
536.26 205.132 L
541.69 196.145 L
547.12 213.961 L
552.55 219.06 L
557.98 216.783 L
563.41 203.357 L
568.84 227.031 L
574.27 220.241 L
579.7 233.767 L
585.13 220.46 L
590.56 227.463 L
595.99 227.347 L
601.42 231.709 L
606.85 221.808 L
612.28 221.269 L
617.71 235.347 L
623.14 229.548 L
628.57 242.623 L
634 250.777 L
S
GR
GS
[0.6 0 0 0.6 57.858 36.38976] CT
0.851 0.325 0.098 RC
10.0 ML
0.833 LW
N
-3.536 -3.536 M
3.536 3.536 L
-3.536 3.536 M
3.536 -3.536 L
S
GR
GS
[0.6 0 0 0.6 61.116 39.07864] CT
0.851 0.325 0.098 RC
10.0 ML
0.833 LW
N
-3.536 -3.536 M
3.536 3.536 L
-3.536 3.536 M
3.536 -3.536 L
S
GR
GS
[0.6 0 0 0.6 64.374 40.65347] CT
0.851 0.325 0.098 RC
10.0 ML
0.833 LW
N
-3.536 -3.536 M
3.536 3.536 L
-3.536 3.536 M
3.536 -3.536 L
S
GR
GS
[0.6 0 0 0.6 67.632 44.73867] CT
0.851 0.325 0.098 RC
10.0 ML
0.833 LW
N
-3.536 -3.536 M
3.536 3.536 L
-3.536 3.536 M
3.536 -3.536 L
S
GR
GS
[0.6 0 0 0.6 70.89 42.79276] CT
0.851 0.325 0.098 RC
10.0 ML
0.833 LW
N
-3.536 -3.536 M
3.536 3.536 L
-3.536 3.536 M
3.536 -3.536 L
S
GR
GS
[0.6 0 0 0.6 74.148 41.80004] CT
0.851 0.325 0.098 RC
10.0 ML
0.833 LW
N
-3.536 -3.536 M
3.536 3.536 L
-3.536 3.536 M
3.536 -3.536 L
S
GR
GS
[0.6 0 0 0.6 77.406 42.43234] CT
0.851 0.325 0.098 RC
10.0 ML
0.833 LW
N
-3.536 -3.536 M
3.536 3.536 L
-3.536 3.536 M
3.536 -3.536 L
S
GR
GS
[0.6 0 0 0.6 80.664 46.57183] CT
0.851 0.325 0.098 RC
10.0 ML
0.833 LW
N
-3.536 -3.536 M
3.536 3.536 L
-3.536 3.536 M
3.536 -3.536 L
S
GR
GS
[0.6 0 0 0.6 83.922 49.35215] CT
0.851 0.325 0.098 RC
10.0 ML
0.833 LW
N
-3.536 -3.536 M
3.536 3.536 L
-3.536 3.536 M
3.536 -3.536 L
S
GR
GS
[0.6 0 0 0.6 87.18 44.39019] CT
0.851 0.325 0.098 RC
10.0 ML
0.833 LW
N
-3.536 -3.536 M
3.536 3.536 L
-3.536 3.536 M
3.536 -3.536 L
S
GR
GS
[0.6 0 0 0.6 90.438 48.30824] CT
0.851 0.325 0.098 RC
10.0 ML
0.833 LW
N
-3.536 -3.536 M
3.536 3.536 L
-3.536 3.536 M
3.536 -3.536 L
S
GR
GS
[0.6 0 0 0.6 93.696 54.21093] CT
0.851 0.325 0.098 RC
10.0 ML
0.833 LW
N
-3.536 -3.536 M
3.536 3.536 L
-3.536 3.536 M
3.536 -3.536 L
S
GR
GS
[0.6 0 0 0.6 96.954 46.08478] CT
0.851 0.325 0.098 RC
10.0 ML
0.833 LW
N
-3.536 -3.536 M
3.536 3.536 L
-3.536 3.536 M
3.536 -3.536 L
S
GR
GS
[0.6 0 0 0.6 100.212 55.4108] CT
0.851 0.325 0.098 RC
10.0 ML
0.833 LW
N
-3.536 -3.536 M
3.536 3.536 L
-3.536 3.536 M
3.536 -3.536 L
S
GR
GS
[0.6 0 0 0.6 103.47 58.01285] CT
0.851 0.325 0.098 RC
10.0 ML
0.833 LW
N
-3.536 -3.536 M
3.536 3.536 L
-3.536 3.536 M
3.536 -3.536 L
S
GR
GS
[0.6 0 0 0.6 106.728 58.99634] CT
0.851 0.325 0.098 RC
10.0 ML
0.833 LW
N
-3.536 -3.536 M
3.536 3.536 L
-3.536 3.536 M
3.536 -3.536 L
S
GR
GS
[0.6 0 0 0.6 109.986 61.41048] CT
0.851 0.325 0.098 RC
10.0 ML
0.833 LW
N
-3.536 -3.536 M
3.536 3.536 L
-3.536 3.536 M
3.536 -3.536 L
S
GR
GS
[0.6 0 0 0.6 113.244 57.41376] CT
0.851 0.325 0.098 RC
10.0 ML
0.833 LW
N
-3.536 -3.536 M
3.536 3.536 L
-3.536 3.536 M
3.536 -3.536 L
S
GR
GS
[0.6 0 0 0.6 116.502 56.50935] CT
0.851 0.325 0.098 RC
10.0 ML
0.833 LW
N
-3.536 -3.536 M
3.536 3.536 L
-3.536 3.536 M
3.536 -3.536 L
S
GR
GS
[0.6 0 0 0.6 119.76 62.27433] CT
0.851 0.325 0.098 RC
10.0 ML
0.833 LW
N
-3.536 -3.536 M
3.536 3.536 L
-3.536 3.536 M
3.536 -3.536 L
S
GR
GS
[0.6 0 0 0.6 123.018 64.19504] CT
0.851 0.325 0.098 RC
10.0 ML
0.833 LW
N
-3.536 -3.536 M
3.536 3.536 L
-3.536 3.536 M
3.536 -3.536 L
S
GR
GS
[0.6 0 0 0.6 126.276 61.87121] CT
0.851 0.325 0.098 RC
10.0 ML
0.833 LW
N
-3.536 -3.536 M
3.536 3.536 L
-3.536 3.536 M
3.536 -3.536 L
S
GR
GS
[0.6 0 0 0.6 129.534 50.40314] CT
0.851 0.325 0.098 RC
10.0 ML
0.833 LW
N
-3.536 -3.536 M
3.536 3.536 L
-3.536 3.536 M
3.536 -3.536 L
S
GR
GS
[0.6 0 0 0.6 132.792 59.39886] CT
0.851 0.325 0.098 RC
10.0 ML
0.833 LW
N
-3.536 -3.536 M
3.536 3.536 L
-3.536 3.536 M
3.536 -3.536 L
S
GR
GS
[0.6 0 0 0.6 136.05 62.11279] CT
0.851 0.325 0.098 RC
10.0 ML
0.833 LW
N
-3.536 -3.536 M
3.536 3.536 L
-3.536 3.536 M
3.536 -3.536 L
S
GR
GS
[0.6 0 0 0.6 139.308 64.61438] CT
0.851 0.325 0.098 RC
10.0 ML
0.833 LW
N
-3.536 -3.536 M
3.536 3.536 L
-3.536 3.536 M
3.536 -3.536 L
S
GR
GS
[0.6 0 0 0.6 142.566 61.08231] CT
0.851 0.325 0.098 RC
10.0 ML
0.833 LW
N
-3.536 -3.536 M
3.536 3.536 L
-3.536 3.536 M
3.536 -3.536 L
S
GR
GS
[0.6 0 0 0.6 145.824 66.02283] CT
0.851 0.325 0.098 RC
10.0 ML
0.833 LW
N
-3.536 -3.536 M
3.536 3.536 L
-3.536 3.536 M
3.536 -3.536 L
S
GR
GS
[0.6 0 0 0.6 149.082 68.25926] CT
0.851 0.325 0.098 RC
10.0 ML
0.833 LW
N
-3.536 -3.536 M
3.536 3.536 L
-3.536 3.536 M
3.536 -3.536 L
S
GR
GS
[0.6 0 0 0.6 152.34 82.68495] CT
0.851 0.325 0.098 RC
10.0 ML
0.833 LW
N
-3.536 -3.536 M
3.536 3.536 L
-3.536 3.536 M
3.536 -3.536 L
S
GR
GS
[0.6 0 0 0.6 155.59799 83.06935] CT
0.851 0.325 0.098 RC
10.0 ML
0.833 LW
N
-3.536 -3.536 M
3.536 3.536 L
-3.536 3.536 M
3.536 -3.536 L
S
GR
GS
[0.6 0 0 0.6 158.85601 70.41686] CT
0.851 0.325 0.098 RC
10.0 ML
0.833 LW
N
-3.536 -3.536 M
3.536 3.536 L
-3.536 3.536 M
3.536 -3.536 L
S
GR
GS
[0.6 0 0 0.6 162.114 69.78491] CT
0.851 0.325 0.098 RC
10.0 ML
0.833 LW
N
-3.536 -3.536 M
3.536 3.536 L
-3.536 3.536 M
3.536 -3.536 L
S
GR
GS
[0.6 0 0 0.6 165.372 77.21503] CT
0.851 0.325 0.098 RC
10.0 ML
0.833 LW
N
-3.536 -3.536 M
3.536 3.536 L
-3.536 3.536 M
3.536 -3.536 L
S
GR
GS
[0.6 0 0 0.6 168.62999 68.28054] CT
0.851 0.325 0.098 RC
10.0 ML
0.833 LW
N
-3.536 -3.536 M
3.536 3.536 L
-3.536 3.536 M
3.536 -3.536 L
S
GR
GS
[0.6 0 0 0.6 171.88801 77.66922] CT
0.851 0.325 0.098 RC
10.0 ML
0.833 LW
N
-3.536 -3.536 M
3.536 3.536 L
-3.536 3.536 M
3.536 -3.536 L
S
GR
GS
[0.6 0 0 0.6 175.146 70.76381] CT
0.851 0.325 0.098 RC
10.0 ML
0.833 LW
N
-3.536 -3.536 M
3.536 3.536 L
-3.536 3.536 M
3.536 -3.536 L
S
GR
GS
[0.6 0 0 0.6 178.404 86.73116] CT
0.851 0.325 0.098 RC
10.0 ML
0.833 LW
N
-3.536 -3.536 M
3.536 3.536 L
-3.536 3.536 M
3.536 -3.536 L
S
GR
GS
[0.6 0 0 0.6 181.66199 82.01376] CT
0.851 0.325 0.098 RC
10.0 ML
0.833 LW
N
-3.536 -3.536 M
3.536 3.536 L
-3.536 3.536 M
3.536 -3.536 L
S
GR
GS
[0.6 0 0 0.6 184.92001 74.2445] CT
0.851 0.325 0.098 RC
10.0 ML
0.833 LW
N
-3.536 -3.536 M
3.536 3.536 L
-3.536 3.536 M
3.536 -3.536 L
S
GR
GS
[0.6 0 0 0.6 188.178 92.74967] CT
0.851 0.325 0.098 RC
10.0 ML
0.833 LW
N
-3.536 -3.536 M
3.536 3.536 L
-3.536 3.536 M
3.536 -3.536 L
S
GR
GS
[0.6 0 0 0.6 191.436 84.09569] CT
0.851 0.325 0.098 RC
10.0 ML
0.833 LW
N
-3.536 -3.536 M
3.536 3.536 L
-3.536 3.536 M
3.536 -3.536 L
S
GR
GS
[0.6 0 0 0.6 194.69399 89.58454] CT
0.851 0.325 0.098 RC
10.0 ML
0.833 LW
N
-3.536 -3.536 M
3.536 3.536 L
-3.536 3.536 M
3.536 -3.536 L
S
GR
GS
[0.6 0 0 0.6 197.95201 79.57213] CT
0.851 0.325 0.098 RC
10.0 ML
0.833 LW
N
-3.536 -3.536 M
3.536 3.536 L
-3.536 3.536 M
3.536 -3.536 L
S
GR
GS
[0.6 0 0 0.6 201.21 87.52557] CT
0.851 0.325 0.098 RC
10.0 ML
0.833 LW
N
-3.536 -3.536 M
3.536 3.536 L
-3.536 3.536 M
3.536 -3.536 L
S
GR
GS
[0.6 0 0 0.6 204.468 92.72717] CT
0.851 0.325 0.098 RC
10.0 ML
0.833 LW
N
-3.536 -3.536 M
3.536 3.536 L
-3.536 3.536 M
3.536 -3.536 L
S
GR
GS
[0.6 0 0 0.6 207.72599 93.59729] CT
0.851 0.325 0.098 RC
10.0 ML
0.833 LW
N
-3.536 -3.536 M
3.536 3.536 L
-3.536 3.536 M
3.536 -3.536 L
S
GR
GS
[0.6 0 0 0.6 210.98401 89.3001] CT
0.851 0.325 0.098 RC
10.0 ML
0.833 LW
N
-3.536 -3.536 M
3.536 3.536 L
-3.536 3.536 M
3.536 -3.536 L
S
GR
GS
[0.6 0 0 0.6 214.242 97.10436] CT
0.851 0.325 0.098 RC
10.0 ML
0.833 LW
N
-3.536 -3.536 M
3.536 3.536 L
-3.536 3.536 M
3.536 -3.536 L
S
GR
GS
[0.6 0 0 0.6 217.5 86.10722] CT
0.851 0.325 0.098 RC
10.0 ML
0.833 LW
N
-3.536 -3.536 M
3.536 3.536 L
-3.536 3.536 M
3.536 -3.536 L
S
GR
GS
[0.6 0 0 0.6 220.758 81.27216] CT
0.851 0.325 0.098 RC
10.0 ML
0.833 LW
N
-3.536 -3.536 M
3.536 3.536 L
-3.536 3.536 M
3.536 -3.536 L
S
GR
GS
[0.6 0 0 0.6 224.01599 83.90416] CT
0.851 0.325 0.098 RC
10.0 ML
0.833 LW
N
-3.536 -3.536 M
3.536 3.536 L
-3.536 3.536 M
3.536 -3.536 L
S
GR
GS
[0.6 0 0 0.6 227.27401 93.02299] CT
0.851 0.325 0.098 RC
10.0 ML
0.833 LW
N
-3.536 -3.536 M
3.536 3.536 L
-3.536 3.536 M
3.536 -3.536 L
S
GR
GS
[0.6 0 0 0.6 230.532 99.48753] CT
0.851 0.325 0.098 RC
10.0 ML
0.833 LW
N
-3.536 -3.536 M
3.536 3.536 L
-3.536 3.536 M
3.536 -3.536 L
S
GR
GS
[0.6 0 0 0.6 233.79 103.72063] CT
0.851 0.325 0.098 RC
10.0 ML
0.833 LW
N
-3.536 -3.536 M
3.536 3.536 L
-3.536 3.536 M
3.536 -3.536 L
S
GR
GS
[0.6 0 0 0.6 237.04799 101.43788] CT
0.851 0.325 0.098 RC
10.0 ML
0.833 LW
N
-3.536 -3.536 M
3.536 3.536 L
-3.536 3.536 M
3.536 -3.536 L
S
GR
GS
[0.6 0 0 0.6 240.30601 105.09919] CT
0.851 0.325 0.098 RC
10.0 ML
0.833 LW
N
-3.536 -3.536 M
3.536 3.536 L
-3.536 3.536 M
3.536 -3.536 L
S
GR
GS
[0.6 0 0 0.6 243.564 94.53022] CT
0.851 0.325 0.098 RC
10.0 ML
0.833 LW
N
-3.536 -3.536 M
3.536 3.536 L
-3.536 3.536 M
3.536 -3.536 L
S
GR
GS
[0.6 0 0 0.6 246.822 97.24758] CT
0.851 0.325 0.098 RC
10.0 ML
0.833 LW
N
-3.536 -3.536 M
3.536 3.536 L
-3.536 3.536 M
3.536 -3.536 L
S
GR
GS
[0.6 0 0 0.6 250.07999 95.99786] CT
0.851 0.325 0.098 RC
10.0 ML
0.833 LW
N
-3.536 -3.536 M
3.536 3.536 L
-3.536 3.536 M
3.536 -3.536 L
S
GR
GS
[0.6 0 0 0.6 253.33801 112.62471] CT
0.851 0.325 0.098 RC
10.0 ML
0.833 LW
N
-3.536 -3.536 M
3.536 3.536 L
-3.536 3.536 M
3.536 -3.536 L
S
GR
GS
[0.6 0 0 0.6 256.596 108.59182] CT
0.851 0.325 0.098 RC
10.0 ML
0.833 LW
N
-3.536 -3.536 M
3.536 3.536 L
-3.536 3.536 M
3.536 -3.536 L
S
GR
GS
[0.6 0 0 0.6 259.854 101.33492] CT
0.851 0.325 0.098 RC
10.0 ML
0.833 LW
N
-3.536 -3.536 M
3.536 3.536 L
-3.536 3.536 M
3.536 -3.536 L
S
GR
GS
[0.6 0 0 0.6 263.11199 105.63312] CT
0.851 0.325 0.098 RC
10.0 ML
0.833 LW
N
-3.536 -3.536 M
3.536 3.536 L
-3.536 3.536 M
3.536 -3.536 L
S
GR
GS
[0.6 0 0 0.6 266.37001 117.53876] CT
0.851 0.325 0.098 RC
10.0 ML
0.833 LW
N
-3.536 -3.536 M
3.536 3.536 L
-3.536 3.536 M
3.536 -3.536 L
S
GR
GS
[0.6 0 0 0.6 269.628 105.82395] CT
0.851 0.325 0.098 RC
10.0 ML
0.833 LW
N
-3.536 -3.536 M
3.536 3.536 L
-3.536 3.536 M
3.536 -3.536 L
S
GR
GS
[0.6 0 0 0.6 272.886 106.34631] CT
0.851 0.325 0.098 RC
10.0 ML
0.833 LW
N
-3.536 -3.536 M
3.536 3.536 L
-3.536 3.536 M
3.536 -3.536 L
S
GR
GS
[0.6 0 0 0.6 276.14399 113.48535] CT
0.851 0.325 0.098 RC
10.0 ML
0.833 LW
N
-3.536 -3.536 M
3.536 3.536 L
-3.536 3.536 M
3.536 -3.536 L
S
GR
GS
[0.6 0 0 0.6 279.40201 102.72709] CT
0.851 0.325 0.098 RC
10.0 ML
0.833 LW
N
-3.536 -3.536 M
3.536 3.536 L
-3.536 3.536 M
3.536 -3.536 L
S
GR
GS
[0.6 0 0 0.6 282.66 113.27943] CT
0.851 0.325 0.098 RC
10.0 ML
0.833 LW
N
-3.536 -3.536 M
3.536 3.536 L
-3.536 3.536 M
3.536 -3.536 L
S
GR
GS
[0.6 0 0 0.6 285.918 117.13605] CT
0.851 0.325 0.098 RC
10.0 ML
0.833 LW
N
-3.536 -3.536 M
3.536 3.536 L
-3.536 3.536 M
3.536 -3.536 L
S
GR
GS
[0.6 0 0 0.6 289.17599 109.78996] CT
0.851 0.325 0.098 RC
10.0 ML
0.833 LW
N
-3.536 -3.536 M
3.536 3.536 L
-3.536 3.536 M
3.536 -3.536 L
S
GR
GS
[0.6 0 0 0.6 292.43401 118.59108] CT
0.851 0.325 0.098 RC
10.0 ML
0.833 LW
N
-3.536 -3.536 M
3.536 3.536 L
-3.536 3.536 M
3.536 -3.536 L
S
GR
GS
[0.6 0 0 0.6 295.692 111.94276] CT
0.851 0.325 0.098 RC
10.0 ML
0.833 LW
N
-3.536 -3.536 M
3.536 3.536 L
-3.536 3.536 M
3.536 -3.536 L
S
GR
GS
[0.6 0 0 0.6 298.95 112.24956] CT
0.851 0.325 0.098 RC
10.0 ML
0.833 LW
N
-3.536 -3.536 M
3.536 3.536 L
-3.536 3.536 M
3.536 -3.536 L
S
GR
GS
[0.6 0 0 0.6 302.208 122.14881] CT
0.851 0.325 0.098 RC
10.0 ML
0.833 LW
N
-3.536 -3.536 M
3.536 3.536 L
-3.536 3.536 M
3.536 -3.536 L
S
GR
GS
[0.6 0 0 0.6 305.46599 124.12513] CT
0.851 0.325 0.098 RC
10.0 ML
0.833 LW
N
-3.536 -3.536 M
3.536 3.536 L
-3.536 3.536 M
3.536 -3.536 L
S
GR
GS
[0.6 0 0 0.6 308.72399 112.74758] CT
0.851 0.325 0.098 RC
10.0 ML
0.833 LW
N
-3.536 -3.536 M
3.536 3.536 L
-3.536 3.536 M
3.536 -3.536 L
S
GR
GS
[0.6 0 0 0.6 311.98198 120.68143] CT
0.851 0.325 0.098 RC
10.0 ML
0.833 LW
N
-3.536 -3.536 M
3.536 3.536 L
-3.536 3.536 M
3.536 -3.536 L
S
GR
GS
[0.6 0 0 0.6 315.24001 118.24393] CT
0.851 0.325 0.098 RC
10.0 ML
0.833 LW
N
-3.536 -3.536 M
3.536 3.536 L
-3.536 3.536 M
3.536 -3.536 L
S
GR
GS
[0.6 0 0 0.6 318.49801 125.8765] CT
0.851 0.325 0.098 RC
10.0 ML
0.833 LW
N
-3.536 -3.536 M
3.536 3.536 L
-3.536 3.536 M
3.536 -3.536 L
S
GR
GS
[0.6 0 0 0.6 321.75601 123.07929] CT
0.851 0.325 0.098 RC
10.0 ML
0.833 LW
N
-3.536 -3.536 M
3.536 3.536 L
-3.536 3.536 M
3.536 -3.536 L
S
GR
GS
[0.6 0 0 0.6 325.014 117.68728] CT
0.851 0.325 0.098 RC
10.0 ML
0.833 LW
N
-3.536 -3.536 M
3.536 3.536 L
-3.536 3.536 M
3.536 -3.536 L
S
GR
GS
[0.6 0 0 0.6 328.272 128.37681] CT
0.851 0.325 0.098 RC
10.0 ML
0.833 LW
N
-3.536 -3.536 M
3.536 3.536 L
-3.536 3.536 M
3.536 -3.536 L
S
GR
GS
[0.6 0 0 0.6 331.52999 131.43602] CT
0.851 0.325 0.098 RC
10.0 ML
0.833 LW
N
-3.536 -3.536 M
3.536 3.536 L
-3.536 3.536 M
3.536 -3.536 L
S
GR
GS
[0.6 0 0 0.6 334.78799 130.06971] CT
0.851 0.325 0.098 RC
10.0 ML
0.833 LW
N
-3.536 -3.536 M
3.536 3.536 L
-3.536 3.536 M
3.536 -3.536 L
S
GR
GS
[0.6 0 0 0.6 338.04598 122.01401] CT
0.851 0.325 0.098 RC
10.0 ML
0.833 LW
N
-3.536 -3.536 M
3.536 3.536 L
-3.536 3.536 M
3.536 -3.536 L
S
GR
GS
[0.6 0 0 0.6 341.30402 136.21858] CT
0.851 0.325 0.098 RC
10.0 ML
0.833 LW
N
-3.536 -3.536 M
3.536 3.536 L
-3.536 3.536 M
3.536 -3.536 L
S
GR
GS
[0.6 0 0 0.6 344.56201 132.14434] CT
0.851 0.325 0.098 RC
10.0 ML
0.833 LW
N
-3.536 -3.536 M
3.536 3.536 L
-3.536 3.536 M
3.536 -3.536 L
S
GR
GS
[0.6 0 0 0.6 347.82001 140.26009] CT
0.851 0.325 0.098 RC
10.0 ML
0.833 LW
N
-3.536 -3.536 M
3.536 3.536 L
-3.536 3.536 M
3.536 -3.536 L
S
GR
GS
[0.6 0 0 0.6 351.078 132.27603] CT
0.851 0.325 0.098 RC
10.0 ML
0.833 LW
N
-3.536 -3.536 M
3.536 3.536 L
-3.536 3.536 M
3.536 -3.536 L
S
GR
GS
[0.6 0 0 0.6 354.336 136.47761] CT
0.851 0.325 0.098 RC
10.0 ML
0.833 LW
N
-3.536 -3.536 M
3.536 3.536 L
-3.536 3.536 M
3.536 -3.536 L
S
GR
GS
[0.6 0 0 0.6 357.59399 136.40842] CT
0.851 0.325 0.098 RC
10.0 ML
0.833 LW
N
-3.536 -3.536 M
3.536 3.536 L
-3.536 3.536 M
3.536 -3.536 L
S
GR
GS
[0.6 0 0 0.6 360.85199 139.02557] CT
0.851 0.325 0.098 RC
10.0 ML
0.833 LW
N
-3.536 -3.536 M
3.536 3.536 L
-3.536 3.536 M
3.536 -3.536 L
S
GR
GS
[0.6 0 0 0.6 364.10999 133.08508] CT
0.851 0.325 0.098 RC
10.0 ML
0.833 LW
N
-3.536 -3.536 M
3.536 3.536 L
-3.536 3.536 M
3.536 -3.536 L
S
GR
GS
[0.6 0 0 0.6 367.36802 132.76145] CT
0.851 0.325 0.098 RC
10.0 ML
0.833 LW
N
-3.536 -3.536 M
3.536 3.536 L
-3.536 3.536 M
3.536 -3.536 L
S
GR
GS
[0.6 0 0 0.6 370.62601 141.20843] CT
0.851 0.325 0.098 RC
10.0 ML
0.833 LW
N
-3.536 -3.536 M
3.536 3.536 L
-3.536 3.536 M
3.536 -3.536 L
S
GR
GS
[0.6 0 0 0.6 373.88401 137.72897] CT
0.851 0.325 0.098 RC
10.0 ML
0.833 LW
N
-3.536 -3.536 M
3.536 3.536 L
-3.536 3.536 M
3.536 -3.536 L
S
GR
GS
[0.6 0 0 0.6 377.142 145.57374] CT
0.851 0.325 0.098 RC
10.0 ML
0.833 LW
N
-3.536 -3.536 M
3.536 3.536 L
-3.536 3.536 M
3.536 -3.536 L
S
GR
GS
[0.6 0 0 0.6 380.4 150.46614] CT
0.851 0.325 0.098 RC
10.0 ML
0.833 LW
N
-3.536 -3.536 M
3.536 3.536 L
-3.536 3.536 M
3.536 -3.536 L
S
GR
GS
[0.6 0 0 0.6 0 0] CT
0.929 0.694 0.125 RC
1 LJ
0.833 LW
N
96.43 76.711 M
101.86 73.162 L
107.29 79.46 L
112.72 77.379 L
118.15 91.103 L
123.58 88.305 L
129.01 85.501 L
134.44 96.032 L
139.87 92.197 L
145.3 94.329 L
150.73 104.137 L
156.16 111.937 L
161.59 140.19 L
167.02 108.304 L
172.45 110.479 L
177.88 121.259 L
183.31 124.619 L
188.74 141.254 L
194.17 85.227 L
199.6 143.678 L
205.03 128.44 L
210.46 143.804 L
215.89 141.053 L
221.32 152.171 L
226.75 146.778 L
232.18 150.618 L
237.61 155.58 L
243.04 152.858 L
248.47 147.443 L
253.9 163.084 L
259.33 162.826 L
264.76 159.724 L
270.19 167.939 L
275.62 169.013 L
281.05 170.307 L
286.48 160.974 L
291.91 183.02 L
297.34 165.502 L
302.77 175.715 L
308.2 172.587 L
313.63 178.282 L
319.06 166.61 L
324.49 170.807 L
329.92 190.315 L
335.35 182.601 L
340.78 189.195 L
346.21 190.914 L
351.64 183.383 L
357.07 192.383 L
362.5 198.875 L
367.93 186.971 L
373.36 194.608 L
378.79 200.764 L
384.22 201.135 L
389.65 209.904 L
395.08 206.678 L
400.51 209.603 L
405.94 200.321 L
411.37 204.683 L
416.8 218.231 L
422.23 211.926 L
427.66 203.203 L
433.09 214.931 L
438.52 213.364 L
443.95 217.304 L
449.38 219.696 L
454.81 226.296 L
460.24 224.624 L
465.67 223.406 L
471.1 226.776 L
476.53 228.007 L
481.96 224.839 L
487.39 232.94 L
492.82 228.755 L
498.25 232.878 L
503.68 237.623 L
509.11 244.681 L
514.54 245.767 L
519.97 235.62 L
525.4 242.657 L
530.83 248.843 L
536.26 245.823 L
541.69 258.017 L
547.12 248.768 L
552.55 239.728 L
557.98 252.652 L
563.41 258.641 L
568.84 261.924 L
574.27 256.865 L
579.7 267.931 L
585.13 264.463 L
590.56 273.266 L
595.99 269.289 L
601.42 272.658 L
606.85 290.974 L
612.28 289.386 L
617.71 270.866 L
623.14 290.703 L
628.57 287.087 L
634 294.23 L
S
GR
GS
[0.6 0 0 0.6 57.858 46.02641] CT
0.929 0.694 0.125 RC
10.0 ML
0.833 LW
N
-3.536 -3.536 M
3.536 3.536 L
-3.536 3.536 M
3.536 -3.536 L
S
GR
GS
[0.6 0 0 0.6 61.116 43.89733] CT
0.929 0.694 0.125 RC
10.0 ML
0.833 LW
N
-3.536 -3.536 M
3.536 3.536 L
-3.536 3.536 M
3.536 -3.536 L
S
GR
GS
[0.6 0 0 0.6 64.374 47.67604] CT
0.929 0.694 0.125 RC
10.0 ML
0.833 LW
N
-3.536 -3.536 M
3.536 3.536 L
-3.536 3.536 M
3.536 -3.536 L
S
GR
GS
[0.6 0 0 0.6 67.632 46.42723] CT
0.929 0.694 0.125 RC
10.0 ML
0.833 LW
N
-3.536 -3.536 M
3.536 3.536 L
-3.536 3.536 M
3.536 -3.536 L
S
GR
GS
[0.6 0 0 0.6 70.89 54.6616] CT
0.929 0.694 0.125 RC
10.0 ML
0.833 LW
N
-3.536 -3.536 M
3.536 3.536 L
-3.536 3.536 M
3.536 -3.536 L
S
GR
GS
[0.6 0 0 0.6 74.148 52.98315] CT
0.929 0.694 0.125 RC
10.0 ML
0.833 LW
N
-3.536 -3.536 M
3.536 3.536 L
-3.536 3.536 M
3.536 -3.536 L
S
GR
GS
[0.6 0 0 0.6 77.406 51.30035] CT
0.929 0.694 0.125 RC
10.0 ML
0.833 LW
N
-3.536 -3.536 M
3.536 3.536 L
-3.536 3.536 M
3.536 -3.536 L
S
GR
GS
[0.6 0 0 0.6 80.664 57.61897] CT
0.929 0.694 0.125 RC
10.0 ML
0.833 LW
N
-3.536 -3.536 M
3.536 3.536 L
-3.536 3.536 M
3.536 -3.536 L
S
GR
GS
[0.6 0 0 0.6 83.922 55.31805] CT
0.929 0.694 0.125 RC
10.0 ML
0.833 LW
N
-3.536 -3.536 M
3.536 3.536 L
-3.536 3.536 M
3.536 -3.536 L
S
GR
GS
[0.6 0 0 0.6 87.18 56.59711] CT
0.929 0.694 0.125 RC
10.0 ML
0.833 LW
N
-3.536 -3.536 M
3.536 3.536 L
-3.536 3.536 M
3.536 -3.536 L
S
GR
GS
[0.6 0 0 0.6 90.438 62.48245] CT
0.929 0.694 0.125 RC
10.0 ML
0.833 LW
N
-3.536 -3.536 M
3.536 3.536 L
-3.536 3.536 M
3.536 -3.536 L
S
GR
GS
[0.6 0 0 0.6 93.696 67.16204] CT
0.929 0.694 0.125 RC
10.0 ML
0.833 LW
N
-3.536 -3.536 M
3.536 3.536 L
-3.536 3.536 M
3.536 -3.536 L
S
GR
GS
[0.6 0 0 0.6 96.954 84.11371] CT
0.929 0.694 0.125 RC
10.0 ML
0.833 LW
N
-3.536 -3.536 M
3.536 3.536 L
-3.536 3.536 M
3.536 -3.536 L
S
GR
GS
[0.6 0 0 0.6 100.212 64.98214] CT
0.929 0.694 0.125 RC
10.0 ML
0.833 LW
N
-3.536 -3.536 M
3.536 3.536 L
-3.536 3.536 M
3.536 -3.536 L
S
GR
GS
[0.6 0 0 0.6 103.47 66.28748] CT
0.929 0.694 0.125 RC
10.0 ML
0.833 LW
N
-3.536 -3.536 M
3.536 3.536 L
-3.536 3.536 M
3.536 -3.536 L
S
GR
GS
[0.6 0 0 0.6 106.728 72.75523] CT
0.929 0.694 0.125 RC
10.0 ML
0.833 LW
N
-3.536 -3.536 M
3.536 3.536 L
-3.536 3.536 M
3.536 -3.536 L
S
GR
GS
[0.6 0 0 0.6 109.986 74.77145] CT
0.929 0.694 0.125 RC
10.0 ML
0.833 LW
N
-3.536 -3.536 M
3.536 3.536 L
-3.536 3.536 M
3.536 -3.536 L
S
GR
GS
[0.6 0 0 0.6 113.244 84.75255] CT
0.929 0.694 0.125 RC
10.0 ML
0.833 LW
N
-3.536 -3.536 M
3.536 3.536 L
-3.536 3.536 M
3.536 -3.536 L
S
GR
GS
[0.6 0 0 0.6 116.502 51.13642] CT
0.929 0.694 0.125 RC
10.0 ML
0.833 LW
N
-3.536 -3.536 M
3.536 3.536 L
-3.536 3.536 M
3.536 -3.536 L
S
GR
GS
[0.6 0 0 0.6 119.76 86.20671] CT
0.929 0.694 0.125 RC
10.0 ML
0.833 LW
N
-3.536 -3.536 M
3.536 3.536 L
-3.536 3.536 M
3.536 -3.536 L
S
GR
GS
[0.6 0 0 0.6 123.018 77.06426] CT
0.929 0.694 0.125 RC
10.0 ML
0.833 LW
N
-3.536 -3.536 M
3.536 3.536 L
-3.536 3.536 M
3.536 -3.536 L
S
GR
GS
[0.6 0 0 0.6 126.276 86.28223] CT
0.929 0.694 0.125 RC
10.0 ML
0.833 LW
N
-3.536 -3.536 M
3.536 3.536 L
-3.536 3.536 M
3.536 -3.536 L
S
GR
GS
[0.6 0 0 0.6 129.534 84.63152] CT
0.929 0.694 0.125 RC
10.0 ML
0.833 LW
N
-3.536 -3.536 M
3.536 3.536 L
-3.536 3.536 M
3.536 -3.536 L
S
GR
GS
[0.6 0 0 0.6 132.792 91.30255] CT
0.929 0.694 0.125 RC
10.0 ML
0.833 LW
N
-3.536 -3.536 M
3.536 3.536 L
-3.536 3.536 M
3.536 -3.536 L
S
GR
GS
[0.6 0 0 0.6 136.05 88.06701] CT
0.929 0.694 0.125 RC
10.0 ML
0.833 LW
N
-3.536 -3.536 M
3.536 3.536 L
-3.536 3.536 M
3.536 -3.536 L
S
GR
GS
[0.6 0 0 0.6 139.308 90.37094] CT
0.929 0.694 0.125 RC
10.0 ML
0.833 LW
N
-3.536 -3.536 M
3.536 3.536 L
-3.536 3.536 M
3.536 -3.536 L
S
GR
GS
[0.6 0 0 0.6 142.566 93.34785] CT
0.929 0.694 0.125 RC
10.0 ML
0.833 LW
N
-3.536 -3.536 M
3.536 3.536 L
-3.536 3.536 M
3.536 -3.536 L
S
GR
GS
[0.6 0 0 0.6 145.824 91.7149] CT
0.929 0.694 0.125 RC
10.0 ML
0.833 LW
N
-3.536 -3.536 M
3.536 3.536 L
-3.536 3.536 M
3.536 -3.536 L
S
GR
GS
[0.6 0 0 0.6 149.082 88.46559] CT
0.929 0.694 0.125 RC
10.0 ML
0.833 LW
N
-3.536 -3.536 M
3.536 3.536 L
-3.536 3.536 M
3.536 -3.536 L
S
GR
GS
[0.6 0 0 0.6 152.34 97.8502] CT
0.929 0.694 0.125 RC
10.0 ML
0.833 LW
N
-3.536 -3.536 M
3.536 3.536 L
-3.536 3.536 M
3.536 -3.536 L
S
GR
GS
[0.6 0 0 0.6 155.59799 97.69585] CT
0.929 0.694 0.125 RC
10.0 ML
0.833 LW
N
-3.536 -3.536 M
3.536 3.536 L
-3.536 3.536 M
3.536 -3.536 L
S
GR
GS
[0.6 0 0 0.6 158.85601 95.83418] CT
0.929 0.694 0.125 RC
10.0 ML
0.833 LW
N
-3.536 -3.536 M
3.536 3.536 L
-3.536 3.536 M
3.536 -3.536 L
S
GR
GS
[0.6 0 0 0.6 162.114 100.76317] CT
0.929 0.694 0.125 RC
10.0 ML
0.833 LW
N
-3.536 -3.536 M
3.536 3.536 L
-3.536 3.536 M
3.536 -3.536 L
S
GR
GS
[0.6 0 0 0.6 165.372 101.40787] CT
0.929 0.694 0.125 RC
10.0 ML
0.833 LW
N
-3.536 -3.536 M
3.536 3.536 L
-3.536 3.536 M
3.536 -3.536 L
S
GR
GS
[0.6 0 0 0.6 168.62999 102.18407] CT
0.929 0.694 0.125 RC
10.0 ML
0.833 LW
N
-3.536 -3.536 M
3.536 3.536 L
-3.536 3.536 M
3.536 -3.536 L
S
GR
GS
[0.6 0 0 0.6 171.88801 96.5843] CT
0.929 0.694 0.125 RC
10.0 ML
0.833 LW
N
-3.536 -3.536 M
3.536 3.536 L
-3.536 3.536 M
3.536 -3.536 L
S
GR
GS
[0.6 0 0 0.6 175.146 109.81175] CT
0.929 0.694 0.125 RC
10.0 ML
0.833 LW
N
-3.536 -3.536 M
3.536 3.536 L
-3.536 3.536 M
3.536 -3.536 L
S
GR
GS
[0.6 0 0 0.6 178.404 99.30146] CT
0.929 0.694 0.125 RC
10.0 ML
0.833 LW
N
-3.536 -3.536 M
3.536 3.536 L
-3.536 3.536 M
3.536 -3.536 L
S
GR
GS
[0.6 0 0 0.6 181.66199 105.42914] CT
0.929 0.694 0.125 RC
10.0 ML
0.833 LW
N
-3.536 -3.536 M
3.536 3.536 L
-3.536 3.536 M
3.536 -3.536 L
S
GR
GS
[0.6 0 0 0.6 184.92001 103.55211] CT
0.929 0.694 0.125 RC
10.0 ML
0.833 LW
N
-3.536 -3.536 M
3.536 3.536 L
-3.536 3.536 M
3.536 -3.536 L
S
GR
GS
[0.6 0 0 0.6 188.178 106.96913] CT
0.929 0.694 0.125 RC
10.0 ML
0.833 LW
N
-3.536 -3.536 M
3.536 3.536 L
-3.536 3.536 M
3.536 -3.536 L
S
GR
GS
[0.6 0 0 0.6 191.436 99.9658] CT
0.929 0.694 0.125 RC
10.0 ML
0.833 LW
N
-3.536 -3.536 M
3.536 3.536 L
-3.536 3.536 M
3.536 -3.536 L
S
GR
GS
[0.6 0 0 0.6 194.69399 102.48398] CT
0.929 0.694 0.125 RC
10.0 ML
0.833 LW
N
-3.536 -3.536 M
3.536 3.536 L
-3.536 3.536 M
3.536 -3.536 L
S
GR
GS
[0.6 0 0 0.6 197.95201 114.18908] CT
0.929 0.694 0.125 RC
10.0 ML
0.833 LW
N
-3.536 -3.536 M
3.536 3.536 L
-3.536 3.536 M
3.536 -3.536 L
S
GR
GS
[0.6 0 0 0.6 201.21 109.56082] CT
0.929 0.694 0.125 RC
10.0 ML
0.833 LW
N
-3.536 -3.536 M
3.536 3.536 L
-3.536 3.536 M
3.536 -3.536 L
S
GR
GS
[0.6 0 0 0.6 204.468 113.51729] CT
0.929 0.694 0.125 RC
10.0 ML
0.833 LW
N
-3.536 -3.536 M
3.536 3.536 L
-3.536 3.536 M
3.536 -3.536 L
S
GR
GS
[0.6 0 0 0.6 207.72599 114.54848] CT
0.929 0.694 0.125 RC
10.0 ML
0.833 LW
N
-3.536 -3.536 M
3.536 3.536 L
-3.536 3.536 M
3.536 -3.536 L
S
GR
GS
[0.6 0 0 0.6 210.98401 110.0295] CT
0.929 0.694 0.125 RC
10.0 ML
0.833 LW
N
-3.536 -3.536 M
3.536 3.536 L
-3.536 3.536 M
3.536 -3.536 L
S
GR
GS
[0.6 0 0 0.6 214.242 115.42973] CT
0.929 0.694 0.125 RC
10.0 ML
0.833 LW
N
-3.536 -3.536 M
3.536 3.536 L
-3.536 3.536 M
3.536 -3.536 L
S
GR
GS
[0.6 0 0 0.6 217.5 119.32487] CT
0.929 0.694 0.125 RC
10.0 ML
0.833 LW
N
-3.536 -3.536 M
3.536 3.536 L
-3.536 3.536 M
3.536 -3.536 L
S
GR
GS
[0.6 0 0 0.6 220.758 112.18261] CT
0.929 0.694 0.125 RC
10.0 ML
0.833 LW
N
-3.536 -3.536 M
3.536 3.536 L
-3.536 3.536 M
3.536 -3.536 L
S
GR
GS
[0.6 0 0 0.6 224.01599 116.76487] CT
0.929 0.694 0.125 RC
10.0 ML
0.833 LW
N
-3.536 -3.536 M
3.536 3.536 L
-3.536 3.536 M
3.536 -3.536 L
S
GR
GS
[0.6 0 0 0.6 227.27401 120.45847] CT
0.929 0.694 0.125 RC
10.0 ML
0.833 LW
N
-3.536 -3.536 M
3.536 3.536 L
-3.536 3.536 M
3.536 -3.536 L
S
GR
GS
[0.6 0 0 0.6 230.532 120.68082] CT
0.929 0.694 0.125 RC
10.0 ML
0.833 LW
N
-3.536 -3.536 M
3.536 3.536 L
-3.536 3.536 M
3.536 -3.536 L
S
GR
GS
[0.6 0 0 0.6 233.79 125.94211] CT
0.929 0.694 0.125 RC
10.0 ML
0.833 LW
N
-3.536 -3.536 M
3.536 3.536 L
-3.536 3.536 M
3.536 -3.536 L
S
GR
GS
[0.6 0 0 0.6 237.04799 124.00656] CT
0.929 0.694 0.125 RC
10.0 ML
0.833 LW
N
-3.536 -3.536 M
3.536 3.536 L
-3.536 3.536 M
3.536 -3.536 L
S
GR
GS
[0.6 0 0 0.6 240.30601 125.76175] CT
0.929 0.694 0.125 RC
10.0 ML
0.833 LW
N
-3.536 -3.536 M
3.536 3.536 L
-3.536 3.536 M
3.536 -3.536 L
S
GR
GS
[0.6 0 0 0.6 243.564 120.19254] CT
0.929 0.694 0.125 RC
10.0 ML
0.833 LW
N
-3.536 -3.536 M
3.536 3.536 L
-3.536 3.536 M
3.536 -3.536 L
S
GR
GS
[0.6 0 0 0.6 246.822 122.80954] CT
0.929 0.694 0.125 RC
10.0 ML
0.833 LW
N
-3.536 -3.536 M
3.536 3.536 L
-3.536 3.536 M
3.536 -3.536 L
S
GR
GS
[0.6 0 0 0.6 250.07999 130.93881] CT
0.929 0.694 0.125 RC
10.0 ML
0.833 LW
N
-3.536 -3.536 M
3.536 3.536 L
-3.536 3.536 M
3.536 -3.536 L
S
GR
GS
[0.6 0 0 0.6 253.33801 127.15576] CT
0.929 0.694 0.125 RC
10.0 ML
0.833 LW
N
-3.536 -3.536 M
3.536 3.536 L
-3.536 3.536 M
3.536 -3.536 L
S
GR
GS
[0.6 0 0 0.6 256.596 121.92207] CT
0.929 0.694 0.125 RC
10.0 ML
0.833 LW
N
-3.536 -3.536 M
3.536 3.536 L
-3.536 3.536 M
3.536 -3.536 L
S
GR
GS
[0.6 0 0 0.6 259.854 128.95881] CT
0.929 0.694 0.125 RC
10.0 ML
0.833 LW
N
-3.536 -3.536 M
3.536 3.536 L
-3.536 3.536 M
3.536 -3.536 L
S
GR
GS
[0.6 0 0 0.6 263.11199 128.01833] CT
0.929 0.694 0.125 RC
10.0 ML
0.833 LW
N
-3.536 -3.536 M
3.536 3.536 L
-3.536 3.536 M
3.536 -3.536 L
S
GR
GS
[0.6 0 0 0.6 266.37001 130.38268] CT
0.929 0.694 0.125 RC
10.0 ML
0.833 LW
N
-3.536 -3.536 M
3.536 3.536 L
-3.536 3.536 M
3.536 -3.536 L
S
GR
GS
[0.6 0 0 0.6 269.628 131.8174] CT
0.929 0.694 0.125 RC
10.0 ML
0.833 LW
N
-3.536 -3.536 M
3.536 3.536 L
-3.536 3.536 M
3.536 -3.536 L
S
GR
GS
[0.6 0 0 0.6 272.886 135.77749] CT
0.929 0.694 0.125 RC
10.0 ML
0.833 LW
N
-3.536 -3.536 M
3.536 3.536 L
-3.536 3.536 M
3.536 -3.536 L
S
GR
GS
[0.6 0 0 0.6 276.14399 134.7742] CT
0.929 0.694 0.125 RC
10.0 ML
0.833 LW
N
-3.536 -3.536 M
3.536 3.536 L
-3.536 3.536 M
3.536 -3.536 L
S
GR
GS
[0.6 0 0 0.6 279.40201 134.04362] CT
0.929 0.694 0.125 RC
10.0 ML
0.833 LW
N
-3.536 -3.536 M
3.536 3.536 L
-3.536 3.536 M
3.536 -3.536 L
S
GR
GS
[0.6 0 0 0.6 282.66 136.06581] CT
0.929 0.694 0.125 RC
10.0 ML
0.833 LW
N
-3.536 -3.536 M
3.536 3.536 L
-3.536 3.536 M
3.536 -3.536 L
S
GR
GS
[0.6 0 0 0.6 285.918 136.80415] CT
0.929 0.694 0.125 RC
10.0 ML
0.833 LW
N
-3.536 -3.536 M
3.536 3.536 L
-3.536 3.536 M
3.536 -3.536 L
S
GR
GS
[0.6 0 0 0.6 289.17599 134.90318] CT
0.929 0.694 0.125 RC
10.0 ML
0.833 LW
N
-3.536 -3.536 M
3.536 3.536 L
-3.536 3.536 M
3.536 -3.536 L
S
GR
GS
[0.6 0 0 0.6 292.43401 139.76401] CT
0.929 0.694 0.125 RC
10.0 ML
0.833 LW
N
-3.536 -3.536 M
3.536 3.536 L
-3.536 3.536 M
3.536 -3.536 L
S
GR
GS
[0.6 0 0 0.6 295.692 137.25309] CT
0.929 0.694 0.125 RC
10.0 ML
0.833 LW
N
-3.536 -3.536 M
3.536 3.536 L
-3.536 3.536 M
3.536 -3.536 L
S
GR
GS
[0.6 0 0 0.6 298.95 139.72671] CT
0.929 0.694 0.125 RC
10.0 ML
0.833 LW
N
-3.536 -3.536 M
3.536 3.536 L
-3.536 3.536 M
3.536 -3.536 L
S
GR
GS
[0.6 0 0 0.6 302.208 142.57382] CT
0.929 0.694 0.125 RC
10.0 ML
0.833 LW
N
-3.536 -3.536 M
3.536 3.536 L
-3.536 3.536 M
3.536 -3.536 L
S
GR
GS
[0.6 0 0 0.6 305.46599 146.80841] CT
0.929 0.694 0.125 RC
10.0 ML
0.833 LW
N
-3.536 -3.536 M
3.536 3.536 L
-3.536 3.536 M
3.536 -3.536 L
S
GR
GS
[0.6 0 0 0.6 308.72399 147.46011] CT
0.929 0.694 0.125 RC
10.0 ML
0.833 LW
N
-3.536 -3.536 M
3.536 3.536 L
-3.536 3.536 M
3.536 -3.536 L
S
GR
GS
[0.6 0 0 0.6 311.98198 141.37206] CT
0.929 0.694 0.125 RC
10.0 ML
0.833 LW
N
-3.536 -3.536 M
3.536 3.536 L
-3.536 3.536 M
3.536 -3.536 L
S
GR
GS
[0.6 0 0 0.6 315.24001 145.59404] CT
0.929 0.694 0.125 RC
10.0 ML
0.833 LW
N
-3.536 -3.536 M
3.536 3.536 L
-3.536 3.536 M
3.536 -3.536 L
S
GR
GS
[0.6 0 0 0.6 318.49801 149.30576] CT
0.929 0.694 0.125 RC
10.0 ML
0.833 LW
N
-3.536 -3.536 M
3.536 3.536 L
-3.536 3.536 M
3.536 -3.536 L
S
GR
GS
[0.6 0 0 0.6 321.75601 147.49404] CT
0.929 0.694 0.125 RC
10.0 ML
0.833 LW
N
-3.536 -3.536 M
3.536 3.536 L
-3.536 3.536 M
3.536 -3.536 L
S
GR
GS
[0.6 0 0 0.6 325.014 154.80994] CT
0.929 0.694 0.125 RC
10.0 ML
0.833 LW
N
-3.536 -3.536 M
3.536 3.536 L
-3.536 3.536 M
3.536 -3.536 L
S
GR
GS
[0.6 0 0 0.6 328.272 149.26066] CT
0.929 0.694 0.125 RC
10.0 ML
0.833 LW
N
-3.536 -3.536 M
3.536 3.536 L
-3.536 3.536 M
3.536 -3.536 L
S
GR
GS
[0.6 0 0 0.6 331.52999 143.83675] CT
0.929 0.694 0.125 RC
10.0 ML
0.833 LW
N
-3.536 -3.536 M
3.536 3.536 L
-3.536 3.536 M
3.536 -3.536 L
S
GR
GS
[0.6 0 0 0.6 334.78799 151.59091] CT
0.929 0.694 0.125 RC
10.0 ML
0.833 LW
N
-3.536 -3.536 M
3.536 3.536 L
-3.536 3.536 M
3.536 -3.536 L
S
GR
GS
[0.6 0 0 0.6 338.04598 155.18447] CT
0.929 0.694 0.125 RC
10.0 ML
0.833 LW
N
-3.536 -3.536 M
3.536 3.536 L
-3.536 3.536 M
3.536 -3.536 L
S
GR
GS
[0.6 0 0 0.6 341.30402 157.15415] CT
0.929 0.694 0.125 RC
10.0 ML
0.833 LW
N
-3.536 -3.536 M
3.536 3.536 L
-3.536 3.536 M
3.536 -3.536 L
S
GR
GS
[0.6 0 0 0.6 344.56201 154.1189] CT
0.929 0.694 0.125 RC
10.0 ML
0.833 LW
N
-3.536 -3.536 M
3.536 3.536 L
-3.536 3.536 M
3.536 -3.536 L
S
GR
GS
[0.6 0 0 0.6 347.82001 160.75869] CT
0.929 0.694 0.125 RC
10.0 ML
0.833 LW
N
-3.536 -3.536 M
3.536 3.536 L
-3.536 3.536 M
3.536 -3.536 L
S
GR
GS
[0.6 0 0 0.6 351.078 158.67805] CT
0.929 0.694 0.125 RC
10.0 ML
0.833 LW
N
-3.536 -3.536 M
3.536 3.536 L
-3.536 3.536 M
3.536 -3.536 L
S
GR
GS
[0.6 0 0 0.6 354.336 163.95989] CT
0.929 0.694 0.125 RC
10.0 ML
0.833 LW
N
-3.536 -3.536 M
3.536 3.536 L
-3.536 3.536 M
3.536 -3.536 L
S
GR
GS
[0.6 0 0 0.6 357.59399 161.57342] CT
0.929 0.694 0.125 RC
10.0 ML
0.833 LW
N
-3.536 -3.536 M
3.536 3.536 L
-3.536 3.536 M
3.536 -3.536 L
S
GR
GS
[0.6 0 0 0.6 360.85199 163.59503] CT
0.929 0.694 0.125 RC
10.0 ML
0.833 LW
N
-3.536 -3.536 M
3.536 3.536 L
-3.536 3.536 M
3.536 -3.536 L
S
GR
GS
[0.6 0 0 0.6 364.10999 174.58466] CT
0.929 0.694 0.125 RC
10.0 ML
0.833 LW
N
-3.536 -3.536 M
3.536 3.536 L
-3.536 3.536 M
3.536 -3.536 L
S
GR
GS
[0.6 0 0 0.6 367.36802 173.63146] CT
0.929 0.694 0.125 RC
10.0 ML
0.833 LW
N
-3.536 -3.536 M
3.536 3.536 L
-3.536 3.536 M
3.536 -3.536 L
S
GR
GS
[0.6 0 0 0.6 370.62601 162.5194] CT
0.929 0.694 0.125 RC
10.0 ML
0.833 LW
N
-3.536 -3.536 M
3.536 3.536 L
-3.536 3.536 M
3.536 -3.536 L
S
GR
GS
[0.6 0 0 0.6 373.88401 174.4218] CT
0.929 0.694 0.125 RC
10.0 ML
0.833 LW
N
-3.536 -3.536 M
3.536 3.536 L
-3.536 3.536 M
3.536 -3.536 L
S
GR
GS
[0.6 0 0 0.6 377.142 172.252] CT
0.929 0.694 0.125 RC
10.0 ML
0.833 LW
N
-3.536 -3.536 M
3.536 3.536 L
-3.536 3.536 M
3.536 -3.536 L
S
GR
GS
[0.6 0 0 0.6 380.4 176.53793] CT
0.929 0.694 0.125 RC
10.0 ML
0.833 LW
N
-3.536 -3.536 M
3.536 3.536 L
-3.536 3.536 M
3.536 -3.536 L
S
GR
GS
[0.6 0 0 0.6 0 0] CT
0.494 0.184 0.557 RC
1 LJ
0.833 LW
N
96.43 72.183 M
101.86 60.665 L
107.29 88.597 L
112.72 74.509 L
118.15 99.164 L
123.58 119.364 L
129.01 85.529 L
134.44 96.67 L
139.87 96.637 L
145.3 116.371 L
150.73 139.596 L
156.16 118.572 L
161.59 122.198 L
167.02 149.889 L
172.45 148.018 L
177.88 134.442 L
183.31 143.928 L
188.74 147.132 L
194.17 149.088 L
199.6 155.96 L
205.03 140.995 L
210.46 157.411 L
215.89 163.509 L
221.32 155.196 L
226.75 169.187 L
232.18 179.051 L
237.61 177.69 L
243.04 177.305 L
248.47 183.933 L
253.9 185.097 L
259.33 168.429 L
264.76 170.204 L
270.19 179.385 L
275.62 171.649 L
281.05 170.858 L
286.48 188.961 L
291.91 171.38 L
297.34 194.957 L
302.77 199.645 L
308.2 190.856 L
313.63 195.513 L
319.06 191.529 L
324.49 190.593 L
329.92 200.137 L
335.35 199.154 L
340.78 205.803 L
346.21 206.5 L
351.64 202.066 L
357.07 186.304 L
362.5 211.023 L
367.93 203.512 L
373.36 213.186 L
378.79 218.216 L
384.22 215.185 L
389.65 211.044 L
395.08 220.927 L
400.51 220.418 L
405.94 222.273 L
411.37 228.986 L
416.8 224.426 L
422.23 226.128 L
427.66 226.666 L
433.09 236.308 L
438.52 227.057 L
443.95 232.004 L
449.38 229.389 L
454.81 236.848 L
460.24 245.575 L
465.67 235.574 L
471.1 246.102 L
476.53 234.924 L
481.96 248.656 L
487.39 252.914 L
492.82 250.175 L
498.25 256.086 L
503.68 246.371 L
509.11 253.781 L
514.54 254.476 L
519.97 261.843 L
525.4 264.782 L
530.83 276.285 L
536.26 258.51 L
541.69 261.773 L
547.12 282.29 L
552.55 283.792 L
557.98 289.21 L
563.41 279.225 L
568.84 285.462 L
574.27 287.145 L
579.7 285.939 L
585.13 274.951 L
590.56 297.907 L
595.99 296.928 L
601.42 306.247 L
606.85 307.542 L
612.28 313.435 L
617.71 329.665 L
623.14 322.138 L
628.57 313.403 L
634 328.835 L
S
GR
GS
[0.6 0 0 0.6 57.858 43.30956] CT
0.494 0.184 0.557 RC
10.0 ML
0.833 LW
N
-3.536 -3.536 M
3.536 3.536 L
-3.536 3.536 M
3.536 -3.536 L
S
GR
GS
[0.6 0 0 0.6 61.116 36.39909] CT
0.494 0.184 0.557 RC
10.0 ML
0.833 LW
N
-3.536 -3.536 M
3.536 3.536 L
-3.536 3.536 M
3.536 -3.536 L
S
GR
GS
[0.6 0 0 0.6 64.374 53.15815] CT
0.494 0.184 0.557 RC
10.0 ML
0.833 LW
N
-3.536 -3.536 M
3.536 3.536 L
-3.536 3.536 M
3.536 -3.536 L
S
GR
GS
[0.6 0 0 0.6 67.632 44.70551] CT
0.494 0.184 0.557 RC
10.0 ML
0.833 LW
N
-3.536 -3.536 M
3.536 3.536 L
-3.536 3.536 M
3.536 -3.536 L
S
GR
GS
[0.6 0 0 0.6 70.89 59.4986] CT
0.494 0.184 0.557 RC
10.0 ML
0.833 LW
N
-3.536 -3.536 M
3.536 3.536 L
-3.536 3.536 M
3.536 -3.536 L
S
GR
GS
[0.6 0 0 0.6 74.148 71.61852] CT
0.494 0.184 0.557 RC
10.0 ML
0.833 LW
N
-3.536 -3.536 M
3.536 3.536 L
-3.536 3.536 M
3.536 -3.536 L
S
GR
GS
[0.6 0 0 0.6 77.406 51.3175] CT
0.494 0.184 0.557 RC
10.0 ML
0.833 LW
N
-3.536 -3.536 M
3.536 3.536 L
-3.536 3.536 M
3.536 -3.536 L
S
GR
GS
[0.6 0 0 0.6 80.664 58.00204] CT
0.494 0.184 0.557 RC
10.0 ML
0.833 LW
N
-3.536 -3.536 M
3.536 3.536 L
-3.536 3.536 M
3.536 -3.536 L
S
GR
GS
[0.6 0 0 0.6 83.922 57.98209] CT
0.494 0.184 0.557 RC
10.0 ML
0.833 LW
N
-3.536 -3.536 M
3.536 3.536 L
-3.536 3.536 M
3.536 -3.536 L
S
GR
GS
[0.6 0 0 0.6 87.18 69.82246] CT
0.494 0.184 0.557 RC
10.0 ML
0.833 LW
N
-3.536 -3.536 M
3.536 3.536 L
-3.536 3.536 M
3.536 -3.536 L
S
GR
GS
[0.6 0 0 0.6 90.438 83.75748] CT
0.494 0.184 0.557 RC
10.0 ML
0.833 LW
N
-3.536 -3.536 M
3.536 3.536 L
-3.536 3.536 M
3.536 -3.536 L
S
GR
GS
[0.6 0 0 0.6 93.696 71.14305] CT
0.494 0.184 0.557 RC
10.0 ML
0.833 LW
N
-3.536 -3.536 M
3.536 3.536 L
-3.536 3.536 M
3.536 -3.536 L
S
GR
GS
[0.6 0 0 0.6 96.954 73.31897] CT
0.494 0.184 0.557 RC
10.0 ML
0.833 LW
N
-3.536 -3.536 M
3.536 3.536 L
-3.536 3.536 M
3.536 -3.536 L
S
GR
GS
[0.6 0 0 0.6 100.212 89.93343] CT
0.494 0.184 0.557 RC
10.0 ML
0.833 LW
N
-3.536 -3.536 M
3.536 3.536 L
-3.536 3.536 M
3.536 -3.536 L
S
GR
GS
[0.6 0 0 0.6 103.47 88.81106] CT
0.494 0.184 0.557 RC
10.0 ML
0.833 LW
N
-3.536 -3.536 M
3.536 3.536 L
-3.536 3.536 M
3.536 -3.536 L
S
GR
GS
[0.6 0 0 0.6 106.728 80.66531] CT
0.494 0.184 0.557 RC
10.0 ML
0.833 LW
N
-3.536 -3.536 M
3.536 3.536 L
-3.536 3.536 M
3.536 -3.536 L
S
GR
GS
[0.6 0 0 0.6 109.986 86.35677] CT
0.494 0.184 0.557 RC
10.0 ML
0.833 LW
N
-3.536 -3.536 M
3.536 3.536 L
-3.536 3.536 M
3.536 -3.536 L
S
GR
GS
[0.6 0 0 0.6 113.244 88.27921] CT
0.494 0.184 0.557 RC
10.0 ML
0.833 LW
N
-3.536 -3.536 M
3.536 3.536 L
-3.536 3.536 M
3.536 -3.536 L
S
GR
GS
[0.6 0 0 0.6 116.502 89.45275] CT
0.494 0.184 0.557 RC
10.0 ML
0.833 LW
N
-3.536 -3.536 M
3.536 3.536 L
-3.536 3.536 M
3.536 -3.536 L
S
GR
GS
[0.6 0 0 0.6 119.76 93.57607] CT
0.494 0.184 0.557 RC
10.0 ML
0.833 LW
N
-3.536 -3.536 M
3.536 3.536 L
-3.536 3.536 M
3.536 -3.536 L
S
GR
GS
[0.6 0 0 0.6 123.018 84.59709] CT
0.494 0.184 0.557 RC
10.0 ML
0.833 LW
N
-3.536 -3.536 M
3.536 3.536 L
-3.536 3.536 M
3.536 -3.536 L
S
GR
GS
[0.6 0 0 0.6 126.276 94.4469] CT
0.494 0.184 0.557 RC
10.0 ML
0.833 LW
N
-3.536 -3.536 M
3.536 3.536 L
-3.536 3.536 M
3.536 -3.536 L
S
GR
GS
[0.6 0 0 0.6 129.534 98.1055] CT
0.494 0.184 0.557 RC
10.0 ML
0.833 LW
N
-3.536 -3.536 M
3.536 3.536 L
-3.536 3.536 M
3.536 -3.536 L
S
GR
GS
[0.6 0 0 0.6 132.792 93.11784] CT
0.494 0.184 0.557 RC
10.0 ML
0.833 LW
N
-3.536 -3.536 M
3.536 3.536 L
-3.536 3.536 M
3.536 -3.536 L
S
GR
GS
[0.6 0 0 0.6 136.05 101.51216] CT
0.494 0.184 0.557 RC
10.0 ML
0.833 LW
N
-3.536 -3.536 M
3.536 3.536 L
-3.536 3.536 M
3.536 -3.536 L
S
GR
GS
[0.6 0 0 0.6 139.308 107.43057] CT
0.494 0.184 0.557 RC
10.0 ML
0.833 LW
N
-3.536 -3.536 M
3.536 3.536 L
-3.536 3.536 M
3.536 -3.536 L
S
GR
GS
[0.6 0 0 0.6 142.566 106.61371] CT
0.494 0.184 0.557 RC
10.0 ML
0.833 LW
N
-3.536 -3.536 M
3.536 3.536 L
-3.536 3.536 M
3.536 -3.536 L
S
GR
GS
[0.6 0 0 0.6 145.824 106.38314] CT
0.494 0.184 0.557 RC
10.0 ML
0.833 LW
N
-3.536 -3.536 M
3.536 3.536 L
-3.536 3.536 M
3.536 -3.536 L
S
GR
GS
[0.6 0 0 0.6 149.082 110.36002] CT
0.494 0.184 0.557 RC
10.0 ML
0.833 LW
N
-3.536 -3.536 M
3.536 3.536 L
-3.536 3.536 M
3.536 -3.536 L
S
GR
GS
[0.6 0 0 0.6 152.34 111.0584] CT
0.494 0.184 0.557 RC
10.0 ML
0.833 LW
N
-3.536 -3.536 M
3.536 3.536 L
-3.536 3.536 M
3.536 -3.536 L
S
GR
GS
[0.6 0 0 0.6 155.59799 101.05735] CT
0.494 0.184 0.557 RC
10.0 ML
0.833 LW
N
-3.536 -3.536 M
3.536 3.536 L
-3.536 3.536 M
3.536 -3.536 L
S
GR
GS
[0.6 0 0 0.6 158.85601 102.12249] CT
0.494 0.184 0.557 RC
10.0 ML
0.833 LW
N
-3.536 -3.536 M
3.536 3.536 L
-3.536 3.536 M
3.536 -3.536 L
S
GR
GS
[0.6 0 0 0.6 162.114 107.63108] CT
0.494 0.184 0.557 RC
10.0 ML
0.833 LW
N
-3.536 -3.536 M
3.536 3.536 L
-3.536 3.536 M
3.536 -3.536 L
S
GR
GS
[0.6 0 0 0.6 165.372 102.98935] CT
0.494 0.184 0.557 RC
10.0 ML
0.833 LW
N
-3.536 -3.536 M
3.536 3.536 L
-3.536 3.536 M
3.536 -3.536 L
S
GR
GS
[0.6 0 0 0.6 168.62999 102.51479] CT
0.494 0.184 0.557 RC
10.0 ML
0.833 LW
N
-3.536 -3.536 M
3.536 3.536 L
-3.536 3.536 M
3.536 -3.536 L
S
GR
GS
[0.6 0 0 0.6 171.88801 113.37683] CT
0.494 0.184 0.557 RC
10.0 ML
0.833 LW
N
-3.536 -3.536 M
3.536 3.536 L
-3.536 3.536 M
3.536 -3.536 L
S
GR
GS
[0.6 0 0 0.6 175.146 102.82827] CT
0.494 0.184 0.557 RC
10.0 ML
0.833 LW
N
-3.536 -3.536 M
3.536 3.536 L
-3.536 3.536 M
3.536 -3.536 L
S
GR
GS
[0.6 0 0 0.6 178.404 116.97426] CT
0.494 0.184 0.557 RC
10.0 ML
0.833 LW
N
-3.536 -3.536 M
3.536 3.536 L
-3.536 3.536 M
3.536 -3.536 L
S
GR
GS
[0.6 0 0 0.6 181.66199 119.78698] CT
0.494 0.184 0.557 RC
10.0 ML
0.833 LW
N
-3.536 -3.536 M
3.536 3.536 L
-3.536 3.536 M
3.536 -3.536 L
S
GR
GS
[0.6 0 0 0.6 184.92001 114.51354] CT
0.494 0.184 0.557 RC
10.0 ML
0.833 LW
N
-3.536 -3.536 M
3.536 3.536 L
-3.536 3.536 M
3.536 -3.536 L
S
GR
GS
[0.6 0 0 0.6 188.178 117.30804] CT
0.494 0.184 0.557 RC
10.0 ML
0.833 LW
N
-3.536 -3.536 M
3.536 3.536 L
-3.536 3.536 M
3.536 -3.536 L
S
GR
GS
[0.6 0 0 0.6 191.436 114.91742] CT
0.494 0.184 0.557 RC
10.0 ML
0.833 LW
N
-3.536 -3.536 M
3.536 3.536 L
-3.536 3.536 M
3.536 -3.536 L
S
GR
GS
[0.6 0 0 0.6 194.69399 114.35562] CT
0.494 0.184 0.557 RC
10.0 ML
0.833 LW
N
-3.536 -3.536 M
3.536 3.536 L
-3.536 3.536 M
3.536 -3.536 L
S
GR
GS
[0.6 0 0 0.6 197.95201 120.08239] CT
0.494 0.184 0.557 RC
10.0 ML
0.833 LW
N
-3.536 -3.536 M
3.536 3.536 L
-3.536 3.536 M
3.536 -3.536 L
S
GR
GS
[0.6 0 0 0.6 201.21 119.49212] CT
0.494 0.184 0.557 RC
10.0 ML
0.833 LW
N
-3.536 -3.536 M
3.536 3.536 L
-3.536 3.536 M
3.536 -3.536 L
S
GR
GS
[0.6 0 0 0.6 204.468 123.48191] CT
0.494 0.184 0.557 RC
10.0 ML
0.833 LW
N
-3.536 -3.536 M
3.536 3.536 L
-3.536 3.536 M
3.536 -3.536 L
S
GR
GS
[0.6 0 0 0.6 207.72599 123.90028] CT
0.494 0.184 0.557 RC
10.0 ML
0.833 LW
N
-3.536 -3.536 M
3.536 3.536 L
-3.536 3.536 M
3.536 -3.536 L
S
GR
GS
[0.6 0 0 0.6 210.98401 121.23961] CT
0.494 0.184 0.557 RC
10.0 ML
0.833 LW
N
-3.536 -3.536 M
3.536 3.536 L
-3.536 3.536 M
3.536 -3.536 L
S
GR
GS
[0.6 0 0 0.6 214.242 111.78224] CT
0.494 0.184 0.557 RC
10.0 ML
0.833 LW
N
-3.536 -3.536 M
3.536 3.536 L
-3.536 3.536 M
3.536 -3.536 L
S
GR
GS
[0.6 0 0 0.6 217.5 126.61371] CT
0.494 0.184 0.557 RC
10.0 ML
0.833 LW
N
-3.536 -3.536 M
3.536 3.536 L
-3.536 3.536 M
3.536 -3.536 L
S
GR
GS
[0.6 0 0 0.6 220.758 122.10723] CT
0.494 0.184 0.557 RC
10.0 ML
0.833 LW
N
-3.536 -3.536 M
3.536 3.536 L
-3.536 3.536 M
3.536 -3.536 L
S
GR
GS
[0.6 0 0 0.6 224.01599 127.9118] CT
0.494 0.184 0.557 RC
10.0 ML
0.833 LW
N
-3.536 -3.536 M
3.536 3.536 L
-3.536 3.536 M
3.536 -3.536 L
S
GR
GS
[0.6 0 0 0.6 227.27401 130.92978] CT
0.494 0.184 0.557 RC
10.0 ML
0.833 LW
N
-3.536 -3.536 M
3.536 3.536 L
-3.536 3.536 M
3.536 -3.536 L
S
GR
GS
[0.6 0 0 0.6 230.532 129.11071] CT
0.494 0.184 0.557 RC
10.0 ML
0.833 LW
N
-3.536 -3.536 M
3.536 3.536 L
-3.536 3.536 M
3.536 -3.536 L
S
GR
GS
[0.6 0 0 0.6 233.79 126.62667] CT
0.494 0.184 0.557 RC
10.0 ML
0.833 LW
N
-3.536 -3.536 M
3.536 3.536 L
-3.536 3.536 M
3.536 -3.536 L
S
GR
GS
[0.6 0 0 0.6 237.04799 132.55629] CT
0.494 0.184 0.557 RC
10.0 ML
0.833 LW
N
-3.536 -3.536 M
3.536 3.536 L
-3.536 3.536 M
3.536 -3.536 L
S
GR
GS
[0.6 0 0 0.6 240.30601 132.25108] CT
0.494 0.184 0.557 RC
10.0 ML
0.833 LW
N
-3.536 -3.536 M
3.536 3.536 L
-3.536 3.536 M
3.536 -3.536 L
S
GR
GS
[0.6 0 0 0.6 243.564 133.36392] CT
0.494 0.184 0.557 RC
10.0 ML
0.833 LW
N
-3.536 -3.536 M
3.536 3.536 L
-3.536 3.536 M
3.536 -3.536 L
S
GR
GS
[0.6 0 0 0.6 246.822 137.39156] CT
0.494 0.184 0.557 RC
10.0 ML
0.833 LW
N
-3.536 -3.536 M
3.536 3.536 L
-3.536 3.536 M
3.536 -3.536 L
S
GR
GS
[0.6 0 0 0.6 250.07999 134.65573] CT
0.494 0.184 0.557 RC
10.0 ML
0.833 LW
N
-3.536 -3.536 M
3.536 3.536 L
-3.536 3.536 M
3.536 -3.536 L
S
GR
GS
[0.6 0 0 0.6 253.33801 135.67672] CT
0.494 0.184 0.557 RC
10.0 ML
0.833 LW
N
-3.536 -3.536 M
3.536 3.536 L
-3.536 3.536 M
3.536 -3.536 L
S
GR
GS
[0.6 0 0 0.6 256.596 135.99984] CT
0.494 0.184 0.557 RC
10.0 ML
0.833 LW
N
-3.536 -3.536 M
3.536 3.536 L
-3.536 3.536 M
3.536 -3.536 L
S
GR
GS
[0.6 0 0 0.6 259.854 141.78497] CT
0.494 0.184 0.557 RC
10.0 ML
0.833 LW
N
-3.536 -3.536 M
3.536 3.536 L
-3.536 3.536 M
3.536 -3.536 L
S
GR
GS
[0.6 0 0 0.6 263.11199 136.23444] CT
0.494 0.184 0.557 RC
10.0 ML
0.833 LW
N
-3.536 -3.536 M
3.536 3.536 L
-3.536 3.536 M
3.536 -3.536 L
S
GR
GS
[0.6 0 0 0.6 266.37001 139.20216] CT
0.494 0.184 0.557 RC
10.0 ML
0.833 LW
N
-3.536 -3.536 M
3.536 3.536 L
-3.536 3.536 M
3.536 -3.536 L
S
GR
GS
[0.6 0 0 0.6 269.628 137.63319] CT
0.494 0.184 0.557 RC
10.0 ML
0.833 LW
N
-3.536 -3.536 M
3.536 3.536 L
-3.536 3.536 M
3.536 -3.536 L
S
GR
GS
[0.6 0 0 0.6 272.886 142.10891] CT
0.494 0.184 0.557 RC
10.0 ML
0.833 LW
N
-3.536 -3.536 M
3.536 3.536 L
-3.536 3.536 M
3.536 -3.536 L
S
GR
GS
[0.6 0 0 0.6 276.14399 147.34505] CT
0.494 0.184 0.557 RC
10.0 ML
0.833 LW
N
-3.536 -3.536 M
3.536 3.536 L
-3.536 3.536 M
3.536 -3.536 L
S
GR
GS
[0.6 0 0 0.6 279.40201 141.3442] CT
0.494 0.184 0.557 RC
10.0 ML
0.833 LW
N
-3.536 -3.536 M
3.536 3.536 L
-3.536 3.536 M
3.536 -3.536 L
S
GR
GS
[0.6 0 0 0.6 282.66 147.66143] CT
0.494 0.184 0.557 RC
10.0 ML
0.833 LW
N
-3.536 -3.536 M
3.536 3.536 L
-3.536 3.536 M
3.536 -3.536 L
S
GR
GS
[0.6 0 0 0.6 285.918 140.9545] CT
0.494 0.184 0.557 RC
10.0 ML
0.833 LW
N
-3.536 -3.536 M
3.536 3.536 L
-3.536 3.536 M
3.536 -3.536 L
S
GR
GS
[0.6 0 0 0.6 289.17599 149.19377] CT
0.494 0.184 0.557 RC
10.0 ML
0.833 LW
N
-3.536 -3.536 M
3.536 3.536 L
-3.536 3.536 M
3.536 -3.536 L
S
GR
GS
[0.6 0 0 0.6 292.43401 151.74862] CT
0.494 0.184 0.557 RC
10.0 ML
0.833 LW
N
-3.536 -3.536 M
3.536 3.536 L
-3.536 3.536 M
3.536 -3.536 L
S
GR
GS
[0.6 0 0 0.6 295.692 150.10507] CT
0.494 0.184 0.557 RC
10.0 ML
0.833 LW
N
-3.536 -3.536 M
3.536 3.536 L
-3.536 3.536 M
3.536 -3.536 L
S
GR
GS
[0.6 0 0 0.6 298.95 153.65186] CT
0.494 0.184 0.557 RC
10.0 ML
0.833 LW
N
-3.536 -3.536 M
3.536 3.536 L
-3.536 3.536 M
3.536 -3.536 L
S
GR
GS
[0.6 0 0 0.6 302.208 147.82267] CT
0.494 0.184 0.557 RC
10.0 ML
0.833 LW
N
-3.536 -3.536 M
3.536 3.536 L
-3.536 3.536 M
3.536 -3.536 L
S
GR
GS
[0.6 0 0 0.6 305.46599 152.26863] CT
0.494 0.184 0.557 RC
10.0 ML
0.833 LW
N
-3.536 -3.536 M
3.536 3.536 L
-3.536 3.536 M
3.536 -3.536 L
S
GR
GS
[0.6 0 0 0.6 308.72399 152.68538] CT
0.494 0.184 0.557 RC
10.0 ML
0.833 LW
N
-3.536 -3.536 M
3.536 3.536 L
-3.536 3.536 M
3.536 -3.536 L
S
GR
GS
[0.6 0 0 0.6 311.98198 157.10576] CT
0.494 0.184 0.557 RC
10.0 ML
0.833 LW
N
-3.536 -3.536 M
3.536 3.536 L
-3.536 3.536 M
3.536 -3.536 L
S
GR
GS
[0.6 0 0 0.6 315.24001 158.86943] CT
0.494 0.184 0.557 RC
10.0 ML
0.833 LW
N
-3.536 -3.536 M
3.536 3.536 L
-3.536 3.536 M
3.536 -3.536 L
S
GR
GS
[0.6 0 0 0.6 318.49801 165.77098] CT
0.494 0.184 0.557 RC
10.0 ML
0.833 LW
N
-3.536 -3.536 M
3.536 3.536 L
-3.536 3.536 M
3.536 -3.536 L
S
GR
GS
[0.6 0 0 0.6 321.75601 155.10577] CT
0.494 0.184 0.557 RC
10.0 ML
0.833 LW
N
-3.536 -3.536 M
3.536 3.536 L
-3.536 3.536 M
3.536 -3.536 L
S
GR
GS
[0.6 0 0 0.6 325.014 157.06382] CT
0.494 0.184 0.557 RC
10.0 ML
0.833 LW
N
-3.536 -3.536 M
3.536 3.536 L
-3.536 3.536 M
3.536 -3.536 L
S
GR
GS
[0.6 0 0 0.6 328.272 169.37417] CT
0.494 0.184 0.557 RC
10.0 ML
0.833 LW
N
-3.536 -3.536 M
3.536 3.536 L
-3.536 3.536 M
3.536 -3.536 L
S
GR
GS
[0.6 0 0 0.6 331.52999 170.27521] CT
0.494 0.184 0.557 RC
10.0 ML
0.833 LW
N
-3.536 -3.536 M
3.536 3.536 L
-3.536 3.536 M
3.536 -3.536 L
S
GR
GS
[0.6 0 0 0.6 334.78799 173.52605] CT
0.494 0.184 0.557 RC
10.0 ML
0.833 LW
N
-3.536 -3.536 M
3.536 3.536 L
-3.536 3.536 M
3.536 -3.536 L
S
GR
GS
[0.6 0 0 0.6 338.04598 167.53493] CT
0.494 0.184 0.557 RC
10.0 ML
0.833 LW
N
-3.536 -3.536 M
3.536 3.536 L
-3.536 3.536 M
3.536 -3.536 L
S
GR
GS
[0.6 0 0 0.6 341.30402 171.2772] CT
0.494 0.184 0.557 RC
10.0 ML
0.833 LW
N
-3.536 -3.536 M
3.536 3.536 L
-3.536 3.536 M
3.536 -3.536 L
S
GR
GS
[0.6 0 0 0.6 344.56201 172.2867] CT
0.494 0.184 0.557 RC
10.0 ML
0.833 LW
N
-3.536 -3.536 M
3.536 3.536 L
-3.536 3.536 M
3.536 -3.536 L
S
GR
GS
[0.6 0 0 0.6 347.82001 171.56369] CT
0.494 0.184 0.557 RC
10.0 ML
0.833 LW
N
-3.536 -3.536 M
3.536 3.536 L
-3.536 3.536 M
3.536 -3.536 L
S
GR
GS
[0.6 0 0 0.6 351.078 164.97081] CT
0.494 0.184 0.557 RC
10.0 ML
0.833 LW
N
-3.536 -3.536 M
3.536 3.536 L
-3.536 3.536 M
3.536 -3.536 L
S
GR
GS
[0.6 0 0 0.6 354.336 178.74401] CT
0.494 0.184 0.557 RC
10.0 ML
0.833 LW
N
-3.536 -3.536 M
3.536 3.536 L
-3.536 3.536 M
3.536 -3.536 L
S
GR
GS
[0.6 0 0 0.6 357.59399 178.15675] CT
0.494 0.184 0.557 RC
10.0 ML
0.833 LW
N
-3.536 -3.536 M
3.536 3.536 L
-3.536 3.536 M
3.536 -3.536 L
S
GR
GS
[0.6 0 0 0.6 360.85199 183.74833] CT
0.494 0.184 0.557 RC
10.0 ML
0.833 LW
N
-3.536 -3.536 M
3.536 3.536 L
-3.536 3.536 M
3.536 -3.536 L
S
GR
GS
[0.6 0 0 0.6 364.10999 184.52498] CT
0.494 0.184 0.557 RC
10.0 ML
0.833 LW
N
-3.536 -3.536 M
3.536 3.536 L
-3.536 3.536 M
3.536 -3.536 L
S
GR
GS
[0.6 0 0 0.6 367.36802 188.06071] CT
0.494 0.184 0.557 RC
10.0 ML
0.833 LW
N
-3.536 -3.536 M
3.536 3.536 L
-3.536 3.536 M
3.536 -3.536 L
S
GR
GS
[0.6 0 0 0.6 370.62601 197.79906] CT
0.494 0.184 0.557 RC
10.0 ML
0.833 LW
N
-3.536 -3.536 M
3.536 3.536 L
-3.536 3.536 M
3.536 -3.536 L
S
GR
GS
[0.6 0 0 0.6 373.88401 193.28253] CT
0.494 0.184 0.557 RC
10.0 ML
0.833 LW
N
-3.536 -3.536 M
3.536 3.536 L
-3.536 3.536 M
3.536 -3.536 L
S
GR
GS
[0.6 0 0 0.6 377.142 188.04196] CT
0.494 0.184 0.557 RC
10.0 ML
0.833 LW
N
-3.536 -3.536 M
3.536 3.536 L
-3.536 3.536 M
3.536 -3.536 L
S
GR
GS
[0.6 0 0 0.6 380.4 197.30089] CT
0.494 0.184 0.557 RC
10.0 ML
0.833 LW
N
-3.536 -3.536 M
3.536 3.536 L
-3.536 3.536 M
3.536 -3.536 L
S
GR
GS
[0.6 0 0 0.6 0 0] CT
0.467 0.675 0.188 RC
1 LJ
0.833 LW
N
96.43 60.776 M
101.86 87.627 L
107.29 91.329 L
112.72 96.452 L
118.15 92.155 L
123.58 116.88 L
129.01 111.74 L
134.44 143.823 L
139.87 110.169 L
145.3 143.783 L
150.73 136.39 L
156.16 151.652 L
161.59 140.002 L
167.02 158.53 L
172.45 145.905 L
177.88 149.387 L
183.31 159.505 L
188.74 173.8 L
194.17 163.427 L
199.6 174.895 L
205.03 167.206 L
210.46 168.705 L
215.89 174.865 L
221.32 176.629 L
226.75 176.654 L
232.18 173.764 L
237.61 177.783 L
243.04 177 L
248.47 182.224 L
253.9 188.276 L
259.33 182.908 L
264.76 191.363 L
270.19 195.53 L
275.62 191.583 L
281.05 184.826 L
286.48 192.253 L
291.91 196.964 L
297.34 200.932 L
302.77 194.699 L
308.2 203.922 L
313.63 206.472 L
319.06 209.443 L
324.49 205.234 L
329.92 210.252 L
335.35 204.255 L
340.78 214.675 L
346.21 212.286 L
351.64 217.907 L
357.07 220.641 L
362.5 216.029 L
367.93 221.884 L
373.36 219.119 L
378.79 224.902 L
384.22 225.507 L
389.65 234.964 L
395.08 228.955 L
400.51 234.581 L
405.94 219.172 L
411.37 238.587 L
416.8 240.733 L
422.23 238.307 L
427.66 242.269 L
433.09 244.948 L
438.52 243.868 L
443.95 246.844 L
449.38 239.929 L
454.81 242.164 L
460.24 249.428 L
465.67 258.582 L
471.1 249.43 L
476.53 261.08 L
481.96 249.359 L
487.39 268.623 L
492.82 264.665 L
498.25 274.057 L
503.68 274.214 L
509.11 274.051 L
514.54 275.668 L
519.97 279.541 L
525.4 273.231 L
530.83 266.19 L
536.26 289.407 L
541.69 292.498 L
547.12 296.066 L
552.55 297.894 L
557.98 301.264 L
563.41 297.026 L
568.84 313.377 L
574.27 315.666 L
579.7 323.721 L
585.13 314.447 L
590.56 320.43 L
595.99 332.177 L
601.42 334.212 L
606.85 326.233 L
612.28 339.018 L
617.71 337.959 L
623.14 349.171 L
628.57 354.567 L
634 358.57 L
S
GR
GS
[0.6 0 0 0.6 57.858 36.46558] CT
0.467 0.675 0.188 RC
10.0 ML
0.833 LW
N
-3.536 -3.536 M
3.536 3.536 L
-3.536 3.536 M
3.536 -3.536 L
S
GR
GS
[0.6 0 0 0.6 61.116 52.57594] CT
0.467 0.675 0.188 RC
10.0 ML
0.833 LW
N
-3.536 -3.536 M
3.536 3.536 L
-3.536 3.536 M
3.536 -3.536 L
S
GR
GS
[0.6 0 0 0.6 64.374 54.79712] CT
0.467 0.675 0.188 RC
10.0 ML
0.833 LW
N
-3.536 -3.536 M
3.536 3.536 L
-3.536 3.536 M
3.536 -3.536 L
S
GR
GS
[0.6 0 0 0.6 67.632 57.87127] CT
0.467 0.675 0.188 RC
10.0 ML
0.833 LW
N
-3.536 -3.536 M
3.536 3.536 L
-3.536 3.536 M
3.536 -3.536 L
S
GR
GS
[0.6 0 0 0.6 70.89 55.29315] CT
0.467 0.675 0.188 RC
10.0 ML
0.833 LW
N
-3.536 -3.536 M
3.536 3.536 L
-3.536 3.536 M
3.536 -3.536 L
S
GR
GS
[0.6 0 0 0.6 74.148 70.12808] CT
0.467 0.675 0.188 RC
10.0 ML
0.833 LW
N
-3.536 -3.536 M
3.536 3.536 L
-3.536 3.536 M
3.536 -3.536 L
S
GR
GS
[0.6 0 0 0.6 77.406 67.04382] CT
0.467 0.675 0.188 RC
10.0 ML
0.833 LW
N
-3.536 -3.536 M
3.536 3.536 L
-3.536 3.536 M
3.536 -3.536 L
S
GR
GS
[0.6 0 0 0.6 80.664 86.29396] CT
0.467 0.675 0.188 RC
10.0 ML
0.833 LW
N
-3.536 -3.536 M
3.536 3.536 L
-3.536 3.536 M
3.536 -3.536 L
S
GR
GS
[0.6 0 0 0.6 83.922 66.10151] CT
0.467 0.675 0.188 RC
10.0 ML
0.833 LW
N
-3.536 -3.536 M
3.536 3.536 L
-3.536 3.536 M
3.536 -3.536 L
S
GR
GS
[0.6 0 0 0.6 87.18 86.26952] CT
0.467 0.675 0.188 RC
10.0 ML
0.833 LW
N
-3.536 -3.536 M
3.536 3.536 L
-3.536 3.536 M
3.536 -3.536 L
S
GR
GS
[0.6 0 0 0.6 90.438 81.83401] CT
0.467 0.675 0.188 RC
10.0 ML
0.833 LW
N
-3.536 -3.536 M
3.536 3.536 L
-3.536 3.536 M
3.536 -3.536 L
S
GR
GS
[0.6 0 0 0.6 93.696 90.99142] CT
0.467 0.675 0.188 RC
10.0 ML
0.833 LW
N
-3.536 -3.536 M
3.536 3.536 L
-3.536 3.536 M
3.536 -3.536 L
S
GR
GS
[0.6 0 0 0.6 96.954 84.00135] CT
0.467 0.675 0.188 RC
10.0 ML
0.833 LW
N
-3.536 -3.536 M
3.536 3.536 L
-3.536 3.536 M
3.536 -3.536 L
S
GR
GS
[0.6 0 0 0.6 100.212 95.11789] CT
0.467 0.675 0.188 RC
10.0 ML
0.833 LW
N
-3.536 -3.536 M
3.536 3.536 L
-3.536 3.536 M
3.536 -3.536 L
S
GR
GS
[0.6 0 0 0.6 103.47 87.54272] CT
0.467 0.675 0.188 RC
10.0 ML
0.833 LW
N
-3.536 -3.536 M
3.536 3.536 L
-3.536 3.536 M
3.536 -3.536 L
S
GR
GS
[0.6 0 0 0.6 106.728 89.63235] CT
0.467 0.675 0.188 RC
10.0 ML
0.833 LW
N
-3.536 -3.536 M
3.536 3.536 L
-3.536 3.536 M
3.536 -3.536 L
S
GR
GS
[0.6 0 0 0.6 109.986 95.70326] CT
0.467 0.675 0.188 RC
10.0 ML
0.833 LW
N
-3.536 -3.536 M
3.536 3.536 L
-3.536 3.536 M
3.536 -3.536 L
S
GR
GS
[0.6 0 0 0.6 113.244 104.28018] CT
0.467 0.675 0.188 RC
10.0 ML
0.833 LW
N
-3.536 -3.536 M
3.536 3.536 L
-3.536 3.536 M
3.536 -3.536 L
S
GR
GS
[0.6 0 0 0.6 116.502 98.05596] CT
0.467 0.675 0.188 RC
10.0 ML
0.833 LW
N
-3.536 -3.536 M
3.536 3.536 L
-3.536 3.536 M
3.536 -3.536 L
S
GR
GS
[0.6 0 0 0.6 119.76 104.93698] CT
0.467 0.675 0.188 RC
10.0 ML
0.833 LW
N
-3.536 -3.536 M
3.536 3.536 L
-3.536 3.536 M
3.536 -3.536 L
S
GR
GS
[0.6 0 0 0.6 123.018 100.32347] CT
0.467 0.675 0.188 RC
10.0 ML
0.833 LW
N
-3.536 -3.536 M
3.536 3.536 L
-3.536 3.536 M
3.536 -3.536 L
S
GR
GS
[0.6 0 0 0.6 126.276 101.22313] CT
0.467 0.675 0.188 RC
10.0 ML
0.833 LW
N
-3.536 -3.536 M
3.536 3.536 L
-3.536 3.536 M
3.536 -3.536 L
S
GR
GS
[0.6 0 0 0.6 129.534 104.91893] CT
0.467 0.675 0.188 RC
10.0 ML
0.833 LW
N
-3.536 -3.536 M
3.536 3.536 L
-3.536 3.536 M
3.536 -3.536 L
S
GR
GS
[0.6 0 0 0.6 132.792 105.97711] CT
0.467 0.675 0.188 RC
10.0 ML
0.833 LW
N
-3.536 -3.536 M
3.536 3.536 L
-3.536 3.536 M
3.536 -3.536 L
S
GR
GS
[0.6 0 0 0.6 136.05 105.99237] CT
0.467 0.675 0.188 RC
10.0 ML
0.833 LW
N
-3.536 -3.536 M
3.536 3.536 L
-3.536 3.536 M
3.536 -3.536 L
S
GR
GS
[0.6 0 0 0.6 139.308 104.25815] CT
0.467 0.675 0.188 RC
10.0 ML
0.833 LW
N
-3.536 -3.536 M
3.536 3.536 L
-3.536 3.536 M
3.536 -3.536 L
S
GR
GS
[0.6 0 0 0.6 142.566 106.67009] CT
0.467 0.675 0.188 RC
10.0 ML
0.833 LW
N
-3.536 -3.536 M
3.536 3.536 L
-3.536 3.536 M
3.536 -3.536 L
S
GR
GS
[0.6 0 0 0.6 145.824 106.20008] CT
0.467 0.675 0.188 RC
10.0 ML
0.833 LW
N
-3.536 -3.536 M
3.536 3.536 L
-3.536 3.536 M
3.536 -3.536 L
S
GR
GS
[0.6 0 0 0.6 149.082 109.33449] CT
0.467 0.675 0.188 RC
10.0 ML
0.833 LW
N
-3.536 -3.536 M
3.536 3.536 L
-3.536 3.536 M
3.536 -3.536 L
S
GR
GS
[0.6 0 0 0.6 152.34 112.96585] CT
0.467 0.675 0.188 RC
10.0 ML
0.833 LW
N
-3.536 -3.536 M
3.536 3.536 L
-3.536 3.536 M
3.536 -3.536 L
S
GR
GS
[0.6 0 0 0.6 155.59799 109.74465] CT
0.467 0.675 0.188 RC
10.0 ML
0.833 LW
N
-3.536 -3.536 M
3.536 3.536 L
-3.536 3.536 M
3.536 -3.536 L
S
GR
GS
[0.6 0 0 0.6 158.85601 114.81768] CT
0.467 0.675 0.188 RC
10.0 ML
0.833 LW
N
-3.536 -3.536 M
3.536 3.536 L
-3.536 3.536 M
3.536 -3.536 L
S
GR
GS
[0.6 0 0 0.6 162.114 117.31824] CT
0.467 0.675 0.188 RC
10.0 ML
0.833 LW
N
-3.536 -3.536 M
3.536 3.536 L
-3.536 3.536 M
3.536 -3.536 L
S
GR
GS
[0.6 0 0 0.6 165.372 114.94987] CT
0.467 0.675 0.188 RC
10.0 ML
0.833 LW
N
-3.536 -3.536 M
3.536 3.536 L
-3.536 3.536 M
3.536 -3.536 L
S
GR
GS
[0.6 0 0 0.6 168.62999 110.89569] CT
0.467 0.675 0.188 RC
10.0 ML
0.833 LW
N
-3.536 -3.536 M
3.536 3.536 L
-3.536 3.536 M
3.536 -3.536 L
S
GR
GS
[0.6 0 0 0.6 171.88801 115.35192] CT
0.467 0.675 0.188 RC
10.0 ML
0.833 LW
N
-3.536 -3.536 M
3.536 3.536 L
-3.536 3.536 M
3.536 -3.536 L
S
GR
GS
[0.6 0 0 0.6 175.146 118.17841] CT
0.467 0.675 0.188 RC
10.0 ML
0.833 LW
N
-3.536 -3.536 M
3.536 3.536 L
-3.536 3.536 M
3.536 -3.536 L
S
GR
GS
[0.6 0 0 0.6 178.404 120.55923] CT
0.467 0.675 0.188 RC
10.0 ML
0.833 LW
N
-3.536 -3.536 M
3.536 3.536 L
-3.536 3.536 M
3.536 -3.536 L
S
GR
GS
[0.6 0 0 0.6 181.66199 116.81966] CT
0.467 0.675 0.188 RC
10.0 ML
0.833 LW
N
-3.536 -3.536 M
3.536 3.536 L
-3.536 3.536 M
3.536 -3.536 L
S
GR
GS
[0.6 0 0 0.6 184.92001 122.35335] CT
0.467 0.675 0.188 RC
10.0 ML
0.833 LW
N
-3.536 -3.536 M
3.536 3.536 L
-3.536 3.536 M
3.536 -3.536 L
S
GR
GS
[0.6 0 0 0.6 188.178 123.88314] CT
0.467 0.675 0.188 RC
10.0 ML
0.833 LW
N
-3.536 -3.536 M
3.536 3.536 L
-3.536 3.536 M
3.536 -3.536 L
S
GR
GS
[0.6 0 0 0.6 191.436 125.66578] CT
0.467 0.675 0.188 RC
10.0 ML
0.833 LW
N
-3.536 -3.536 M
3.536 3.536 L
-3.536 3.536 M
3.536 -3.536 L
S
GR
GS
[0.6 0 0 0.6 194.69399 123.14031] CT
0.467 0.675 0.188 RC
10.0 ML
0.833 LW
N
-3.536 -3.536 M
3.536 3.536 L
-3.536 3.536 M
3.536 -3.536 L
S
GR
GS
[0.6 0 0 0.6 197.95201 126.151] CT
0.467 0.675 0.188 RC
10.0 ML
0.833 LW
N
-3.536 -3.536 M
3.536 3.536 L
-3.536 3.536 M
3.536 -3.536 L
S
GR
GS
[0.6 0 0 0.6 201.21 122.55326] CT
0.467 0.675 0.188 RC
10.0 ML
0.833 LW
N
-3.536 -3.536 M
3.536 3.536 L
-3.536 3.536 M
3.536 -3.536 L
S
GR
GS
[0.6 0 0 0.6 204.468 128.80483] CT
0.467 0.675 0.188 RC
10.0 ML
0.833 LW
N
-3.536 -3.536 M
3.536 3.536 L
-3.536 3.536 M
3.536 -3.536 L
S
GR
GS
[0.6 0 0 0.6 207.72599 127.37173] CT
0.467 0.675 0.188 RC
10.0 ML
0.833 LW
N
-3.536 -3.536 M
3.536 3.536 L
-3.536 3.536 M
3.536 -3.536 L
S
GR
GS
[0.6 0 0 0.6 210.98401 130.74446] CT
0.467 0.675 0.188 RC
10.0 ML
0.833 LW
N
-3.536 -3.536 M
3.536 3.536 L
-3.536 3.536 M
3.536 -3.536 L
S
GR
GS
[0.6 0 0 0.6 214.242 132.38476] CT
0.467 0.675 0.188 RC
10.0 ML
0.833 LW
N
-3.536 -3.536 M
3.536 3.536 L
-3.536 3.536 M
3.536 -3.536 L
S
GR
GS
[0.6 0 0 0.6 217.5 129.61719] CT
0.467 0.675 0.188 RC
10.0 ML
0.833 LW
N
-3.536 -3.536 M
3.536 3.536 L
-3.536 3.536 M
3.536 -3.536 L
S
GR
GS
[0.6 0 0 0.6 220.758 133.13028] CT
0.467 0.675 0.188 RC
10.0 ML
0.833 LW
N
-3.536 -3.536 M
3.536 3.536 L
-3.536 3.536 M
3.536 -3.536 L
S
GR
GS
[0.6 0 0 0.6 224.01599 131.47137] CT
0.467 0.675 0.188 RC
10.0 ML
0.833 LW
N
-3.536 -3.536 M
3.536 3.536 L
-3.536 3.536 M
3.536 -3.536 L
S
GR
GS
[0.6 0 0 0.6 227.27401 134.94104] CT
0.467 0.675 0.188 RC
10.0 ML
0.833 LW
N
-3.536 -3.536 M
3.536 3.536 L
-3.536 3.536 M
3.536 -3.536 L
S
GR
GS
[0.6 0 0 0.6 230.532 135.30417] CT
0.467 0.675 0.188 RC
10.0 ML
0.833 LW
N
-3.536 -3.536 M
3.536 3.536 L
-3.536 3.536 M
3.536 -3.536 L
S
GR
GS
[0.6 0 0 0.6 233.79 140.97817] CT
0.467 0.675 0.188 RC
10.0 ML
0.833 LW
N
-3.536 -3.536 M
3.536 3.536 L
-3.536 3.536 M
3.536 -3.536 L
S
GR
GS
[0.6 0 0 0.6 237.04799 137.37304] CT
0.467 0.675 0.188 RC
10.0 ML
0.833 LW
N
-3.536 -3.536 M
3.536 3.536 L
-3.536 3.536 M
3.536 -3.536 L
S
GR
GS
[0.6 0 0 0.6 240.30601 140.74832] CT
0.467 0.675 0.188 RC
10.0 ML
0.833 LW
N
-3.536 -3.536 M
3.536 3.536 L
-3.536 3.536 M
3.536 -3.536 L
S
GR
GS
[0.6 0 0 0.6 243.564 131.50291] CT
0.467 0.675 0.188 RC
10.0 ML
0.833 LW
N
-3.536 -3.536 M
3.536 3.536 L
-3.536 3.536 M
3.536 -3.536 L
S
GR
GS
[0.6 0 0 0.6 246.822 143.15205] CT
0.467 0.675 0.188 RC
10.0 ML
0.833 LW
N
-3.536 -3.536 M
3.536 3.536 L
-3.536 3.536 M
3.536 -3.536 L
S
GR
GS
[0.6 0 0 0.6 250.07999 144.43988] CT
0.467 0.675 0.188 RC
10.0 ML
0.833 LW
N
-3.536 -3.536 M
3.536 3.536 L
-3.536 3.536 M
3.536 -3.536 L
S
GR
GS
[0.6 0 0 0.6 253.33801 142.98409] CT
0.467 0.675 0.188 RC
10.0 ML
0.833 LW
N
-3.536 -3.536 M
3.536 3.536 L
-3.536 3.536 M
3.536 -3.536 L
S
GR
GS
[0.6 0 0 0.6 256.596 145.36164] CT
0.467 0.675 0.188 RC
10.0 ML
0.833 LW
N
-3.536 -3.536 M
3.536 3.536 L
-3.536 3.536 M
3.536 -3.536 L
S
GR
GS
[0.6 0 0 0.6 259.854 146.96877] CT
0.467 0.675 0.188 RC
10.0 ML
0.833 LW
N
-3.536 -3.536 M
3.536 3.536 L
-3.536 3.536 M
3.536 -3.536 L
S
GR
GS
[0.6 0 0 0.6 263.11199 146.32079] CT
0.467 0.675 0.188 RC
10.0 ML
0.833 LW
N
-3.536 -3.536 M
3.536 3.536 L
-3.536 3.536 M
3.536 -3.536 L
S
GR
GS
[0.6 0 0 0.6 266.37001 148.1065] CT
0.467 0.675 0.188 RC
10.0 ML
0.833 LW
N
-3.536 -3.536 M
3.536 3.536 L
-3.536 3.536 M
3.536 -3.536 L
S
GR
GS
[0.6 0 0 0.6 269.628 143.95747] CT
0.467 0.675 0.188 RC
10.0 ML
0.833 LW
N
-3.536 -3.536 M
3.536 3.536 L
-3.536 3.536 M
3.536 -3.536 L
S
GR
GS
[0.6 0 0 0.6 272.886 145.29847] CT
0.467 0.675 0.188 RC
10.0 ML
0.833 LW
N
-3.536 -3.536 M
3.536 3.536 L
-3.536 3.536 M
3.536 -3.536 L
S
GR
GS
[0.6 0 0 0.6 276.14399 149.65694] CT
0.467 0.675 0.188 RC
10.0 ML
0.833 LW
N
-3.536 -3.536 M
3.536 3.536 L
-3.536 3.536 M
3.536 -3.536 L
S
GR
GS
[0.6 0 0 0.6 279.40201 155.1492] CT
0.467 0.675 0.188 RC
10.0 ML
0.833 LW
N
-3.536 -3.536 M
3.536 3.536 L
-3.536 3.536 M
3.536 -3.536 L
S
GR
GS
[0.6 0 0 0.6 282.66 149.65817] CT
0.467 0.675 0.188 RC
10.0 ML
0.833 LW
N
-3.536 -3.536 M
3.536 3.536 L
-3.536 3.536 M
3.536 -3.536 L
S
GR
GS
[0.6 0 0 0.6 285.918 156.64805] CT
0.467 0.675 0.188 RC
10.0 ML
0.833 LW
N
-3.536 -3.536 M
3.536 3.536 L
-3.536 3.536 M
3.536 -3.536 L
S
GR
GS
[0.6 0 0 0.6 289.17599 149.6153] CT
0.467 0.675 0.188 RC
10.0 ML
0.833 LW
N
-3.536 -3.536 M
3.536 3.536 L
-3.536 3.536 M
3.536 -3.536 L
S
GR
GS
[0.6 0 0 0.6 292.43401 161.17366] CT
0.467 0.675 0.188 RC
10.0 ML
0.833 LW
N
-3.536 -3.536 M
3.536 3.536 L
-3.536 3.536 M
3.536 -3.536 L
S
GR
GS
[0.6 0 0 0.6 295.692 158.79886] CT
0.467 0.675 0.188 RC
10.0 ML
0.833 LW
N
-3.536 -3.536 M
3.536 3.536 L
-3.536 3.536 M
3.536 -3.536 L
S
GR
GS
[0.6 0 0 0.6 298.95 164.4345] CT
0.467 0.675 0.188 RC
10.0 ML
0.833 LW
N
-3.536 -3.536 M
3.536 3.536 L
-3.536 3.536 M
3.536 -3.536 L
S
GR
GS
[0.6 0 0 0.6 302.208 164.52856] CT
0.467 0.675 0.188 RC
10.0 ML
0.833 LW
N
-3.536 -3.536 M
3.536 3.536 L
-3.536 3.536 M
3.536 -3.536 L
S
GR
GS
[0.6 0 0 0.6 305.46599 164.43032] CT
0.467 0.675 0.188 RC
10.0 ML
0.833 LW
N
-3.536 -3.536 M
3.536 3.536 L
-3.536 3.536 M
3.536 -3.536 L
S
GR
GS
[0.6 0 0 0.6 308.72399 165.40067] CT
0.467 0.675 0.188 RC
10.0 ML
0.833 LW
N
-3.536 -3.536 M
3.536 3.536 L
-3.536 3.536 M
3.536 -3.536 L
S
GR
GS
[0.6 0 0 0.6 311.98198 167.72465] CT
0.467 0.675 0.188 RC
10.0 ML
0.833 LW
N
-3.536 -3.536 M
3.536 3.536 L
-3.536 3.536 M
3.536 -3.536 L
S
GR
GS
[0.6 0 0 0.6 315.24001 163.93883] CT
0.467 0.675 0.188 RC
10.0 ML
0.833 LW
N
-3.536 -3.536 M
3.536 3.536 L
-3.536 3.536 M
3.536 -3.536 L
S
GR
GS
[0.6 0 0 0.6 318.49801 159.71417] CT
0.467 0.675 0.188 RC
10.0 ML
0.833 LW
N
-3.536 -3.536 M
3.536 3.536 L
-3.536 3.536 M
3.536 -3.536 L
S
GR
GS
[0.6 0 0 0.6 321.75601 173.64395] CT
0.467 0.675 0.188 RC
10.0 ML
0.833 LW
N
-3.536 -3.536 M
3.536 3.536 L
-3.536 3.536 M
3.536 -3.536 L
S
GR
GS
[0.6 0 0 0.6 325.014 175.49868] CT
0.467 0.675 0.188 RC
10.0 ML
0.833 LW
N
-3.536 -3.536 M
3.536 3.536 L
-3.536 3.536 M
3.536 -3.536 L
S
GR
GS
[0.6 0 0 0.6 328.272 177.63957] CT
0.467 0.675 0.188 RC
10.0 ML
0.833 LW
N
-3.536 -3.536 M
3.536 3.536 L
-3.536 3.536 M
3.536 -3.536 L
S
GR
GS
[0.6 0 0 0.6 331.52999 178.7363] CT
0.467 0.675 0.188 RC
10.0 ML
0.833 LW
N
-3.536 -3.536 M
3.536 3.536 L
-3.536 3.536 M
3.536 -3.536 L
S
GR
GS
[0.6 0 0 0.6 334.78799 180.75824] CT
0.467 0.675 0.188 RC
10.0 ML
0.833 LW
N
-3.536 -3.536 M
3.536 3.536 L
-3.536 3.536 M
3.536 -3.536 L
S
GR
GS
[0.6 0 0 0.6 338.04598 178.21589] CT
0.467 0.675 0.188 RC
10.0 ML
0.833 LW
N
-3.536 -3.536 M
3.536 3.536 L
-3.536 3.536 M
3.536 -3.536 L
S
GR
GS
[0.6 0 0 0.6 341.30402 188.02614] CT
0.467 0.675 0.188 RC
10.0 ML
0.833 LW
N
-3.536 -3.536 M
3.536 3.536 L
-3.536 3.536 M
3.536 -3.536 L
S
GR
GS
[0.6 0 0 0.6 344.56201 189.39972] CT
0.467 0.675 0.188 RC
10.0 ML
0.833 LW
N
-3.536 -3.536 M
3.536 3.536 L
-3.536 3.536 M
3.536 -3.536 L
S
GR
GS
[0.6 0 0 0.6 347.82001 194.23246] CT
0.467 0.675 0.188 RC
10.0 ML
0.833 LW
N
-3.536 -3.536 M
3.536 3.536 L
-3.536 3.536 M
3.536 -3.536 L
S
GR
GS
[0.6 0 0 0.6 351.078 188.66794] CT
0.467 0.675 0.188 RC
10.0 ML
0.833 LW
N
-3.536 -3.536 M
3.536 3.536 L
-3.536 3.536 M
3.536 -3.536 L
S
GR
GS
[0.6 0 0 0.6 354.336 192.25796] CT
0.467 0.675 0.188 RC
10.0 ML
0.833 LW
N
-3.536 -3.536 M
3.536 3.536 L
-3.536 3.536 M
3.536 -3.536 L
S
GR
GS
[0.6 0 0 0.6 357.59399 199.30649] CT
0.467 0.675 0.188 RC
10.0 ML
0.833 LW
N
-3.536 -3.536 M
3.536 3.536 L
-3.536 3.536 M
3.536 -3.536 L
S
GR
GS
[0.6 0 0 0.6 360.85199 200.5275] CT
0.467 0.675 0.188 RC
10.0 ML
0.833 LW
N
-3.536 -3.536 M
3.536 3.536 L
-3.536 3.536 M
3.536 -3.536 L
S
GR
GS
[0.6 0 0 0.6 364.10999 195.73998] CT
0.467 0.675 0.188 RC
10.0 ML
0.833 LW
N
-3.536 -3.536 M
3.536 3.536 L
-3.536 3.536 M
3.536 -3.536 L
S
GR
GS
[0.6 0 0 0.6 367.36802 203.41099] CT
0.467 0.675 0.188 RC
10.0 ML
0.833 LW
N
-3.536 -3.536 M
3.536 3.536 L
-3.536 3.536 M
3.536 -3.536 L
S
GR
GS
[0.6 0 0 0.6 370.62601 202.77543] CT
0.467 0.675 0.188 RC
10.0 ML
0.833 LW
N
-3.536 -3.536 M
3.536 3.536 L
-3.536 3.536 M
3.536 -3.536 L
S
GR
GS
[0.6 0 0 0.6 373.88401 209.50245] CT
0.467 0.675 0.188 RC
10.0 ML
0.833 LW
N
-3.536 -3.536 M
3.536 3.536 L
-3.536 3.536 M
3.536 -3.536 L
S
GR
GS
[0.6 0 0 0.6 377.142 212.74048] CT
0.467 0.675 0.188 RC
10.0 ML
0.833 LW
N
-3.536 -3.536 M
3.536 3.536 L
-3.536 3.536 M
3.536 -3.536 L
S
GR
GS
[0.6 0 0 0.6 380.4 215.14186] CT
0.467 0.675 0.188 RC
10.0 ML
0.833 LW
N
-3.536 -3.536 M
3.536 3.536 L
-3.536 3.536 M
3.536 -3.536 L
S
GR
GS
[0.6 0 0 0.6 0 0] CT
1 GC
N
530 163 M
530 56 L
617 56 L
617 163 L
cp
f
GR
GS
[0.6 0 0 0.6 345.6705 41.06511] CT
/Helvetica 15 F
GS
[1 0 0 1 0 0] CT
0 6 moveto 
1 -1 scale
(exact) t 
GR
GR
GS
[0.6 0 0 0.6 0 0] CT
0 0.447 0.741 RC
1 LJ
0.833 LW
N
534.986 68.442 M
572.378 68.442 L
S
GR
GS
[0.6 0 0 0.6 332.20917 41.06512] CT
0 0.447 0.741 RC
10.0 ML
0.833 LW
N
-3.536 -3.536 M
3.536 3.536 L
-3.536 3.536 M
3.536 -3.536 L
S
GR
GS
[0.6 0 0 0.6 345.6705 53.38256] CT
/Helvetica 15 F
GS
[1 0 0 1 0 0] CT
0 6 moveto 
1 -1 scale
(q = 0) t 
GR
GR
GS
[0.6 0 0 0.6 0 0] CT
0.851 0.325 0.098 RC
1 LJ
0.833 LW
N
534.986 88.971 M
572.378 88.971 L
S
GR
GS
[0.6 0 0 0.6 332.20917 53.38256] CT
0.851 0.325 0.098 RC
10.0 ML
0.833 LW
N
-3.536 -3.536 M
3.536 3.536 L
-3.536 3.536 M
3.536 -3.536 L
S
GR
GS
[0.6 0 0 0.6 345.6705 65.7] CT
/Helvetica 15 F
GS
[1 0 0 1 0 0] CT
0 6 moveto 
1 -1 scale
(q = 1) t 
GR
GR
GS
[0.6 0 0 0.6 0 0] CT
0.929 0.694 0.125 RC
1 LJ
0.833 LW
N
534.986 109.5 M
572.378 109.5 L
S
GR
GS
[0.6 0 0 0.6 332.20917 65.7] CT
0.929 0.694 0.125 RC
10.0 ML
0.833 LW
N
-3.536 -3.536 M
3.536 3.536 L
-3.536 3.536 M
3.536 -3.536 L
S
GR
GS
[0.6 0 0 0.6 345.6705 78.01744] CT
/Helvetica 15 F
GS
[1 0 0 1 0 0] CT
0 6 moveto 
1 -1 scale
(q = 2) t 
GR
GR
GS
[0.6 0 0 0.6 0 0] CT
0.494 0.184 0.557 RC
1 LJ
0.833 LW
N
534.986 130.029 M
572.378 130.029 L
S
GR
GS
[0.6 0 0 0.6 332.20917 78.01744] CT
0.494 0.184 0.557 RC
10.0 ML
0.833 LW
N
-3.536 -3.536 M
3.536 3.536 L
-3.536 3.536 M
3.536 -3.536 L
S
GR
GS
[0.6 0 0 0.6 345.6705 90.33488] CT
/Helvetica 15 F
GS
[1 0 0 1 0 0] CT
0 6 moveto 
1 -1 scale
(q = 3) t 
GR
GR
GS
[0.6 0 0 0.6 0 0] CT
0.467 0.675 0.188 RC
1 LJ
0.833 LW
N
534.986 150.558 M
572.378 150.558 L
S
GR
GS
[0.6 0 0 0.6 332.20917 90.33488] CT
0.467 0.675 0.188 RC
10.0 ML
0.833 LW
N
-3.536 -3.536 M
3.536 3.536 L
-3.536 3.536 M
3.536 -3.536 L
S
GR
GS
[0.6 0 0 0.6 0 0] CT
0.149 GC
10.0 ML
0.833 LW
N
530 163 M
530 56 L
617 56 L
617 163 L
cp
S
GR
%%Trailer
%%Pages: 1
%%EOF
