\relax 
\citation{halko2011finding}
\select@language{english}
\@writefile{toc}{\select@language{english}}
\@writefile{lof}{\select@language{english}}
\@writefile{lot}{\select@language{english}}
\@writefile{toc}{\contentsline {section}{\numberline {1}Introduction}{2}}
\@writefile{toc}{\contentsline {section}{\numberline {2}Overview of the code}{2}}
\@writefile{toc}{\contentsline {paragraph}{Stage A}{2}}
\@writefile{lof}{\contentsline {figure}{\numberline {1}{\ignorespaces The numerical experiment performed to check error bound (1.9) and the bound by the singular values. These results confirm the claims in the paper.\relax }}{3}}
\providecommand*\caption@xref[2]{\@setref\relax\@undefined{#1}}
\newlabel{fig:71}{{1}{3}}
\@writefile{toc}{\contentsline {section}{\numberline {3}Verification of tests}{3}}
\@writefile{toc}{\contentsline {subsection}{\numberline {3.1}Errorbounds of stage A: Section 7.1}{3}}
\@writefile{lof}{\contentsline {figure}{\numberline {2}{\ignorespaces The image of the dog from which experiment 7.2 started.\relax }}{4}}
\newlabel{fig:dog}{{2}{4}}
\@writefile{toc}{\contentsline {subsection}{\numberline {3.2}Slowly decaying singular values and power iteration: Section 7.2}{4}}
\newlabel{fig:721}{{3a}{5}}
\newlabel{sub@fig:721}{{a}{5}}
\newlabel{fig:722}{{3b}{5}}
\newlabel{sub@fig:722}{{b}{5}}
\@writefile{lof}{\contentsline {figure}{\numberline {3}{\ignorespaces The approximation error and estimated eigenvalues for different trials of the power iteration scheme\relax }}{5}}
\newlabel{fig:72}{{3}{5}}
\@writefile{lot}{\contentsline {table}{\numberline {1}{\ignorespaces List of the experiments performed for experiment 7.4\relax }}{6}}
\newlabel{tab:experiments}{{1}{6}}
\@writefile{lot}{\contentsline {table}{\numberline {2}{\ignorespaces List of the experiments performed for experiment 7.4. The first two columns of timings are for a $1024 \times 1024$ matrix. The last two for a $2048 \times 2048$ matrix.\relax }}{6}}
\newlabel{tab:timings74}{{2}{6}}
\@writefile{toc}{\contentsline {subsection}{\numberline {3.3}Performance of various SVD decompositions}{6}}
\@writefile{lot}{\contentsline {table}{\numberline {3}{\ignorespaces List of combinations we used for the experiments in Section 5.1.\relax }}{7}}
\newlabel{tab:comb5}{{3}{7}}
\@writefile{toc}{\contentsline {section}{\numberline {4}Extra designed tests}{7}}
\@writefile{toc}{\contentsline {subsection}{\numberline {4.1}Timings SVD}{7}}
\newlabel{sec:timings_svd}{{4.1}{7}}
\@writefile{lot}{\contentsline {table}{\numberline {4}{\ignorespaces Timings and errors for different values of the precision of the singular value decomposition\relax }}{8}}
\newlabel{tab:timings5}{{4}{8}}
\@writefile{lof}{\contentsline {figure}{\numberline {4}{\ignorespaces Timings of the Matlab SVD and Proto SVD. It can be seen that both methods have about the same proportionality constant for $\epsilon =1$.\relax }}{8}}
\newlabel{fig:svdprotoruntime}{{4}{8}}
\bibstyle{plain}
\bibdata{biblio}
\bibcite{halko2011finding}{1}
\@writefile{toc}{\contentsline {subsection}{\numberline {4.2}Comparison randomized power iteration and randomized subspace iteration}{9}}
\@writefile{toc}{\contentsline {section}{\numberline {5}Conclusion}{9}}
\newlabel{fig:pp0}{{5a}{10}}
\newlabel{sub@fig:pp0}{{a}{10}}
\newlabel{fig:pp1}{{5b}{10}}
\newlabel{sub@fig:pp1}{{b}{10}}
\newlabel{fig:pp2}{{5c}{11}}
\newlabel{sub@fig:pp2}{{c}{11}}
\newlabel{fig:pp3}{{5d}{11}}
\newlabel{sub@fig:pp3}{{d}{11}}
\@writefile{lof}{\contentsline {figure}{\numberline {5}{\ignorespaces Comparison of the mean error of the randomized power iteration and randomized subspace iteration for different powers\relax }}{11}}
\newlabel{fig:pp}{{5}{11}}
