%!PS-Adobe-3.0 EPSF-3.0
%%Creator: (MATLAB, The Mathworks, Inc. Version 9.1.0.441655 \(R2016b\). Operating System: Windows 8)
%%Title: C:/Users/simon/Documents/Unief/M1/Numerical_linear_algebra/Homework_2/slow_decay_95_eig.eps
%%CreationDate: 2016-11-11T13:04:30
%%Pages: (atend)
%%BoundingBox: 0 0 420 315
%%LanguageLevel: 3
%%EndComments
%%BeginProlog
%%BeginResource: procset (Apache XML Graphics Std ProcSet) 1.2 0
%%Version: 1.2 0
%%Copyright: (Copyright 2001-2003,2010 The Apache Software Foundation. License terms: http://www.apache.org/licenses/LICENSE-2.0)
/bd{bind def}bind def
/ld{load def}bd
/GR/grestore ld
/M/moveto ld
/LJ/setlinejoin ld
/C/curveto ld
/f/fill ld
/LW/setlinewidth ld
/GC/setgray ld
/t/show ld
/N/newpath ld
/CT/concat ld
/cp/closepath ld
/S/stroke ld
/L/lineto ld
/CC/setcmykcolor ld
/A/ashow ld
/GS/gsave ld
/RC/setrgbcolor ld
/RM/rmoveto ld
/ML/setmiterlimit ld
/re {4 2 roll M
1 index 0 rlineto
0 exch rlineto
neg 0 rlineto
cp } bd
/_ctm matrix def
/_tm matrix def
/BT { _ctm currentmatrix pop matrix _tm copy pop 0 0 moveto } bd
/ET { _ctm setmatrix } bd
/iTm { _ctm setmatrix _tm concat } bd
/Tm { _tm astore pop iTm 0 0 moveto } bd
/ux 0.0 def
/uy 0.0 def
/F {
  /Tp exch def
  /Tf exch def
  Tf findfont Tp scalefont setfont
  /cf Tf def  /cs Tp def
} bd
/ULS {currentpoint /uy exch def /ux exch def} bd
/ULE {
  /Tcx currentpoint pop def
  gsave
  newpath
  cf findfont cs scalefont dup
  /FontMatrix get 0 get /Ts exch def /FontInfo get dup
  /UnderlinePosition get Ts mul /To exch def
  /UnderlineThickness get Ts mul /Tt exch def
  ux uy To add moveto  Tcx uy To add lineto
  Tt setlinewidth stroke
  grestore
} bd
/OLE {
  /Tcx currentpoint pop def
  gsave
  newpath
  cf findfont cs scalefont dup
  /FontMatrix get 0 get /Ts exch def /FontInfo get dup
  /UnderlinePosition get Ts mul /To exch def
  /UnderlineThickness get Ts mul /Tt exch def
  ux uy To add cs add moveto Tcx uy To add cs add lineto
  Tt setlinewidth stroke
  grestore
} bd
/SOE {
  /Tcx currentpoint pop def
  gsave
  newpath
  cf findfont cs scalefont dup
  /FontMatrix get 0 get /Ts exch def /FontInfo get dup
  /UnderlinePosition get Ts mul /To exch def
  /UnderlineThickness get Ts mul /Tt exch def
  ux uy To add cs 10 mul 26 idiv add moveto Tcx uy To add cs 10 mul 26 idiv add lineto
  Tt setlinewidth stroke
  grestore
} bd
/QT {
/Y22 exch store
/X22 exch store
/Y21 exch store
/X21 exch store
currentpoint
/Y21 load 2 mul add 3 div exch
/X21 load 2 mul add 3 div exch
/X21 load 2 mul /X22 load add 3 div
/Y21 load 2 mul /Y22 load add 3 div
/X22 load /Y22 load curveto
} bd
/SSPD {
dup length /d exch dict def
{
/v exch def
/k exch def
currentpagedevice k known {
/cpdv currentpagedevice k get def
v cpdv ne {
/upd false def
/nullv v type /nulltype eq def
/nullcpdv cpdv type /nulltype eq def
nullv nullcpdv or
{
/upd true def
} {
/sametype v type cpdv type eq def
sametype {
v type /arraytype eq {
/vlen v length def
/cpdvlen cpdv length def
vlen cpdvlen eq {
0 1 vlen 1 sub {
/i exch def
/obj v i get def
/cpdobj cpdv i get def
obj cpdobj ne {
/upd true def
exit
} if
} for
} {
/upd true def
} ifelse
} {
v type /dicttype eq {
v {
/dv exch def
/dk exch def
/cpddv cpdv dk get def
dv cpddv ne {
/upd true def
exit
} if
} forall
} {
/upd true def
} ifelse
} ifelse
} if
} ifelse
upd true eq {
d k v put
} if
} if
} if
} forall
d length 0 gt {
d setpagedevice
} if
} bd
/RE { % /NewFontName [NewEncodingArray] /FontName RE -
  findfont dup length dict begin
  {
    1 index /FID ne
    {def} {pop pop} ifelse
  } forall
  /Encoding exch def
  /FontName 1 index def
  currentdict definefont pop
  end
} bind def
%%EndResource
%%BeginResource: procset (Apache XML Graphics EPS ProcSet) 1.0 0
%%Version: 1.0 0
%%Copyright: (Copyright 2002-2003 The Apache Software Foundation. License terms: http://www.apache.org/licenses/LICENSE-2.0)
/BeginEPSF { %def
/b4_Inc_state save def         % Save state for cleanup
/dict_count countdictstack def % Count objects on dict stack
/op_count count 1 sub def      % Count objects on operand stack
userdict begin                 % Push userdict on dict stack
/showpage { } def              % Redefine showpage, { } = null proc
0 setgray 0 setlinecap         % Prepare graphics state
1 setlinewidth 0 setlinejoin
10 setmiterlimit [ ] 0 setdash newpath
/languagelevel where           % If level not equal to 1 then
{pop languagelevel             % set strokeadjust and
1 ne                           % overprint to their defaults.
{false setstrokeadjust false setoverprint
} if
} if
} bd
/EndEPSF { %def
count op_count sub {pop} repeat            % Clean up stacks
countdictstack dict_count sub {end} repeat
b4_Inc_state restore
} bd
%%EndResource
%FOPBeginFontDict
%%IncludeResource: font Courier-Bold
%%IncludeResource: font Helvetica
%%IncludeResource: font Courier-BoldOblique
%%IncludeResource: font Courier-Oblique
%%IncludeResource: font Times-Roman
%%IncludeResource: font Helvetica-BoldOblique
%%IncludeResource: font Helvetica-Bold
%%IncludeResource: font Helvetica-Oblique
%%IncludeResource: font Times-BoldItalic
%%IncludeResource: font Courier
%%IncludeResource: font Times-Italic
%%IncludeResource: font Times-Bold
%%IncludeResource: font Symbol
%%IncludeResource: font ZapfDingbats
%FOPEndFontDict
%%BeginResource: encoding WinAnsiEncoding
/WinAnsiEncoding [
/.notdef /.notdef /.notdef /.notdef /.notdef
/.notdef /.notdef /.notdef /.notdef /.notdef
/.notdef /.notdef /.notdef /.notdef /.notdef
/.notdef /.notdef /.notdef /.notdef /.notdef
/.notdef /.notdef /.notdef /.notdef /.notdef
/.notdef /.notdef /.notdef /.notdef /.notdef
/.notdef /.notdef /space /exclam /quotedbl
/numbersign /dollar /percent /ampersand /quotesingle
/parenleft /parenright /asterisk /plus /comma
/hyphen /period /slash /zero /one
/two /three /four /five /six
/seven /eight /nine /colon /semicolon
/less /equal /greater /question /at
/A /B /C /D /E
/F /G /H /I /J
/K /L /M /N /O
/P /Q /R /S /T
/U /V /W /X /Y
/Z /bracketleft /backslash /bracketright /asciicircum
/underscore /quoteleft /a /b /c
/d /e /f /g /h
/i /j /k /l /m
/n /o /p /q /r
/s /t /u /v /w
/x /y /z /braceleft /bar
/braceright /asciitilde /bullet /Euro /bullet
/quotesinglbase /florin /quotedblbase /ellipsis /dagger
/daggerdbl /circumflex /perthousand /Scaron /guilsinglleft
/OE /bullet /Zcaron /bullet /bullet
/quoteleft /quoteright /quotedblleft /quotedblright /bullet
/endash /emdash /asciitilde /trademark /scaron
/guilsinglright /oe /bullet /zcaron /Ydieresis
/space /exclamdown /cent /sterling /currency
/yen /brokenbar /section /dieresis /copyright
/ordfeminine /guillemotleft /logicalnot /sfthyphen /registered
/macron /degree /plusminus /twosuperior /threesuperior
/acute /mu /paragraph /middot /cedilla
/onesuperior /ordmasculine /guillemotright /onequarter /onehalf
/threequarters /questiondown /Agrave /Aacute /Acircumflex
/Atilde /Adieresis /Aring /AE /Ccedilla
/Egrave /Eacute /Ecircumflex /Edieresis /Igrave
/Iacute /Icircumflex /Idieresis /Eth /Ntilde
/Ograve /Oacute /Ocircumflex /Otilde /Odieresis
/multiply /Oslash /Ugrave /Uacute /Ucircumflex
/Udieresis /Yacute /Thorn /germandbls /agrave
/aacute /acircumflex /atilde /adieresis /aring
/ae /ccedilla /egrave /eacute /ecircumflex
/edieresis /igrave /iacute /icircumflex /idieresis
/eth /ntilde /ograve /oacute /ocircumflex
/otilde /odieresis /divide /oslash /ugrave
/uacute /ucircumflex /udieresis /yacute /thorn
/ydieresis
] def
%%EndResource
%FOPBeginFontReencode
/Courier-Bold findfont
dup length dict begin
  {1 index /FID ne {def} {pop pop} ifelse} forall
  /Encoding WinAnsiEncoding def
  currentdict
end
/Courier-Bold exch definefont pop
/Helvetica findfont
dup length dict begin
  {1 index /FID ne {def} {pop pop} ifelse} forall
  /Encoding WinAnsiEncoding def
  currentdict
end
/Helvetica exch definefont pop
/Courier-BoldOblique findfont
dup length dict begin
  {1 index /FID ne {def} {pop pop} ifelse} forall
  /Encoding WinAnsiEncoding def
  currentdict
end
/Courier-BoldOblique exch definefont pop
/Courier-Oblique findfont
dup length dict begin
  {1 index /FID ne {def} {pop pop} ifelse} forall
  /Encoding WinAnsiEncoding def
  currentdict
end
/Courier-Oblique exch definefont pop
/Times-Roman findfont
dup length dict begin
  {1 index /FID ne {def} {pop pop} ifelse} forall
  /Encoding WinAnsiEncoding def
  currentdict
end
/Times-Roman exch definefont pop
/Helvetica-BoldOblique findfont
dup length dict begin
  {1 index /FID ne {def} {pop pop} ifelse} forall
  /Encoding WinAnsiEncoding def
  currentdict
end
/Helvetica-BoldOblique exch definefont pop
/Helvetica-Bold findfont
dup length dict begin
  {1 index /FID ne {def} {pop pop} ifelse} forall
  /Encoding WinAnsiEncoding def
  currentdict
end
/Helvetica-Bold exch definefont pop
/Helvetica-Oblique findfont
dup length dict begin
  {1 index /FID ne {def} {pop pop} ifelse} forall
  /Encoding WinAnsiEncoding def
  currentdict
end
/Helvetica-Oblique exch definefont pop
/Times-BoldItalic findfont
dup length dict begin
  {1 index /FID ne {def} {pop pop} ifelse} forall
  /Encoding WinAnsiEncoding def
  currentdict
end
/Times-BoldItalic exch definefont pop
/Courier findfont
dup length dict begin
  {1 index /FID ne {def} {pop pop} ifelse} forall
  /Encoding WinAnsiEncoding def
  currentdict
end
/Courier exch definefont pop
/Times-Italic findfont
dup length dict begin
  {1 index /FID ne {def} {pop pop} ifelse} forall
  /Encoding WinAnsiEncoding def
  currentdict
end
/Times-Italic exch definefont pop
/Times-Bold findfont
dup length dict begin
  {1 index /FID ne {def} {pop pop} ifelse} forall
  /Encoding WinAnsiEncoding def
  currentdict
end
/Times-Bold exch definefont pop
%FOPEndFontReencode
%%EndProlog
%%Page: 1 1
%%PageBoundingBox: 0 0 420 315
%%BeginPageSetup
[1 0 0 -1 0 315] CT
%%EndPageSetup
GS
[0.6 0 0 0.6 0 0] CT
1 GC
N
0 0 700 525 re
f
GR
GS
[0.6 0 0 0.6 0 0] CT
1 GC
N
0 0 700 525 re
f
GR
GS
[0.6 0 0 0.6 0 0] CT
1 GC
N
91 467 M
634 467 L
634 39 L
91 39 L
cp
f
GR
GS
[0.6 0 0 0.6 0 0] CT
0.149 GC
2 setlinecap
1 LJ
0.833 LW
N
91 467 M
634 467 L
S
GR
GS
[0.6 0 0 0.6 0 0] CT
0.149 GC
2 setlinecap
1 LJ
0.833 LW
N
91 39 M
634 39 L
S
GR
GS
[0.6 0 0 0.6 0 0] CT
0.149 GC
2 setlinecap
1 LJ
0.833 LW
N
91 467 M
91 461.57 L
S
GR
GS
[0.6 0 0 0.6 0 0] CT
0.149 GC
2 setlinecap
1 LJ
0.833 LW
N
145.3 467 M
145.3 461.57 L
S
GR
GS
[0.6 0 0 0.6 0 0] CT
0.149 GC
2 setlinecap
1 LJ
0.833 LW
N
199.6 467 M
199.6 461.57 L
S
GR
GS
[0.6 0 0 0.6 0 0] CT
0.149 GC
2 setlinecap
1 LJ
0.833 LW
N
253.9 467 M
253.9 461.57 L
S
GR
GS
[0.6 0 0 0.6 0 0] CT
0.149 GC
2 setlinecap
1 LJ
0.833 LW
N
308.2 467 M
308.2 461.57 L
S
GR
GS
[0.6 0 0 0.6 0 0] CT
0.149 GC
2 setlinecap
1 LJ
0.833 LW
N
362.5 467 M
362.5 461.57 L
S
GR
GS
[0.6 0 0 0.6 0 0] CT
0.149 GC
2 setlinecap
1 LJ
0.833 LW
N
416.8 467 M
416.8 461.57 L
S
GR
GS
[0.6 0 0 0.6 0 0] CT
0.149 GC
2 setlinecap
1 LJ
0.833 LW
N
471.1 467 M
471.1 461.57 L
S
GR
GS
[0.6 0 0 0.6 0 0] CT
0.149 GC
2 setlinecap
1 LJ
0.833 LW
N
525.4 467 M
525.4 461.57 L
S
GR
GS
[0.6 0 0 0.6 0 0] CT
0.149 GC
2 setlinecap
1 LJ
0.833 LW
N
579.7 467 M
579.7 461.57 L
S
GR
GS
[0.6 0 0 0.6 0 0] CT
0.149 GC
2 setlinecap
1 LJ
0.833 LW
N
634 467 M
634 461.57 L
S
GR
GS
[0.6 0 0 0.6 0 0] CT
0.149 GC
2 setlinecap
1 LJ
0.833 LW
N
91 39 M
91 44.43 L
S
GR
GS
[0.6 0 0 0.6 0 0] CT
0.149 GC
2 setlinecap
1 LJ
0.833 LW
N
145.3 39 M
145.3 44.43 L
S
GR
GS
[0.6 0 0 0.6 0 0] CT
0.149 GC
2 setlinecap
1 LJ
0.833 LW
N
199.6 39 M
199.6 44.43 L
S
GR
GS
[0.6 0 0 0.6 0 0] CT
0.149 GC
2 setlinecap
1 LJ
0.833 LW
N
253.9 39 M
253.9 44.43 L
S
GR
GS
[0.6 0 0 0.6 0 0] CT
0.149 GC
2 setlinecap
1 LJ
0.833 LW
N
308.2 39 M
308.2 44.43 L
S
GR
GS
[0.6 0 0 0.6 0 0] CT
0.149 GC
2 setlinecap
1 LJ
0.833 LW
N
362.5 39 M
362.5 44.43 L
S
GR
GS
[0.6 0 0 0.6 0 0] CT
0.149 GC
2 setlinecap
1 LJ
0.833 LW
N
416.8 39 M
416.8 44.43 L
S
GR
GS
[0.6 0 0 0.6 0 0] CT
0.149 GC
2 setlinecap
1 LJ
0.833 LW
N
471.1 39 M
471.1 44.43 L
S
GR
GS
[0.6 0 0 0.6 0 0] CT
0.149 GC
2 setlinecap
1 LJ
0.833 LW
N
525.4 39 M
525.4 44.43 L
S
GR
GS
[0.6 0 0 0.6 0 0] CT
0.149 GC
2 setlinecap
1 LJ
0.833 LW
N
579.7 39 M
579.7 44.43 L
S
GR
GS
[0.6 0 0 0.6 0 0] CT
0.149 GC
2 setlinecap
1 LJ
0.833 LW
N
634 39 M
634 44.43 L
S
GR
GS
[0.6 0 0 0.6 54.6 284.19999] CT
0.149 GC
/Helvetica 16.667 F
GS
[1 0 0 1 0 0] CT
-5 18 moveto 
1 -1 scale
(0) t 
GR
GR
GS
[0.6 0 0 0.6 87.18 284.19999] CT
0.149 GC
/Helvetica 16.667 F
GS
[1 0 0 1 0 0] CT
-9.5 18 moveto 
1 -1 scale
(10) t 
GR
GR
GS
[0.6 0 0 0.6 119.76 284.19999] CT
0.149 GC
/Helvetica 16.667 F
GS
[1 0 0 1 0 0] CT
-9.5 18 moveto 
1 -1 scale
(20) t 
GR
GR
GS
[0.6 0 0 0.6 152.34 284.19999] CT
0.149 GC
/Helvetica 16.667 F
GS
[1 0 0 1 0 0] CT
-9.5 18 moveto 
1 -1 scale
(30) t 
GR
GR
GS
[0.6 0 0 0.6 184.92001 284.19999] CT
0.149 GC
/Helvetica 16.667 F
GS
[1 0 0 1 0 0] CT
-9.5 18 moveto 
1 -1 scale
(40) t 
GR
GR
GS
[0.6 0 0 0.6 217.5 284.19999] CT
0.149 GC
/Helvetica 16.667 F
GS
[1 0 0 1 0 0] CT
-9.5 18 moveto 
1 -1 scale
(50) t 
GR
GR
GS
[0.6 0 0 0.6 250.07999 284.19999] CT
0.149 GC
/Helvetica 16.667 F
GS
[1 0 0 1 0 0] CT
-9.5 18 moveto 
1 -1 scale
(60) t 
GR
GR
GS
[0.6 0 0 0.6 282.66 284.19999] CT
0.149 GC
/Helvetica 16.667 F
GS
[1 0 0 1 0 0] CT
-9.5 18 moveto 
1 -1 scale
(70) t 
GR
GR
GS
[0.6 0 0 0.6 315.24001 284.19999] CT
0.149 GC
/Helvetica 16.667 F
GS
[1 0 0 1 0 0] CT
-9.5 18 moveto 
1 -1 scale
(80) t 
GR
GR
GS
[0.6 0 0 0.6 347.82001 284.19999] CT
0.149 GC
/Helvetica 16.667 F
GS
[1 0 0 1 0 0] CT
-9.5 18 moveto 
1 -1 scale
(90) t 
GR
GR
GS
[0.6 0 0 0.6 380.4 284.19999] CT
0.149 GC
/Helvetica 16.667 F
GS
[1 0 0 1 0 0] CT
-14.5 18 moveto 
1 -1 scale
(100) t 
GR
GR
GS
[0.6 0 0 0.6 0 0] CT
0.149 GC
2 setlinecap
1 LJ
0.833 LW
N
91 467 M
91 39 L
S
GR
GS
[0.6 0 0 0.6 0 0] CT
0.149 GC
2 setlinecap
1 LJ
0.833 LW
N
634 467 M
634 39 L
S
GR
GS
[0.6 0 0 0.6 0 0] CT
0.149 GC
2 setlinecap
1 LJ
0.833 LW
N
91 467 M
96.43 467 L
S
GR
GS
[0.6 0 0 0.6 0 0] CT
0.149 GC
2 setlinecap
1 LJ
0.833 LW
N
91 395.667 M
96.43 395.667 L
S
GR
GS
[0.6 0 0 0.6 0 0] CT
0.149 GC
2 setlinecap
1 LJ
0.833 LW
N
91 324.333 M
96.43 324.333 L
S
GR
GS
[0.6 0 0 0.6 0 0] CT
0.149 GC
2 setlinecap
1 LJ
0.833 LW
N
91 253 M
96.43 253 L
S
GR
GS
[0.6 0 0 0.6 0 0] CT
0.149 GC
2 setlinecap
1 LJ
0.833 LW
N
91 181.667 M
96.43 181.667 L
S
GR
GS
[0.6 0 0 0.6 0 0] CT
0.149 GC
2 setlinecap
1 LJ
0.833 LW
N
91 110.333 M
96.43 110.333 L
S
GR
GS
[0.6 0 0 0.6 0 0] CT
0.149 GC
2 setlinecap
1 LJ
0.833 LW
N
91 39 M
96.43 39 L
S
GR
GS
[0.6 0 0 0.6 0 0] CT
0.149 GC
2 setlinecap
1 LJ
0.833 LW
N
634 467 M
628.57 467 L
S
GR
GS
[0.6 0 0 0.6 0 0] CT
0.149 GC
2 setlinecap
1 LJ
0.833 LW
N
634 395.667 M
628.57 395.667 L
S
GR
GS
[0.6 0 0 0.6 0 0] CT
0.149 GC
2 setlinecap
1 LJ
0.833 LW
N
634 324.333 M
628.57 324.333 L
S
GR
GS
[0.6 0 0 0.6 0 0] CT
0.149 GC
2 setlinecap
1 LJ
0.833 LW
N
634 253 M
628.57 253 L
S
GR
GS
[0.6 0 0 0.6 0 0] CT
0.149 GC
2 setlinecap
1 LJ
0.833 LW
N
634 181.667 M
628.57 181.667 L
S
GR
GS
[0.6 0 0 0.6 0 0] CT
0.149 GC
2 setlinecap
1 LJ
0.833 LW
N
634 110.333 M
628.57 110.333 L
S
GR
GS
[0.6 0 0 0.6 0 0] CT
0.149 GC
2 setlinecap
1 LJ
0.833 LW
N
634 39 M
628.57 39 L
S
GR
GS
[0.6 0 0 0.6 50.6 280.2] CT
0.149 GC
/Helvetica 16.667 F
GS
[1 0 0 1 0 0] CT
-24 7 moveto 
1 -1 scale
(0.7) t 
GR
GR
GS
[0.6 0 0 0.6 50.6 237.39999] CT
0.149 GC
/Helvetica 16.667 F
GS
[1 0 0 1 0 0] CT
-24 7 moveto 
1 -1 scale
(0.8) t 
GR
GR
GS
[0.6 0 0 0.6 50.6 194.60001] CT
0.149 GC
/Helvetica 16.667 F
GS
[1 0 0 1 0 0] CT
-24 7 moveto 
1 -1 scale
(0.9) t 
GR
GR
GS
[0.6 0 0 0.6 50.6 151.8] CT
0.149 GC
/Helvetica 16.667 F
GS
[1 0 0 1 0 0] CT
-10 7 moveto 
1 -1 scale
(1) t 
GR
GR
GS
[0.6 0 0 0.6 50.6 108.99999] CT
0.149 GC
/Helvetica 16.667 F
GS
[1 0 0 1 0 0] CT
-24 7 moveto 
1 -1 scale
(1.1) t 
GR
GR
GS
[0.6 0 0 0.6 50.6 66.19998] CT
0.149 GC
/Helvetica 16.667 F
GS
[1 0 0 1 0 0] CT
-24 7 moveto 
1 -1 scale
(1.2) t 
GR
GR
GS
[0.6 0 0 0.6 50.6 23.40002] CT
0.149 GC
/Helvetica 16.667 F
GS
[1 0 0 1 0 0] CT
-24 7 moveto 
1 -1 scale
(1.3) t 
GR
GR
GS
[0.6 0 0 0.6 217.50022 21.75003] CT
/Helvetica-Bold 18.333 F
GS
[1 0 0 1 0 0] CT
-132.5 -4 moveto 
1 -1 scale
(Estimated Eigenvalues lambda) t 
GR
GR
GS
[0.6 0 0 0.6 0 0] CT
0 0.447 0.741 RC
1 LJ
0.833 LW
N
96.43 104.949 M
101.86 107.537 L
107.29 122.457 L
112.72 131.272 L
118.15 139.067 L
123.58 140.984 L
129.01 146.098 L
134.44 148.825 L
139.87 148.895 L
145.3 151.098 L
150.73 153.568 L
156.16 157.329 L
161.59 160.661 L
167.02 161.261 L
172.45 161.848 L
177.88 162.498 L
183.31 163.585 L
188.74 164.875 L
194.17 166.259 L
199.6 172.542 L
205.03 173.979 L
210.46 175.882 L
215.89 177.303 L
221.32 177.701 L
226.75 177.774 L
232.18 178.035 L
237.61 178.203 L
243.04 179.691 L
248.47 181.797 L
253.9 182.147 L
259.33 182.788 L
264.76 183.639 L
270.19 183.682 L
275.62 185.771 L
281.05 186.176 L
286.48 186.377 L
291.91 187.153 L
297.34 187.244 L
302.77 188.188 L
308.2 189.16 L
313.63 189.27 L
319.06 189.822 L
324.49 189.943 L
329.92 190.664 L
335.35 190.817 L
340.78 190.928 L
346.21 190.985 L
351.64 191.162 L
357.07 191.431 L
362.5 191.545 L
367.93 191.633 L
373.36 191.754 L
378.79 191.85 L
384.22 191.883 L
389.65 191.9 L
395.08 191.906 L
400.51 191.931 L
405.94 192.458 L
411.37 192.746 L
416.8 192.835 L
422.23 193.375 L
427.66 194.389 L
433.09 194.579 L
438.52 194.818 L
443.95 195.275 L
449.38 195.449 L
454.81 195.509 L
460.24 195.544 L
465.67 195.745 L
471.1 195.95 L
476.53 196.491 L
481.96 197.165 L
487.39 197.336 L
492.82 197.382 L
498.25 197.975 L
503.68 198.039 L
509.11 198.064 L
514.54 198.07 L
519.97 198.373 L
525.4 198.476 L
530.83 198.548 L
536.26 198.931 L
541.69 199.106 L
547.12 199.547 L
552.55 199.616 L
557.98 199.678 L
563.41 199.79 L
568.84 199.904 L
574.27 200.065 L
579.7 200.505 L
585.13 200.581 L
590.56 200.721 L
595.99 201.234 L
601.42 201.504 L
606.85 201.768 L
612.28 202.017 L
617.71 202.126 L
623.14 202.347 L
628.57 202.967 L
634 203.093 L
S
GR
GS
[0.6 0 0 0.6 57.858 62.96939] CT
0 0.447 0.741 RC
10.0 ML
0.833 LW
N
-3.536 -3.536 M
3.536 3.536 L
-3.536 3.536 M
3.536 -3.536 L
S
GR
GS
[0.6 0 0 0.6 61.116 64.52244] CT
0 0.447 0.741 RC
10.0 ML
0.833 LW
N
-3.536 -3.536 M
3.536 3.536 L
-3.536 3.536 M
3.536 -3.536 L
S
GR
GS
[0.6 0 0 0.6 64.374 73.47433] CT
0 0.447 0.741 RC
10.0 ML
0.833 LW
N
-3.536 -3.536 M
3.536 3.536 L
-3.536 3.536 M
3.536 -3.536 L
S
GR
GS
[0.6 0 0 0.6 67.632 78.76338] CT
0 0.447 0.741 RC
10.0 ML
0.833 LW
N
-3.536 -3.536 M
3.536 3.536 L
-3.536 3.536 M
3.536 -3.536 L
S
GR
GS
[0.6 0 0 0.6 70.89 83.44032] CT
0 0.447 0.741 RC
10.0 ML
0.833 LW
N
-3.536 -3.536 M
3.536 3.536 L
-3.536 3.536 M
3.536 -3.536 L
S
GR
GS
[0.6 0 0 0.6 74.148 84.59045] CT
0 0.447 0.741 RC
10.0 ML
0.833 LW
N
-3.536 -3.536 M
3.536 3.536 L
-3.536 3.536 M
3.536 -3.536 L
S
GR
GS
[0.6 0 0 0.6 77.406 87.6591] CT
0 0.447 0.741 RC
10.0 ML
0.833 LW
N
-3.536 -3.536 M
3.536 3.536 L
-3.536 3.536 M
3.536 -3.536 L
S
GR
GS
[0.6 0 0 0.6 80.664 89.295] CT
0 0.447 0.741 RC
10.0 ML
0.833 LW
N
-3.536 -3.536 M
3.536 3.536 L
-3.536 3.536 M
3.536 -3.536 L
S
GR
GS
[0.6 0 0 0.6 83.922 89.33714] CT
0 0.447 0.741 RC
10.0 ML
0.833 LW
N
-3.536 -3.536 M
3.536 3.536 L
-3.536 3.536 M
3.536 -3.536 L
S
GR
GS
[0.6 0 0 0.6 87.18 90.65865] CT
0 0.447 0.741 RC
10.0 ML
0.833 LW
N
-3.536 -3.536 M
3.536 3.536 L
-3.536 3.536 M
3.536 -3.536 L
S
GR
GS
[0.6 0 0 0.6 90.438 92.14058] CT
0 0.447 0.741 RC
10.0 ML
0.833 LW
N
-3.536 -3.536 M
3.536 3.536 L
-3.536 3.536 M
3.536 -3.536 L
S
GR
GS
[0.6 0 0 0.6 93.696 94.39746] CT
0 0.447 0.741 RC
10.0 ML
0.833 LW
N
-3.536 -3.536 M
3.536 3.536 L
-3.536 3.536 M
3.536 -3.536 L
S
GR
GS
[0.6 0 0 0.6 96.954 96.39649] CT
0 0.447 0.741 RC
10.0 ML
0.833 LW
N
-3.536 -3.536 M
3.536 3.536 L
-3.536 3.536 M
3.536 -3.536 L
S
GR
GS
[0.6 0 0 0.6 100.212 96.7566] CT
0 0.447 0.741 RC
10.0 ML
0.833 LW
N
-3.536 -3.536 M
3.536 3.536 L
-3.536 3.536 M
3.536 -3.536 L
S
GR
GS
[0.6 0 0 0.6 103.47 97.10875] CT
0 0.447 0.741 RC
10.0 ML
0.833 LW
N
-3.536 -3.536 M
3.536 3.536 L
-3.536 3.536 M
3.536 -3.536 L
S
GR
GS
[0.6 0 0 0.6 106.728 97.49875] CT
0 0.447 0.741 RC
10.0 ML
0.833 LW
N
-3.536 -3.536 M
3.536 3.536 L
-3.536 3.536 M
3.536 -3.536 L
S
GR
GS
[0.6 0 0 0.6 109.986 98.15107] CT
0 0.447 0.741 RC
10.0 ML
0.833 LW
N
-3.536 -3.536 M
3.536 3.536 L
-3.536 3.536 M
3.536 -3.536 L
S
GR
GS
[0.6 0 0 0.6 113.244 98.92496] CT
0 0.447 0.741 RC
10.0 ML
0.833 LW
N
-3.536 -3.536 M
3.536 3.536 L
-3.536 3.536 M
3.536 -3.536 L
S
GR
GS
[0.6 0 0 0.6 116.502 99.75549] CT
0 0.447 0.741 RC
10.0 ML
0.833 LW
N
-3.536 -3.536 M
3.536 3.536 L
-3.536 3.536 M
3.536 -3.536 L
S
GR
GS
[0.6 0 0 0.6 119.76 103.52512] CT
0 0.447 0.741 RC
10.0 ML
0.833 LW
N
-3.536 -3.536 M
3.536 3.536 L
-3.536 3.536 M
3.536 -3.536 L
S
GR
GS
[0.6 0 0 0.6 123.018 104.38764] CT
0 0.447 0.741 RC
10.0 ML
0.833 LW
N
-3.536 -3.536 M
3.536 3.536 L
-3.536 3.536 M
3.536 -3.536 L
S
GR
GS
[0.6 0 0 0.6 126.276 105.5294] CT
0 0.447 0.741 RC
10.0 ML
0.833 LW
N
-3.536 -3.536 M
3.536 3.536 L
-3.536 3.536 M
3.536 -3.536 L
S
GR
GS
[0.6 0 0 0.6 129.534 106.38161] CT
0 0.447 0.741 RC
10.0 ML
0.833 LW
N
-3.536 -3.536 M
3.536 3.536 L
-3.536 3.536 M
3.536 -3.536 L
S
GR
GS
[0.6 0 0 0.6 132.792 106.6206] CT
0 0.447 0.741 RC
10.0 ML
0.833 LW
N
-3.536 -3.536 M
3.536 3.536 L
-3.536 3.536 M
3.536 -3.536 L
S
GR
GS
[0.6 0 0 0.6 136.05 106.66469] CT
0 0.447 0.741 RC
10.0 ML
0.833 LW
N
-3.536 -3.536 M
3.536 3.536 L
-3.536 3.536 M
3.536 -3.536 L
S
GR
GS
[0.6 0 0 0.6 139.308 106.82086] CT
0 0.447 0.741 RC
10.0 ML
0.833 LW
N
-3.536 -3.536 M
3.536 3.536 L
-3.536 3.536 M
3.536 -3.536 L
S
GR
GS
[0.6 0 0 0.6 142.566 106.92153] CT
0 0.447 0.741 RC
10.0 ML
0.833 LW
N
-3.536 -3.536 M
3.536 3.536 L
-3.536 3.536 M
3.536 -3.536 L
S
GR
GS
[0.6 0 0 0.6 145.824 107.81461] CT
0 0.447 0.741 RC
10.0 ML
0.833 LW
N
-3.536 -3.536 M
3.536 3.536 L
-3.536 3.536 M
3.536 -3.536 L
S
GR
GS
[0.6 0 0 0.6 149.082 109.07841] CT
0 0.447 0.741 RC
10.0 ML
0.833 LW
N
-3.536 -3.536 M
3.536 3.536 L
-3.536 3.536 M
3.536 -3.536 L
S
GR
GS
[0.6 0 0 0.6 152.34 109.28811] CT
0 0.447 0.741 RC
10.0 ML
0.833 LW
N
-3.536 -3.536 M
3.536 3.536 L
-3.536 3.536 M
3.536 -3.536 L
S
GR
GS
[0.6 0 0 0.6 155.59799 109.67306] CT
0 0.447 0.741 RC
10.0 ML
0.833 LW
N
-3.536 -3.536 M
3.536 3.536 L
-3.536 3.536 M
3.536 -3.536 L
S
GR
GS
[0.6 0 0 0.6 158.85601 110.18369] CT
0 0.447 0.741 RC
10.0 ML
0.833 LW
N
-3.536 -3.536 M
3.536 3.536 L
-3.536 3.536 M
3.536 -3.536 L
S
GR
GS
[0.6 0 0 0.6 162.114 110.20899] CT
0 0.447 0.741 RC
10.0 ML
0.833 LW
N
-3.536 -3.536 M
3.536 3.536 L
-3.536 3.536 M
3.536 -3.536 L
S
GR
GS
[0.6 0 0 0.6 165.372 111.46265] CT
0 0.447 0.741 RC
10.0 ML
0.833 LW
N
-3.536 -3.536 M
3.536 3.536 L
-3.536 3.536 M
3.536 -3.536 L
S
GR
GS
[0.6 0 0 0.6 168.62999 111.70536] CT
0 0.447 0.741 RC
10.0 ML
0.833 LW
N
-3.536 -3.536 M
3.536 3.536 L
-3.536 3.536 M
3.536 -3.536 L
S
GR
GS
[0.6 0 0 0.6 171.88801 111.82633] CT
0 0.447 0.741 RC
10.0 ML
0.833 LW
N
-3.536 -3.536 M
3.536 3.536 L
-3.536 3.536 M
3.536 -3.536 L
S
GR
GS
[0.6 0 0 0.6 175.146 112.2916] CT
0 0.447 0.741 RC
10.0 ML
0.833 LW
N
-3.536 -3.536 M
3.536 3.536 L
-3.536 3.536 M
3.536 -3.536 L
S
GR
GS
[0.6 0 0 0.6 178.404 112.34649] CT
0 0.447 0.741 RC
10.0 ML
0.833 LW
N
-3.536 -3.536 M
3.536 3.536 L
-3.536 3.536 M
3.536 -3.536 L
S
GR
GS
[0.6 0 0 0.6 181.66199 112.91288] CT
0 0.447 0.741 RC
10.0 ML
0.833 LW
N
-3.536 -3.536 M
3.536 3.536 L
-3.536 3.536 M
3.536 -3.536 L
S
GR
GS
[0.6 0 0 0.6 184.92001 113.49581] CT
0 0.447 0.741 RC
10.0 ML
0.833 LW
N
-3.536 -3.536 M
3.536 3.536 L
-3.536 3.536 M
3.536 -3.536 L
S
GR
GS
[0.6 0 0 0.6 188.178 113.56224] CT
0 0.447 0.741 RC
10.0 ML
0.833 LW
N
-3.536 -3.536 M
3.536 3.536 L
-3.536 3.536 M
3.536 -3.536 L
S
GR
GS
[0.6 0 0 0.6 191.436 113.89306] CT
0 0.447 0.741 RC
10.0 ML
0.833 LW
N
-3.536 -3.536 M
3.536 3.536 L
-3.536 3.536 M
3.536 -3.536 L
S
GR
GS
[0.6 0 0 0.6 194.69399 113.96577] CT
0 0.447 0.741 RC
10.0 ML
0.833 LW
N
-3.536 -3.536 M
3.536 3.536 L
-3.536 3.536 M
3.536 -3.536 L
S
GR
GS
[0.6 0 0 0.6 197.95201 114.39817] CT
0 0.447 0.741 RC
10.0 ML
0.833 LW
N
-3.536 -3.536 M
3.536 3.536 L
-3.536 3.536 M
3.536 -3.536 L
S
GR
GS
[0.6 0 0 0.6 201.21 114.48996] CT
0 0.447 0.741 RC
10.0 ML
0.833 LW
N
-3.536 -3.536 M
3.536 3.536 L
-3.536 3.536 M
3.536 -3.536 L
S
GR
GS
[0.6 0 0 0.6 204.468 114.55659] CT
0 0.447 0.741 RC
10.0 ML
0.833 LW
N
-3.536 -3.536 M
3.536 3.536 L
-3.536 3.536 M
3.536 -3.536 L
S
GR
GS
[0.6 0 0 0.6 207.72599 114.59088] CT
0 0.447 0.741 RC
10.0 ML
0.833 LW
N
-3.536 -3.536 M
3.536 3.536 L
-3.536 3.536 M
3.536 -3.536 L
S
GR
GS
[0.6 0 0 0.6 210.98401 114.69716] CT
0 0.447 0.741 RC
10.0 ML
0.833 LW
N
-3.536 -3.536 M
3.536 3.536 L
-3.536 3.536 M
3.536 -3.536 L
S
GR
GS
[0.6 0 0 0.6 214.242 114.85869] CT
0 0.447 0.741 RC
10.0 ML
0.833 LW
N
-3.536 -3.536 M
3.536 3.536 L
-3.536 3.536 M
3.536 -3.536 L
S
GR
GS
[0.6 0 0 0.6 217.5 114.92691] CT
0 0.447 0.741 RC
10.0 ML
0.833 LW
N
-3.536 -3.536 M
3.536 3.536 L
-3.536 3.536 M
3.536 -3.536 L
S
GR
GS
[0.6 0 0 0.6 220.758 114.97987] CT
0 0.447 0.741 RC
10.0 ML
0.833 LW
N
-3.536 -3.536 M
3.536 3.536 L
-3.536 3.536 M
3.536 -3.536 L
S
GR
GS
[0.6 0 0 0.6 224.01599 115.05217] CT
0 0.447 0.741 RC
10.0 ML
0.833 LW
N
-3.536 -3.536 M
3.536 3.536 L
-3.536 3.536 M
3.536 -3.536 L
S
GR
GS
[0.6 0 0 0.6 227.27401 115.11023] CT
0 0.447 0.741 RC
10.0 ML
0.833 LW
N
-3.536 -3.536 M
3.536 3.536 L
-3.536 3.536 M
3.536 -3.536 L
S
GR
GS
[0.6 0 0 0.6 230.532 115.12977] CT
0 0.447 0.741 RC
10.0 ML
0.833 LW
N
-3.536 -3.536 M
3.536 3.536 L
-3.536 3.536 M
3.536 -3.536 L
S
GR
GS
[0.6 0 0 0.6 233.79 115.13982] CT
0 0.447 0.741 RC
10.0 ML
0.833 LW
N
-3.536 -3.536 M
3.536 3.536 L
-3.536 3.536 M
3.536 -3.536 L
S
GR
GS
[0.6 0 0 0.6 237.04799 115.14349] CT
0 0.447 0.741 RC
10.0 ML
0.833 LW
N
-3.536 -3.536 M
3.536 3.536 L
-3.536 3.536 M
3.536 -3.536 L
S
GR
GS
[0.6 0 0 0.6 240.30601 115.15865] CT
0 0.447 0.741 RC
10.0 ML
0.833 LW
N
-3.536 -3.536 M
3.536 3.536 L
-3.536 3.536 M
3.536 -3.536 L
S
GR
GS
[0.6 0 0 0.6 243.564 115.47503] CT
0 0.447 0.741 RC
10.0 ML
0.833 LW
N
-3.536 -3.536 M
3.536 3.536 L
-3.536 3.536 M
3.536 -3.536 L
S
GR
GS
[0.6 0 0 0.6 246.822 115.64759] CT
0 0.447 0.741 RC
10.0 ML
0.833 LW
N
-3.536 -3.536 M
3.536 3.536 L
-3.536 3.536 M
3.536 -3.536 L
S
GR
GS
[0.6 0 0 0.6 250.07999 115.70086] CT
0 0.447 0.741 RC
10.0 ML
0.833 LW
N
-3.536 -3.536 M
3.536 3.536 L
-3.536 3.536 M
3.536 -3.536 L
S
GR
GS
[0.6 0 0 0.6 253.33801 116.02479] CT
0 0.447 0.741 RC
10.0 ML
0.833 LW
N
-3.536 -3.536 M
3.536 3.536 L
-3.536 3.536 M
3.536 -3.536 L
S
GR
GS
[0.6 0 0 0.6 256.596 116.63363] CT
0 0.447 0.741 RC
10.0 ML
0.833 LW
N
-3.536 -3.536 M
3.536 3.536 L
-3.536 3.536 M
3.536 -3.536 L
S
GR
GS
[0.6 0 0 0.6 259.854 116.74756] CT
0 0.447 0.741 RC
10.0 ML
0.833 LW
N
-3.536 -3.536 M
3.536 3.536 L
-3.536 3.536 M
3.536 -3.536 L
S
GR
GS
[0.6 0 0 0.6 263.11199 116.89058] CT
0 0.447 0.741 RC
10.0 ML
0.833 LW
N
-3.536 -3.536 M
3.536 3.536 L
-3.536 3.536 M
3.536 -3.536 L
S
GR
GS
[0.6 0 0 0.6 266.37001 117.16508] CT
0 0.447 0.741 RC
10.0 ML
0.833 LW
N
-3.536 -3.536 M
3.536 3.536 L
-3.536 3.536 M
3.536 -3.536 L
S
GR
GS
[0.6 0 0 0.6 269.628 117.26947] CT
0 0.447 0.741 RC
10.0 ML
0.833 LW
N
-3.536 -3.536 M
3.536 3.536 L
-3.536 3.536 M
3.536 -3.536 L
S
GR
GS
[0.6 0 0 0.6 272.886 117.30513] CT
0 0.447 0.741 RC
10.0 ML
0.833 LW
N
-3.536 -3.536 M
3.536 3.536 L
-3.536 3.536 M
3.536 -3.536 L
S
GR
GS
[0.6 0 0 0.6 276.14399 117.3264] CT
0 0.447 0.741 RC
10.0 ML
0.833 LW
N
-3.536 -3.536 M
3.536 3.536 L
-3.536 3.536 M
3.536 -3.536 L
S
GR
GS
[0.6 0 0 0.6 279.40201 117.44697] CT
0 0.447 0.741 RC
10.0 ML
0.833 LW
N
-3.536 -3.536 M
3.536 3.536 L
-3.536 3.536 M
3.536 -3.536 L
S
GR
GS
[0.6 0 0 0.6 282.66 117.56998] CT
0 0.447 0.741 RC
10.0 ML
0.833 LW
N
-3.536 -3.536 M
3.536 3.536 L
-3.536 3.536 M
3.536 -3.536 L
S
GR
GS
[0.6 0 0 0.6 285.918 117.89478] CT
0 0.447 0.741 RC
10.0 ML
0.833 LW
N
-3.536 -3.536 M
3.536 3.536 L
-3.536 3.536 M
3.536 -3.536 L
S
GR
GS
[0.6 0 0 0.6 289.17599 118.29918] CT
0 0.447 0.741 RC
10.0 ML
0.833 LW
N
-3.536 -3.536 M
3.536 3.536 L
-3.536 3.536 M
3.536 -3.536 L
S
GR
GS
[0.6 0 0 0.6 292.43401 118.40189] CT
0 0.447 0.741 RC
10.0 ML
0.833 LW
N
-3.536 -3.536 M
3.536 3.536 L
-3.536 3.536 M
3.536 -3.536 L
S
GR
GS
[0.6 0 0 0.6 295.692 118.42939] CT
0 0.447 0.741 RC
10.0 ML
0.833 LW
N
-3.536 -3.536 M
3.536 3.536 L
-3.536 3.536 M
3.536 -3.536 L
S
GR
GS
[0.6 0 0 0.6 298.95 118.78516] CT
0 0.447 0.741 RC
10.0 ML
0.833 LW
N
-3.536 -3.536 M
3.536 3.536 L
-3.536 3.536 M
3.536 -3.536 L
S
GR
GS
[0.6 0 0 0.6 302.208 118.82313] CT
0 0.447 0.741 RC
10.0 ML
0.833 LW
N
-3.536 -3.536 M
3.536 3.536 L
-3.536 3.536 M
3.536 -3.536 L
S
GR
GS
[0.6 0 0 0.6 305.46599 118.83868] CT
0 0.447 0.741 RC
10.0 ML
0.833 LW
N
-3.536 -3.536 M
3.536 3.536 L
-3.536 3.536 M
3.536 -3.536 L
S
GR
GS
[0.6 0 0 0.6 308.72399 118.84175] CT
0 0.447 0.741 RC
10.0 ML
0.833 LW
N
-3.536 -3.536 M
3.536 3.536 L
-3.536 3.536 M
3.536 -3.536 L
S
GR
GS
[0.6 0 0 0.6 311.98198 119.02405] CT
0 0.447 0.741 RC
10.0 ML
0.833 LW
N
-3.536 -3.536 M
3.536 3.536 L
-3.536 3.536 M
3.536 -3.536 L
S
GR
GS
[0.6 0 0 0.6 315.24001 119.08563] CT
0 0.447 0.741 RC
10.0 ML
0.833 LW
N
-3.536 -3.536 M
3.536 3.536 L
-3.536 3.536 M
3.536 -3.536 L
S
GR
GS
[0.6 0 0 0.6 318.49801 119.12859] CT
0 0.447 0.741 RC
10.0 ML
0.833 LW
N
-3.536 -3.536 M
3.536 3.536 L
-3.536 3.536 M
3.536 -3.536 L
S
GR
GS
[0.6 0 0 0.6 321.75601 119.35885] CT
0 0.447 0.741 RC
10.0 ML
0.833 LW
N
-3.536 -3.536 M
3.536 3.536 L
-3.536 3.536 M
3.536 -3.536 L
S
GR
GS
[0.6 0 0 0.6 325.014 119.4637] CT
0 0.447 0.741 RC
10.0 ML
0.833 LW
N
-3.536 -3.536 M
3.536 3.536 L
-3.536 3.536 M
3.536 -3.536 L
S
GR
GS
[0.6 0 0 0.6 328.272 119.72799] CT
0 0.447 0.741 RC
10.0 ML
0.833 LW
N
-3.536 -3.536 M
3.536 3.536 L
-3.536 3.536 M
3.536 -3.536 L
S
GR
GS
[0.6 0 0 0.6 331.52999 119.76967] CT
0 0.447 0.741 RC
10.0 ML
0.833 LW
N
-3.536 -3.536 M
3.536 3.536 L
-3.536 3.536 M
3.536 -3.536 L
S
GR
GS
[0.6 0 0 0.6 334.78799 119.80692] CT
0 0.447 0.741 RC
10.0 ML
0.833 LW
N
-3.536 -3.536 M
3.536 3.536 L
-3.536 3.536 M
3.536 -3.536 L
S
GR
GS
[0.6 0 0 0.6 338.04598 119.87417] CT
0 0.447 0.741 RC
10.0 ML
0.833 LW
N
-3.536 -3.536 M
3.536 3.536 L
-3.536 3.536 M
3.536 -3.536 L
S
GR
GS
[0.6 0 0 0.6 341.30402 119.94218] CT
0 0.447 0.741 RC
10.0 ML
0.833 LW
N
-3.536 -3.536 M
3.536 3.536 L
-3.536 3.536 M
3.536 -3.536 L
S
GR
GS
[0.6 0 0 0.6 344.56201 120.03871] CT
0 0.447 0.741 RC
10.0 ML
0.833 LW
N
-3.536 -3.536 M
3.536 3.536 L
-3.536 3.536 M
3.536 -3.536 L
S
GR
GS
[0.6 0 0 0.6 347.82001 120.3032] CT
0 0.447 0.741 RC
10.0 ML
0.833 LW
N
-3.536 -3.536 M
3.536 3.536 L
-3.536 3.536 M
3.536 -3.536 L
S
GR
GS
[0.6 0 0 0.6 351.078 120.34861] CT
0 0.447 0.741 RC
10.0 ML
0.833 LW
N
-3.536 -3.536 M
3.536 3.536 L
-3.536 3.536 M
3.536 -3.536 L
S
GR
GS
[0.6 0 0 0.6 354.336 120.43239] CT
0 0.447 0.741 RC
10.0 ML
0.833 LW
N
-3.536 -3.536 M
3.536 3.536 L
-3.536 3.536 M
3.536 -3.536 L
S
GR
GS
[0.6 0 0 0.6 357.59399 120.74046] CT
0 0.447 0.741 RC
10.0 ML
0.833 LW
N
-3.536 -3.536 M
3.536 3.536 L
-3.536 3.536 M
3.536 -3.536 L
S
GR
GS
[0.6 0 0 0.6 360.85199 120.90266] CT
0 0.447 0.741 RC
10.0 ML
0.833 LW
N
-3.536 -3.536 M
3.536 3.536 L
-3.536 3.536 M
3.536 -3.536 L
S
GR
GS
[0.6 0 0 0.6 364.10999 121.06078] CT
0 0.447 0.741 RC
10.0 ML
0.833 LW
N
-3.536 -3.536 M
3.536 3.536 L
-3.536 3.536 M
3.536 -3.536 L
S
GR
GS
[0.6 0 0 0.6 367.36802 121.21006] CT
0 0.447 0.741 RC
10.0 ML
0.833 LW
N
-3.536 -3.536 M
3.536 3.536 L
-3.536 3.536 M
3.536 -3.536 L
S
GR
GS
[0.6 0 0 0.6 370.62601 121.27542] CT
0 0.447 0.741 RC
10.0 ML
0.833 LW
N
-3.536 -3.536 M
3.536 3.536 L
-3.536 3.536 M
3.536 -3.536 L
S
GR
GS
[0.6 0 0 0.6 373.88401 121.40844] CT
0 0.447 0.741 RC
10.0 ML
0.833 LW
N
-3.536 -3.536 M
3.536 3.536 L
-3.536 3.536 M
3.536 -3.536 L
S
GR
GS
[0.6 0 0 0.6 377.142 121.78018] CT
0 0.447 0.741 RC
10.0 ML
0.833 LW
N
-3.536 -3.536 M
3.536 3.536 L
-3.536 3.536 M
3.536 -3.536 L
S
GR
GS
[0.6 0 0 0.6 380.4 121.85569] CT
0 0.447 0.741 RC
10.0 ML
0.833 LW
N
-3.536 -3.536 M
3.536 3.536 L
-3.536 3.536 M
3.536 -3.536 L
S
GR
GS
[0.6 0 0 0.6 0 0] CT
0.851 0.325 0.098 RC
1 LJ
0.833 LW
N
96.43 322.773 M
101.86 326.277 L
107.29 330.581 L
112.72 333.141 L
118.15 333.456 L
123.58 333.456 L
129.01 338.137 L
134.44 338.421 L
139.87 338.421 L
145.3 339.086 L
150.73 339.086 L
156.16 342.006 L
161.59 342.006 L
167.02 342.098 L
172.45 342.098 L
177.88 343.208 L
183.31 343.478 L
188.74 343.478 L
194.17 347.33 L
199.6 347.33 L
205.03 348.216 L
210.46 351.304 L
215.89 351.304 L
221.32 352.453 L
226.75 353.122 L
232.18 353.122 L
237.61 355.636 L
243.04 355.636 L
248.47 357.288 L
253.9 357.288 L
259.33 358.112 L
264.76 358.112 L
270.19 361.399 L
275.62 363.087 L
281.05 363.087 L
286.48 364.434 L
291.91 364.991 L
297.34 366.021 L
302.77 366.021 L
308.2 368.293 L
313.63 368.293 L
319.06 371.634 L
324.49 371.634 L
329.92 372.236 L
335.35 372.236 L
340.78 373.381 L
346.21 373.381 L
351.64 376.26 L
357.07 376.26 L
362.5 378.008 L
367.93 378.008 L
373.36 378.727 L
378.79 382.079 L
384.22 382.079 L
389.65 382.865 L
395.08 382.865 L
400.51 385.532 L
405.94 387.276 L
411.37 387.276 L
416.8 388.804 L
422.23 388.804 L
427.66 389.702 L
433.09 392.502 L
438.52 392.502 L
443.95 395.087 L
449.38 396.27 L
454.81 396.27 L
460.24 397.411 L
465.67 397.411 L
471.1 402.842 L
476.53 402.842 L
481.96 403.265 L
487.39 403.265 L
492.82 404.679 L
498.25 408.892 L
503.68 408.892 L
509.11 410.664 L
514.54 411.547 L
519.97 411.547 L
525.4 412.567 L
530.83 414.885 L
536.26 414.885 L
541.69 419.175 L
547.12 419.175 L
552.55 420.41 L
557.98 420.41 L
563.41 424.255 L
568.84 424.255 L
574.27 424.893 L
579.7 431.496 L
585.13 431.496 L
590.56 432.527 L
595.99 432.527 L
601.42 436.997 L
606.85 436.997 L
612.28 442.194 L
617.71 447.109 L
623.14 450.063 L
628.57 450.063 L
634 454.001 L
S
GR
GS
[0.6 0 0 0.6 57.858 193.66373] CT
0.851 0.325 0.098 RC
10.0 ML
0.833 LW
N
-3.536 -3.536 M
3.536 3.536 L
-3.536 3.536 M
3.536 -3.536 L
S
GR
GS
[0.6 0 0 0.6 61.116 195.76631] CT
0.851 0.325 0.098 RC
10.0 ML
0.833 LW
N
-3.536 -3.536 M
3.536 3.536 L
-3.536 3.536 M
3.536 -3.536 L
S
GR
GS
[0.6 0 0 0.6 64.374 198.34834] CT
0.851 0.325 0.098 RC
10.0 ML
0.833 LW
N
-3.536 -3.536 M
3.536 3.536 L
-3.536 3.536 M
3.536 -3.536 L
S
GR
GS
[0.6 0 0 0.6 67.632 199.88439] CT
0.851 0.325 0.098 RC
10.0 ML
0.833 LW
N
-3.536 -3.536 M
3.536 3.536 L
-3.536 3.536 M
3.536 -3.536 L
S
GR
GS
[0.6 0 0 0.6 70.89 200.0733] CT
0.851 0.325 0.098 RC
10.0 ML
0.833 LW
N
-3.536 -3.536 M
3.536 3.536 L
-3.536 3.536 M
3.536 -3.536 L
S
GR
GS
[0.6 0 0 0.6 74.148 200.0733] CT
0.851 0.325 0.098 RC
10.0 ML
0.833 LW
N
-3.536 -3.536 M
3.536 3.536 L
-3.536 3.536 M
3.536 -3.536 L
S
GR
GS
[0.6 0 0 0.6 77.406 202.88223] CT
0.851 0.325 0.098 RC
10.0 ML
0.833 LW
N
-3.536 -3.536 M
3.536 3.536 L
-3.536 3.536 M
3.536 -3.536 L
S
GR
GS
[0.6 0 0 0.6 80.664 203.05252] CT
0.851 0.325 0.098 RC
10.0 ML
0.833 LW
N
-3.536 -3.536 M
3.536 3.536 L
-3.536 3.536 M
3.536 -3.536 L
S
GR
GS
[0.6 0 0 0.6 83.922 203.05252] CT
0.851 0.325 0.098 RC
10.0 ML
0.833 LW
N
-3.536 -3.536 M
3.536 3.536 L
-3.536 3.536 M
3.536 -3.536 L
S
GR
GS
[0.6 0 0 0.6 87.18 203.45134] CT
0.851 0.325 0.098 RC
10.0 ML
0.833 LW
N
-3.536 -3.536 M
3.536 3.536 L
-3.536 3.536 M
3.536 -3.536 L
S
GR
GS
[0.6 0 0 0.6 90.438 203.45134] CT
0.851 0.325 0.098 RC
10.0 ML
0.833 LW
N
-3.536 -3.536 M
3.536 3.536 L
-3.536 3.536 M
3.536 -3.536 L
S
GR
GS
[0.6 0 0 0.6 93.696 205.20383] CT
0.851 0.325 0.098 RC
10.0 ML
0.833 LW
N
-3.536 -3.536 M
3.536 3.536 L
-3.536 3.536 M
3.536 -3.536 L
S
GR
GS
[0.6 0 0 0.6 96.954 205.20383] CT
0.851 0.325 0.098 RC
10.0 ML
0.833 LW
N
-3.536 -3.536 M
3.536 3.536 L
-3.536 3.536 M
3.536 -3.536 L
S
GR
GS
[0.6 0 0 0.6 100.212 205.25865] CT
0.851 0.325 0.098 RC
10.0 ML
0.833 LW
N
-3.536 -3.536 M
3.536 3.536 L
-3.536 3.536 M
3.536 -3.536 L
S
GR
GS
[0.6 0 0 0.6 103.47 205.25865] CT
0.851 0.325 0.098 RC
10.0 ML
0.833 LW
N
-3.536 -3.536 M
3.536 3.536 L
-3.536 3.536 M
3.536 -3.536 L
S
GR
GS
[0.6 0 0 0.6 106.728 205.92504] CT
0.851 0.325 0.098 RC
10.0 ML
0.833 LW
N
-3.536 -3.536 M
3.536 3.536 L
-3.536 3.536 M
3.536 -3.536 L
S
GR
GS
[0.6 0 0 0.6 109.986 206.08651] CT
0.851 0.325 0.098 RC
10.0 ML
0.833 LW
N
-3.536 -3.536 M
3.536 3.536 L
-3.536 3.536 M
3.536 -3.536 L
S
GR
GS
[0.6 0 0 0.6 113.244 206.08651] CT
0.851 0.325 0.098 RC
10.0 ML
0.833 LW
N
-3.536 -3.536 M
3.536 3.536 L
-3.536 3.536 M
3.536 -3.536 L
S
GR
GS
[0.6 0 0 0.6 116.502 208.39805] CT
0.851 0.325 0.098 RC
10.0 ML
0.833 LW
N
-3.536 -3.536 M
3.536 3.536 L
-3.536 3.536 M
3.536 -3.536 L
S
GR
GS
[0.6 0 0 0.6 119.76 208.39805] CT
0.851 0.325 0.098 RC
10.0 ML
0.833 LW
N
-3.536 -3.536 M
3.536 3.536 L
-3.536 3.536 M
3.536 -3.536 L
S
GR
GS
[0.6 0 0 0.6 123.018 208.92935] CT
0.851 0.325 0.098 RC
10.0 ML
0.833 LW
N
-3.536 -3.536 M
3.536 3.536 L
-3.536 3.536 M
3.536 -3.536 L
S
GR
GS
[0.6 0 0 0.6 126.276 210.78212] CT
0.851 0.325 0.098 RC
10.0 ML
0.833 LW
N
-3.536 -3.536 M
3.536 3.536 L
-3.536 3.536 M
3.536 -3.536 L
S
GR
GS
[0.6 0 0 0.6 129.534 210.78212] CT
0.851 0.325 0.098 RC
10.0 ML
0.833 LW
N
-3.536 -3.536 M
3.536 3.536 L
-3.536 3.536 M
3.536 -3.536 L
S
GR
GS
[0.6 0 0 0.6 132.792 211.47156] CT
0.851 0.325 0.098 RC
10.0 ML
0.833 LW
N
-3.536 -3.536 M
3.536 3.536 L
-3.536 3.536 M
3.536 -3.536 L
S
GR
GS
[0.6 0 0 0.6 136.05 211.87313] CT
0.851 0.325 0.098 RC
10.0 ML
0.833 LW
N
-3.536 -3.536 M
3.536 3.536 L
-3.536 3.536 M
3.536 -3.536 L
S
GR
GS
[0.6 0 0 0.6 139.308 211.87313] CT
0.851 0.325 0.098 RC
10.0 ML
0.833 LW
N
-3.536 -3.536 M
3.536 3.536 L
-3.536 3.536 M
3.536 -3.536 L
S
GR
GS
[0.6 0 0 0.6 142.566 213.38179] CT
0.851 0.325 0.098 RC
10.0 ML
0.833 LW
N
-3.536 -3.536 M
3.536 3.536 L
-3.536 3.536 M
3.536 -3.536 L
S
GR
GS
[0.6 0 0 0.6 145.824 213.38179] CT
0.851 0.325 0.098 RC
10.0 ML
0.833 LW
N
-3.536 -3.536 M
3.536 3.536 L
-3.536 3.536 M
3.536 -3.536 L
S
GR
GS
[0.6 0 0 0.6 149.082 214.37261] CT
0.851 0.325 0.098 RC
10.0 ML
0.833 LW
N
-3.536 -3.536 M
3.536 3.536 L
-3.536 3.536 M
3.536 -3.536 L
S
GR
GS
[0.6 0 0 0.6 152.34 214.37261] CT
0.851 0.325 0.098 RC
10.0 ML
0.833 LW
N
-3.536 -3.536 M
3.536 3.536 L
-3.536 3.536 M
3.536 -3.536 L
S
GR
GS
[0.6 0 0 0.6 155.59799 214.86716] CT
0.851 0.325 0.098 RC
10.0 ML
0.833 LW
N
-3.536 -3.536 M
3.536 3.536 L
-3.536 3.536 M
3.536 -3.536 L
S
GR
GS
[0.6 0 0 0.6 158.85601 214.86716] CT
0.851 0.325 0.098 RC
10.0 ML
0.833 LW
N
-3.536 -3.536 M
3.536 3.536 L
-3.536 3.536 M
3.536 -3.536 L
S
GR
GS
[0.6 0 0 0.6 162.114 216.83965] CT
0.851 0.325 0.098 RC
10.0 ML
0.833 LW
N
-3.536 -3.536 M
3.536 3.536 L
-3.536 3.536 M
3.536 -3.536 L
S
GR
GS
[0.6 0 0 0.6 165.372 217.85226] CT
0.851 0.325 0.098 RC
10.0 ML
0.833 LW
N
-3.536 -3.536 M
3.536 3.536 L
-3.536 3.536 M
3.536 -3.536 L
S
GR
GS
[0.6 0 0 0.6 168.62999 217.85226] CT
0.851 0.325 0.098 RC
10.0 ML
0.833 LW
N
-3.536 -3.536 M
3.536 3.536 L
-3.536 3.536 M
3.536 -3.536 L
S
GR
GS
[0.6 0 0 0.6 171.88801 218.66036] CT
0.851 0.325 0.098 RC
10.0 ML
0.833 LW
N
-3.536 -3.536 M
3.536 3.536 L
-3.536 3.536 M
3.536 -3.536 L
S
GR
GS
[0.6 0 0 0.6 175.146 218.99471] CT
0.851 0.325 0.098 RC
10.0 ML
0.833 LW
N
-3.536 -3.536 M
3.536 3.536 L
-3.536 3.536 M
3.536 -3.536 L
S
GR
GS
[0.6 0 0 0.6 178.404 219.61252] CT
0.851 0.325 0.098 RC
10.0 ML
0.833 LW
N
-3.536 -3.536 M
3.536 3.536 L
-3.536 3.536 M
3.536 -3.536 L
S
GR
GS
[0.6 0 0 0.6 181.66199 219.61252] CT
0.851 0.325 0.098 RC
10.0 ML
0.833 LW
N
-3.536 -3.536 M
3.536 3.536 L
-3.536 3.536 M
3.536 -3.536 L
S
GR
GS
[0.6 0 0 0.6 184.92001 220.97571] CT
0.851 0.325 0.098 RC
10.0 ML
0.833 LW
N
-3.536 -3.536 M
3.536 3.536 L
-3.536 3.536 M
3.536 -3.536 L
S
GR
GS
[0.6 0 0 0.6 188.178 220.97571] CT
0.851 0.325 0.098 RC
10.0 ML
0.833 LW
N
-3.536 -3.536 M
3.536 3.536 L
-3.536 3.536 M
3.536 -3.536 L
S
GR
GS
[0.6 0 0 0.6 191.436 222.98018] CT
0.851 0.325 0.098 RC
10.0 ML
0.833 LW
N
-3.536 -3.536 M
3.536 3.536 L
-3.536 3.536 M
3.536 -3.536 L
S
GR
GS
[0.6 0 0 0.6 194.69399 222.98018] CT
0.851 0.325 0.098 RC
10.0 ML
0.833 LW
N
-3.536 -3.536 M
3.536 3.536 L
-3.536 3.536 M
3.536 -3.536 L
S
GR
GS
[0.6 0 0 0.6 197.95201 223.34171] CT
0.851 0.325 0.098 RC
10.0 ML
0.833 LW
N
-3.536 -3.536 M
3.536 3.536 L
-3.536 3.536 M
3.536 -3.536 L
S
GR
GS
[0.6 0 0 0.6 201.21 223.34171] CT
0.851 0.325 0.098 RC
10.0 ML
0.833 LW
N
-3.536 -3.536 M
3.536 3.536 L
-3.536 3.536 M
3.536 -3.536 L
S
GR
GS
[0.6 0 0 0.6 204.468 224.02885] CT
0.851 0.325 0.098 RC
10.0 ML
0.833 LW
N
-3.536 -3.536 M
3.536 3.536 L
-3.536 3.536 M
3.536 -3.536 L
S
GR
GS
[0.6 0 0 0.6 207.72599 224.02885] CT
0.851 0.325 0.098 RC
10.0 ML
0.833 LW
N
-3.536 -3.536 M
3.536 3.536 L
-3.536 3.536 M
3.536 -3.536 L
S
GR
GS
[0.6 0 0 0.6 210.98401 225.75601] CT
0.851 0.325 0.098 RC
10.0 ML
0.833 LW
N
-3.536 -3.536 M
3.536 3.536 L
-3.536 3.536 M
3.536 -3.536 L
S
GR
GS
[0.6 0 0 0.6 214.242 225.75601] CT
0.851 0.325 0.098 RC
10.0 ML
0.833 LW
N
-3.536 -3.536 M
3.536 3.536 L
-3.536 3.536 M
3.536 -3.536 L
S
GR
GS
[0.6 0 0 0.6 217.5 226.80483] CT
0.851 0.325 0.098 RC
10.0 ML
0.833 LW
N
-3.536 -3.536 M
3.536 3.536 L
-3.536 3.536 M
3.536 -3.536 L
S
GR
GS
[0.6 0 0 0.6 220.758 226.80483] CT
0.851 0.325 0.098 RC
10.0 ML
0.833 LW
N
-3.536 -3.536 M
3.536 3.536 L
-3.536 3.536 M
3.536 -3.536 L
S
GR
GS
[0.6 0 0 0.6 224.01599 227.23607] CT
0.851 0.325 0.098 RC
10.0 ML
0.833 LW
N
-3.536 -3.536 M
3.536 3.536 L
-3.536 3.536 M
3.536 -3.536 L
S
GR
GS
[0.6 0 0 0.6 227.27401 229.24759] CT
0.851 0.325 0.098 RC
10.0 ML
0.833 LW
N
-3.536 -3.536 M
3.536 3.536 L
-3.536 3.536 M
3.536 -3.536 L
S
GR
GS
[0.6 0 0 0.6 230.532 229.24759] CT
0.851 0.325 0.098 RC
10.0 ML
0.833 LW
N
-3.536 -3.536 M
3.536 3.536 L
-3.536 3.536 M
3.536 -3.536 L
S
GR
GS
[0.6 0 0 0.6 233.79 229.71912] CT
0.851 0.325 0.098 RC
10.0 ML
0.833 LW
N
-3.536 -3.536 M
3.536 3.536 L
-3.536 3.536 M
3.536 -3.536 L
S
GR
GS
[0.6 0 0 0.6 237.04799 229.71912] CT
0.851 0.325 0.098 RC
10.0 ML
0.833 LW
N
-3.536 -3.536 M
3.536 3.536 L
-3.536 3.536 M
3.536 -3.536 L
S
GR
GS
[0.6 0 0 0.6 240.30601 231.31926] CT
0.851 0.325 0.098 RC
10.0 ML
0.833 LW
N
-3.536 -3.536 M
3.536 3.536 L
-3.536 3.536 M
3.536 -3.536 L
S
GR
GS
[0.6 0 0 0.6 243.564 232.36562] CT
0.851 0.325 0.098 RC
10.0 ML
0.833 LW
N
-3.536 -3.536 M
3.536 3.536 L
-3.536 3.536 M
3.536 -3.536 L
S
GR
GS
[0.6 0 0 0.6 246.822 232.36562] CT
0.851 0.325 0.098 RC
10.0 ML
0.833 LW
N
-3.536 -3.536 M
3.536 3.536 L
-3.536 3.536 M
3.536 -3.536 L
S
GR
GS
[0.6 0 0 0.6 250.07999 233.28223] CT
0.851 0.325 0.098 RC
10.0 ML
0.833 LW
N
-3.536 -3.536 M
3.536 3.536 L
-3.536 3.536 M
3.536 -3.536 L
S
GR
GS
[0.6 0 0 0.6 253.33801 233.28223] CT
0.851 0.325 0.098 RC
10.0 ML
0.833 LW
N
-3.536 -3.536 M
3.536 3.536 L
-3.536 3.536 M
3.536 -3.536 L
S
GR
GS
[0.6 0 0 0.6 256.596 233.8212] CT
0.851 0.325 0.098 RC
10.0 ML
0.833 LW
N
-3.536 -3.536 M
3.536 3.536 L
-3.536 3.536 M
3.536 -3.536 L
S
GR
GS
[0.6 0 0 0.6 259.854 235.50092] CT
0.851 0.325 0.098 RC
10.0 ML
0.833 LW
N
-3.536 -3.536 M
3.536 3.536 L
-3.536 3.536 M
3.536 -3.536 L
S
GR
GS
[0.6 0 0 0.6 263.11199 235.50092] CT
0.851 0.325 0.098 RC
10.0 ML
0.833 LW
N
-3.536 -3.536 M
3.536 3.536 L
-3.536 3.536 M
3.536 -3.536 L
S
GR
GS
[0.6 0 0 0.6 266.37001 237.05237] CT
0.851 0.325 0.098 RC
10.0 ML
0.833 LW
N
-3.536 -3.536 M
3.536 3.536 L
-3.536 3.536 M
3.536 -3.536 L
S
GR
GS
[0.6 0 0 0.6 269.628 237.76194] CT
0.851 0.325 0.098 RC
10.0 ML
0.833 LW
N
-3.536 -3.536 M
3.536 3.536 L
-3.536 3.536 M
3.536 -3.536 L
S
GR
GS
[0.6 0 0 0.6 272.886 237.76194] CT
0.851 0.325 0.098 RC
10.0 ML
0.833 LW
N
-3.536 -3.536 M
3.536 3.536 L
-3.536 3.536 M
3.536 -3.536 L
S
GR
GS
[0.6 0 0 0.6 276.14399 238.44673] CT
0.851 0.325 0.098 RC
10.0 ML
0.833 LW
N
-3.536 -3.536 M
3.536 3.536 L
-3.536 3.536 M
3.536 -3.536 L
S
GR
GS
[0.6 0 0 0.6 279.40201 238.44673] CT
0.851 0.325 0.098 RC
10.0 ML
0.833 LW
N
-3.536 -3.536 M
3.536 3.536 L
-3.536 3.536 M
3.536 -3.536 L
S
GR
GS
[0.6 0 0 0.6 282.66 241.70515] CT
0.851 0.325 0.098 RC
10.0 ML
0.833 LW
N
-3.536 -3.536 M
3.536 3.536 L
-3.536 3.536 M
3.536 -3.536 L
S
GR
GS
[0.6 0 0 0.6 285.918 241.70515] CT
0.851 0.325 0.098 RC
10.0 ML
0.833 LW
N
-3.536 -3.536 M
3.536 3.536 L
-3.536 3.536 M
3.536 -3.536 L
S
GR
GS
[0.6 0 0 0.6 289.17599 241.95928] CT
0.851 0.325 0.098 RC
10.0 ML
0.833 LW
N
-3.536 -3.536 M
3.536 3.536 L
-3.536 3.536 M
3.536 -3.536 L
S
GR
GS
[0.6 0 0 0.6 292.43401 241.95928] CT
0.851 0.325 0.098 RC
10.0 ML
0.833 LW
N
-3.536 -3.536 M
3.536 3.536 L
-3.536 3.536 M
3.536 -3.536 L
S
GR
GS
[0.6 0 0 0.6 295.692 242.80767] CT
0.851 0.325 0.098 RC
10.0 ML
0.833 LW
N
-3.536 -3.536 M
3.536 3.536 L
-3.536 3.536 M
3.536 -3.536 L
S
GR
GS
[0.6 0 0 0.6 298.95 245.33538] CT
0.851 0.325 0.098 RC
10.0 ML
0.833 LW
N
-3.536 -3.536 M
3.536 3.536 L
-3.536 3.536 M
3.536 -3.536 L
S
GR
GS
[0.6 0 0 0.6 302.208 245.33538] CT
0.851 0.325 0.098 RC
10.0 ML
0.833 LW
N
-3.536 -3.536 M
3.536 3.536 L
-3.536 3.536 M
3.536 -3.536 L
S
GR
GS
[0.6 0 0 0.6 305.46599 246.39855] CT
0.851 0.325 0.098 RC
10.0 ML
0.833 LW
N
-3.536 -3.536 M
3.536 3.536 L
-3.536 3.536 M
3.536 -3.536 L
S
GR
GS
[0.6 0 0 0.6 308.72399 246.92844] CT
0.851 0.325 0.098 RC
10.0 ML
0.833 LW
N
-3.536 -3.536 M
3.536 3.536 L
-3.536 3.536 M
3.536 -3.536 L
S
GR
GS
[0.6 0 0 0.6 311.98198 246.92844] CT
0.851 0.325 0.098 RC
10.0 ML
0.833 LW
N
-3.536 -3.536 M
3.536 3.536 L
-3.536 3.536 M
3.536 -3.536 L
S
GR
GS
[0.6 0 0 0.6 315.24001 247.54045] CT
0.851 0.325 0.098 RC
10.0 ML
0.833 LW
N
-3.536 -3.536 M
3.536 3.536 L
-3.536 3.536 M
3.536 -3.536 L
S
GR
GS
[0.6 0 0 0.6 318.49801 248.93097] CT
0.851 0.325 0.098 RC
10.0 ML
0.833 LW
N
-3.536 -3.536 M
3.536 3.536 L
-3.536 3.536 M
3.536 -3.536 L
S
GR
GS
[0.6 0 0 0.6 321.75601 248.93097] CT
0.851 0.325 0.098 RC
10.0 ML
0.833 LW
N
-3.536 -3.536 M
3.536 3.536 L
-3.536 3.536 M
3.536 -3.536 L
S
GR
GS
[0.6 0 0 0.6 325.014 251.50525] CT
0.851 0.325 0.098 RC
10.0 ML
0.833 LW
N
-3.536 -3.536 M
3.536 3.536 L
-3.536 3.536 M
3.536 -3.536 L
S
GR
GS
[0.6 0 0 0.6 328.272 251.50525] CT
0.851 0.325 0.098 RC
10.0 ML
0.833 LW
N
-3.536 -3.536 M
3.536 3.536 L
-3.536 3.536 M
3.536 -3.536 L
S
GR
GS
[0.6 0 0 0.6 331.52999 252.2463] CT
0.851 0.325 0.098 RC
10.0 ML
0.833 LW
N
-3.536 -3.536 M
3.536 3.536 L
-3.536 3.536 M
3.536 -3.536 L
S
GR
GS
[0.6 0 0 0.6 334.78799 252.2463] CT
0.851 0.325 0.098 RC
10.0 ML
0.833 LW
N
-3.536 -3.536 M
3.536 3.536 L
-3.536 3.536 M
3.536 -3.536 L
S
GR
GS
[0.6 0 0 0.6 338.04598 254.55273] CT
0.851 0.325 0.098 RC
10.0 ML
0.833 LW
N
-3.536 -3.536 M
3.536 3.536 L
-3.536 3.536 M
3.536 -3.536 L
S
GR
GS
[0.6 0 0 0.6 341.30402 254.55273] CT
0.851 0.325 0.098 RC
10.0 ML
0.833 LW
N
-3.536 -3.536 M
3.536 3.536 L
-3.536 3.536 M
3.536 -3.536 L
S
GR
GS
[0.6 0 0 0.6 344.56201 254.93566] CT
0.851 0.325 0.098 RC
10.0 ML
0.833 LW
N
-3.536 -3.536 M
3.536 3.536 L
-3.536 3.536 M
3.536 -3.536 L
S
GR
GS
[0.6 0 0 0.6 347.82001 258.8976] CT
0.851 0.325 0.098 RC
10.0 ML
0.833 LW
N
-3.536 -3.536 M
3.536 3.536 L
-3.536 3.536 M
3.536 -3.536 L
S
GR
GS
[0.6 0 0 0.6 351.078 258.8976] CT
0.851 0.325 0.098 RC
10.0 ML
0.833 LW
N
-3.536 -3.536 M
3.536 3.536 L
-3.536 3.536 M
3.536 -3.536 L
S
GR
GS
[0.6 0 0 0.6 354.336 259.51597] CT
0.851 0.325 0.098 RC
10.0 ML
0.833 LW
N
-3.536 -3.536 M
3.536 3.536 L
-3.536 3.536 M
3.536 -3.536 L
S
GR
GS
[0.6 0 0 0.6 357.59399 259.51597] CT
0.851 0.325 0.098 RC
10.0 ML
0.833 LW
N
-3.536 -3.536 M
3.536 3.536 L
-3.536 3.536 M
3.536 -3.536 L
S
GR
GS
[0.6 0 0 0.6 360.85199 262.19817] CT
0.851 0.325 0.098 RC
10.0 ML
0.833 LW
N
-3.536 -3.536 M
3.536 3.536 L
-3.536 3.536 M
3.536 -3.536 L
S
GR
GS
[0.6 0 0 0.6 364.10999 262.19817] CT
0.851 0.325 0.098 RC
10.0 ML
0.833 LW
N
-3.536 -3.536 M
3.536 3.536 L
-3.536 3.536 M
3.536 -3.536 L
S
GR
GS
[0.6 0 0 0.6 367.36802 265.31646] CT
0.851 0.325 0.098 RC
10.0 ML
0.833 LW
N
-3.536 -3.536 M
3.536 3.536 L
-3.536 3.536 M
3.536 -3.536 L
S
GR
GS
[0.6 0 0 0.6 370.62601 268.26511] CT
0.851 0.325 0.098 RC
10.0 ML
0.833 LW
N
-3.536 -3.536 M
3.536 3.536 L
-3.536 3.536 M
3.536 -3.536 L
S
GR
GS
[0.6 0 0 0.6 373.88401 270.03768] CT
0.851 0.325 0.098 RC
10.0 ML
0.833 LW
N
-3.536 -3.536 M
3.536 3.536 L
-3.536 3.536 M
3.536 -3.536 L
S
GR
GS
[0.6 0 0 0.6 377.142 270.03768] CT
0.851 0.325 0.098 RC
10.0 ML
0.833 LW
N
-3.536 -3.536 M
3.536 3.536 L
-3.536 3.536 M
3.536 -3.536 L
S
GR
GS
[0.6 0 0 0.6 380.4 272.40051] CT
0.851 0.325 0.098 RC
10.0 ML
0.833 LW
N
-3.536 -3.536 M
3.536 3.536 L
-3.536 3.536 M
3.536 -3.536 L
S
GR
GS
[0.6 0 0 0.6 0 0] CT
0.929 0.694 0.125 RC
1 LJ
0.833 LW
N
96.43 245.146 M
101.86 249.079 L
107.29 251.773 L
112.72 254.989 L
118.15 255.147 L
123.58 255.147 L
129.01 255.833 L
134.44 255.833 L
139.87 257.911 L
145.3 258.625 L
150.73 258.663 L
156.16 258.663 L
161.59 260.115 L
167.02 260.115 L
172.45 261.672 L
177.88 261.672 L
183.31 262.022 L
188.74 262.022 L
194.17 263.017 L
199.6 263.017 L
205.03 263.741 L
210.46 264.703 L
215.89 264.703 L
221.32 265.199 L
226.75 266.043 L
232.18 266.043 L
237.61 266.672 L
243.04 266.672 L
248.47 267.217 L
253.9 267.53 L
259.33 267.53 L
264.76 267.748 L
270.19 267.748 L
275.62 268.686 L
281.05 268.686 L
286.48 268.939 L
291.91 270.016 L
297.34 270.759 L
302.77 271.017 L
308.2 271.017 L
313.63 271.343 L
319.06 271.343 L
324.49 272.676 L
329.92 272.676 L
335.35 274.011 L
340.78 274.011 L
346.21 274.706 L
351.64 274.706 L
357.07 275.73 L
362.5 275.73 L
367.93 275.991 L
373.36 275.991 L
378.79 276.593 L
384.22 277.231 L
389.65 277.231 L
395.08 277.553 L
400.51 277.553 L
405.94 278.85 L
411.37 279.301 L
416.8 279.301 L
422.23 280.918 L
427.66 281.018 L
433.09 281.018 L
438.52 281.76 L
443.95 282.466 L
449.38 282.466 L
454.81 283.129 L
460.24 283.129 L
465.67 284.831 L
471.1 284.831 L
476.53 285.542 L
481.96 285.542 L
487.39 286.253 L
492.82 286.253 L
498.25 286.603 L
503.68 286.603 L
509.11 289.616 L
514.54 289.712 L
519.97 289.712 L
525.4 290.106 L
530.83 290.106 L
536.26 291.15 L
541.69 291.15 L
547.12 292.841 L
552.55 292.841 L
557.98 292.906 L
563.41 294.878 L
568.84 295.715 L
574.27 295.715 L
579.7 296.875 L
585.13 296.941 L
590.56 296.941 L
595.99 298.289 L
601.42 300.155 L
606.85 300.155 L
612.28 301.726 L
617.71 305.006 L
623.14 305.006 L
628.57 305.564 L
634 306.581 L
S
GR
GS
[0.6 0 0 0.6 57.858 147.08785] CT
0.929 0.694 0.125 RC
10.0 ML
0.833 LW
N
-3.536 -3.536 M
3.536 3.536 L
-3.536 3.536 M
3.536 -3.536 L
S
GR
GS
[0.6 0 0 0.6 61.116 149.4473] CT
0.929 0.694 0.125 RC
10.0 ML
0.833 LW
N
-3.536 -3.536 M
3.536 3.536 L
-3.536 3.536 M
3.536 -3.536 L
S
GR
GS
[0.6 0 0 0.6 64.374 151.06376] CT
0.929 0.694 0.125 RC
10.0 ML
0.833 LW
N
-3.536 -3.536 M
3.536 3.536 L
-3.536 3.536 M
3.536 -3.536 L
S
GR
GS
[0.6 0 0 0.6 67.632 152.99344] CT
0.929 0.694 0.125 RC
10.0 ML
0.833 LW
N
-3.536 -3.536 M
3.536 3.536 L
-3.536 3.536 M
3.536 -3.536 L
S
GR
GS
[0.6 0 0 0.6 70.89 153.08791] CT
0.929 0.694 0.125 RC
10.0 ML
0.833 LW
N
-3.536 -3.536 M
3.536 3.536 L
-3.536 3.536 M
3.536 -3.536 L
S
GR
GS
[0.6 0 0 0.6 74.148 153.08791] CT
0.929 0.694 0.125 RC
10.0 ML
0.833 LW
N
-3.536 -3.536 M
3.536 3.536 L
-3.536 3.536 M
3.536 -3.536 L
S
GR
GS
[0.6 0 0 0.6 77.406 153.50009] CT
0.929 0.694 0.125 RC
10.0 ML
0.833 LW
N
-3.536 -3.536 M
3.536 3.536 L
-3.536 3.536 M
3.536 -3.536 L
S
GR
GS
[0.6 0 0 0.6 80.664 153.50009] CT
0.929 0.694 0.125 RC
10.0 ML
0.833 LW
N
-3.536 -3.536 M
3.536 3.536 L
-3.536 3.536 M
3.536 -3.536 L
S
GR
GS
[0.6 0 0 0.6 83.922 154.74648] CT
0.929 0.694 0.125 RC
10.0 ML
0.833 LW
N
-3.536 -3.536 M
3.536 3.536 L
-3.536 3.536 M
3.536 -3.536 L
S
GR
GS
[0.6 0 0 0.6 87.18 155.17524] CT
0.929 0.694 0.125 RC
10.0 ML
0.833 LW
N
-3.536 -3.536 M
3.536 3.536 L
-3.536 3.536 M
3.536 -3.536 L
S
GR
GS
[0.6 0 0 0.6 90.438 155.19769] CT
0.929 0.694 0.125 RC
10.0 ML
0.833 LW
N
-3.536 -3.536 M
3.536 3.536 L
-3.536 3.536 M
3.536 -3.536 L
S
GR
GS
[0.6 0 0 0.6 93.696 155.19769] CT
0.929 0.694 0.125 RC
10.0 ML
0.833 LW
N
-3.536 -3.536 M
3.536 3.536 L
-3.536 3.536 M
3.536 -3.536 L
S
GR
GS
[0.6 0 0 0.6 96.954 156.06874] CT
0.929 0.694 0.125 RC
10.0 ML
0.833 LW
N
-3.536 -3.536 M
3.536 3.536 L
-3.536 3.536 M
3.536 -3.536 L
S
GR
GS
[0.6 0 0 0.6 100.212 156.06874] CT
0.929 0.694 0.125 RC
10.0 ML
0.833 LW
N
-3.536 -3.536 M
3.536 3.536 L
-3.536 3.536 M
3.536 -3.536 L
S
GR
GS
[0.6 0 0 0.6 103.47 157.00316] CT
0.929 0.694 0.125 RC
10.0 ML
0.833 LW
N
-3.536 -3.536 M
3.536 3.536 L
-3.536 3.536 M
3.536 -3.536 L
S
GR
GS
[0.6 0 0 0.6 106.728 157.00316] CT
0.929 0.694 0.125 RC
10.0 ML
0.833 LW
N
-3.536 -3.536 M
3.536 3.536 L
-3.536 3.536 M
3.536 -3.536 L
S
GR
GS
[0.6 0 0 0.6 109.986 157.21296] CT
0.929 0.694 0.125 RC
10.0 ML
0.833 LW
N
-3.536 -3.536 M
3.536 3.536 L
-3.536 3.536 M
3.536 -3.536 L
S
GR
GS
[0.6 0 0 0.6 113.244 157.21296] CT
0.929 0.694 0.125 RC
10.0 ML
0.833 LW
N
-3.536 -3.536 M
3.536 3.536 L
-3.536 3.536 M
3.536 -3.536 L
S
GR
GS
[0.6 0 0 0.6 116.502 157.81027] CT
0.929 0.694 0.125 RC
10.0 ML
0.833 LW
N
-3.536 -3.536 M
3.536 3.536 L
-3.536 3.536 M
3.536 -3.536 L
S
GR
GS
[0.6 0 0 0.6 119.76 157.81027] CT
0.929 0.694 0.125 RC
10.0 ML
0.833 LW
N
-3.536 -3.536 M
3.536 3.536 L
-3.536 3.536 M
3.536 -3.536 L
S
GR
GS
[0.6 0 0 0.6 123.018 158.24451] CT
0.929 0.694 0.125 RC
10.0 ML
0.833 LW
N
-3.536 -3.536 M
3.536 3.536 L
-3.536 3.536 M
3.536 -3.536 L
S
GR
GS
[0.6 0 0 0.6 126.276 158.82197] CT
0.929 0.694 0.125 RC
10.0 ML
0.833 LW
N
-3.536 -3.536 M
3.536 3.536 L
-3.536 3.536 M
3.536 -3.536 L
S
GR
GS
[0.6 0 0 0.6 129.534 158.82197] CT
0.929 0.694 0.125 RC
10.0 ML
0.833 LW
N
-3.536 -3.536 M
3.536 3.536 L
-3.536 3.536 M
3.536 -3.536 L
S
GR
GS
[0.6 0 0 0.6 132.792 159.11938] CT
0.929 0.694 0.125 RC
10.0 ML
0.833 LW
N
-3.536 -3.536 M
3.536 3.536 L
-3.536 3.536 M
3.536 -3.536 L
S
GR
GS
[0.6 0 0 0.6 136.05 159.62563] CT
0.929 0.694 0.125 RC
10.0 ML
0.833 LW
N
-3.536 -3.536 M
3.536 3.536 L
-3.536 3.536 M
3.536 -3.536 L
S
GR
GS
[0.6 0 0 0.6 139.308 159.62563] CT
0.929 0.694 0.125 RC
10.0 ML
0.833 LW
N
-3.536 -3.536 M
3.536 3.536 L
-3.536 3.536 M
3.536 -3.536 L
S
GR
GS
[0.6 0 0 0.6 142.566 160.00344] CT
0.929 0.694 0.125 RC
10.0 ML
0.833 LW
N
-3.536 -3.536 M
3.536 3.536 L
-3.536 3.536 M
3.536 -3.536 L
S
GR
GS
[0.6 0 0 0.6 145.824 160.00344] CT
0.929 0.694 0.125 RC
10.0 ML
0.833 LW
N
-3.536 -3.536 M
3.536 3.536 L
-3.536 3.536 M
3.536 -3.536 L
S
GR
GS
[0.6 0 0 0.6 149.082 160.33035] CT
0.929 0.694 0.125 RC
10.0 ML
0.833 LW
N
-3.536 -3.536 M
3.536 3.536 L
-3.536 3.536 M
3.536 -3.536 L
S
GR
GS
[0.6 0 0 0.6 152.34 160.51772] CT
0.929 0.694 0.125 RC
10.0 ML
0.833 LW
N
-3.536 -3.536 M
3.536 3.536 L
-3.536 3.536 M
3.536 -3.536 L
S
GR
GS
[0.6 0 0 0.6 155.59799 160.51772] CT
0.929 0.694 0.125 RC
10.0 ML
0.833 LW
N
-3.536 -3.536 M
3.536 3.536 L
-3.536 3.536 M
3.536 -3.536 L
S
GR
GS
[0.6 0 0 0.6 158.85601 160.64872] CT
0.929 0.694 0.125 RC
10.0 ML
0.833 LW
N
-3.536 -3.536 M
3.536 3.536 L
-3.536 3.536 M
3.536 -3.536 L
S
GR
GS
[0.6 0 0 0.6 162.114 160.64872] CT
0.929 0.694 0.125 RC
10.0 ML
0.833 LW
N
-3.536 -3.536 M
3.536 3.536 L
-3.536 3.536 M
3.536 -3.536 L
S
GR
GS
[0.6 0 0 0.6 165.372 161.21149] CT
0.929 0.694 0.125 RC
10.0 ML
0.833 LW
N
-3.536 -3.536 M
3.536 3.536 L
-3.536 3.536 M
3.536 -3.536 L
S
GR
GS
[0.6 0 0 0.6 168.62999 161.21149] CT
0.929 0.694 0.125 RC
10.0 ML
0.833 LW
N
-3.536 -3.536 M
3.536 3.536 L
-3.536 3.536 M
3.536 -3.536 L
S
GR
GS
[0.6 0 0 0.6 171.88801 161.36312] CT
0.929 0.694 0.125 RC
10.0 ML
0.833 LW
N
-3.536 -3.536 M
3.536 3.536 L
-3.536 3.536 M
3.536 -3.536 L
S
GR
GS
[0.6 0 0 0.6 175.146 162.00952] CT
0.929 0.694 0.125 RC
10.0 ML
0.833 LW
N
-3.536 -3.536 M
3.536 3.536 L
-3.536 3.536 M
3.536 -3.536 L
S
GR
GS
[0.6 0 0 0.6 178.404 162.45516] CT
0.929 0.694 0.125 RC
10.0 ML
0.833 LW
N
-3.536 -3.536 M
3.536 3.536 L
-3.536 3.536 M
3.536 -3.536 L
S
GR
GS
[0.6 0 0 0.6 181.66199 162.61005] CT
0.929 0.694 0.125 RC
10.0 ML
0.833 LW
N
-3.536 -3.536 M
3.536 3.536 L
-3.536 3.536 M
3.536 -3.536 L
S
GR
GS
[0.6 0 0 0.6 184.92001 162.61005] CT
0.929 0.694 0.125 RC
10.0 ML
0.833 LW
N
-3.536 -3.536 M
3.536 3.536 L
-3.536 3.536 M
3.536 -3.536 L
S
GR
GS
[0.6 0 0 0.6 188.178 162.80594] CT
0.929 0.694 0.125 RC
10.0 ML
0.833 LW
N
-3.536 -3.536 M
3.536 3.536 L
-3.536 3.536 M
3.536 -3.536 L
S
GR
GS
[0.6 0 0 0.6 191.436 162.80594] CT
0.929 0.694 0.125 RC
10.0 ML
0.833 LW
N
-3.536 -3.536 M
3.536 3.536 L
-3.536 3.536 M
3.536 -3.536 L
S
GR
GS
[0.6 0 0 0.6 194.69399 163.6053] CT
0.929 0.694 0.125 RC
10.0 ML
0.833 LW
N
-3.536 -3.536 M
3.536 3.536 L
-3.536 3.536 M
3.536 -3.536 L
S
GR
GS
[0.6 0 0 0.6 197.95201 163.6053] CT
0.929 0.694 0.125 RC
10.0 ML
0.833 LW
N
-3.536 -3.536 M
3.536 3.536 L
-3.536 3.536 M
3.536 -3.536 L
S
GR
GS
[0.6 0 0 0.6 201.21 164.40659] CT
0.929 0.694 0.125 RC
10.0 ML
0.833 LW
N
-3.536 -3.536 M
3.536 3.536 L
-3.536 3.536 M
3.536 -3.536 L
S
GR
GS
[0.6 0 0 0.6 204.468 164.40659] CT
0.929 0.694 0.125 RC
10.0 ML
0.833 LW
N
-3.536 -3.536 M
3.536 3.536 L
-3.536 3.536 M
3.536 -3.536 L
S
GR
GS
[0.6 0 0 0.6 207.72599 164.82354] CT
0.929 0.694 0.125 RC
10.0 ML
0.833 LW
N
-3.536 -3.536 M
3.536 3.536 L
-3.536 3.536 M
3.536 -3.536 L
S
GR
GS
[0.6 0 0 0.6 210.98401 164.82354] CT
0.929 0.694 0.125 RC
10.0 ML
0.833 LW
N
-3.536 -3.536 M
3.536 3.536 L
-3.536 3.536 M
3.536 -3.536 L
S
GR
GS
[0.6 0 0 0.6 214.242 165.43806] CT
0.929 0.694 0.125 RC
10.0 ML
0.833 LW
N
-3.536 -3.536 M
3.536 3.536 L
-3.536 3.536 M
3.536 -3.536 L
S
GR
GS
[0.6 0 0 0.6 217.5 165.43806] CT
0.929 0.694 0.125 RC
10.0 ML
0.833 LW
N
-3.536 -3.536 M
3.536 3.536 L
-3.536 3.536 M
3.536 -3.536 L
S
GR
GS
[0.6 0 0 0.6 220.758 165.59487] CT
0.929 0.694 0.125 RC
10.0 ML
0.833 LW
N
-3.536 -3.536 M
3.536 3.536 L
-3.536 3.536 M
3.536 -3.536 L
S
GR
GS
[0.6 0 0 0.6 224.01599 165.59487] CT
0.929 0.694 0.125 RC
10.0 ML
0.833 LW
N
-3.536 -3.536 M
3.536 3.536 L
-3.536 3.536 M
3.536 -3.536 L
S
GR
GS
[0.6 0 0 0.6 227.27401 165.95576] CT
0.929 0.694 0.125 RC
10.0 ML
0.833 LW
N
-3.536 -3.536 M
3.536 3.536 L
-3.536 3.536 M
3.536 -3.536 L
S
GR
GS
[0.6 0 0 0.6 230.532 166.33859] CT
0.929 0.694 0.125 RC
10.0 ML
0.833 LW
N
-3.536 -3.536 M
3.536 3.536 L
-3.536 3.536 M
3.536 -3.536 L
S
GR
GS
[0.6 0 0 0.6 233.79 166.33859] CT
0.929 0.694 0.125 RC
10.0 ML
0.833 LW
N
-3.536 -3.536 M
3.536 3.536 L
-3.536 3.536 M
3.536 -3.536 L
S
GR
GS
[0.6 0 0 0.6 237.04799 166.5316] CT
0.929 0.694 0.125 RC
10.0 ML
0.833 LW
N
-3.536 -3.536 M
3.536 3.536 L
-3.536 3.536 M
3.536 -3.536 L
S
GR
GS
[0.6 0 0 0.6 240.30601 166.5316] CT
0.929 0.694 0.125 RC
10.0 ML
0.833 LW
N
-3.536 -3.536 M
3.536 3.536 L
-3.536 3.536 M
3.536 -3.536 L
S
GR
GS
[0.6 0 0 0.6 243.564 167.31013] CT
0.929 0.694 0.125 RC
10.0 ML
0.833 LW
N
-3.536 -3.536 M
3.536 3.536 L
-3.536 3.536 M
3.536 -3.536 L
S
GR
GS
[0.6 0 0 0.6 246.822 167.5808] CT
0.929 0.694 0.125 RC
10.0 ML
0.833 LW
N
-3.536 -3.536 M
3.536 3.536 L
-3.536 3.536 M
3.536 -3.536 L
S
GR
GS
[0.6 0 0 0.6 250.07999 167.5808] CT
0.929 0.694 0.125 RC
10.0 ML
0.833 LW
N
-3.536 -3.536 M
3.536 3.536 L
-3.536 3.536 M
3.536 -3.536 L
S
GR
GS
[0.6 0 0 0.6 253.33801 168.55054] CT
0.929 0.694 0.125 RC
10.0 ML
0.833 LW
N
-3.536 -3.536 M
3.536 3.536 L
-3.536 3.536 M
3.536 -3.536 L
S
GR
GS
[0.6 0 0 0.6 256.596 168.61075] CT
0.929 0.694 0.125 RC
10.0 ML
0.833 LW
N
-3.536 -3.536 M
3.536 3.536 L
-3.536 3.536 M
3.536 -3.536 L
S
GR
GS
[0.6 0 0 0.6 259.854 168.61075] CT
0.929 0.694 0.125 RC
10.0 ML
0.833 LW
N
-3.536 -3.536 M
3.536 3.536 L
-3.536 3.536 M
3.536 -3.536 L
S
GR
GS
[0.6 0 0 0.6 263.11199 169.05575] CT
0.929 0.694 0.125 RC
10.0 ML
0.833 LW
N
-3.536 -3.536 M
3.536 3.536 L
-3.536 3.536 M
3.536 -3.536 L
S
GR
GS
[0.6 0 0 0.6 266.37001 169.47933] CT
0.929 0.694 0.125 RC
10.0 ML
0.833 LW
N
-3.536 -3.536 M
3.536 3.536 L
-3.536 3.536 M
3.536 -3.536 L
S
GR
GS
[0.6 0 0 0.6 269.628 169.47933] CT
0.929 0.694 0.125 RC
10.0 ML
0.833 LW
N
-3.536 -3.536 M
3.536 3.536 L
-3.536 3.536 M
3.536 -3.536 L
S
GR
GS
[0.6 0 0 0.6 272.886 169.87769] CT
0.929 0.694 0.125 RC
10.0 ML
0.833 LW
N
-3.536 -3.536 M
3.536 3.536 L
-3.536 3.536 M
3.536 -3.536 L
S
GR
GS
[0.6 0 0 0.6 276.14399 169.87769] CT
0.929 0.694 0.125 RC
10.0 ML
0.833 LW
N
-3.536 -3.536 M
3.536 3.536 L
-3.536 3.536 M
3.536 -3.536 L
S
GR
GS
[0.6 0 0 0.6 279.40201 170.89867] CT
0.929 0.694 0.125 RC
10.0 ML
0.833 LW
N
-3.536 -3.536 M
3.536 3.536 L
-3.536 3.536 M
3.536 -3.536 L
S
GR
GS
[0.6 0 0 0.6 282.66 170.89867] CT
0.929 0.694 0.125 RC
10.0 ML
0.833 LW
N
-3.536 -3.536 M
3.536 3.536 L
-3.536 3.536 M
3.536 -3.536 L
S
GR
GS
[0.6 0 0 0.6 285.918 171.32514] CT
0.929 0.694 0.125 RC
10.0 ML
0.833 LW
N
-3.536 -3.536 M
3.536 3.536 L
-3.536 3.536 M
3.536 -3.536 L
S
GR
GS
[0.6 0 0 0.6 289.17599 171.32514] CT
0.929 0.694 0.125 RC
10.0 ML
0.833 LW
N
-3.536 -3.536 M
3.536 3.536 L
-3.536 3.536 M
3.536 -3.536 L
S
GR
GS
[0.6 0 0 0.6 292.43401 171.752] CT
0.929 0.694 0.125 RC
10.0 ML
0.833 LW
N
-3.536 -3.536 M
3.536 3.536 L
-3.536 3.536 M
3.536 -3.536 L
S
GR
GS
[0.6 0 0 0.6 295.692 171.752] CT
0.929 0.694 0.125 RC
10.0 ML
0.833 LW
N
-3.536 -3.536 M
3.536 3.536 L
-3.536 3.536 M
3.536 -3.536 L
S
GR
GS
[0.6 0 0 0.6 298.95 171.96187] CT
0.929 0.694 0.125 RC
10.0 ML
0.833 LW
N
-3.536 -3.536 M
3.536 3.536 L
-3.536 3.536 M
3.536 -3.536 L
S
GR
GS
[0.6 0 0 0.6 302.208 171.96187] CT
0.929 0.694 0.125 RC
10.0 ML
0.833 LW
N
-3.536 -3.536 M
3.536 3.536 L
-3.536 3.536 M
3.536 -3.536 L
S
GR
GS
[0.6 0 0 0.6 305.46599 173.76974] CT
0.929 0.694 0.125 RC
10.0 ML
0.833 LW
N
-3.536 -3.536 M
3.536 3.536 L
-3.536 3.536 M
3.536 -3.536 L
S
GR
GS
[0.6 0 0 0.6 308.72399 173.82737] CT
0.929 0.694 0.125 RC
10.0 ML
0.833 LW
N
-3.536 -3.536 M
3.536 3.536 L
-3.536 3.536 M
3.536 -3.536 L
S
GR
GS
[0.6 0 0 0.6 311.98198 173.82737] CT
0.929 0.694 0.125 RC
10.0 ML
0.833 LW
N
-3.536 -3.536 M
3.536 3.536 L
-3.536 3.536 M
3.536 -3.536 L
S
GR
GS
[0.6 0 0 0.6 315.24001 174.06334] CT
0.929 0.694 0.125 RC
10.0 ML
0.833 LW
N
-3.536 -3.536 M
3.536 3.536 L
-3.536 3.536 M
3.536 -3.536 L
S
GR
GS
[0.6 0 0 0.6 318.49801 174.06334] CT
0.929 0.694 0.125 RC
10.0 ML
0.833 LW
N
-3.536 -3.536 M
3.536 3.536 L
-3.536 3.536 M
3.536 -3.536 L
S
GR
GS
[0.6 0 0 0.6 321.75601 174.69012] CT
0.929 0.694 0.125 RC
10.0 ML
0.833 LW
N
-3.536 -3.536 M
3.536 3.536 L
-3.536 3.536 M
3.536 -3.536 L
S
GR
GS
[0.6 0 0 0.6 325.014 174.69012] CT
0.929 0.694 0.125 RC
10.0 ML
0.833 LW
N
-3.536 -3.536 M
3.536 3.536 L
-3.536 3.536 M
3.536 -3.536 L
S
GR
GS
[0.6 0 0 0.6 328.272 175.70486] CT
0.929 0.694 0.125 RC
10.0 ML
0.833 LW
N
-3.536 -3.536 M
3.536 3.536 L
-3.536 3.536 M
3.536 -3.536 L
S
GR
GS
[0.6 0 0 0.6 331.52999 175.70486] CT
0.929 0.694 0.125 RC
10.0 ML
0.833 LW
N
-3.536 -3.536 M
3.536 3.536 L
-3.536 3.536 M
3.536 -3.536 L
S
GR
GS
[0.6 0 0 0.6 334.78799 175.74364] CT
0.929 0.694 0.125 RC
10.0 ML
0.833 LW
N
-3.536 -3.536 M
3.536 3.536 L
-3.536 3.536 M
3.536 -3.536 L
S
GR
GS
[0.6 0 0 0.6 338.04598 176.92696] CT
0.929 0.694 0.125 RC
10.0 ML
0.833 LW
N
-3.536 -3.536 M
3.536 3.536 L
-3.536 3.536 M
3.536 -3.536 L
S
GR
GS
[0.6 0 0 0.6 341.30402 177.42874] CT
0.929 0.694 0.125 RC
10.0 ML
0.833 LW
N
-3.536 -3.536 M
3.536 3.536 L
-3.536 3.536 M
3.536 -3.536 L
S
GR
GS
[0.6 0 0 0.6 344.56201 177.42874] CT
0.929 0.694 0.125 RC
10.0 ML
0.833 LW
N
-3.536 -3.536 M
3.536 3.536 L
-3.536 3.536 M
3.536 -3.536 L
S
GR
GS
[0.6 0 0 0.6 347.82001 178.12507] CT
0.929 0.694 0.125 RC
10.0 ML
0.833 LW
N
-3.536 -3.536 M
3.536 3.536 L
-3.536 3.536 M
3.536 -3.536 L
S
GR
GS
[0.6 0 0 0.6 351.078 178.16466] CT
0.929 0.694 0.125 RC
10.0 ML
0.833 LW
N
-3.536 -3.536 M
3.536 3.536 L
-3.536 3.536 M
3.536 -3.536 L
S
GR
GS
[0.6 0 0 0.6 354.336 178.16466] CT
0.929 0.694 0.125 RC
10.0 ML
0.833 LW
N
-3.536 -3.536 M
3.536 3.536 L
-3.536 3.536 M
3.536 -3.536 L
S
GR
GS
[0.6 0 0 0.6 357.59399 178.97355] CT
0.929 0.694 0.125 RC
10.0 ML
0.833 LW
N
-3.536 -3.536 M
3.536 3.536 L
-3.536 3.536 M
3.536 -3.536 L
S
GR
GS
[0.6 0 0 0.6 360.85199 180.09322] CT
0.929 0.694 0.125 RC
10.0 ML
0.833 LW
N
-3.536 -3.536 M
3.536 3.536 L
-3.536 3.536 M
3.536 -3.536 L
S
GR
GS
[0.6 0 0 0.6 364.10999 180.09322] CT
0.929 0.694 0.125 RC
10.0 ML
0.833 LW
N
-3.536 -3.536 M
3.536 3.536 L
-3.536 3.536 M
3.536 -3.536 L
S
GR
GS
[0.6 0 0 0.6 367.36802 181.03552] CT
0.929 0.694 0.125 RC
10.0 ML
0.833 LW
N
-3.536 -3.536 M
3.536 3.536 L
-3.536 3.536 M
3.536 -3.536 L
S
GR
GS
[0.6 0 0 0.6 370.62601 183.00331] CT
0.929 0.694 0.125 RC
10.0 ML
0.833 LW
N
-3.536 -3.536 M
3.536 3.536 L
-3.536 3.536 M
3.536 -3.536 L
S
GR
GS
[0.6 0 0 0.6 373.88401 183.00331] CT
0.929 0.694 0.125 RC
10.0 ML
0.833 LW
N
-3.536 -3.536 M
3.536 3.536 L
-3.536 3.536 M
3.536 -3.536 L
S
GR
GS
[0.6 0 0 0.6 377.142 183.33834] CT
0.929 0.694 0.125 RC
10.0 ML
0.833 LW
N
-3.536 -3.536 M
3.536 3.536 L
-3.536 3.536 M
3.536 -3.536 L
S
GR
GS
[0.6 0 0 0.6 380.4 183.94865] CT
0.929 0.694 0.125 RC
10.0 ML
0.833 LW
N
-3.536 -3.536 M
3.536 3.536 L
-3.536 3.536 M
3.536 -3.536 L
S
GR
GS
[0.6 0 0 0.6 0 0] CT
0.494 0.184 0.557 RC
1 LJ
0.833 LW
N
96.43 219.535 M
101.86 228.64 L
107.29 231.687 L
112.72 235.056 L
118.15 235.924 L
123.58 241.856 L
129.01 241.856 L
134.44 243.118 L
139.87 243.118 L
145.3 244.299 L
150.73 244.299 L
156.16 246.563 L
161.59 246.563 L
167.02 246.903 L
172.45 248.544 L
177.88 248.544 L
183.31 249.613 L
188.74 249.613 L
194.17 249.826 L
199.6 249.826 L
205.03 250.747 L
210.46 250.747 L
215.89 251.048 L
221.32 251.048 L
226.75 251.454 L
232.18 251.969 L
237.61 251.969 L
243.04 252.068 L
248.47 253.098 L
253.9 253.098 L
259.33 253.312 L
264.76 253.312 L
270.19 253.592 L
275.62 253.592 L
281.05 253.915 L
286.48 254.597 L
291.91 254.597 L
297.34 255.667 L
302.77 255.91 L
308.2 255.91 L
313.63 256.096 L
319.06 256.096 L
324.49 256.492 L
329.92 257.024 L
335.35 257.544 L
340.78 257.544 L
346.21 257.789 L
351.64 257.789 L
357.07 258.215 L
362.5 258.215 L
367.93 258.875 L
373.36 258.875 L
378.79 259.021 L
384.22 260.475 L
389.65 260.475 L
395.08 260.621 L
400.51 260.621 L
405.94 260.901 L
411.37 261.957 L
416.8 261.957 L
422.23 262.496 L
427.66 262.496 L
433.09 263.079 L
438.52 263.079 L
443.95 263.541 L
449.38 263.541 L
454.81 264.194 L
460.24 264.194 L
465.67 265.319 L
471.1 265.319 L
476.53 265.426 L
481.96 265.426 L
487.39 265.767 L
492.82 265.767 L
498.25 266.85 L
503.68 267.458 L
509.11 267.458 L
514.54 269.2 L
519.97 269.2 L
525.4 269.318 L
530.83 269.318 L
536.26 270.32 L
541.69 270.772 L
547.12 271.445 L
552.55 271.445 L
557.98 271.94 L
563.41 271.94 L
568.84 273.083 L
574.27 273.083 L
579.7 273.687 L
585.13 273.887 L
590.56 274.907 L
595.99 274.907 L
601.42 276.678 L
606.85 276.678 L
612.28 277.065 L
617.71 278.322 L
623.14 279.119 L
628.57 279.119 L
634 280.872 L
S
GR
GS
[0.6 0 0 0.6 57.858 131.72086] CT
0.494 0.184 0.557 RC
10.0 ML
0.833 LW
N
-3.536 -3.536 M
3.536 3.536 L
-3.536 3.536 M
3.536 -3.536 L
S
GR
GS
[0.6 0 0 0.6 61.116 137.18405] CT
0.494 0.184 0.557 RC
10.0 ML
0.833 LW
N
-3.536 -3.536 M
3.536 3.536 L
-3.536 3.536 M
3.536 -3.536 L
S
GR
GS
[0.6 0 0 0.6 64.374 139.01226] CT
0.494 0.184 0.557 RC
10.0 ML
0.833 LW
N
-3.536 -3.536 M
3.536 3.536 L
-3.536 3.536 M
3.536 -3.536 L
S
GR
GS
[0.6 0 0 0.6 67.632 141.03368] CT
0.494 0.184 0.557 RC
10.0 ML
0.833 LW
N
-3.536 -3.536 M
3.536 3.536 L
-3.536 3.536 M
3.536 -3.536 L
S
GR
GS
[0.6 0 0 0.6 70.89 141.55446] CT
0.494 0.184 0.557 RC
10.0 ML
0.833 LW
N
-3.536 -3.536 M
3.536 3.536 L
-3.536 3.536 M
3.536 -3.536 L
S
GR
GS
[0.6 0 0 0.6 74.148 145.11378] CT
0.494 0.184 0.557 RC
10.0 ML
0.833 LW
N
-3.536 -3.536 M
3.536 3.536 L
-3.536 3.536 M
3.536 -3.536 L
S
GR
GS
[0.6 0 0 0.6 77.406 145.11378] CT
0.494 0.184 0.557 RC
10.0 ML
0.833 LW
N
-3.536 -3.536 M
3.536 3.536 L
-3.536 3.536 M
3.536 -3.536 L
S
GR
GS
[0.6 0 0 0.6 80.664 145.87104] CT
0.494 0.184 0.557 RC
10.0 ML
0.833 LW
N
-3.536 -3.536 M
3.536 3.536 L
-3.536 3.536 M
3.536 -3.536 L
S
GR
GS
[0.6 0 0 0.6 83.922 145.87104] CT
0.494 0.184 0.557 RC
10.0 ML
0.833 LW
N
-3.536 -3.536 M
3.536 3.536 L
-3.536 3.536 M
3.536 -3.536 L
S
GR
GS
[0.6 0 0 0.6 87.18 146.57953] CT
0.494 0.184 0.557 RC
10.0 ML
0.833 LW
N
-3.536 -3.536 M
3.536 3.536 L
-3.536 3.536 M
3.536 -3.536 L
S
GR
GS
[0.6 0 0 0.6 90.438 146.57953] CT
0.494 0.184 0.557 RC
10.0 ML
0.833 LW
N
-3.536 -3.536 M
3.536 3.536 L
-3.536 3.536 M
3.536 -3.536 L
S
GR
GS
[0.6 0 0 0.6 93.696 147.93792] CT
0.494 0.184 0.557 RC
10.0 ML
0.833 LW
N
-3.536 -3.536 M
3.536 3.536 L
-3.536 3.536 M
3.536 -3.536 L
S
GR
GS
[0.6 0 0 0.6 96.954 147.93792] CT
0.494 0.184 0.557 RC
10.0 ML
0.833 LW
N
-3.536 -3.536 M
3.536 3.536 L
-3.536 3.536 M
3.536 -3.536 L
S
GR
GS
[0.6 0 0 0.6 100.212 148.1418] CT
0.494 0.184 0.557 RC
10.0 ML
0.833 LW
N
-3.536 -3.536 M
3.536 3.536 L
-3.536 3.536 M
3.536 -3.536 L
S
GR
GS
[0.6 0 0 0.6 103.47 149.12662] CT
0.494 0.184 0.557 RC
10.0 ML
0.833 LW
N
-3.536 -3.536 M
3.536 3.536 L
-3.536 3.536 M
3.536 -3.536 L
S
GR
GS
[0.6 0 0 0.6 106.728 149.12662] CT
0.494 0.184 0.557 RC
10.0 ML
0.833 LW
N
-3.536 -3.536 M
3.536 3.536 L
-3.536 3.536 M
3.536 -3.536 L
S
GR
GS
[0.6 0 0 0.6 109.986 149.76756] CT
0.494 0.184 0.557 RC
10.0 ML
0.833 LW
N
-3.536 -3.536 M
3.536 3.536 L
-3.536 3.536 M
3.536 -3.536 L
S
GR
GS
[0.6 0 0 0.6 113.244 149.76756] CT
0.494 0.184 0.557 RC
10.0 ML
0.833 LW
N
-3.536 -3.536 M
3.536 3.536 L
-3.536 3.536 M
3.536 -3.536 L
S
GR
GS
[0.6 0 0 0.6 116.502 149.89582] CT
0.494 0.184 0.557 RC
10.0 ML
0.833 LW
N
-3.536 -3.536 M
3.536 3.536 L
-3.536 3.536 M
3.536 -3.536 L
S
GR
GS
[0.6 0 0 0.6 119.76 149.89582] CT
0.494 0.184 0.557 RC
10.0 ML
0.833 LW
N
-3.536 -3.536 M
3.536 3.536 L
-3.536 3.536 M
3.536 -3.536 L
S
GR
GS
[0.6 0 0 0.6 123.018 150.44823] CT
0.494 0.184 0.557 RC
10.0 ML
0.833 LW
N
-3.536 -3.536 M
3.536 3.536 L
-3.536 3.536 M
3.536 -3.536 L
S
GR
GS
[0.6 0 0 0.6 126.276 150.44823] CT
0.494 0.184 0.557 RC
10.0 ML
0.833 LW
N
-3.536 -3.536 M
3.536 3.536 L
-3.536 3.536 M
3.536 -3.536 L
S
GR
GS
[0.6 0 0 0.6 129.534 150.6289] CT
0.494 0.184 0.557 RC
10.0 ML
0.833 LW
N
-3.536 -3.536 M
3.536 3.536 L
-3.536 3.536 M
3.536 -3.536 L
S
GR
GS
[0.6 0 0 0.6 132.792 150.6289] CT
0.494 0.184 0.557 RC
10.0 ML
0.833 LW
N
-3.536 -3.536 M
3.536 3.536 L
-3.536 3.536 M
3.536 -3.536 L
S
GR
GS
[0.6 0 0 0.6 136.05 150.87218] CT
0.494 0.184 0.557 RC
10.0 ML
0.833 LW
N
-3.536 -3.536 M
3.536 3.536 L
-3.536 3.536 M
3.536 -3.536 L
S
GR
GS
[0.6 0 0 0.6 139.308 151.18141] CT
0.494 0.184 0.557 RC
10.0 ML
0.833 LW
N
-3.536 -3.536 M
3.536 3.536 L
-3.536 3.536 M
3.536 -3.536 L
S
GR
GS
[0.6 0 0 0.6 142.566 151.18141] CT
0.494 0.184 0.557 RC
10.0 ML
0.833 LW
N
-3.536 -3.536 M
3.536 3.536 L
-3.536 3.536 M
3.536 -3.536 L
S
GR
GS
[0.6 0 0 0.6 145.824 151.24101] CT
0.494 0.184 0.557 RC
10.0 ML
0.833 LW
N
-3.536 -3.536 M
3.536 3.536 L
-3.536 3.536 M
3.536 -3.536 L
S
GR
GS
[0.6 0 0 0.6 149.082 151.85868] CT
0.494 0.184 0.557 RC
10.0 ML
0.833 LW
N
-3.536 -3.536 M
3.536 3.536 L
-3.536 3.536 M
3.536 -3.536 L
S
GR
GS
[0.6 0 0 0.6 152.34 151.85868] CT
0.494 0.184 0.557 RC
10.0 ML
0.833 LW
N
-3.536 -3.536 M
3.536 3.536 L
-3.536 3.536 M
3.536 -3.536 L
S
GR
GS
[0.6 0 0 0.6 155.59799 151.98717] CT
0.494 0.184 0.557 RC
10.0 ML
0.833 LW
N
-3.536 -3.536 M
3.536 3.536 L
-3.536 3.536 M
3.536 -3.536 L
S
GR
GS
[0.6 0 0 0.6 158.85601 151.98717] CT
0.494 0.184 0.557 RC
10.0 ML
0.833 LW
N
-3.536 -3.536 M
3.536 3.536 L
-3.536 3.536 M
3.536 -3.536 L
S
GR
GS
[0.6 0 0 0.6 162.114 152.1549] CT
0.494 0.184 0.557 RC
10.0 ML
0.833 LW
N
-3.536 -3.536 M
3.536 3.536 L
-3.536 3.536 M
3.536 -3.536 L
S
GR
GS
[0.6 0 0 0.6 165.372 152.1549] CT
0.494 0.184 0.557 RC
10.0 ML
0.833 LW
N
-3.536 -3.536 M
3.536 3.536 L
-3.536 3.536 M
3.536 -3.536 L
S
GR
GS
[0.6 0 0 0.6 168.62999 152.34924] CT
0.494 0.184 0.557 RC
10.0 ML
0.833 LW
N
-3.536 -3.536 M
3.536 3.536 L
-3.536 3.536 M
3.536 -3.536 L
S
GR
GS
[0.6 0 0 0.6 171.88801 152.75816] CT
0.494 0.184 0.557 RC
10.0 ML
0.833 LW
N
-3.536 -3.536 M
3.536 3.536 L
-3.536 3.536 M
3.536 -3.536 L
S
GR
GS
[0.6 0 0 0.6 175.146 152.75816] CT
0.494 0.184 0.557 RC
10.0 ML
0.833 LW
N
-3.536 -3.536 M
3.536 3.536 L
-3.536 3.536 M
3.536 -3.536 L
S
GR
GS
[0.6 0 0 0.6 178.404 153.40047] CT
0.494 0.184 0.557 RC
10.0 ML
0.833 LW
N
-3.536 -3.536 M
3.536 3.536 L
-3.536 3.536 M
3.536 -3.536 L
S
GR
GS
[0.6 0 0 0.6 181.66199 153.5457] CT
0.494 0.184 0.557 RC
10.0 ML
0.833 LW
N
-3.536 -3.536 M
3.536 3.536 L
-3.536 3.536 M
3.536 -3.536 L
S
GR
GS
[0.6 0 0 0.6 184.92001 153.5457] CT
0.494 0.184 0.557 RC
10.0 ML
0.833 LW
N
-3.536 -3.536 M
3.536 3.536 L
-3.536 3.536 M
3.536 -3.536 L
S
GR
GS
[0.6 0 0 0.6 188.178 153.65733] CT
0.494 0.184 0.557 RC
10.0 ML
0.833 LW
N
-3.536 -3.536 M
3.536 3.536 L
-3.536 3.536 M
3.536 -3.536 L
S
GR
GS
[0.6 0 0 0.6 191.436 153.65733] CT
0.494 0.184 0.557 RC
10.0 ML
0.833 LW
N
-3.536 -3.536 M
3.536 3.536 L
-3.536 3.536 M
3.536 -3.536 L
S
GR
GS
[0.6 0 0 0.6 194.69399 153.89518] CT
0.494 0.184 0.557 RC
10.0 ML
0.833 LW
N
-3.536 -3.536 M
3.536 3.536 L
-3.536 3.536 M
3.536 -3.536 L
S
GR
GS
[0.6 0 0 0.6 197.95201 154.21459] CT
0.494 0.184 0.557 RC
10.0 ML
0.833 LW
N
-3.536 -3.536 M
3.536 3.536 L
-3.536 3.536 M
3.536 -3.536 L
S
GR
GS
[0.6 0 0 0.6 201.21 154.5265] CT
0.494 0.184 0.557 RC
10.0 ML
0.833 LW
N
-3.536 -3.536 M
3.536 3.536 L
-3.536 3.536 M
3.536 -3.536 L
S
GR
GS
[0.6 0 0 0.6 204.468 154.5265] CT
0.494 0.184 0.557 RC
10.0 ML
0.833 LW
N
-3.536 -3.536 M
3.536 3.536 L
-3.536 3.536 M
3.536 -3.536 L
S
GR
GS
[0.6 0 0 0.6 207.72599 154.67369] CT
0.494 0.184 0.557 RC
10.0 ML
0.833 LW
N
-3.536 -3.536 M
3.536 3.536 L
-3.536 3.536 M
3.536 -3.536 L
S
GR
GS
[0.6 0 0 0.6 210.98401 154.67369] CT
0.494 0.184 0.557 RC
10.0 ML
0.833 LW
N
-3.536 -3.536 M
3.536 3.536 L
-3.536 3.536 M
3.536 -3.536 L
S
GR
GS
[0.6 0 0 0.6 214.242 154.92878] CT
0.494 0.184 0.557 RC
10.0 ML
0.833 LW
N
-3.536 -3.536 M
3.536 3.536 L
-3.536 3.536 M
3.536 -3.536 L
S
GR
GS
[0.6 0 0 0.6 217.5 154.92878] CT
0.494 0.184 0.557 RC
10.0 ML
0.833 LW
N
-3.536 -3.536 M
3.536 3.536 L
-3.536 3.536 M
3.536 -3.536 L
S
GR
GS
[0.6 0 0 0.6 220.758 155.32493] CT
0.494 0.184 0.557 RC
10.0 ML
0.833 LW
N
-3.536 -3.536 M
3.536 3.536 L
-3.536 3.536 M
3.536 -3.536 L
S
GR
GS
[0.6 0 0 0.6 224.01599 155.32493] CT
0.494 0.184 0.557 RC
10.0 ML
0.833 LW
N
-3.536 -3.536 M
3.536 3.536 L
-3.536 3.536 M
3.536 -3.536 L
S
GR
GS
[0.6 0 0 0.6 227.27401 155.41265] CT
0.494 0.184 0.557 RC
10.0 ML
0.833 LW
N
-3.536 -3.536 M
3.536 3.536 L
-3.536 3.536 M
3.536 -3.536 L
S
GR
GS
[0.6 0 0 0.6 230.532 156.28522] CT
0.494 0.184 0.557 RC
10.0 ML
0.833 LW
N
-3.536 -3.536 M
3.536 3.536 L
-3.536 3.536 M
3.536 -3.536 L
S
GR
GS
[0.6 0 0 0.6 233.79 156.28522] CT
0.494 0.184 0.557 RC
10.0 ML
0.833 LW
N
-3.536 -3.536 M
3.536 3.536 L
-3.536 3.536 M
3.536 -3.536 L
S
GR
GS
[0.6 0 0 0.6 237.04799 156.37277] CT
0.494 0.184 0.557 RC
10.0 ML
0.833 LW
N
-3.536 -3.536 M
3.536 3.536 L
-3.536 3.536 M
3.536 -3.536 L
S
GR
GS
[0.6 0 0 0.6 240.30601 156.37277] CT
0.494 0.184 0.557 RC
10.0 ML
0.833 LW
N
-3.536 -3.536 M
3.536 3.536 L
-3.536 3.536 M
3.536 -3.536 L
S
GR
GS
[0.6 0 0 0.6 243.564 156.54075] CT
0.494 0.184 0.557 RC
10.0 ML
0.833 LW
N
-3.536 -3.536 M
3.536 3.536 L
-3.536 3.536 M
3.536 -3.536 L
S
GR
GS
[0.6 0 0 0.6 246.822 157.17394] CT
0.494 0.184 0.557 RC
10.0 ML
0.833 LW
N
-3.536 -3.536 M
3.536 3.536 L
-3.536 3.536 M
3.536 -3.536 L
S
GR
GS
[0.6 0 0 0.6 250.07999 157.17394] CT
0.494 0.184 0.557 RC
10.0 ML
0.833 LW
N
-3.536 -3.536 M
3.536 3.536 L
-3.536 3.536 M
3.536 -3.536 L
S
GR
GS
[0.6 0 0 0.6 253.33801 157.49733] CT
0.494 0.184 0.557 RC
10.0 ML
0.833 LW
N
-3.536 -3.536 M
3.536 3.536 L
-3.536 3.536 M
3.536 -3.536 L
S
GR
GS
[0.6 0 0 0.6 256.596 157.49733] CT
0.494 0.184 0.557 RC
10.0 ML
0.833 LW
N
-3.536 -3.536 M
3.536 3.536 L
-3.536 3.536 M
3.536 -3.536 L
S
GR
GS
[0.6 0 0 0.6 259.854 157.84764] CT
0.494 0.184 0.557 RC
10.0 ML
0.833 LW
N
-3.536 -3.536 M
3.536 3.536 L
-3.536 3.536 M
3.536 -3.536 L
S
GR
GS
[0.6 0 0 0.6 263.11199 157.84764] CT
0.494 0.184 0.557 RC
10.0 ML
0.833 LW
N
-3.536 -3.536 M
3.536 3.536 L
-3.536 3.536 M
3.536 -3.536 L
S
GR
GS
[0.6 0 0 0.6 266.37001 158.12461] CT
0.494 0.184 0.557 RC
10.0 ML
0.833 LW
N
-3.536 -3.536 M
3.536 3.536 L
-3.536 3.536 M
3.536 -3.536 L
S
GR
GS
[0.6 0 0 0.6 269.628 158.12461] CT
0.494 0.184 0.557 RC
10.0 ML
0.833 LW
N
-3.536 -3.536 M
3.536 3.536 L
-3.536 3.536 M
3.536 -3.536 L
S
GR
GS
[0.6 0 0 0.6 272.886 158.51651] CT
0.494 0.184 0.557 RC
10.0 ML
0.833 LW
N
-3.536 -3.536 M
3.536 3.536 L
-3.536 3.536 M
3.536 -3.536 L
S
GR
GS
[0.6 0 0 0.6 276.14399 158.51651] CT
0.494 0.184 0.557 RC
10.0 ML
0.833 LW
N
-3.536 -3.536 M
3.536 3.536 L
-3.536 3.536 M
3.536 -3.536 L
S
GR
GS
[0.6 0 0 0.6 279.40201 159.1912] CT
0.494 0.184 0.557 RC
10.0 ML
0.833 LW
N
-3.536 -3.536 M
3.536 3.536 L
-3.536 3.536 M
3.536 -3.536 L
S
GR
GS
[0.6 0 0 0.6 282.66 159.1912] CT
0.494 0.184 0.557 RC
10.0 ML
0.833 LW
N
-3.536 -3.536 M
3.536 3.536 L
-3.536 3.536 M
3.536 -3.536 L
S
GR
GS
[0.6 0 0 0.6 285.918 159.25573] CT
0.494 0.184 0.557 RC
10.0 ML
0.833 LW
N
-3.536 -3.536 M
3.536 3.536 L
-3.536 3.536 M
3.536 -3.536 L
S
GR
GS
[0.6 0 0 0.6 289.17599 159.25573] CT
0.494 0.184 0.557 RC
10.0 ML
0.833 LW
N
-3.536 -3.536 M
3.536 3.536 L
-3.536 3.536 M
3.536 -3.536 L
S
GR
GS
[0.6 0 0 0.6 292.43401 159.46035] CT
0.494 0.184 0.557 RC
10.0 ML
0.833 LW
N
-3.536 -3.536 M
3.536 3.536 L
-3.536 3.536 M
3.536 -3.536 L
S
GR
GS
[0.6 0 0 0.6 295.692 159.46035] CT
0.494 0.184 0.557 RC
10.0 ML
0.833 LW
N
-3.536 -3.536 M
3.536 3.536 L
-3.536 3.536 M
3.536 -3.536 L
S
GR
GS
[0.6 0 0 0.6 298.95 160.10973] CT
0.494 0.184 0.557 RC
10.0 ML
0.833 LW
N
-3.536 -3.536 M
3.536 3.536 L
-3.536 3.536 M
3.536 -3.536 L
S
GR
GS
[0.6 0 0 0.6 302.208 160.47466] CT
0.494 0.184 0.557 RC
10.0 ML
0.833 LW
N
-3.536 -3.536 M
3.536 3.536 L
-3.536 3.536 M
3.536 -3.536 L
S
GR
GS
[0.6 0 0 0.6 305.46599 160.47466] CT
0.494 0.184 0.557 RC
10.0 ML
0.833 LW
N
-3.536 -3.536 M
3.536 3.536 L
-3.536 3.536 M
3.536 -3.536 L
S
GR
GS
[0.6 0 0 0.6 308.72399 161.52017] CT
0.494 0.184 0.557 RC
10.0 ML
0.833 LW
N
-3.536 -3.536 M
3.536 3.536 L
-3.536 3.536 M
3.536 -3.536 L
S
GR
GS
[0.6 0 0 0.6 311.98198 161.52017] CT
0.494 0.184 0.557 RC
10.0 ML
0.833 LW
N
-3.536 -3.536 M
3.536 3.536 L
-3.536 3.536 M
3.536 -3.536 L
S
GR
GS
[0.6 0 0 0.6 315.24001 161.59081] CT
0.494 0.184 0.557 RC
10.0 ML
0.833 LW
N
-3.536 -3.536 M
3.536 3.536 L
-3.536 3.536 M
3.536 -3.536 L
S
GR
GS
[0.6 0 0 0.6 318.49801 161.59081] CT
0.494 0.184 0.557 RC
10.0 ML
0.833 LW
N
-3.536 -3.536 M
3.536 3.536 L
-3.536 3.536 M
3.536 -3.536 L
S
GR
GS
[0.6 0 0 0.6 321.75601 162.19217] CT
0.494 0.184 0.557 RC
10.0 ML
0.833 LW
N
-3.536 -3.536 M
3.536 3.536 L
-3.536 3.536 M
3.536 -3.536 L
S
GR
GS
[0.6 0 0 0.6 325.014 162.46335] CT
0.494 0.184 0.557 RC
10.0 ML
0.833 LW
N
-3.536 -3.536 M
3.536 3.536 L
-3.536 3.536 M
3.536 -3.536 L
S
GR
GS
[0.6 0 0 0.6 328.272 162.86713] CT
0.494 0.184 0.557 RC
10.0 ML
0.833 LW
N
-3.536 -3.536 M
3.536 3.536 L
-3.536 3.536 M
3.536 -3.536 L
S
GR
GS
[0.6 0 0 0.6 331.52999 162.86713] CT
0.494 0.184 0.557 RC
10.0 ML
0.833 LW
N
-3.536 -3.536 M
3.536 3.536 L
-3.536 3.536 M
3.536 -3.536 L
S
GR
GS
[0.6 0 0 0.6 334.78799 163.16426] CT
0.494 0.184 0.557 RC
10.0 ML
0.833 LW
N
-3.536 -3.536 M
3.536 3.536 L
-3.536 3.536 M
3.536 -3.536 L
S
GR
GS
[0.6 0 0 0.6 338.04598 163.16426] CT
0.494 0.184 0.557 RC
10.0 ML
0.833 LW
N
-3.536 -3.536 M
3.536 3.536 L
-3.536 3.536 M
3.536 -3.536 L
S
GR
GS
[0.6 0 0 0.6 341.30402 163.84964] CT
0.494 0.184 0.557 RC
10.0 ML
0.833 LW
N
-3.536 -3.536 M
3.536 3.536 L
-3.536 3.536 M
3.536 -3.536 L
S
GR
GS
[0.6 0 0 0.6 344.56201 163.84964] CT
0.494 0.184 0.557 RC
10.0 ML
0.833 LW
N
-3.536 -3.536 M
3.536 3.536 L
-3.536 3.536 M
3.536 -3.536 L
S
GR
GS
[0.6 0 0 0.6 347.82001 164.21197] CT
0.494 0.184 0.557 RC
10.0 ML
0.833 LW
N
-3.536 -3.536 M
3.536 3.536 L
-3.536 3.536 M
3.536 -3.536 L
S
GR
GS
[0.6 0 0 0.6 351.078 164.3319] CT
0.494 0.184 0.557 RC
10.0 ML
0.833 LW
N
-3.536 -3.536 M
3.536 3.536 L
-3.536 3.536 M
3.536 -3.536 L
S
GR
GS
[0.6 0 0 0.6 354.336 164.94421] CT
0.494 0.184 0.557 RC
10.0 ML
0.833 LW
N
-3.536 -3.536 M
3.536 3.536 L
-3.536 3.536 M
3.536 -3.536 L
S
GR
GS
[0.6 0 0 0.6 357.59399 164.94421] CT
0.494 0.184 0.557 RC
10.0 ML
0.833 LW
N
-3.536 -3.536 M
3.536 3.536 L
-3.536 3.536 M
3.536 -3.536 L
S
GR
GS
[0.6 0 0 0.6 360.85199 166.00692] CT
0.494 0.184 0.557 RC
10.0 ML
0.833 LW
N
-3.536 -3.536 M
3.536 3.536 L
-3.536 3.536 M
3.536 -3.536 L
S
GR
GS
[0.6 0 0 0.6 364.10999 166.00692] CT
0.494 0.184 0.557 RC
10.0 ML
0.833 LW
N
-3.536 -3.536 M
3.536 3.536 L
-3.536 3.536 M
3.536 -3.536 L
S
GR
GS
[0.6 0 0 0.6 367.36802 166.23891] CT
0.494 0.184 0.557 RC
10.0 ML
0.833 LW
N
-3.536 -3.536 M
3.536 3.536 L
-3.536 3.536 M
3.536 -3.536 L
S
GR
GS
[0.6 0 0 0.6 370.62601 166.99296] CT
0.494 0.184 0.557 RC
10.0 ML
0.833 LW
N
-3.536 -3.536 M
3.536 3.536 L
-3.536 3.536 M
3.536 -3.536 L
S
GR
GS
[0.6 0 0 0.6 373.88401 167.47161] CT
0.494 0.184 0.557 RC
10.0 ML
0.833 LW
N
-3.536 -3.536 M
3.536 3.536 L
-3.536 3.536 M
3.536 -3.536 L
S
GR
GS
[0.6 0 0 0.6 377.142 167.47161] CT
0.494 0.184 0.557 RC
10.0 ML
0.833 LW
N
-3.536 -3.536 M
3.536 3.536 L
-3.536 3.536 M
3.536 -3.536 L
S
GR
GS
[0.6 0 0 0.6 380.4 168.52337] CT
0.494 0.184 0.557 RC
10.0 ML
0.833 LW
N
-3.536 -3.536 M
3.536 3.536 L
-3.536 3.536 M
3.536 -3.536 L
S
GR
GS
[0.6 0 0 0.6 0 0] CT
0.467 0.675 0.188 RC
1 LJ
0.833 LW
N
96.43 198.232 M
101.86 217.995 L
107.29 222.355 L
112.72 224.544 L
118.15 228.251 L
123.58 230.619 L
129.01 232.686 L
134.44 234.177 L
139.87 234.177 L
145.3 237.04 L
150.73 238.328 L
156.16 239.229 L
161.59 239.899 L
167.02 239.899 L
172.45 240.398 L
177.88 242.148 L
183.31 242.148 L
188.74 242.548 L
194.17 242.548 L
199.6 242.961 L
205.03 243.591 L
210.46 243.591 L
215.89 244.728 L
221.32 244.728 L
226.75 245.692 L
232.18 245.692 L
237.61 245.883 L
243.04 245.976 L
248.47 245.976 L
253.9 247.032 L
259.33 247.032 L
264.76 247.288 L
270.19 247.288 L
275.62 247.359 L
281.05 247.359 L
286.48 248.255 L
291.91 248.255 L
297.34 248.273 L
302.77 248.273 L
308.2 249.491 L
313.63 249.605 L
319.06 249.605 L
324.49 250.073 L
329.92 250.073 L
335.35 250.183 L
340.78 250.183 L
346.21 250.638 L
351.64 251.041 L
357.07 251.041 L
362.5 251.401 L
367.93 252.04 L
373.36 252.536 L
378.79 252.536 L
384.22 253.07 L
389.65 253.07 L
395.08 253.339 L
400.51 253.339 L
405.94 253.614 L
411.37 253.614 L
416.8 254.109 L
422.23 254.109 L
427.66 254.837 L
433.09 254.837 L
438.52 255.726 L
443.95 255.726 L
449.38 256.102 L
454.81 256.628 L
460.24 256.628 L
465.67 257.544 L
471.1 257.544 L
476.53 257.875 L
481.96 257.875 L
487.39 258.395 L
492.82 258.609 L
498.25 258.609 L
503.68 259.234 L
509.11 259.234 L
514.54 259.737 L
519.97 259.737 L
525.4 260.033 L
530.83 260.033 L
536.26 261.217 L
541.69 261.217 L
547.12 261.948 L
552.55 262.342 L
557.98 262.342 L
563.41 263.682 L
568.84 263.682 L
574.27 264.035 L
579.7 264.035 L
585.13 264.255 L
590.56 264.883 L
595.99 264.883 L
601.42 266.213 L
606.85 266.213 L
612.28 267.07 L
617.71 267.07 L
623.14 268.549 L
628.57 268.549 L
634 270.828 L
S
GR
GS
[0.6 0 0 0.6 57.858 118.93904] CT
0.467 0.675 0.188 RC
10.0 ML
0.833 LW
N
-3.536 -3.536 M
3.536 3.536 L
-3.536 3.536 M
3.536 -3.536 L
S
GR
GS
[0.6 0 0 0.6 61.116 130.79707] CT
0.467 0.675 0.188 RC
10.0 ML
0.833 LW
N
-3.536 -3.536 M
3.536 3.536 L
-3.536 3.536 M
3.536 -3.536 L
S
GR
GS
[0.6 0 0 0.6 64.374 133.41325] CT
0.467 0.675 0.188 RC
10.0 ML
0.833 LW
N
-3.536 -3.536 M
3.536 3.536 L
-3.536 3.536 M
3.536 -3.536 L
S
GR
GS
[0.6 0 0 0.6 67.632 134.72665] CT
0.467 0.675 0.188 RC
10.0 ML
0.833 LW
N
-3.536 -3.536 M
3.536 3.536 L
-3.536 3.536 M
3.536 -3.536 L
S
GR
GS
[0.6 0 0 0.6 70.89 136.95073] CT
0.467 0.675 0.188 RC
10.0 ML
0.833 LW
N
-3.536 -3.536 M
3.536 3.536 L
-3.536 3.536 M
3.536 -3.536 L
S
GR
GS
[0.6 0 0 0.6 74.148 138.37133] CT
0.467 0.675 0.188 RC
10.0 ML
0.833 LW
N
-3.536 -3.536 M
3.536 3.536 L
-3.536 3.536 M
3.536 -3.536 L
S
GR
GS
[0.6 0 0 0.6 77.406 139.61156] CT
0.467 0.675 0.188 RC
10.0 ML
0.833 LW
N
-3.536 -3.536 M
3.536 3.536 L
-3.536 3.536 M
3.536 -3.536 L
S
GR
GS
[0.6 0 0 0.6 80.664 140.50606] CT
0.467 0.675 0.188 RC
10.0 ML
0.833 LW
N
-3.536 -3.536 M
3.536 3.536 L
-3.536 3.536 M
3.536 -3.536 L
S
GR
GS
[0.6 0 0 0.6 83.922 140.50606] CT
0.467 0.675 0.188 RC
10.0 ML
0.833 LW
N
-3.536 -3.536 M
3.536 3.536 L
-3.536 3.536 M
3.536 -3.536 L
S
GR
GS
[0.6 0 0 0.6 87.18 142.22417] CT
0.467 0.675 0.188 RC
10.0 ML
0.833 LW
N
-3.536 -3.536 M
3.536 3.536 L
-3.536 3.536 M
3.536 -3.536 L
S
GR
GS
[0.6 0 0 0.6 90.438 142.99684] CT
0.467 0.675 0.188 RC
10.0 ML
0.833 LW
N
-3.536 -3.536 M
3.536 3.536 L
-3.536 3.536 M
3.536 -3.536 L
S
GR
GS
[0.6 0 0 0.6 93.696 143.53716] CT
0.467 0.675 0.188 RC
10.0 ML
0.833 LW
N
-3.536 -3.536 M
3.536 3.536 L
-3.536 3.536 M
3.536 -3.536 L
S
GR
GS
[0.6 0 0 0.6 96.954 143.93936] CT
0.467 0.675 0.188 RC
10.0 ML
0.833 LW
N
-3.536 -3.536 M
3.536 3.536 L
-3.536 3.536 M
3.536 -3.536 L
S
GR
GS
[0.6 0 0 0.6 100.212 143.93936] CT
0.467 0.675 0.188 RC
10.0 ML
0.833 LW
N
-3.536 -3.536 M
3.536 3.536 L
-3.536 3.536 M
3.536 -3.536 L
S
GR
GS
[0.6 0 0 0.6 103.47 144.23881] CT
0.467 0.675 0.188 RC
10.0 ML
0.833 LW
N
-3.536 -3.536 M
3.536 3.536 L
-3.536 3.536 M
3.536 -3.536 L
S
GR
GS
[0.6 0 0 0.6 106.728 145.28868] CT
0.467 0.675 0.188 RC
10.0 ML
0.833 LW
N
-3.536 -3.536 M
3.536 3.536 L
-3.536 3.536 M
3.536 -3.536 L
S
GR
GS
[0.6 0 0 0.6 109.986 145.28868] CT
0.467 0.675 0.188 RC
10.0 ML
0.833 LW
N
-3.536 -3.536 M
3.536 3.536 L
-3.536 3.536 M
3.536 -3.536 L
S
GR
GS
[0.6 0 0 0.6 113.244 145.5291] CT
0.467 0.675 0.188 RC
10.0 ML
0.833 LW
N
-3.536 -3.536 M
3.536 3.536 L
-3.536 3.536 M
3.536 -3.536 L
S
GR
GS
[0.6 0 0 0.6 116.502 145.5291] CT
0.467 0.675 0.188 RC
10.0 ML
0.833 LW
N
-3.536 -3.536 M
3.536 3.536 L
-3.536 3.536 M
3.536 -3.536 L
S
GR
GS
[0.6 0 0 0.6 119.76 145.77654] CT
0.467 0.675 0.188 RC
10.0 ML
0.833 LW
N
-3.536 -3.536 M
3.536 3.536 L
-3.536 3.536 M
3.536 -3.536 L
S
GR
GS
[0.6 0 0 0.6 123.018 146.15446] CT
0.467 0.675 0.188 RC
10.0 ML
0.833 LW
N
-3.536 -3.536 M
3.536 3.536 L
-3.536 3.536 M
3.536 -3.536 L
S
GR
GS
[0.6 0 0 0.6 126.276 146.15446] CT
0.467 0.675 0.188 RC
10.0 ML
0.833 LW
N
-3.536 -3.536 M
3.536 3.536 L
-3.536 3.536 M
3.536 -3.536 L
S
GR
GS
[0.6 0 0 0.6 129.534 146.83688] CT
0.467 0.675 0.188 RC
10.0 ML
0.833 LW
N
-3.536 -3.536 M
3.536 3.536 L
-3.536 3.536 M
3.536 -3.536 L
S
GR
GS
[0.6 0 0 0.6 132.792 146.83688] CT
0.467 0.675 0.188 RC
10.0 ML
0.833 LW
N
-3.536 -3.536 M
3.536 3.536 L
-3.536 3.536 M
3.536 -3.536 L
S
GR
GS
[0.6 0 0 0.6 136.05 147.41536] CT
0.467 0.675 0.188 RC
10.0 ML
0.833 LW
N
-3.536 -3.536 M
3.536 3.536 L
-3.536 3.536 M
3.536 -3.536 L
S
GR
GS
[0.6 0 0 0.6 139.308 147.41536] CT
0.467 0.675 0.188 RC
10.0 ML
0.833 LW
N
-3.536 -3.536 M
3.536 3.536 L
-3.536 3.536 M
3.536 -3.536 L
S
GR
GS
[0.6 0 0 0.6 142.566 147.52975] CT
0.467 0.675 0.188 RC
10.0 ML
0.833 LW
N
-3.536 -3.536 M
3.536 3.536 L
-3.536 3.536 M
3.536 -3.536 L
S
GR
GS
[0.6 0 0 0.6 145.824 147.58572] CT
0.467 0.675 0.188 RC
10.0 ML
0.833 LW
N
-3.536 -3.536 M
3.536 3.536 L
-3.536 3.536 M
3.536 -3.536 L
S
GR
GS
[0.6 0 0 0.6 149.082 147.58572] CT
0.467 0.675 0.188 RC
10.0 ML
0.833 LW
N
-3.536 -3.536 M
3.536 3.536 L
-3.536 3.536 M
3.536 -3.536 L
S
GR
GS
[0.6 0 0 0.6 152.34 148.21941] CT
0.467 0.675 0.188 RC
10.0 ML
0.833 LW
N
-3.536 -3.536 M
3.536 3.536 L
-3.536 3.536 M
3.536 -3.536 L
S
GR
GS
[0.6 0 0 0.6 155.59799 148.21941] CT
0.467 0.675 0.188 RC
10.0 ML
0.833 LW
N
-3.536 -3.536 M
3.536 3.536 L
-3.536 3.536 M
3.536 -3.536 L
S
GR
GS
[0.6 0 0 0.6 158.85601 148.37308] CT
0.467 0.675 0.188 RC
10.0 ML
0.833 LW
N
-3.536 -3.536 M
3.536 3.536 L
-3.536 3.536 M
3.536 -3.536 L
S
GR
GS
[0.6 0 0 0.6 162.114 148.37308] CT
0.467 0.675 0.188 RC
10.0 ML
0.833 LW
N
-3.536 -3.536 M
3.536 3.536 L
-3.536 3.536 M
3.536 -3.536 L
S
GR
GS
[0.6 0 0 0.6 165.372 148.41563] CT
0.467 0.675 0.188 RC
10.0 ML
0.833 LW
N
-3.536 -3.536 M
3.536 3.536 L
-3.536 3.536 M
3.536 -3.536 L
S
GR
GS
[0.6 0 0 0.6 168.62999 148.41563] CT
0.467 0.675 0.188 RC
10.0 ML
0.833 LW
N
-3.536 -3.536 M
3.536 3.536 L
-3.536 3.536 M
3.536 -3.536 L
S
GR
GS
[0.6 0 0 0.6 171.88801 148.95285] CT
0.467 0.675 0.188 RC
10.0 ML
0.833 LW
N
-3.536 -3.536 M
3.536 3.536 L
-3.536 3.536 M
3.536 -3.536 L
S
GR
GS
[0.6 0 0 0.6 175.146 148.95285] CT
0.467 0.675 0.188 RC
10.0 ML
0.833 LW
N
-3.536 -3.536 M
3.536 3.536 L
-3.536 3.536 M
3.536 -3.536 L
S
GR
GS
[0.6 0 0 0.6 178.404 148.96392] CT
0.467 0.675 0.188 RC
10.0 ML
0.833 LW
N
-3.536 -3.536 M
3.536 3.536 L
-3.536 3.536 M
3.536 -3.536 L
S
GR
GS
[0.6 0 0 0.6 181.66199 148.96392] CT
0.467 0.675 0.188 RC
10.0 ML
0.833 LW
N
-3.536 -3.536 M
3.536 3.536 L
-3.536 3.536 M
3.536 -3.536 L
S
GR
GS
[0.6 0 0 0.6 184.92001 149.69454] CT
0.467 0.675 0.188 RC
10.0 ML
0.833 LW
N
-3.536 -3.536 M
3.536 3.536 L
-3.536 3.536 M
3.536 -3.536 L
S
GR
GS
[0.6 0 0 0.6 188.178 149.76317] CT
0.467 0.675 0.188 RC
10.0 ML
0.833 LW
N
-3.536 -3.536 M
3.536 3.536 L
-3.536 3.536 M
3.536 -3.536 L
S
GR
GS
[0.6 0 0 0.6 191.436 149.76317] CT
0.467 0.675 0.188 RC
10.0 ML
0.833 LW
N
-3.536 -3.536 M
3.536 3.536 L
-3.536 3.536 M
3.536 -3.536 L
S
GR
GS
[0.6 0 0 0.6 194.69399 150.04405] CT
0.467 0.675 0.188 RC
10.0 ML
0.833 LW
N
-3.536 -3.536 M
3.536 3.536 L
-3.536 3.536 M
3.536 -3.536 L
S
GR
GS
[0.6 0 0 0.6 197.95201 150.04405] CT
0.467 0.675 0.188 RC
10.0 ML
0.833 LW
N
-3.536 -3.536 M
3.536 3.536 L
-3.536 3.536 M
3.536 -3.536 L
S
GR
GS
[0.6 0 0 0.6 201.21 150.10981] CT
0.467 0.675 0.188 RC
10.0 ML
0.833 LW
N
-3.536 -3.536 M
3.536 3.536 L
-3.536 3.536 M
3.536 -3.536 L
S
GR
GS
[0.6 0 0 0.6 204.468 150.10981] CT
0.467 0.675 0.188 RC
10.0 ML
0.833 LW
N
-3.536 -3.536 M
3.536 3.536 L
-3.536 3.536 M
3.536 -3.536 L
S
GR
GS
[0.6 0 0 0.6 207.72599 150.38297] CT
0.467 0.675 0.188 RC
10.0 ML
0.833 LW
N
-3.536 -3.536 M
3.536 3.536 L
-3.536 3.536 M
3.536 -3.536 L
S
GR
GS
[0.6 0 0 0.6 210.98401 150.62446] CT
0.467 0.675 0.188 RC
10.0 ML
0.833 LW
N
-3.536 -3.536 M
3.536 3.536 L
-3.536 3.536 M
3.536 -3.536 L
S
GR
GS
[0.6 0 0 0.6 214.242 150.62446] CT
0.467 0.675 0.188 RC
10.0 ML
0.833 LW
N
-3.536 -3.536 M
3.536 3.536 L
-3.536 3.536 M
3.536 -3.536 L
S
GR
GS
[0.6 0 0 0.6 217.5 150.84039] CT
0.467 0.675 0.188 RC
10.0 ML
0.833 LW
N
-3.536 -3.536 M
3.536 3.536 L
-3.536 3.536 M
3.536 -3.536 L
S
GR
GS
[0.6 0 0 0.6 220.758 151.22422] CT
0.467 0.675 0.188 RC
10.0 ML
0.833 LW
N
-3.536 -3.536 M
3.536 3.536 L
-3.536 3.536 M
3.536 -3.536 L
S
GR
GS
[0.6 0 0 0.6 224.01599 151.52183] CT
0.467 0.675 0.188 RC
10.0 ML
0.833 LW
N
-3.536 -3.536 M
3.536 3.536 L
-3.536 3.536 M
3.536 -3.536 L
S
GR
GS
[0.6 0 0 0.6 227.27401 151.52183] CT
0.467 0.675 0.188 RC
10.0 ML
0.833 LW
N
-3.536 -3.536 M
3.536 3.536 L
-3.536 3.536 M
3.536 -3.536 L
S
GR
GS
[0.6 0 0 0.6 230.532 151.84194] CT
0.467 0.675 0.188 RC
10.0 ML
0.833 LW
N
-3.536 -3.536 M
3.536 3.536 L
-3.536 3.536 M
3.536 -3.536 L
S
GR
GS
[0.6 0 0 0.6 233.79 151.84194] CT
0.467 0.675 0.188 RC
10.0 ML
0.833 LW
N
-3.536 -3.536 M
3.536 3.536 L
-3.536 3.536 M
3.536 -3.536 L
S
GR
GS
[0.6 0 0 0.6 237.04799 152.0036] CT
0.467 0.675 0.188 RC
10.0 ML
0.833 LW
N
-3.536 -3.536 M
3.536 3.536 L
-3.536 3.536 M
3.536 -3.536 L
S
GR
GS
[0.6 0 0 0.6 240.30601 152.0036] CT
0.467 0.675 0.188 RC
10.0 ML
0.833 LW
N
-3.536 -3.536 M
3.536 3.536 L
-3.536 3.536 M
3.536 -3.536 L
S
GR
GS
[0.6 0 0 0.6 243.564 152.16827] CT
0.467 0.675 0.188 RC
10.0 ML
0.833 LW
N
-3.536 -3.536 M
3.536 3.536 L
-3.536 3.536 M
3.536 -3.536 L
S
GR
GS
[0.6 0 0 0.6 246.822 152.16827] CT
0.467 0.675 0.188 RC
10.0 ML
0.833 LW
N
-3.536 -3.536 M
3.536 3.536 L
-3.536 3.536 M
3.536 -3.536 L
S
GR
GS
[0.6 0 0 0.6 250.07999 152.46514] CT
0.467 0.675 0.188 RC
10.0 ML
0.833 LW
N
-3.536 -3.536 M
3.536 3.536 L
-3.536 3.536 M
3.536 -3.536 L
S
GR
GS
[0.6 0 0 0.6 253.33801 152.46514] CT
0.467 0.675 0.188 RC
10.0 ML
0.833 LW
N
-3.536 -3.536 M
3.536 3.536 L
-3.536 3.536 M
3.536 -3.536 L
S
GR
GS
[0.6 0 0 0.6 256.596 152.90229] CT
0.467 0.675 0.188 RC
10.0 ML
0.833 LW
N
-3.536 -3.536 M
3.536 3.536 L
-3.536 3.536 M
3.536 -3.536 L
S
GR
GS
[0.6 0 0 0.6 259.854 152.90229] CT
0.467 0.675 0.188 RC
10.0 ML
0.833 LW
N
-3.536 -3.536 M
3.536 3.536 L
-3.536 3.536 M
3.536 -3.536 L
S
GR
GS
[0.6 0 0 0.6 263.11199 153.43537] CT
0.467 0.675 0.188 RC
10.0 ML
0.833 LW
N
-3.536 -3.536 M
3.536 3.536 L
-3.536 3.536 M
3.536 -3.536 L
S
GR
GS
[0.6 0 0 0.6 266.37001 153.43537] CT
0.467 0.675 0.188 RC
10.0 ML
0.833 LW
N
-3.536 -3.536 M
3.536 3.536 L
-3.536 3.536 M
3.536 -3.536 L
S
GR
GS
[0.6 0 0 0.6 269.628 153.66134] CT
0.467 0.675 0.188 RC
10.0 ML
0.833 LW
N
-3.536 -3.536 M
3.536 3.536 L
-3.536 3.536 M
3.536 -3.536 L
S
GR
GS
[0.6 0 0 0.6 272.886 153.97696] CT
0.467 0.675 0.188 RC
10.0 ML
0.833 LW
N
-3.536 -3.536 M
3.536 3.536 L
-3.536 3.536 M
3.536 -3.536 L
S
GR
GS
[0.6 0 0 0.6 276.14399 153.97696] CT
0.467 0.675 0.188 RC
10.0 ML
0.833 LW
N
-3.536 -3.536 M
3.536 3.536 L
-3.536 3.536 M
3.536 -3.536 L
S
GR
GS
[0.6 0 0 0.6 279.40201 154.52611] CT
0.467 0.675 0.188 RC
10.0 ML
0.833 LW
N
-3.536 -3.536 M
3.536 3.536 L
-3.536 3.536 M
3.536 -3.536 L
S
GR
GS
[0.6 0 0 0.6 282.66 154.52611] CT
0.467 0.675 0.188 RC
10.0 ML
0.833 LW
N
-3.536 -3.536 M
3.536 3.536 L
-3.536 3.536 M
3.536 -3.536 L
S
GR
GS
[0.6 0 0 0.6 285.918 154.72474] CT
0.467 0.675 0.188 RC
10.0 ML
0.833 LW
N
-3.536 -3.536 M
3.536 3.536 L
-3.536 3.536 M
3.536 -3.536 L
S
GR
GS
[0.6 0 0 0.6 289.17599 154.72474] CT
0.467 0.675 0.188 RC
10.0 ML
0.833 LW
N
-3.536 -3.536 M
3.536 3.536 L
-3.536 3.536 M
3.536 -3.536 L
S
GR
GS
[0.6 0 0 0.6 292.43401 155.03676] CT
0.467 0.675 0.188 RC
10.0 ML
0.833 LW
N
-3.536 -3.536 M
3.536 3.536 L
-3.536 3.536 M
3.536 -3.536 L
S
GR
GS
[0.6 0 0 0.6 295.692 155.16528] CT
0.467 0.675 0.188 RC
10.0 ML
0.833 LW
N
-3.536 -3.536 M
3.536 3.536 L
-3.536 3.536 M
3.536 -3.536 L
S
GR
GS
[0.6 0 0 0.6 298.95 155.16528] CT
0.467 0.675 0.188 RC
10.0 ML
0.833 LW
N
-3.536 -3.536 M
3.536 3.536 L
-3.536 3.536 M
3.536 -3.536 L
S
GR
GS
[0.6 0 0 0.6 302.208 155.54063] CT
0.467 0.675 0.188 RC
10.0 ML
0.833 LW
N
-3.536 -3.536 M
3.536 3.536 L
-3.536 3.536 M
3.536 -3.536 L
S
GR
GS
[0.6 0 0 0.6 305.46599 155.54063] CT
0.467 0.675 0.188 RC
10.0 ML
0.833 LW
N
-3.536 -3.536 M
3.536 3.536 L
-3.536 3.536 M
3.536 -3.536 L
S
GR
GS
[0.6 0 0 0.6 308.72399 155.84246] CT
0.467 0.675 0.188 RC
10.0 ML
0.833 LW
N
-3.536 -3.536 M
3.536 3.536 L
-3.536 3.536 M
3.536 -3.536 L
S
GR
GS
[0.6 0 0 0.6 311.98198 155.84246] CT
0.467 0.675 0.188 RC
10.0 ML
0.833 LW
N
-3.536 -3.536 M
3.536 3.536 L
-3.536 3.536 M
3.536 -3.536 L
S
GR
GS
[0.6 0 0 0.6 315.24001 156.01981] CT
0.467 0.675 0.188 RC
10.0 ML
0.833 LW
N
-3.536 -3.536 M
3.536 3.536 L
-3.536 3.536 M
3.536 -3.536 L
S
GR
GS
[0.6 0 0 0.6 318.49801 156.01981] CT
0.467 0.675 0.188 RC
10.0 ML
0.833 LW
N
-3.536 -3.536 M
3.536 3.536 L
-3.536 3.536 M
3.536 -3.536 L
S
GR
GS
[0.6 0 0 0.6 321.75601 156.73037] CT
0.467 0.675 0.188 RC
10.0 ML
0.833 LW
N
-3.536 -3.536 M
3.536 3.536 L
-3.536 3.536 M
3.536 -3.536 L
S
GR
GS
[0.6 0 0 0.6 325.014 156.73037] CT
0.467 0.675 0.188 RC
10.0 ML
0.833 LW
N
-3.536 -3.536 M
3.536 3.536 L
-3.536 3.536 M
3.536 -3.536 L
S
GR
GS
[0.6 0 0 0.6 328.272 157.16874] CT
0.467 0.675 0.188 RC
10.0 ML
0.833 LW
N
-3.536 -3.536 M
3.536 3.536 L
-3.536 3.536 M
3.536 -3.536 L
S
GR
GS
[0.6 0 0 0.6 331.52999 157.40502] CT
0.467 0.675 0.188 RC
10.0 ML
0.833 LW
N
-3.536 -3.536 M
3.536 3.536 L
-3.536 3.536 M
3.536 -3.536 L
S
GR
GS
[0.6 0 0 0.6 334.78799 157.40502] CT
0.467 0.675 0.188 RC
10.0 ML
0.833 LW
N
-3.536 -3.536 M
3.536 3.536 L
-3.536 3.536 M
3.536 -3.536 L
S
GR
GS
[0.6 0 0 0.6 338.04598 158.20919] CT
0.467 0.675 0.188 RC
10.0 ML
0.833 LW
N
-3.536 -3.536 M
3.536 3.536 L
-3.536 3.536 M
3.536 -3.536 L
S
GR
GS
[0.6 0 0 0.6 341.30402 158.20919] CT
0.467 0.675 0.188 RC
10.0 ML
0.833 LW
N
-3.536 -3.536 M
3.536 3.536 L
-3.536 3.536 M
3.536 -3.536 L
S
GR
GS
[0.6 0 0 0.6 344.56201 158.42091] CT
0.467 0.675 0.188 RC
10.0 ML
0.833 LW
N
-3.536 -3.536 M
3.536 3.536 L
-3.536 3.536 M
3.536 -3.536 L
S
GR
GS
[0.6 0 0 0.6 347.82001 158.42091] CT
0.467 0.675 0.188 RC
10.0 ML
0.833 LW
N
-3.536 -3.536 M
3.536 3.536 L
-3.536 3.536 M
3.536 -3.536 L
S
GR
GS
[0.6 0 0 0.6 351.078 158.55322] CT
0.467 0.675 0.188 RC
10.0 ML
0.833 LW
N
-3.536 -3.536 M
3.536 3.536 L
-3.536 3.536 M
3.536 -3.536 L
S
GR
GS
[0.6 0 0 0.6 354.336 158.92985] CT
0.467 0.675 0.188 RC
10.0 ML
0.833 LW
N
-3.536 -3.536 M
3.536 3.536 L
-3.536 3.536 M
3.536 -3.536 L
S
GR
GS
[0.6 0 0 0.6 357.59399 158.92985] CT
0.467 0.675 0.188 RC
10.0 ML
0.833 LW
N
-3.536 -3.536 M
3.536 3.536 L
-3.536 3.536 M
3.536 -3.536 L
S
GR
GS
[0.6 0 0 0.6 360.85199 159.72766] CT
0.467 0.675 0.188 RC
10.0 ML
0.833 LW
N
-3.536 -3.536 M
3.536 3.536 L
-3.536 3.536 M
3.536 -3.536 L
S
GR
GS
[0.6 0 0 0.6 364.10999 159.72766] CT
0.467 0.675 0.188 RC
10.0 ML
0.833 LW
N
-3.536 -3.536 M
3.536 3.536 L
-3.536 3.536 M
3.536 -3.536 L
S
GR
GS
[0.6 0 0 0.6 367.36802 160.24188] CT
0.467 0.675 0.188 RC
10.0 ML
0.833 LW
N
-3.536 -3.536 M
3.536 3.536 L
-3.536 3.536 M
3.536 -3.536 L
S
GR
GS
[0.6 0 0 0.6 370.62601 160.24188] CT
0.467 0.675 0.188 RC
10.0 ML
0.833 LW
N
-3.536 -3.536 M
3.536 3.536 L
-3.536 3.536 M
3.536 -3.536 L
S
GR
GS
[0.6 0 0 0.6 373.88401 161.12932] CT
0.467 0.675 0.188 RC
10.0 ML
0.833 LW
N
-3.536 -3.536 M
3.536 3.536 L
-3.536 3.536 M
3.536 -3.536 L
S
GR
GS
[0.6 0 0 0.6 377.142 161.12932] CT
0.467 0.675 0.188 RC
10.0 ML
0.833 LW
N
-3.536 -3.536 M
3.536 3.536 L
-3.536 3.536 M
3.536 -3.536 L
S
GR
GS
[0.6 0 0 0.6 380.4 162.49653] CT
0.467 0.675 0.188 RC
10.0 ML
0.833 LW
N
-3.536 -3.536 M
3.536 3.536 L
-3.536 3.536 M
3.536 -3.536 L
S
GR
GS
[0.6 0 0 0.6 0 0] CT
1 GC
N
530 163 M
530 56 L
617 56 L
617 163 L
cp
f
GR
GS
[0.6 0 0 0.6 345.6705 41.06511] CT
/Helvetica 15 F
GS
[1 0 0 1 0 0] CT
0 6 moveto 
1 -1 scale
(exact) t 
GR
GR
GS
[0.6 0 0 0.6 0 0] CT
0 0.447 0.741 RC
1 LJ
0.833 LW
N
534.986 68.442 M
572.378 68.442 L
S
GR
GS
[0.6 0 0 0.6 332.20917 41.06512] CT
0 0.447 0.741 RC
10.0 ML
0.833 LW
N
-3.536 -3.536 M
3.536 3.536 L
-3.536 3.536 M
3.536 -3.536 L
S
GR
GS
[0.6 0 0 0.6 345.6705 53.38256] CT
/Helvetica 15 F
GS
[1 0 0 1 0 0] CT
0 6 moveto 
1 -1 scale
(q = 0) t 
GR
GR
GS
[0.6 0 0 0.6 0 0] CT
0.851 0.325 0.098 RC
1 LJ
0.833 LW
N
534.986 88.971 M
572.378 88.971 L
S
GR
GS
[0.6 0 0 0.6 332.20917 53.38256] CT
0.851 0.325 0.098 RC
10.0 ML
0.833 LW
N
-3.536 -3.536 M
3.536 3.536 L
-3.536 3.536 M
3.536 -3.536 L
S
GR
GS
[0.6 0 0 0.6 345.6705 65.7] CT
/Helvetica 15 F
GS
[1 0 0 1 0 0] CT
0 6 moveto 
1 -1 scale
(q = 1) t 
GR
GR
GS
[0.6 0 0 0.6 0 0] CT
0.929 0.694 0.125 RC
1 LJ
0.833 LW
N
534.986 109.5 M
572.378 109.5 L
S
GR
GS
[0.6 0 0 0.6 332.20917 65.7] CT
0.929 0.694 0.125 RC
10.0 ML
0.833 LW
N
-3.536 -3.536 M
3.536 3.536 L
-3.536 3.536 M
3.536 -3.536 L
S
GR
GS
[0.6 0 0 0.6 345.6705 78.01744] CT
/Helvetica 15 F
GS
[1 0 0 1 0 0] CT
0 6 moveto 
1 -1 scale
(q = 2) t 
GR
GR
GS
[0.6 0 0 0.6 0 0] CT
0.494 0.184 0.557 RC
1 LJ
0.833 LW
N
534.986 130.029 M
572.378 130.029 L
S
GR
GS
[0.6 0 0 0.6 332.20917 78.01744] CT
0.494 0.184 0.557 RC
10.0 ML
0.833 LW
N
-3.536 -3.536 M
3.536 3.536 L
-3.536 3.536 M
3.536 -3.536 L
S
GR
GS
[0.6 0 0 0.6 345.6705 90.33488] CT
/Helvetica 15 F
GS
[1 0 0 1 0 0] CT
0 6 moveto 
1 -1 scale
(q = 3) t 
GR
GR
GS
[0.6 0 0 0.6 0 0] CT
0.467 0.675 0.188 RC
1 LJ
0.833 LW
N
534.986 150.558 M
572.378 150.558 L
S
GR
GS
[0.6 0 0 0.6 332.20917 90.33488] CT
0.467 0.675 0.188 RC
10.0 ML
0.833 LW
N
-3.536 -3.536 M
3.536 3.536 L
-3.536 3.536 M
3.536 -3.536 L
S
GR
GS
[0.6 0 0 0.6 0 0] CT
0.149 GC
10.0 ML
0.833 LW
N
530 163 M
530 56 L
617 56 L
617 163 L
cp
S
GR
%%Trailer
%%Pages: 1
%%EOF
