%!PS-Adobe-3.0 EPSF-3.0
%%Creator: (MATLAB, The Mathworks, Inc. Version 9.1.0.441655 \(R2016b\). Operating System: Windows 8)
%%Title: C:/Users/simon/Documents/Unief/M1/Numerical_linear_algebra/Homework_2/slow_decay_95_error.eps
%%CreationDate: 2016-11-11T13:04:50
%%Pages: (atend)
%%BoundingBox: 0 0 420 315
%%LanguageLevel: 3
%%EndComments
%%BeginProlog
%%BeginResource: procset (Apache XML Graphics Std ProcSet) 1.2 0
%%Version: 1.2 0
%%Copyright: (Copyright 2001-2003,2010 The Apache Software Foundation. License terms: http://www.apache.org/licenses/LICENSE-2.0)
/bd{bind def}bind def
/ld{load def}bd
/GR/grestore ld
/M/moveto ld
/LJ/setlinejoin ld
/C/curveto ld
/f/fill ld
/LW/setlinewidth ld
/GC/setgray ld
/t/show ld
/N/newpath ld
/CT/concat ld
/cp/closepath ld
/S/stroke ld
/L/lineto ld
/CC/setcmykcolor ld
/A/ashow ld
/GS/gsave ld
/RC/setrgbcolor ld
/RM/rmoveto ld
/ML/setmiterlimit ld
/re {4 2 roll M
1 index 0 rlineto
0 exch rlineto
neg 0 rlineto
cp } bd
/_ctm matrix def
/_tm matrix def
/BT { _ctm currentmatrix pop matrix _tm copy pop 0 0 moveto } bd
/ET { _ctm setmatrix } bd
/iTm { _ctm setmatrix _tm concat } bd
/Tm { _tm astore pop iTm 0 0 moveto } bd
/ux 0.0 def
/uy 0.0 def
/F {
  /Tp exch def
  /Tf exch def
  Tf findfont Tp scalefont setfont
  /cf Tf def  /cs Tp def
} bd
/ULS {currentpoint /uy exch def /ux exch def} bd
/ULE {
  /Tcx currentpoint pop def
  gsave
  newpath
  cf findfont cs scalefont dup
  /FontMatrix get 0 get /Ts exch def /FontInfo get dup
  /UnderlinePosition get Ts mul /To exch def
  /UnderlineThickness get Ts mul /Tt exch def
  ux uy To add moveto  Tcx uy To add lineto
  Tt setlinewidth stroke
  grestore
} bd
/OLE {
  /Tcx currentpoint pop def
  gsave
  newpath
  cf findfont cs scalefont dup
  /FontMatrix get 0 get /Ts exch def /FontInfo get dup
  /UnderlinePosition get Ts mul /To exch def
  /UnderlineThickness get Ts mul /Tt exch def
  ux uy To add cs add moveto Tcx uy To add cs add lineto
  Tt setlinewidth stroke
  grestore
} bd
/SOE {
  /Tcx currentpoint pop def
  gsave
  newpath
  cf findfont cs scalefont dup
  /FontMatrix get 0 get /Ts exch def /FontInfo get dup
  /UnderlinePosition get Ts mul /To exch def
  /UnderlineThickness get Ts mul /Tt exch def
  ux uy To add cs 10 mul 26 idiv add moveto Tcx uy To add cs 10 mul 26 idiv add lineto
  Tt setlinewidth stroke
  grestore
} bd
/QT {
/Y22 exch store
/X22 exch store
/Y21 exch store
/X21 exch store
currentpoint
/Y21 load 2 mul add 3 div exch
/X21 load 2 mul add 3 div exch
/X21 load 2 mul /X22 load add 3 div
/Y21 load 2 mul /Y22 load add 3 div
/X22 load /Y22 load curveto
} bd
/SSPD {
dup length /d exch dict def
{
/v exch def
/k exch def
currentpagedevice k known {
/cpdv currentpagedevice k get def
v cpdv ne {
/upd false def
/nullv v type /nulltype eq def
/nullcpdv cpdv type /nulltype eq def
nullv nullcpdv or
{
/upd true def
} {
/sametype v type cpdv type eq def
sametype {
v type /arraytype eq {
/vlen v length def
/cpdvlen cpdv length def
vlen cpdvlen eq {
0 1 vlen 1 sub {
/i exch def
/obj v i get def
/cpdobj cpdv i get def
obj cpdobj ne {
/upd true def
exit
} if
} for
} {
/upd true def
} ifelse
} {
v type /dicttype eq {
v {
/dv exch def
/dk exch def
/cpddv cpdv dk get def
dv cpddv ne {
/upd true def
exit
} if
} forall
} {
/upd true def
} ifelse
} ifelse
} if
} ifelse
upd true eq {
d k v put
} if
} if
} if
} forall
d length 0 gt {
d setpagedevice
} if
} bd
/RE { % /NewFontName [NewEncodingArray] /FontName RE -
  findfont dup length dict begin
  {
    1 index /FID ne
    {def} {pop pop} ifelse
  } forall
  /Encoding exch def
  /FontName 1 index def
  currentdict definefont pop
  end
} bind def
%%EndResource
%%BeginResource: procset (Apache XML Graphics EPS ProcSet) 1.0 0
%%Version: 1.0 0
%%Copyright: (Copyright 2002-2003 The Apache Software Foundation. License terms: http://www.apache.org/licenses/LICENSE-2.0)
/BeginEPSF { %def
/b4_Inc_state save def         % Save state for cleanup
/dict_count countdictstack def % Count objects on dict stack
/op_count count 1 sub def      % Count objects on operand stack
userdict begin                 % Push userdict on dict stack
/showpage { } def              % Redefine showpage, { } = null proc
0 setgray 0 setlinecap         % Prepare graphics state
1 setlinewidth 0 setlinejoin
10 setmiterlimit [ ] 0 setdash newpath
/languagelevel where           % If level not equal to 1 then
{pop languagelevel             % set strokeadjust and
1 ne                           % overprint to their defaults.
{false setstrokeadjust false setoverprint
} if
} if
} bd
/EndEPSF { %def
count op_count sub {pop} repeat            % Clean up stacks
countdictstack dict_count sub {end} repeat
b4_Inc_state restore
} bd
%%EndResource
%FOPBeginFontDict
%%IncludeResource: font Courier-Bold
%%IncludeResource: font Helvetica
%%IncludeResource: font Courier-BoldOblique
%%IncludeResource: font Courier-Oblique
%%IncludeResource: font Times-Roman
%%IncludeResource: font Helvetica-BoldOblique
%%IncludeResource: font Helvetica-Bold
%%IncludeResource: font Helvetica-Oblique
%%IncludeResource: font Times-BoldItalic
%%IncludeResource: font Courier
%%IncludeResource: font Times-Italic
%%IncludeResource: font Times-Bold
%%IncludeResource: font Symbol
%%IncludeResource: font ZapfDingbats
%FOPEndFontDict
%%BeginResource: encoding WinAnsiEncoding
/WinAnsiEncoding [
/.notdef /.notdef /.notdef /.notdef /.notdef
/.notdef /.notdef /.notdef /.notdef /.notdef
/.notdef /.notdef /.notdef /.notdef /.notdef
/.notdef /.notdef /.notdef /.notdef /.notdef
/.notdef /.notdef /.notdef /.notdef /.notdef
/.notdef /.notdef /.notdef /.notdef /.notdef
/.notdef /.notdef /space /exclam /quotedbl
/numbersign /dollar /percent /ampersand /quotesingle
/parenleft /parenright /asterisk /plus /comma
/hyphen /period /slash /zero /one
/two /three /four /five /six
/seven /eight /nine /colon /semicolon
/less /equal /greater /question /at
/A /B /C /D /E
/F /G /H /I /J
/K /L /M /N /O
/P /Q /R /S /T
/U /V /W /X /Y
/Z /bracketleft /backslash /bracketright /asciicircum
/underscore /quoteleft /a /b /c
/d /e /f /g /h
/i /j /k /l /m
/n /o /p /q /r
/s /t /u /v /w
/x /y /z /braceleft /bar
/braceright /asciitilde /bullet /Euro /bullet
/quotesinglbase /florin /quotedblbase /ellipsis /dagger
/daggerdbl /circumflex /perthousand /Scaron /guilsinglleft
/OE /bullet /Zcaron /bullet /bullet
/quoteleft /quoteright /quotedblleft /quotedblright /bullet
/endash /emdash /asciitilde /trademark /scaron
/guilsinglright /oe /bullet /zcaron /Ydieresis
/space /exclamdown /cent /sterling /currency
/yen /brokenbar /section /dieresis /copyright
/ordfeminine /guillemotleft /logicalnot /sfthyphen /registered
/macron /degree /plusminus /twosuperior /threesuperior
/acute /mu /paragraph /middot /cedilla
/onesuperior /ordmasculine /guillemotright /onequarter /onehalf
/threequarters /questiondown /Agrave /Aacute /Acircumflex
/Atilde /Adieresis /Aring /AE /Ccedilla
/Egrave /Eacute /Ecircumflex /Edieresis /Igrave
/Iacute /Icircumflex /Idieresis /Eth /Ntilde
/Ograve /Oacute /Ocircumflex /Otilde /Odieresis
/multiply /Oslash /Ugrave /Uacute /Ucircumflex
/Udieresis /Yacute /Thorn /germandbls /agrave
/aacute /acircumflex /atilde /adieresis /aring
/ae /ccedilla /egrave /eacute /ecircumflex
/edieresis /igrave /iacute /icircumflex /idieresis
/eth /ntilde /ograve /oacute /ocircumflex
/otilde /odieresis /divide /oslash /ugrave
/uacute /ucircumflex /udieresis /yacute /thorn
/ydieresis
] def
%%EndResource
%FOPBeginFontReencode
/Courier-Bold findfont
dup length dict begin
  {1 index /FID ne {def} {pop pop} ifelse} forall
  /Encoding WinAnsiEncoding def
  currentdict
end
/Courier-Bold exch definefont pop
/Helvetica findfont
dup length dict begin
  {1 index /FID ne {def} {pop pop} ifelse} forall
  /Encoding WinAnsiEncoding def
  currentdict
end
/Helvetica exch definefont pop
/Courier-BoldOblique findfont
dup length dict begin
  {1 index /FID ne {def} {pop pop} ifelse} forall
  /Encoding WinAnsiEncoding def
  currentdict
end
/Courier-BoldOblique exch definefont pop
/Courier-Oblique findfont
dup length dict begin
  {1 index /FID ne {def} {pop pop} ifelse} forall
  /Encoding WinAnsiEncoding def
  currentdict
end
/Courier-Oblique exch definefont pop
/Times-Roman findfont
dup length dict begin
  {1 index /FID ne {def} {pop pop} ifelse} forall
  /Encoding WinAnsiEncoding def
  currentdict
end
/Times-Roman exch definefont pop
/Helvetica-BoldOblique findfont
dup length dict begin
  {1 index /FID ne {def} {pop pop} ifelse} forall
  /Encoding WinAnsiEncoding def
  currentdict
end
/Helvetica-BoldOblique exch definefont pop
/Helvetica-Bold findfont
dup length dict begin
  {1 index /FID ne {def} {pop pop} ifelse} forall
  /Encoding WinAnsiEncoding def
  currentdict
end
/Helvetica-Bold exch definefont pop
/Helvetica-Oblique findfont
dup length dict begin
  {1 index /FID ne {def} {pop pop} ifelse} forall
  /Encoding WinAnsiEncoding def
  currentdict
end
/Helvetica-Oblique exch definefont pop
/Times-BoldItalic findfont
dup length dict begin
  {1 index /FID ne {def} {pop pop} ifelse} forall
  /Encoding WinAnsiEncoding def
  currentdict
end
/Times-BoldItalic exch definefont pop
/Courier findfont
dup length dict begin
  {1 index /FID ne {def} {pop pop} ifelse} forall
  /Encoding WinAnsiEncoding def
  currentdict
end
/Courier exch definefont pop
/Times-Italic findfont
dup length dict begin
  {1 index /FID ne {def} {pop pop} ifelse} forall
  /Encoding WinAnsiEncoding def
  currentdict
end
/Times-Italic exch definefont pop
/Times-Bold findfont
dup length dict begin
  {1 index /FID ne {def} {pop pop} ifelse} forall
  /Encoding WinAnsiEncoding def
  currentdict
end
/Times-Bold exch definefont pop
%FOPEndFontReencode
%%EndProlog
%%Page: 1 1
%%PageBoundingBox: 0 0 420 315
%%BeginPageSetup
[1 0 0 -1 0 315] CT
%%EndPageSetup
GS
[0.6 0 0 0.6 0 0] CT
1 GC
N
0 0 700 525 re
f
GR
GS
[0.6 0 0 0.6 0 0] CT
1 GC
N
0 0 700 525 re
f
GR
GS
[0.6 0 0 0.6 0 0] CT
1 GC
N
91 467 M
634 467 L
634 39 L
91 39 L
cp
f
GR
GS
[0.6 0 0 0.6 0 0] CT
0.149 GC
2 setlinecap
1 LJ
0.833 LW
N
91 467 M
634 467 L
S
GR
GS
[0.6 0 0 0.6 0 0] CT
0.149 GC
2 setlinecap
1 LJ
0.833 LW
N
91 39 M
634 39 L
S
GR
GS
[0.6 0 0 0.6 0 0] CT
0.149 GC
2 setlinecap
1 LJ
0.833 LW
N
91 467 M
91 461.57 L
S
GR
GS
[0.6 0 0 0.6 0 0] CT
0.149 GC
2 setlinecap
1 LJ
0.833 LW
N
145.3 467 M
145.3 461.57 L
S
GR
GS
[0.6 0 0 0.6 0 0] CT
0.149 GC
2 setlinecap
1 LJ
0.833 LW
N
199.6 467 M
199.6 461.57 L
S
GR
GS
[0.6 0 0 0.6 0 0] CT
0.149 GC
2 setlinecap
1 LJ
0.833 LW
N
253.9 467 M
253.9 461.57 L
S
GR
GS
[0.6 0 0 0.6 0 0] CT
0.149 GC
2 setlinecap
1 LJ
0.833 LW
N
308.2 467 M
308.2 461.57 L
S
GR
GS
[0.6 0 0 0.6 0 0] CT
0.149 GC
2 setlinecap
1 LJ
0.833 LW
N
362.5 467 M
362.5 461.57 L
S
GR
GS
[0.6 0 0 0.6 0 0] CT
0.149 GC
2 setlinecap
1 LJ
0.833 LW
N
416.8 467 M
416.8 461.57 L
S
GR
GS
[0.6 0 0 0.6 0 0] CT
0.149 GC
2 setlinecap
1 LJ
0.833 LW
N
471.1 467 M
471.1 461.57 L
S
GR
GS
[0.6 0 0 0.6 0 0] CT
0.149 GC
2 setlinecap
1 LJ
0.833 LW
N
525.4 467 M
525.4 461.57 L
S
GR
GS
[0.6 0 0 0.6 0 0] CT
0.149 GC
2 setlinecap
1 LJ
0.833 LW
N
579.7 467 M
579.7 461.57 L
S
GR
GS
[0.6 0 0 0.6 0 0] CT
0.149 GC
2 setlinecap
1 LJ
0.833 LW
N
634 467 M
634 461.57 L
S
GR
GS
[0.6 0 0 0.6 0 0] CT
0.149 GC
2 setlinecap
1 LJ
0.833 LW
N
91 39 M
91 44.43 L
S
GR
GS
[0.6 0 0 0.6 0 0] CT
0.149 GC
2 setlinecap
1 LJ
0.833 LW
N
145.3 39 M
145.3 44.43 L
S
GR
GS
[0.6 0 0 0.6 0 0] CT
0.149 GC
2 setlinecap
1 LJ
0.833 LW
N
199.6 39 M
199.6 44.43 L
S
GR
GS
[0.6 0 0 0.6 0 0] CT
0.149 GC
2 setlinecap
1 LJ
0.833 LW
N
253.9 39 M
253.9 44.43 L
S
GR
GS
[0.6 0 0 0.6 0 0] CT
0.149 GC
2 setlinecap
1 LJ
0.833 LW
N
308.2 39 M
308.2 44.43 L
S
GR
GS
[0.6 0 0 0.6 0 0] CT
0.149 GC
2 setlinecap
1 LJ
0.833 LW
N
362.5 39 M
362.5 44.43 L
S
GR
GS
[0.6 0 0 0.6 0 0] CT
0.149 GC
2 setlinecap
1 LJ
0.833 LW
N
416.8 39 M
416.8 44.43 L
S
GR
GS
[0.6 0 0 0.6 0 0] CT
0.149 GC
2 setlinecap
1 LJ
0.833 LW
N
471.1 39 M
471.1 44.43 L
S
GR
GS
[0.6 0 0 0.6 0 0] CT
0.149 GC
2 setlinecap
1 LJ
0.833 LW
N
525.4 39 M
525.4 44.43 L
S
GR
GS
[0.6 0 0 0.6 0 0] CT
0.149 GC
2 setlinecap
1 LJ
0.833 LW
N
579.7 39 M
579.7 44.43 L
S
GR
GS
[0.6 0 0 0.6 0 0] CT
0.149 GC
2 setlinecap
1 LJ
0.833 LW
N
634 39 M
634 44.43 L
S
GR
GS
[0.6 0 0 0.6 54.6 284.20012] CT
0.149 GC
/Helvetica 16.667 F
GS
[1 0 0 1 0 0] CT
-5 18 moveto 
1 -1 scale
(0) t 
GR
GR
GS
[0.6 0 0 0.6 87.18 284.20012] CT
0.149 GC
/Helvetica 16.667 F
GS
[1 0 0 1 0 0] CT
-9.5 18 moveto 
1 -1 scale
(10) t 
GR
GR
GS
[0.6 0 0 0.6 119.76 284.20012] CT
0.149 GC
/Helvetica 16.667 F
GS
[1 0 0 1 0 0] CT
-9.5 18 moveto 
1 -1 scale
(20) t 
GR
GR
GS
[0.6 0 0 0.6 152.34 284.20012] CT
0.149 GC
/Helvetica 16.667 F
GS
[1 0 0 1 0 0] CT
-9.5 18 moveto 
1 -1 scale
(30) t 
GR
GR
GS
[0.6 0 0 0.6 184.92001 284.20012] CT
0.149 GC
/Helvetica 16.667 F
GS
[1 0 0 1 0 0] CT
-9.5 18 moveto 
1 -1 scale
(40) t 
GR
GR
GS
[0.6 0 0 0.6 217.5 284.20012] CT
0.149 GC
/Helvetica 16.667 F
GS
[1 0 0 1 0 0] CT
-9.5 18 moveto 
1 -1 scale
(50) t 
GR
GR
GS
[0.6 0 0 0.6 250.07999 284.20012] CT
0.149 GC
/Helvetica 16.667 F
GS
[1 0 0 1 0 0] CT
-9.5 18 moveto 
1 -1 scale
(60) t 
GR
GR
GS
[0.6 0 0 0.6 282.66 284.20012] CT
0.149 GC
/Helvetica 16.667 F
GS
[1 0 0 1 0 0] CT
-9.5 18 moveto 
1 -1 scale
(70) t 
GR
GR
GS
[0.6 0 0 0.6 315.24001 284.20012] CT
0.149 GC
/Helvetica 16.667 F
GS
[1 0 0 1 0 0] CT
-9.5 18 moveto 
1 -1 scale
(80) t 
GR
GR
GS
[0.6 0 0 0.6 347.82001 284.20012] CT
0.149 GC
/Helvetica 16.667 F
GS
[1 0 0 1 0 0] CT
-9.5 18 moveto 
1 -1 scale
(90) t 
GR
GR
GS
[0.6 0 0 0.6 380.4 284.20012] CT
0.149 GC
/Helvetica 16.667 F
GS
[1 0 0 1 0 0] CT
-14.5 18 moveto 
1 -1 scale
(100) t 
GR
GR
GS
[0.6 0 0 0.6 0 0] CT
0.149 GC
2 setlinecap
1 LJ
0.833 LW
N
91 467 M
91 39 L
S
GR
GS
[0.6 0 0 0.6 0 0] CT
0.149 GC
2 setlinecap
1 LJ
0.833 LW
N
634 467 M
634 39 L
S
GR
GS
[0.6 0 0 0.6 0 0] CT
0.149 GC
2 setlinecap
1 LJ
0.833 LW
N
91 467 M
96.43 467 L
S
GR
GS
[0.6 0 0 0.6 0 0] CT
0.149 GC
2 setlinecap
1 LJ
0.833 LW
N
91 424.2 M
96.43 424.2 L
S
GR
GS
[0.6 0 0 0.6 0 0] CT
0.149 GC
2 setlinecap
1 LJ
0.833 LW
N
91 381.4 M
96.43 381.4 L
S
GR
GS
[0.6 0 0 0.6 0 0] CT
0.149 GC
2 setlinecap
1 LJ
0.833 LW
N
91 338.6 M
96.43 338.6 L
S
GR
GS
[0.6 0 0 0.6 0 0] CT
0.149 GC
2 setlinecap
1 LJ
0.833 LW
N
91 295.8 M
96.43 295.8 L
S
GR
GS
[0.6 0 0 0.6 0 0] CT
0.149 GC
2 setlinecap
1 LJ
0.833 LW
N
91 253 M
96.43 253 L
S
GR
GS
[0.6 0 0 0.6 0 0] CT
0.149 GC
2 setlinecap
1 LJ
0.833 LW
N
91 210.2 M
96.43 210.2 L
S
GR
GS
[0.6 0 0 0.6 0 0] CT
0.149 GC
2 setlinecap
1 LJ
0.833 LW
N
91 167.4 M
96.43 167.4 L
S
GR
GS
[0.6 0 0 0.6 0 0] CT
0.149 GC
2 setlinecap
1 LJ
0.833 LW
N
91 124.6 M
96.43 124.6 L
S
GR
GS
[0.6 0 0 0.6 0 0] CT
0.149 GC
2 setlinecap
1 LJ
0.833 LW
N
91 81.8 M
96.43 81.8 L
S
GR
GS
[0.6 0 0 0.6 0 0] CT
0.149 GC
2 setlinecap
1 LJ
0.833 LW
N
91 39 M
96.43 39 L
S
GR
GS
[0.6 0 0 0.6 0 0] CT
0.149 GC
2 setlinecap
1 LJ
0.833 LW
N
634 467 M
628.57 467 L
S
GR
GS
[0.6 0 0 0.6 0 0] CT
0.149 GC
2 setlinecap
1 LJ
0.833 LW
N
634 424.2 M
628.57 424.2 L
S
GR
GS
[0.6 0 0 0.6 0 0] CT
0.149 GC
2 setlinecap
1 LJ
0.833 LW
N
634 381.4 M
628.57 381.4 L
S
GR
GS
[0.6 0 0 0.6 0 0] CT
0.149 GC
2 setlinecap
1 LJ
0.833 LW
N
634 338.6 M
628.57 338.6 L
S
GR
GS
[0.6 0 0 0.6 0 0] CT
0.149 GC
2 setlinecap
1 LJ
0.833 LW
N
634 295.8 M
628.57 295.8 L
S
GR
GS
[0.6 0 0 0.6 0 0] CT
0.149 GC
2 setlinecap
1 LJ
0.833 LW
N
634 253 M
628.57 253 L
S
GR
GS
[0.6 0 0 0.6 0 0] CT
0.149 GC
2 setlinecap
1 LJ
0.833 LW
N
634 210.2 M
628.57 210.2 L
S
GR
GS
[0.6 0 0 0.6 0 0] CT
0.149 GC
2 setlinecap
1 LJ
0.833 LW
N
634 167.4 M
628.57 167.4 L
S
GR
GS
[0.6 0 0 0.6 0 0] CT
0.149 GC
2 setlinecap
1 LJ
0.833 LW
N
634 124.6 M
628.57 124.6 L
S
GR
GS
[0.6 0 0 0.6 0 0] CT
0.149 GC
2 setlinecap
1 LJ
0.833 LW
N
634 81.8 M
628.57 81.8 L
S
GR
GS
[0.6 0 0 0.6 0 0] CT
0.149 GC
2 setlinecap
1 LJ
0.833 LW
N
634 39 M
628.57 39 L
S
GR
GS
[0.6 0 0 0.6 50.6 280.20007] CT
0.149 GC
/Helvetica 16.667 F
GS
[1 0 0 1 0 0] CT
-34 7 moveto 
1 -1 scale
(1.06) t 
GR
GR
GS
[0.6 0 0 0.6 50.6 254.51995] CT
0.149 GC
/Helvetica 16.667 F
GS
[1 0 0 1 0 0] CT
-34 7 moveto 
1 -1 scale
(1.08) t 
GR
GR
GS
[0.6 0 0 0.6 50.6 228.83998] CT
0.149 GC
/Helvetica 16.667 F
GS
[1 0 0 1 0 0] CT
-24 7 moveto 
1 -1 scale
(1.1) t 
GR
GR
GS
[0.6 0 0 0.6 50.6 203.15999] CT
0.149 GC
/Helvetica 16.667 F
GS
[1 0 0 1 0 0] CT
-34 7 moveto 
1 -1 scale
(1.12) t 
GR
GR
GS
[0.6 0 0 0.6 50.6 177.48001] CT
0.149 GC
/Helvetica 16.667 F
GS
[1 0 0 1 0 0] CT
-34 7 moveto 
1 -1 scale
(1.14) t 
GR
GR
GS
[0.6 0 0 0.6 50.6 151.80005] CT
0.149 GC
/Helvetica 16.667 F
GS
[1 0 0 1 0 0] CT
-34 7 moveto 
1 -1 scale
(1.16) t 
GR
GR
GS
[0.6 0 0 0.6 50.6 126.12007] CT
0.149 GC
/Helvetica 16.667 F
GS
[1 0 0 1 0 0] CT
-34 7 moveto 
1 -1 scale
(1.18) t 
GR
GR
GS
[0.6 0 0 0.6 50.6 100.43994] CT
0.149 GC
/Helvetica 16.667 F
GS
[1 0 0 1 0 0] CT
-24 7 moveto 
1 -1 scale
(1.2) t 
GR
GR
GS
[0.6 0 0 0.6 50.6 74.75996] CT
0.149 GC
/Helvetica 16.667 F
GS
[1 0 0 1 0 0] CT
-34 7 moveto 
1 -1 scale
(1.22) t 
GR
GR
GS
[0.6 0 0 0.6 50.6 49.07999] CT
0.149 GC
/Helvetica 16.667 F
GS
[1 0 0 1 0 0] CT
-34 7 moveto 
1 -1 scale
(1.24) t 
GR
GR
GS
[0.6 0 0 0.6 50.6 23.40001] CT
0.149 GC
/Helvetica 16.667 F
GS
[1 0 0 1 0 0] CT
-34 7 moveto 
1 -1 scale
(1.26) t 
GR
GR
GS
[0.6 0 0 0.6 217.50022 21.74997] CT
/Helvetica-Bold 18.333 F
GS
[1 0 0 1 0 0] CT
-97.5 -4 moveto 
1 -1 scale
(Approximation error el) t 
GR
GR
GS
[0.6 0 0 0.6 0 0] CT
0 0.447 0.741 RC
1 LJ
0.833 LW
N
96.43 151.247 M
101.86 159.012 L
107.29 203.772 L
112.72 230.217 L
118.15 253.602 L
123.58 259.352 L
129.01 274.695 L
134.44 282.875 L
139.87 283.086 L
145.3 289.693 L
150.73 297.103 L
156.16 308.387 L
161.59 318.382 L
167.02 320.183 L
172.45 321.944 L
177.88 323.894 L
183.31 327.155 L
188.74 331.025 L
194.17 335.177 L
199.6 354.026 L
205.03 358.338 L
210.46 364.047 L
215.89 368.308 L
221.32 369.503 L
226.75 369.723 L
232.18 370.504 L
237.61 371.008 L
243.04 375.473 L
248.47 381.792 L
253.9 382.841 L
259.33 384.765 L
264.76 387.318 L
270.19 387.445 L
275.62 393.713 L
281.05 394.927 L
286.48 395.532 L
291.91 397.858 L
297.34 398.132 L
302.77 400.964 L
308.2 403.879 L
313.63 404.211 L
319.06 405.865 L
324.49 406.229 L
329.92 408.391 L
335.35 408.85 L
340.78 409.183 L
346.21 409.354 L
351.64 409.886 L
357.07 410.693 L
362.5 411.035 L
367.93 411.299 L
373.36 411.661 L
378.79 411.951 L
384.22 412.049 L
389.65 412.099 L
395.08 412.117 L
400.51 412.193 L
405.94 413.775 L
411.37 414.638 L
416.8 414.904 L
422.23 416.524 L
427.66 419.568 L
433.09 420.138 L
438.52 420.853 L
443.95 422.225 L
449.38 422.747 L
454.81 422.926 L
460.24 423.032 L
465.67 423.635 L
471.1 424.25 L
476.53 425.874 L
481.96 427.896 L
487.39 428.409 L
492.82 428.547 L
498.25 430.326 L
503.68 430.516 L
509.11 430.593 L
514.54 430.609 L
519.97 431.52 L
525.4 431.828 L
530.83 432.043 L
536.26 433.194 L
541.69 433.719 L
547.12 435.04 L
552.55 435.248 L
557.98 435.435 L
563.41 435.771 L
568.84 436.111 L
574.27 436.594 L
579.7 437.916 L
585.13 438.143 L
590.56 438.562 L
595.99 440.102 L
601.42 440.913 L
606.85 441.704 L
612.28 442.45 L
617.71 442.777 L
623.14 443.442 L
628.57 445.301 L
634 445.678 L
S
GR
GS
[0.6 0 0 0.6 57.858 90.74819] CT
0 0.447 0.741 RC
10.0 ML
0.833 LW
N
-3.536 -3.536 M
3.536 3.536 L
-3.536 3.536 M
3.536 -3.536 L
S
GR
GS
[0.6 0 0 0.6 61.116 95.40732] CT
0 0.447 0.741 RC
10.0 ML
0.833 LW
N
-3.536 -3.536 M
3.536 3.536 L
-3.536 3.536 M
3.536 -3.536 L
S
GR
GS
[0.6 0 0 0.6 64.374 122.26299] CT
0 0.447 0.741 RC
10.0 ML
0.833 LW
N
-3.536 -3.536 M
3.536 3.536 L
-3.536 3.536 M
3.536 -3.536 L
S
GR
GS
[0.6 0 0 0.6 67.632 138.13014] CT
0 0.447 0.741 RC
10.0 ML
0.833 LW
N
-3.536 -3.536 M
3.536 3.536 L
-3.536 3.536 M
3.536 -3.536 L
S
GR
GS
[0.6 0 0 0.6 70.89 152.16096] CT
0 0.447 0.741 RC
10.0 ML
0.833 LW
N
-3.536 -3.536 M
3.536 3.536 L
-3.536 3.536 M
3.536 -3.536 L
S
GR
GS
[0.6 0 0 0.6 74.148 155.61136] CT
0 0.447 0.741 RC
10.0 ML
0.833 LW
N
-3.536 -3.536 M
3.536 3.536 L
-3.536 3.536 M
3.536 -3.536 L
S
GR
GS
[0.6 0 0 0.6 77.406 164.81728] CT
0 0.447 0.741 RC
10.0 ML
0.833 LW
N
-3.536 -3.536 M
3.536 3.536 L
-3.536 3.536 M
3.536 -3.536 L
S
GR
GS
[0.6 0 0 0.6 80.664 169.725] CT
0 0.447 0.741 RC
10.0 ML
0.833 LW
N
-3.536 -3.536 M
3.536 3.536 L
-3.536 3.536 M
3.536 -3.536 L
S
GR
GS
[0.6 0 0 0.6 83.922 169.85143] CT
0 0.447 0.741 RC
10.0 ML
0.833 LW
N
-3.536 -3.536 M
3.536 3.536 L
-3.536 3.536 M
3.536 -3.536 L
S
GR
GS
[0.6 0 0 0.6 87.18 173.81596] CT
0 0.447 0.741 RC
10.0 ML
0.833 LW
N
-3.536 -3.536 M
3.536 3.536 L
-3.536 3.536 M
3.536 -3.536 L
S
GR
GS
[0.6 0 0 0.6 90.438 178.26172] CT
0 0.447 0.741 RC
10.0 ML
0.833 LW
N
-3.536 -3.536 M
3.536 3.536 L
-3.536 3.536 M
3.536 -3.536 L
S
GR
GS
[0.6 0 0 0.6 93.696 185.03238] CT
0 0.447 0.741 RC
10.0 ML
0.833 LW
N
-3.536 -3.536 M
3.536 3.536 L
-3.536 3.536 M
3.536 -3.536 L
S
GR
GS
[0.6 0 0 0.6 96.954 191.02947] CT
0 0.447 0.741 RC
10.0 ML
0.833 LW
N
-3.536 -3.536 M
3.536 3.536 L
-3.536 3.536 M
3.536 -3.536 L
S
GR
GS
[0.6 0 0 0.6 100.212 192.10979] CT
0 0.447 0.741 RC
10.0 ML
0.833 LW
N
-3.536 -3.536 M
3.536 3.536 L
-3.536 3.536 M
3.536 -3.536 L
S
GR
GS
[0.6 0 0 0.6 103.47 193.16625] CT
0 0.447 0.741 RC
10.0 ML
0.833 LW
N
-3.536 -3.536 M
3.536 3.536 L
-3.536 3.536 M
3.536 -3.536 L
S
GR
GS
[0.6 0 0 0.6 106.728 194.33628] CT
0 0.447 0.741 RC
10.0 ML
0.833 LW
N
-3.536 -3.536 M
3.536 3.536 L
-3.536 3.536 M
3.536 -3.536 L
S
GR
GS
[0.6 0 0 0.6 109.986 196.2932] CT
0 0.447 0.741 RC
10.0 ML
0.833 LW
N
-3.536 -3.536 M
3.536 3.536 L
-3.536 3.536 M
3.536 -3.536 L
S
GR
GS
[0.6 0 0 0.6 113.244 198.61489] CT
0 0.447 0.741 RC
10.0 ML
0.833 LW
N
-3.536 -3.536 M
3.536 3.536 L
-3.536 3.536 M
3.536 -3.536 L
S
GR
GS
[0.6 0 0 0.6 116.502 201.10648] CT
0 0.447 0.741 RC
10.0 ML
0.833 LW
N
-3.536 -3.536 M
3.536 3.536 L
-3.536 3.536 M
3.536 -3.536 L
S
GR
GS
[0.6 0 0 0.6 119.76 212.41536] CT
0 0.447 0.741 RC
10.0 ML
0.833 LW
N
-3.536 -3.536 M
3.536 3.536 L
-3.536 3.536 M
3.536 -3.536 L
S
GR
GS
[0.6 0 0 0.6 123.018 215.00292] CT
0 0.447 0.741 RC
10.0 ML
0.833 LW
N
-3.536 -3.536 M
3.536 3.536 L
-3.536 3.536 M
3.536 -3.536 L
S
GR
GS
[0.6 0 0 0.6 126.276 218.4282] CT
0 0.447 0.741 RC
10.0 ML
0.833 LW
N
-3.536 -3.536 M
3.536 3.536 L
-3.536 3.536 M
3.536 -3.536 L
S
GR
GS
[0.6 0 0 0.6 129.534 220.98484] CT
0 0.447 0.741 RC
10.0 ML
0.833 LW
N
-3.536 -3.536 M
3.536 3.536 L
-3.536 3.536 M
3.536 -3.536 L
S
GR
GS
[0.6 0 0 0.6 132.792 221.70179] CT
0 0.447 0.741 RC
10.0 ML
0.833 LW
N
-3.536 -3.536 M
3.536 3.536 L
-3.536 3.536 M
3.536 -3.536 L
S
GR
GS
[0.6 0 0 0.6 136.05 221.83405] CT
0 0.447 0.741 RC
10.0 ML
0.833 LW
N
-3.536 -3.536 M
3.536 3.536 L
-3.536 3.536 M
3.536 -3.536 L
S
GR
GS
[0.6 0 0 0.6 139.308 222.30258] CT
0 0.447 0.741 RC
10.0 ML
0.833 LW
N
-3.536 -3.536 M
3.536 3.536 L
-3.536 3.536 M
3.536 -3.536 L
S
GR
GS
[0.6 0 0 0.6 142.566 222.60458] CT
0 0.447 0.741 RC
10.0 ML
0.833 LW
N
-3.536 -3.536 M
3.536 3.536 L
-3.536 3.536 M
3.536 -3.536 L
S
GR
GS
[0.6 0 0 0.6 145.824 225.28381] CT
0 0.447 0.741 RC
10.0 ML
0.833 LW
N
-3.536 -3.536 M
3.536 3.536 L
-3.536 3.536 M
3.536 -3.536 L
S
GR
GS
[0.6 0 0 0.6 149.082 229.07523] CT
0 0.447 0.741 RC
10.0 ML
0.833 LW
N
-3.536 -3.536 M
3.536 3.536 L
-3.536 3.536 M
3.536 -3.536 L
S
GR
GS
[0.6 0 0 0.6 152.34 229.70433] CT
0 0.447 0.741 RC
10.0 ML
0.833 LW
N
-3.536 -3.536 M
3.536 3.536 L
-3.536 3.536 M
3.536 -3.536 L
S
GR
GS
[0.6 0 0 0.6 155.59799 230.85919] CT
0 0.447 0.741 RC
10.0 ML
0.833 LW
N
-3.536 -3.536 M
3.536 3.536 L
-3.536 3.536 M
3.536 -3.536 L
S
GR
GS
[0.6 0 0 0.6 158.85601 232.39107] CT
0 0.447 0.741 RC
10.0 ML
0.833 LW
N
-3.536 -3.536 M
3.536 3.536 L
-3.536 3.536 M
3.536 -3.536 L
S
GR
GS
[0.6 0 0 0.6 162.114 232.46699] CT
0 0.447 0.741 RC
10.0 ML
0.833 LW
N
-3.536 -3.536 M
3.536 3.536 L
-3.536 3.536 M
3.536 -3.536 L
S
GR
GS
[0.6 0 0 0.6 165.372 236.22794] CT
0 0.447 0.741 RC
10.0 ML
0.833 LW
N
-3.536 -3.536 M
3.536 3.536 L
-3.536 3.536 M
3.536 -3.536 L
S
GR
GS
[0.6 0 0 0.6 168.62999 236.95607] CT
0 0.447 0.741 RC
10.0 ML
0.833 LW
N
-3.536 -3.536 M
3.536 3.536 L
-3.536 3.536 M
3.536 -3.536 L
S
GR
GS
[0.6 0 0 0.6 171.88801 237.31899] CT
0 0.447 0.741 RC
10.0 ML
0.833 LW
N
-3.536 -3.536 M
3.536 3.536 L
-3.536 3.536 M
3.536 -3.536 L
S
GR
GS
[0.6 0 0 0.6 175.146 238.71478] CT
0 0.447 0.741 RC
10.0 ML
0.833 LW
N
-3.536 -3.536 M
3.536 3.536 L
-3.536 3.536 M
3.536 -3.536 L
S
GR
GS
[0.6 0 0 0.6 178.404 238.87949] CT
0 0.447 0.741 RC
10.0 ML
0.833 LW
N
-3.536 -3.536 M
3.536 3.536 L
-3.536 3.536 M
3.536 -3.536 L
S
GR
GS
[0.6 0 0 0.6 181.66199 240.57865] CT
0 0.447 0.741 RC
10.0 ML
0.833 LW
N
-3.536 -3.536 M
3.536 3.536 L
-3.536 3.536 M
3.536 -3.536 L
S
GR
GS
[0.6 0 0 0.6 184.92001 242.32742] CT
0 0.447 0.741 RC
10.0 ML
0.833 LW
N
-3.536 -3.536 M
3.536 3.536 L
-3.536 3.536 M
3.536 -3.536 L
S
GR
GS
[0.6 0 0 0.6 188.178 242.52671] CT
0 0.447 0.741 RC
10.0 ML
0.833 LW
N
-3.536 -3.536 M
3.536 3.536 L
-3.536 3.536 M
3.536 -3.536 L
S
GR
GS
[0.6 0 0 0.6 191.436 243.51918] CT
0 0.447 0.741 RC
10.0 ML
0.833 LW
N
-3.536 -3.536 M
3.536 3.536 L
-3.536 3.536 M
3.536 -3.536 L
S
GR
GS
[0.6 0 0 0.6 194.69399 243.73729] CT
0 0.447 0.741 RC
10.0 ML
0.833 LW
N
-3.536 -3.536 M
3.536 3.536 L
-3.536 3.536 M
3.536 -3.536 L
S
GR
GS
[0.6 0 0 0.6 197.95201 245.03452] CT
0 0.447 0.741 RC
10.0 ML
0.833 LW
N
-3.536 -3.536 M
3.536 3.536 L
-3.536 3.536 M
3.536 -3.536 L
S
GR
GS
[0.6 0 0 0.6 201.21 245.30989] CT
0 0.447 0.741 RC
10.0 ML
0.833 LW
N
-3.536 -3.536 M
3.536 3.536 L
-3.536 3.536 M
3.536 -3.536 L
S
GR
GS
[0.6 0 0 0.6 204.468 245.50979] CT
0 0.447 0.741 RC
10.0 ML
0.833 LW
N
-3.536 -3.536 M
3.536 3.536 L
-3.536 3.536 M
3.536 -3.536 L
S
GR
GS
[0.6 0 0 0.6 207.72599 245.61264] CT
0 0.447 0.741 RC
10.0 ML
0.833 LW
N
-3.536 -3.536 M
3.536 3.536 L
-3.536 3.536 M
3.536 -3.536 L
S
GR
GS
[0.6 0 0 0.6 210.98401 245.93148] CT
0 0.447 0.741 RC
10.0 ML
0.833 LW
N
-3.536 -3.536 M
3.536 3.536 L
-3.536 3.536 M
3.536 -3.536 L
S
GR
GS
[0.6 0 0 0.6 214.242 246.41609] CT
0 0.447 0.741 RC
10.0 ML
0.833 LW
N
-3.536 -3.536 M
3.536 3.536 L
-3.536 3.536 M
3.536 -3.536 L
S
GR
GS
[0.6 0 0 0.6 217.5 246.62073] CT
0 0.447 0.741 RC
10.0 ML
0.833 LW
N
-3.536 -3.536 M
3.536 3.536 L
-3.536 3.536 M
3.536 -3.536 L
S
GR
GS
[0.6 0 0 0.6 220.758 246.77961] CT
0 0.447 0.741 RC
10.0 ML
0.833 LW
N
-3.536 -3.536 M
3.536 3.536 L
-3.536 3.536 M
3.536 -3.536 L
S
GR
GS
[0.6 0 0 0.6 224.01599 246.99651] CT
0 0.447 0.741 RC
10.0 ML
0.833 LW
N
-3.536 -3.536 M
3.536 3.536 L
-3.536 3.536 M
3.536 -3.536 L
S
GR
GS
[0.6 0 0 0.6 227.27401 247.1707] CT
0 0.447 0.741 RC
10.0 ML
0.833 LW
N
-3.536 -3.536 M
3.536 3.536 L
-3.536 3.536 M
3.536 -3.536 L
S
GR
GS
[0.6 0 0 0.6 230.532 247.22932] CT
0 0.447 0.741 RC
10.0 ML
0.833 LW
N
-3.536 -3.536 M
3.536 3.536 L
-3.536 3.536 M
3.536 -3.536 L
S
GR
GS
[0.6 0 0 0.6 233.79 247.25947] CT
0 0.447 0.741 RC
10.0 ML
0.833 LW
N
-3.536 -3.536 M
3.536 3.536 L
-3.536 3.536 M
3.536 -3.536 L
S
GR
GS
[0.6 0 0 0.6 237.04799 247.2705] CT
0 0.447 0.741 RC
10.0 ML
0.833 LW
N
-3.536 -3.536 M
3.536 3.536 L
-3.536 3.536 M
3.536 -3.536 L
S
GR
GS
[0.6 0 0 0.6 240.30601 247.31596] CT
0 0.447 0.741 RC
10.0 ML
0.833 LW
N
-3.536 -3.536 M
3.536 3.536 L
-3.536 3.536 M
3.536 -3.536 L
S
GR
GS
[0.6 0 0 0.6 243.564 248.26511] CT
0 0.447 0.741 RC
10.0 ML
0.833 LW
N
-3.536 -3.536 M
3.536 3.536 L
-3.536 3.536 M
3.536 -3.536 L
S
GR
GS
[0.6 0 0 0.6 246.822 248.78276] CT
0 0.447 0.741 RC
10.0 ML
0.833 LW
N
-3.536 -3.536 M
3.536 3.536 L
-3.536 3.536 M
3.536 -3.536 L
S
GR
GS
[0.6 0 0 0.6 250.07999 248.94258] CT
0 0.447 0.741 RC
10.0 ML
0.833 LW
N
-3.536 -3.536 M
3.536 3.536 L
-3.536 3.536 M
3.536 -3.536 L
S
GR
GS
[0.6 0 0 0.6 253.33801 249.91437] CT
0 0.447 0.741 RC
10.0 ML
0.833 LW
N
-3.536 -3.536 M
3.536 3.536 L
-3.536 3.536 M
3.536 -3.536 L
S
GR
GS
[0.6 0 0 0.6 256.596 251.74091] CT
0 0.447 0.741 RC
10.0 ML
0.833 LW
N
-3.536 -3.536 M
3.536 3.536 L
-3.536 3.536 M
3.536 -3.536 L
S
GR
GS
[0.6 0 0 0.6 259.854 252.08269] CT
0 0.447 0.741 RC
10.0 ML
0.833 LW
N
-3.536 -3.536 M
3.536 3.536 L
-3.536 3.536 M
3.536 -3.536 L
S
GR
GS
[0.6 0 0 0.6 263.11199 252.51174] CT
0 0.447 0.741 RC
10.0 ML
0.833 LW
N
-3.536 -3.536 M
3.536 3.536 L
-3.536 3.536 M
3.536 -3.536 L
S
GR
GS
[0.6 0 0 0.6 266.37001 253.33522] CT
0 0.447 0.741 RC
10.0 ML
0.833 LW
N
-3.536 -3.536 M
3.536 3.536 L
-3.536 3.536 M
3.536 -3.536 L
S
GR
GS
[0.6 0 0 0.6 269.628 253.64839] CT
0 0.447 0.741 RC
10.0 ML
0.833 LW
N
-3.536 -3.536 M
3.536 3.536 L
-3.536 3.536 M
3.536 -3.536 L
S
GR
GS
[0.6 0 0 0.6 272.886 253.7554] CT
0 0.447 0.741 RC
10.0 ML
0.833 LW
N
-3.536 -3.536 M
3.536 3.536 L
-3.536 3.536 M
3.536 -3.536 L
S
GR
GS
[0.6 0 0 0.6 276.14399 253.81921] CT
0 0.447 0.741 RC
10.0 ML
0.833 LW
N
-3.536 -3.536 M
3.536 3.536 L
-3.536 3.536 M
3.536 -3.536 L
S
GR
GS
[0.6 0 0 0.6 279.40201 254.18091] CT
0 0.447 0.741 RC
10.0 ML
0.833 LW
N
-3.536 -3.536 M
3.536 3.536 L
-3.536 3.536 M
3.536 -3.536 L
S
GR
GS
[0.6 0 0 0.6 282.66 254.54995] CT
0 0.447 0.741 RC
10.0 ML
0.833 LW
N
-3.536 -3.536 M
3.536 3.536 L
-3.536 3.536 M
3.536 -3.536 L
S
GR
GS
[0.6 0 0 0.6 285.918 255.52436] CT
0 0.447 0.741 RC
10.0 ML
0.833 LW
N
-3.536 -3.536 M
3.536 3.536 L
-3.536 3.536 M
3.536 -3.536 L
S
GR
GS
[0.6 0 0 0.6 289.17599 256.73754] CT
0 0.447 0.741 RC
10.0 ML
0.833 LW
N
-3.536 -3.536 M
3.536 3.536 L
-3.536 3.536 M
3.536 -3.536 L
S
GR
GS
[0.6 0 0 0.6 292.43401 257.04567] CT
0 0.447 0.741 RC
10.0 ML
0.833 LW
N
-3.536 -3.536 M
3.536 3.536 L
-3.536 3.536 M
3.536 -3.536 L
S
GR
GS
[0.6 0 0 0.6 295.692 257.12816] CT
0 0.447 0.741 RC
10.0 ML
0.833 LW
N
-3.536 -3.536 M
3.536 3.536 L
-3.536 3.536 M
3.536 -3.536 L
S
GR
GS
[0.6 0 0 0.6 298.95 258.19548] CT
0 0.447 0.741 RC
10.0 ML
0.833 LW
N
-3.536 -3.536 M
3.536 3.536 L
-3.536 3.536 M
3.536 -3.536 L
S
GR
GS
[0.6 0 0 0.6 302.208 258.30938] CT
0 0.447 0.741 RC
10.0 ML
0.833 LW
N
-3.536 -3.536 M
3.536 3.536 L
-3.536 3.536 M
3.536 -3.536 L
S
GR
GS
[0.6 0 0 0.6 305.46599 258.35605] CT
0 0.447 0.741 RC
10.0 ML
0.833 LW
N
-3.536 -3.536 M
3.536 3.536 L
-3.536 3.536 M
3.536 -3.536 L
S
GR
GS
[0.6 0 0 0.6 308.72399 258.36524] CT
0 0.447 0.741 RC
10.0 ML
0.833 LW
N
-3.536 -3.536 M
3.536 3.536 L
-3.536 3.536 M
3.536 -3.536 L
S
GR
GS
[0.6 0 0 0.6 311.98198 258.91214] CT
0 0.447 0.741 RC
10.0 ML
0.833 LW
N
-3.536 -3.536 M
3.536 3.536 L
-3.536 3.536 M
3.536 -3.536 L
S
GR
GS
[0.6 0 0 0.6 315.24001 259.09689] CT
0 0.447 0.741 RC
10.0 ML
0.833 LW
N
-3.536 -3.536 M
3.536 3.536 L
-3.536 3.536 M
3.536 -3.536 L
S
GR
GS
[0.6 0 0 0.6 318.49801 259.22576] CT
0 0.447 0.741 RC
10.0 ML
0.833 LW
N
-3.536 -3.536 M
3.536 3.536 L
-3.536 3.536 M
3.536 -3.536 L
S
GR
GS
[0.6 0 0 0.6 321.75601 259.91655] CT
0 0.447 0.741 RC
10.0 ML
0.833 LW
N
-3.536 -3.536 M
3.536 3.536 L
-3.536 3.536 M
3.536 -3.536 L
S
GR
GS
[0.6 0 0 0.6 325.014 260.2311] CT
0 0.447 0.741 RC
10.0 ML
0.833 LW
N
-3.536 -3.536 M
3.536 3.536 L
-3.536 3.536 M
3.536 -3.536 L
S
GR
GS
[0.6 0 0 0.6 328.272 261.02397] CT
0 0.447 0.741 RC
10.0 ML
0.833 LW
N
-3.536 -3.536 M
3.536 3.536 L
-3.536 3.536 M
3.536 -3.536 L
S
GR
GS
[0.6 0 0 0.6 331.52999 261.14903] CT
0 0.447 0.741 RC
10.0 ML
0.833 LW
N
-3.536 -3.536 M
3.536 3.536 L
-3.536 3.536 M
3.536 -3.536 L
S
GR
GS
[0.6 0 0 0.6 334.78799 261.26076] CT
0 0.447 0.741 RC
10.0 ML
0.833 LW
N
-3.536 -3.536 M
3.536 3.536 L
-3.536 3.536 M
3.536 -3.536 L
S
GR
GS
[0.6 0 0 0.6 338.04598 261.46251] CT
0 0.447 0.741 RC
10.0 ML
0.833 LW
N
-3.536 -3.536 M
3.536 3.536 L
-3.536 3.536 M
3.536 -3.536 L
S
GR
GS
[0.6 0 0 0.6 341.30402 261.66654] CT
0 0.447 0.741 RC
10.0 ML
0.833 LW
N
-3.536 -3.536 M
3.536 3.536 L
-3.536 3.536 M
3.536 -3.536 L
S
GR
GS
[0.6 0 0 0.6 344.56201 261.95614] CT
0 0.447 0.741 RC
10.0 ML
0.833 LW
N
-3.536 -3.536 M
3.536 3.536 L
-3.536 3.536 M
3.536 -3.536 L
S
GR
GS
[0.6 0 0 0.6 347.82001 262.74963] CT
0 0.447 0.741 RC
10.0 ML
0.833 LW
N
-3.536 -3.536 M
3.536 3.536 L
-3.536 3.536 M
3.536 -3.536 L
S
GR
GS
[0.6 0 0 0.6 351.078 262.88586] CT
0 0.447 0.741 RC
10.0 ML
0.833 LW
N
-3.536 -3.536 M
3.536 3.536 L
-3.536 3.536 M
3.536 -3.536 L
S
GR
GS
[0.6 0 0 0.6 354.336 263.13719] CT
0 0.447 0.741 RC
10.0 ML
0.833 LW
N
-3.536 -3.536 M
3.536 3.536 L
-3.536 3.536 M
3.536 -3.536 L
S
GR
GS
[0.6 0 0 0.6 357.59399 264.0614] CT
0 0.447 0.741 RC
10.0 ML
0.833 LW
N
-3.536 -3.536 M
3.536 3.536 L
-3.536 3.536 M
3.536 -3.536 L
S
GR
GS
[0.6 0 0 0.6 360.85199 264.54798] CT
0 0.447 0.741 RC
10.0 ML
0.833 LW
N
-3.536 -3.536 M
3.536 3.536 L
-3.536 3.536 M
3.536 -3.536 L
S
GR
GS
[0.6 0 0 0.6 364.10999 265.02233] CT
0 0.447 0.741 RC
10.0 ML
0.833 LW
N
-3.536 -3.536 M
3.536 3.536 L
-3.536 3.536 M
3.536 -3.536 L
S
GR
GS
[0.6 0 0 0.6 367.36802 265.47019] CT
0 0.447 0.741 RC
10.0 ML
0.833 LW
N
-3.536 -3.536 M
3.536 3.536 L
-3.536 3.536 M
3.536 -3.536 L
S
GR
GS
[0.6 0 0 0.6 370.62601 265.66628] CT
0 0.447 0.741 RC
10.0 ML
0.833 LW
N
-3.536 -3.536 M
3.536 3.536 L
-3.536 3.536 M
3.536 -3.536 L
S
GR
GS
[0.6 0 0 0.6 373.88401 266.06532] CT
0 0.447 0.741 RC
10.0 ML
0.833 LW
N
-3.536 -3.536 M
3.536 3.536 L
-3.536 3.536 M
3.536 -3.536 L
S
GR
GS
[0.6 0 0 0.6 377.142 267.18054] CT
0 0.447 0.741 RC
10.0 ML
0.833 LW
N
-3.536 -3.536 M
3.536 3.536 L
-3.536 3.536 M
3.536 -3.536 L
S
GR
GS
[0.6 0 0 0.6 380.4 267.40708] CT
0 0.447 0.741 RC
10.0 ML
0.833 LW
N
-3.536 -3.536 M
3.536 3.536 L
-3.536 3.536 M
3.536 -3.536 L
S
GR
GS
[0.6 0 0 0.6 0 0] CT
0.851 0.325 0.098 RC
1 LJ
0.833 LW
N
96.43 76.338 M
101.86 76.853 L
107.29 77.062 L
112.72 77.599 L
118.15 82.52 L
123.58 79.477 L
129.01 87.018 L
134.44 80.086 L
139.87 81.708 L
145.3 82.658 L
150.73 82.345 L
156.16 81.699 L
161.59 81.574 L
167.02 84.638 L
172.45 94.315 L
177.88 86.653 L
183.31 86.048 L
188.74 90.296 L
194.17 86.327 L
199.6 98.687 L
205.03 92.291 L
210.46 85.637 L
215.89 104.55 L
221.32 87.197 L
226.75 98.902 L
232.18 95.095 L
237.61 92.203 L
243.04 94.516 L
248.47 91.693 L
253.9 115.693 L
259.33 106.826 L
264.76 99.086 L
270.19 98.566 L
275.62 107.321 L
281.05 97.782 L
286.48 109.099 L
291.91 108.093 L
297.34 100.089 L
302.77 92.002 L
308.2 96.898 L
313.63 113.858 L
319.06 110.102 L
324.49 112.308 L
329.92 103.091 L
335.35 111.933 L
340.78 104.235 L
346.21 111.134 L
351.64 114.276 L
357.07 100.397 L
362.5 113.548 L
367.93 110.851 L
373.36 101.08 L
378.79 116.847 L
384.22 110.761 L
389.65 116.02 L
395.08 129.746 L
400.51 120.518 L
405.94 108.94 L
411.37 111.339 L
416.8 117.001 L
422.23 127.364 L
427.66 121.849 L
433.09 123.423 L
438.52 119.817 L
443.95 107.797 L
449.38 123.597 L
454.81 104.89 L
460.24 133.657 L
465.67 125.456 L
471.1 129.607 L
476.53 121.791 L
481.96 136.3 L
487.39 113.769 L
492.82 112.597 L
498.25 121.331 L
503.68 130.384 L
509.11 130.432 L
514.54 125.848 L
519.97 126.044 L
525.4 138.247 L
530.83 125.925 L
536.26 136.348 L
541.69 124.015 L
547.12 126.489 L
552.55 132.174 L
557.98 138.541 L
563.41 136.715 L
568.84 131.202 L
574.27 143.203 L
579.7 119.926 L
585.13 127.415 L
590.56 135.924 L
595.99 137.248 L
601.42 141.891 L
606.85 138.71 L
612.28 132.026 L
617.71 143.336 L
623.14 134.046 L
628.57 142.278 L
634 144.33 L
S
GR
GS
[0.6 0 0 0.6 57.858 45.80302] CT
0.851 0.325 0.098 RC
10.0 ML
0.833 LW
N
-3.536 -3.536 M
3.536 3.536 L
-3.536 3.536 M
3.536 -3.536 L
S
GR
GS
[0.6 0 0 0.6 61.116 46.11206] CT
0.851 0.325 0.098 RC
10.0 ML
0.833 LW
N
-3.536 -3.536 M
3.536 3.536 L
-3.536 3.536 M
3.536 -3.536 L
S
GR
GS
[0.6 0 0 0.6 64.374 46.23712] CT
0.851 0.325 0.098 RC
10.0 ML
0.833 LW
N
-3.536 -3.536 M
3.536 3.536 L
-3.536 3.536 M
3.536 -3.536 L
S
GR
GS
[0.6 0 0 0.6 67.632 46.55917] CT
0.851 0.325 0.098 RC
10.0 ML
0.833 LW
N
-3.536 -3.536 M
3.536 3.536 L
-3.536 3.536 M
3.536 -3.536 L
S
GR
GS
[0.6 0 0 0.6 70.89 49.51178] CT
0.851 0.325 0.098 RC
10.0 ML
0.833 LW
N
-3.536 -3.536 M
3.536 3.536 L
-3.536 3.536 M
3.536 -3.536 L
S
GR
GS
[0.6 0 0 0.6 74.148 47.68618] CT
0.851 0.325 0.098 RC
10.0 ML
0.833 LW
N
-3.536 -3.536 M
3.536 3.536 L
-3.536 3.536 M
3.536 -3.536 L
S
GR
GS
[0.6 0 0 0.6 77.406 52.21062] CT
0.851 0.325 0.098 RC
10.0 ML
0.833 LW
N
-3.536 -3.536 M
3.536 3.536 L
-3.536 3.536 M
3.536 -3.536 L
S
GR
GS
[0.6 0 0 0.6 80.664 48.05139] CT
0.851 0.325 0.098 RC
10.0 ML
0.833 LW
N
-3.536 -3.536 M
3.536 3.536 L
-3.536 3.536 M
3.536 -3.536 L
S
GR
GS
[0.6 0 0 0.6 83.922 49.02458] CT
0.851 0.325 0.098 RC
10.0 ML
0.833 LW
N
-3.536 -3.536 M
3.536 3.536 L
-3.536 3.536 M
3.536 -3.536 L
S
GR
GS
[0.6 0 0 0.6 87.18 49.59474] CT
0.851 0.325 0.098 RC
10.0 ML
0.833 LW
N
-3.536 -3.536 M
3.536 3.536 L
-3.536 3.536 M
3.536 -3.536 L
S
GR
GS
[0.6 0 0 0.6 90.438 49.40724] CT
0.851 0.325 0.098 RC
10.0 ML
0.833 LW
N
-3.536 -3.536 M
3.536 3.536 L
-3.536 3.536 M
3.536 -3.536 L
S
GR
GS
[0.6 0 0 0.6 93.696 49.01922] CT
0.851 0.325 0.098 RC
10.0 ML
0.833 LW
N
-3.536 -3.536 M
3.536 3.536 L
-3.536 3.536 M
3.536 -3.536 L
S
GR
GS
[0.6 0 0 0.6 96.954 48.94453] CT
0.851 0.325 0.098 RC
10.0 ML
0.833 LW
N
-3.536 -3.536 M
3.536 3.536 L
-3.536 3.536 M
3.536 -3.536 L
S
GR
GS
[0.6 0 0 0.6 100.212 50.78268] CT
0.851 0.325 0.098 RC
10.0 ML
0.833 LW
N
-3.536 -3.536 M
3.536 3.536 L
-3.536 3.536 M
3.536 -3.536 L
S
GR
GS
[0.6 0 0 0.6 103.47 56.58888] CT
0.851 0.325 0.098 RC
10.0 ML
0.833 LW
N
-3.536 -3.536 M
3.536 3.536 L
-3.536 3.536 M
3.536 -3.536 L
S
GR
GS
[0.6 0 0 0.6 106.728 51.99189] CT
0.851 0.325 0.098 RC
10.0 ML
0.833 LW
N
-3.536 -3.536 M
3.536 3.536 L
-3.536 3.536 M
3.536 -3.536 L
S
GR
GS
[0.6 0 0 0.6 109.986 51.62898] CT
0.851 0.325 0.098 RC
10.0 ML
0.833 LW
N
-3.536 -3.536 M
3.536 3.536 L
-3.536 3.536 M
3.536 -3.536 L
S
GR
GS
[0.6 0 0 0.6 113.244 54.17735] CT
0.851 0.325 0.098 RC
10.0 ML
0.833 LW
N
-3.536 -3.536 M
3.536 3.536 L
-3.536 3.536 M
3.536 -3.536 L
S
GR
GS
[0.6 0 0 0.6 116.502 51.79597] CT
0.851 0.325 0.098 RC
10.0 ML
0.833 LW
N
-3.536 -3.536 M
3.536 3.536 L
-3.536 3.536 M
3.536 -3.536 L
S
GR
GS
[0.6 0 0 0.6 119.76 59.21196] CT
0.851 0.325 0.098 RC
10.0 ML
0.833 LW
N
-3.536 -3.536 M
3.536 3.536 L
-3.536 3.536 M
3.536 -3.536 L
S
GR
GS
[0.6 0 0 0.6 123.018 55.37462] CT
0.851 0.325 0.098 RC
10.0 ML
0.833 LW
N
-3.536 -3.536 M
3.536 3.536 L
-3.536 3.536 M
3.536 -3.536 L
S
GR
GS
[0.6 0 0 0.6 126.276 51.38208] CT
0.851 0.325 0.098 RC
10.0 ML
0.833 LW
N
-3.536 -3.536 M
3.536 3.536 L
-3.536 3.536 M
3.536 -3.536 L
S
GR
GS
[0.6 0 0 0.6 129.534 62.72999] CT
0.851 0.325 0.098 RC
10.0 ML
0.833 LW
N
-3.536 -3.536 M
3.536 3.536 L
-3.536 3.536 M
3.536 -3.536 L
S
GR
GS
[0.6 0 0 0.6 132.792 52.31792] CT
0.851 0.325 0.098 RC
10.0 ML
0.833 LW
N
-3.536 -3.536 M
3.536 3.536 L
-3.536 3.536 M
3.536 -3.536 L
S
GR
GS
[0.6 0 0 0.6 136.05 59.34099] CT
0.851 0.325 0.098 RC
10.0 ML
0.833 LW
N
-3.536 -3.536 M
3.536 3.536 L
-3.536 3.536 M
3.536 -3.536 L
S
GR
GS
[0.6 0 0 0.6 139.308 57.05726] CT
0.851 0.325 0.098 RC
10.0 ML
0.833 LW
N
-3.536 -3.536 M
3.536 3.536 L
-3.536 3.536 M
3.536 -3.536 L
S
GR
GS
[0.6 0 0 0.6 142.566 55.32166] CT
0.851 0.325 0.098 RC
10.0 ML
0.833 LW
N
-3.536 -3.536 M
3.536 3.536 L
-3.536 3.536 M
3.536 -3.536 L
S
GR
GS
[0.6 0 0 0.6 145.824 56.70965] CT
0.851 0.325 0.098 RC
10.0 ML
0.833 LW
N
-3.536 -3.536 M
3.536 3.536 L
-3.536 3.536 M
3.536 -3.536 L
S
GR
GS
[0.6 0 0 0.6 149.082 55.01553] CT
0.851 0.325 0.098 RC
10.0 ML
0.833 LW
N
-3.536 -3.536 M
3.536 3.536 L
-3.536 3.536 M
3.536 -3.536 L
S
GR
GS
[0.6 0 0 0.6 152.34 69.41571] CT
0.851 0.325 0.098 RC
10.0 ML
0.833 LW
N
-3.536 -3.536 M
3.536 3.536 L
-3.536 3.536 M
3.536 -3.536 L
S
GR
GS
[0.6 0 0 0.6 155.59799 64.09579] CT
0.851 0.325 0.098 RC
10.0 ML
0.833 LW
N
-3.536 -3.536 M
3.536 3.536 L
-3.536 3.536 M
3.536 -3.536 L
S
GR
GS
[0.6 0 0 0.6 158.85601 59.4515] CT
0.851 0.325 0.098 RC
10.0 ML
0.833 LW
N
-3.536 -3.536 M
3.536 3.536 L
-3.536 3.536 M
3.536 -3.536 L
S
GR
GS
[0.6 0 0 0.6 162.114 59.1394] CT
0.851 0.325 0.098 RC
10.0 ML
0.833 LW
N
-3.536 -3.536 M
3.536 3.536 L
-3.536 3.536 M
3.536 -3.536 L
S
GR
GS
[0.6 0 0 0.6 165.372 64.39258] CT
0.851 0.325 0.098 RC
10.0 ML
0.833 LW
N
-3.536 -3.536 M
3.536 3.536 L
-3.536 3.536 M
3.536 -3.536 L
S
GR
GS
[0.6 0 0 0.6 168.62999 58.66949] CT
0.851 0.325 0.098 RC
10.0 ML
0.833 LW
N
-3.536 -3.536 M
3.536 3.536 L
-3.536 3.536 M
3.536 -3.536 L
S
GR
GS
[0.6 0 0 0.6 171.88801 65.4596] CT
0.851 0.325 0.098 RC
10.0 ML
0.833 LW
N
-3.536 -3.536 M
3.536 3.536 L
-3.536 3.536 M
3.536 -3.536 L
S
GR
GS
[0.6 0 0 0.6 175.146 64.85591] CT
0.851 0.325 0.098 RC
10.0 ML
0.833 LW
N
-3.536 -3.536 M
3.536 3.536 L
-3.536 3.536 M
3.536 -3.536 L
S
GR
GS
[0.6 0 0 0.6 178.404 60.05335] CT
0.851 0.325 0.098 RC
10.0 ML
0.833 LW
N
-3.536 -3.536 M
3.536 3.536 L
-3.536 3.536 M
3.536 -3.536 L
S
GR
GS
[0.6 0 0 0.6 181.66199 55.20105] CT
0.851 0.325 0.098 RC
10.0 ML
0.833 LW
N
-3.536 -3.536 M
3.536 3.536 L
-3.536 3.536 M
3.536 -3.536 L
S
GR
GS
[0.6 0 0 0.6 184.92001 58.13897] CT
0.851 0.325 0.098 RC
10.0 ML
0.833 LW
N
-3.536 -3.536 M
3.536 3.536 L
-3.536 3.536 M
3.536 -3.536 L
S
GR
GS
[0.6 0 0 0.6 188.178 68.31502] CT
0.851 0.325 0.098 RC
10.0 ML
0.833 LW
N
-3.536 -3.536 M
3.536 3.536 L
-3.536 3.536 M
3.536 -3.536 L
S
GR
GS
[0.6 0 0 0.6 191.436 66.06099] CT
0.851 0.325 0.098 RC
10.0 ML
0.833 LW
N
-3.536 -3.536 M
3.536 3.536 L
-3.536 3.536 M
3.536 -3.536 L
S
GR
GS
[0.6 0 0 0.6 194.69399 67.385] CT
0.851 0.325 0.098 RC
10.0 ML
0.833 LW
N
-3.536 -3.536 M
3.536 3.536 L
-3.536 3.536 M
3.536 -3.536 L
S
GR
GS
[0.6 0 0 0.6 197.95201 61.85462] CT
0.851 0.325 0.098 RC
10.0 ML
0.833 LW
N
-3.536 -3.536 M
3.536 3.536 L
-3.536 3.536 M
3.536 -3.536 L
S
GR
GS
[0.6 0 0 0.6 201.21 67.15984] CT
0.851 0.325 0.098 RC
10.0 ML
0.833 LW
N
-3.536 -3.536 M
3.536 3.536 L
-3.536 3.536 M
3.536 -3.536 L
S
GR
GS
[0.6 0 0 0.6 204.468 62.54096] CT
0.851 0.325 0.098 RC
10.0 ML
0.833 LW
N
-3.536 -3.536 M
3.536 3.536 L
-3.536 3.536 M
3.536 -3.536 L
S
GR
GS
[0.6 0 0 0.6 207.72599 66.68059] CT
0.851 0.325 0.098 RC
10.0 ML
0.833 LW
N
-3.536 -3.536 M
3.536 3.536 L
-3.536 3.536 M
3.536 -3.536 L
S
GR
GS
[0.6 0 0 0.6 210.98401 68.56589] CT
0.851 0.325 0.098 RC
10.0 ML
0.833 LW
N
-3.536 -3.536 M
3.536 3.536 L
-3.536 3.536 M
3.536 -3.536 L
S
GR
GS
[0.6 0 0 0.6 214.242 60.23795] CT
0.851 0.325 0.098 RC
10.0 ML
0.833 LW
N
-3.536 -3.536 M
3.536 3.536 L
-3.536 3.536 M
3.536 -3.536 L
S
GR
GS
[0.6 0 0 0.6 217.5 68.12874] CT
0.851 0.325 0.098 RC
10.0 ML
0.833 LW
N
-3.536 -3.536 M
3.536 3.536 L
-3.536 3.536 M
3.536 -3.536 L
S
GR
GS
[0.6 0 0 0.6 220.758 66.51054] CT
0.851 0.325 0.098 RC
10.0 ML
0.833 LW
N
-3.536 -3.536 M
3.536 3.536 L
-3.536 3.536 M
3.536 -3.536 L
S
GR
GS
[0.6 0 0 0.6 224.01599 60.6477] CT
0.851 0.325 0.098 RC
10.0 ML
0.833 LW
N
-3.536 -3.536 M
3.536 3.536 L
-3.536 3.536 M
3.536 -3.536 L
S
GR
GS
[0.6 0 0 0.6 227.27401 70.10802] CT
0.851 0.325 0.098 RC
10.0 ML
0.833 LW
N
-3.536 -3.536 M
3.536 3.536 L
-3.536 3.536 M
3.536 -3.536 L
S
GR
GS
[0.6 0 0 0.6 230.532 66.45682] CT
0.851 0.325 0.098 RC
10.0 ML
0.833 LW
N
-3.536 -3.536 M
3.536 3.536 L
-3.536 3.536 M
3.536 -3.536 L
S
GR
GS
[0.6 0 0 0.6 233.79 69.61194] CT
0.851 0.325 0.098 RC
10.0 ML
0.833 LW
N
-3.536 -3.536 M
3.536 3.536 L
-3.536 3.536 M
3.536 -3.536 L
S
GR
GS
[0.6 0 0 0.6 237.04799 77.84743] CT
0.851 0.325 0.098 RC
10.0 ML
0.833 LW
N
-3.536 -3.536 M
3.536 3.536 L
-3.536 3.536 M
3.536 -3.536 L
S
GR
GS
[0.6 0 0 0.6 240.30601 72.31093] CT
0.851 0.325 0.098 RC
10.0 ML
0.833 LW
N
-3.536 -3.536 M
3.536 3.536 L
-3.536 3.536 M
3.536 -3.536 L
S
GR
GS
[0.6 0 0 0.6 243.564 65.36393] CT
0.851 0.325 0.098 RC
10.0 ML
0.833 LW
N
-3.536 -3.536 M
3.536 3.536 L
-3.536 3.536 M
3.536 -3.536 L
S
GR
GS
[0.6 0 0 0.6 246.822 66.8035] CT
0.851 0.325 0.098 RC
10.0 ML
0.833 LW
N
-3.536 -3.536 M
3.536 3.536 L
-3.536 3.536 M
3.536 -3.536 L
S
GR
GS
[0.6 0 0 0.6 250.07999 70.20062] CT
0.851 0.325 0.098 RC
10.0 ML
0.833 LW
N
-3.536 -3.536 M
3.536 3.536 L
-3.536 3.536 M
3.536 -3.536 L
S
GR
GS
[0.6 0 0 0.6 253.33801 76.41857] CT
0.851 0.325 0.098 RC
10.0 ML
0.833 LW
N
-3.536 -3.536 M
3.536 3.536 L
-3.536 3.536 M
3.536 -3.536 L
S
GR
GS
[0.6 0 0 0.6 256.596 73.10962] CT
0.851 0.325 0.098 RC
10.0 ML
0.833 LW
N
-3.536 -3.536 M
3.536 3.536 L
-3.536 3.536 M
3.536 -3.536 L
S
GR
GS
[0.6 0 0 0.6 259.854 74.05403] CT
0.851 0.325 0.098 RC
10.0 ML
0.833 LW
N
-3.536 -3.536 M
3.536 3.536 L
-3.536 3.536 M
3.536 -3.536 L
S
GR
GS
[0.6 0 0 0.6 263.11199 71.89] CT
0.851 0.325 0.098 RC
10.0 ML
0.833 LW
N
-3.536 -3.536 M
3.536 3.536 L
-3.536 3.536 M
3.536 -3.536 L
S
GR
GS
[0.6 0 0 0.6 266.37001 64.67835] CT
0.851 0.325 0.098 RC
10.0 ML
0.833 LW
N
-3.536 -3.536 M
3.536 3.536 L
-3.536 3.536 M
3.536 -3.536 L
S
GR
GS
[0.6 0 0 0.6 269.628 74.15842] CT
0.851 0.325 0.098 RC
10.0 ML
0.833 LW
N
-3.536 -3.536 M
3.536 3.536 L
-3.536 3.536 M
3.536 -3.536 L
S
GR
GS
[0.6 0 0 0.6 272.886 62.93403] CT
0.851 0.325 0.098 RC
10.0 ML
0.833 LW
N
-3.536 -3.536 M
3.536 3.536 L
-3.536 3.536 M
3.536 -3.536 L
S
GR
GS
[0.6 0 0 0.6 276.14399 80.19422] CT
0.851 0.325 0.098 RC
10.0 ML
0.833 LW
N
-3.536 -3.536 M
3.536 3.536 L
-3.536 3.536 M
3.536 -3.536 L
S
GR
GS
[0.6 0 0 0.6 279.40201 75.27365] CT
0.851 0.325 0.098 RC
10.0 ML
0.833 LW
N
-3.536 -3.536 M
3.536 3.536 L
-3.536 3.536 M
3.536 -3.536 L
S
GR
GS
[0.6 0 0 0.6 282.66 77.76432] CT
0.851 0.325 0.098 RC
10.0 ML
0.833 LW
N
-3.536 -3.536 M
3.536 3.536 L
-3.536 3.536 M
3.536 -3.536 L
S
GR
GS
[0.6 0 0 0.6 285.918 73.07472] CT
0.851 0.325 0.098 RC
10.0 ML
0.833 LW
N
-3.536 -3.536 M
3.536 3.536 L
-3.536 3.536 M
3.536 -3.536 L
S
GR
GS
[0.6 0 0 0.6 289.17599 81.78028] CT
0.851 0.325 0.098 RC
10.0 ML
0.833 LW
N
-3.536 -3.536 M
3.536 3.536 L
-3.536 3.536 M
3.536 -3.536 L
S
GR
GS
[0.6 0 0 0.6 292.43401 68.2616] CT
0.851 0.325 0.098 RC
10.0 ML
0.833 LW
N
-3.536 -3.536 M
3.536 3.536 L
-3.536 3.536 M
3.536 -3.536 L
S
GR
GS
[0.6 0 0 0.6 295.692 67.55811] CT
0.851 0.325 0.098 RC
10.0 ML
0.833 LW
N
-3.536 -3.536 M
3.536 3.536 L
-3.536 3.536 M
3.536 -3.536 L
S
GR
GS
[0.6 0 0 0.6 298.95 72.79844] CT
0.851 0.325 0.098 RC
10.0 ML
0.833 LW
N
-3.536 -3.536 M
3.536 3.536 L
-3.536 3.536 M
3.536 -3.536 L
S
GR
GS
[0.6 0 0 0.6 302.208 78.2304] CT
0.851 0.325 0.098 RC
10.0 ML
0.833 LW
N
-3.536 -3.536 M
3.536 3.536 L
-3.536 3.536 M
3.536 -3.536 L
S
GR
GS
[0.6 0 0 0.6 305.46599 78.25902] CT
0.851 0.325 0.098 RC
10.0 ML
0.833 LW
N
-3.536 -3.536 M
3.536 3.536 L
-3.536 3.536 M
3.536 -3.536 L
S
GR
GS
[0.6 0 0 0.6 308.72399 75.50891] CT
0.851 0.325 0.098 RC
10.0 ML
0.833 LW
N
-3.536 -3.536 M
3.536 3.536 L
-3.536 3.536 M
3.536 -3.536 L
S
GR
GS
[0.6 0 0 0.6 311.98198 75.62616] CT
0.851 0.325 0.098 RC
10.0 ML
0.833 LW
N
-3.536 -3.536 M
3.536 3.536 L
-3.536 3.536 M
3.536 -3.536 L
S
GR
GS
[0.6 0 0 0.6 315.24001 82.94832] CT
0.851 0.325 0.098 RC
10.0 ML
0.833 LW
N
-3.536 -3.536 M
3.536 3.536 L
-3.536 3.536 M
3.536 -3.536 L
S
GR
GS
[0.6 0 0 0.6 318.49801 75.55483] CT
0.851 0.325 0.098 RC
10.0 ML
0.833 LW
N
-3.536 -3.536 M
3.536 3.536 L
-3.536 3.536 M
3.536 -3.536 L
S
GR
GS
[0.6 0 0 0.6 321.75601 81.80905] CT
0.851 0.325 0.098 RC
10.0 ML
0.833 LW
N
-3.536 -3.536 M
3.536 3.536 L
-3.536 3.536 M
3.536 -3.536 L
S
GR
GS
[0.6 0 0 0.6 325.014 74.40914] CT
0.851 0.325 0.098 RC
10.0 ML
0.833 LW
N
-3.536 -3.536 M
3.536 3.536 L
-3.536 3.536 M
3.536 -3.536 L
S
GR
GS
[0.6 0 0 0.6 328.272 75.89325] CT
0.851 0.325 0.098 RC
10.0 ML
0.833 LW
N
-3.536 -3.536 M
3.536 3.536 L
-3.536 3.536 M
3.536 -3.536 L
S
GR
GS
[0.6 0 0 0.6 331.52999 79.30431] CT
0.851 0.325 0.098 RC
10.0 ML
0.833 LW
N
-3.536 -3.536 M
3.536 3.536 L
-3.536 3.536 M
3.536 -3.536 L
S
GR
GS
[0.6 0 0 0.6 334.78799 83.12449] CT
0.851 0.325 0.098 RC
10.0 ML
0.833 LW
N
-3.536 -3.536 M
3.536 3.536 L
-3.536 3.536 M
3.536 -3.536 L
S
GR
GS
[0.6 0 0 0.6 338.04598 82.02916] CT
0.851 0.325 0.098 RC
10.0 ML
0.833 LW
N
-3.536 -3.536 M
3.536 3.536 L
-3.536 3.536 M
3.536 -3.536 L
S
GR
GS
[0.6 0 0 0.6 341.30402 78.72112] CT
0.851 0.325 0.098 RC
10.0 ML
0.833 LW
N
-3.536 -3.536 M
3.536 3.536 L
-3.536 3.536 M
3.536 -3.536 L
S
GR
GS
[0.6 0 0 0.6 344.56201 85.9219] CT
0.851 0.325 0.098 RC
10.0 ML
0.833 LW
N
-3.536 -3.536 M
3.536 3.536 L
-3.536 3.536 M
3.536 -3.536 L
S
GR
GS
[0.6 0 0 0.6 347.82001 71.95582] CT
0.851 0.325 0.098 RC
10.0 ML
0.833 LW
N
-3.536 -3.536 M
3.536 3.536 L
-3.536 3.536 M
3.536 -3.536 L
S
GR
GS
[0.6 0 0 0.6 351.078 76.44873] CT
0.851 0.325 0.098 RC
10.0 ML
0.833 LW
N
-3.536 -3.536 M
3.536 3.536 L
-3.536 3.536 M
3.536 -3.536 L
S
GR
GS
[0.6 0 0 0.6 354.336 81.5542] CT
0.851 0.325 0.098 RC
10.0 ML
0.833 LW
N
-3.536 -3.536 M
3.536 3.536 L
-3.536 3.536 M
3.536 -3.536 L
S
GR
GS
[0.6 0 0 0.6 357.59399 82.34907] CT
0.851 0.325 0.098 RC
10.0 ML
0.833 LW
N
-3.536 -3.536 M
3.536 3.536 L
-3.536 3.536 M
3.536 -3.536 L
S
GR
GS
[0.6 0 0 0.6 360.85199 85.13484] CT
0.851 0.325 0.098 RC
10.0 ML
0.833 LW
N
-3.536 -3.536 M
3.536 3.536 L
-3.536 3.536 M
3.536 -3.536 L
S
GR
GS
[0.6 0 0 0.6 364.10999 83.22598] CT
0.851 0.325 0.098 RC
10.0 ML
0.833 LW
N
-3.536 -3.536 M
3.536 3.536 L
-3.536 3.536 M
3.536 -3.536 L
S
GR
GS
[0.6 0 0 0.6 367.36802 79.21553] CT
0.851 0.325 0.098 RC
10.0 ML
0.833 LW
N
-3.536 -3.536 M
3.536 3.536 L
-3.536 3.536 M
3.536 -3.536 L
S
GR
GS
[0.6 0 0 0.6 370.62601 86.00134] CT
0.851 0.325 0.098 RC
10.0 ML
0.833 LW
N
-3.536 -3.536 M
3.536 3.536 L
-3.536 3.536 M
3.536 -3.536 L
S
GR
GS
[0.6 0 0 0.6 373.88401 80.42749] CT
0.851 0.325 0.098 RC
10.0 ML
0.833 LW
N
-3.536 -3.536 M
3.536 3.536 L
-3.536 3.536 M
3.536 -3.536 L
S
GR
GS
[0.6 0 0 0.6 377.142 85.36674] CT
0.851 0.325 0.098 RC
10.0 ML
0.833 LW
N
-3.536 -3.536 M
3.536 3.536 L
-3.536 3.536 M
3.536 -3.536 L
S
GR
GS
[0.6 0 0 0.6 380.4 86.59784] CT
0.851 0.325 0.098 RC
10.0 ML
0.833 LW
N
-3.536 -3.536 M
3.536 3.536 L
-3.536 3.536 M
3.536 -3.536 L
S
GR
GS
[0.6 0 0 0.6 0 0] CT
0.929 0.694 0.125 RC
1 LJ
0.833 LW
N
96.43 76.348 M
101.86 80.777 L
107.29 77.61 L
112.72 78.777 L
118.15 90.369 L
123.58 79.08 L
129.01 83.675 L
134.44 90.348 L
139.87 94.687 L
145.3 90.169 L
150.73 85.912 L
156.16 93.961 L
161.59 89.547 L
167.02 102.637 L
172.45 106.198 L
177.88 100.152 L
183.31 112.735 L
188.74 99.005 L
194.17 119.088 L
199.6 100.827 L
205.03 107.734 L
210.46 105.083 L
215.89 110.446 L
221.32 119.197 L
226.75 122.232 L
232.18 110.946 L
237.61 117.058 L
243.04 120.555 L
248.47 116.604 L
253.9 123.106 L
259.33 128.252 L
264.76 122.387 L
270.19 114.261 L
275.62 122.216 L
281.05 142.103 L
286.48 136.486 L
291.91 138.024 L
297.34 115.088 L
302.77 123.205 L
308.2 147.111 L
313.63 126.842 L
319.06 147.75 L
324.49 141.83 L
329.92 150.122 L
335.35 143.77 L
340.78 141.461 L
346.21 163.353 L
351.64 148.809 L
357.07 143.888 L
362.5 168.877 L
367.93 143.289 L
373.36 145.626 L
378.79 160.718 L
384.22 147.562 L
389.65 161.858 L
395.08 134.534 L
400.51 154.124 L
405.94 157.687 L
411.37 163.616 L
416.8 158.01 L
422.23 183.583 L
427.66 169.281 L
433.09 173.12 L
438.52 151.322 L
443.95 169.683 L
449.38 170.756 L
454.81 149.761 L
460.24 155.162 L
465.67 148.061 L
471.1 188.761 L
476.53 168.868 L
481.96 181.681 L
487.39 153.911 L
492.82 163.198 L
498.25 186.613 L
503.68 188.64 L
509.11 182.521 L
514.54 179.7 L
519.97 190.821 L
525.4 180.608 L
530.83 203.49 L
536.26 175.226 L
541.69 178.236 L
547.12 182.345 L
552.55 182.316 L
557.98 201.782 L
563.41 186.107 L
568.84 188.152 L
574.27 193.506 L
579.7 178.352 L
585.13 202.721 L
590.56 198.734 L
595.99 198.8 L
601.42 194.14 L
606.85 158.663 L
612.28 195.234 L
617.71 199.94 L
623.14 219.096 L
628.57 193.978 L
634 187.648 L
S
GR
GS
[0.6 0 0 0.6 57.858 45.80884] CT
0.929 0.694 0.125 RC
10.0 ML
0.833 LW
N
-3.536 -3.536 M
3.536 3.536 L
-3.536 3.536 M
3.536 -3.536 L
S
GR
GS
[0.6 0 0 0.6 61.116 48.4662] CT
0.929 0.694 0.125 RC
10.0 ML
0.833 LW
N
-3.536 -3.536 M
3.536 3.536 L
-3.536 3.536 M
3.536 -3.536 L
S
GR
GS
[0.6 0 0 0.6 64.374 46.5659] CT
0.929 0.694 0.125 RC
10.0 ML
0.833 LW
N
-3.536 -3.536 M
3.536 3.536 L
-3.536 3.536 M
3.536 -3.536 L
S
GR
GS
[0.6 0 0 0.6 67.632 47.26647] CT
0.929 0.694 0.125 RC
10.0 ML
0.833 LW
N
-3.536 -3.536 M
3.536 3.536 L
-3.536 3.536 M
3.536 -3.536 L
S
GR
GS
[0.6 0 0 0.6 70.89 54.22159] CT
0.929 0.694 0.125 RC
10.0 ML
0.833 LW
N
-3.536 -3.536 M
3.536 3.536 L
-3.536 3.536 M
3.536 -3.536 L
S
GR
GS
[0.6 0 0 0.6 74.148 47.44801] CT
0.929 0.694 0.125 RC
10.0 ML
0.833 LW
N
-3.536 -3.536 M
3.536 3.536 L
-3.536 3.536 M
3.536 -3.536 L
S
GR
GS
[0.6 0 0 0.6 77.406 50.20486] CT
0.929 0.694 0.125 RC
10.0 ML
0.833 LW
N
-3.536 -3.536 M
3.536 3.536 L
-3.536 3.536 M
3.536 -3.536 L
S
GR
GS
[0.6 0 0 0.6 80.664 54.20888] CT
0.929 0.694 0.125 RC
10.0 ML
0.833 LW
N
-3.536 -3.536 M
3.536 3.536 L
-3.536 3.536 M
3.536 -3.536 L
S
GR
GS
[0.6 0 0 0.6 83.922 56.8119] CT
0.929 0.694 0.125 RC
10.0 ML
0.833 LW
N
-3.536 -3.536 M
3.536 3.536 L
-3.536 3.536 M
3.536 -3.536 L
S
GR
GS
[0.6 0 0 0.6 87.18 54.10112] CT
0.929 0.694 0.125 RC
10.0 ML
0.833 LW
N
-3.536 -3.536 M
3.536 3.536 L
-3.536 3.536 M
3.536 -3.536 L
S
GR
GS
[0.6 0 0 0.6 90.438 51.54693] CT
0.929 0.694 0.125 RC
10.0 ML
0.833 LW
N
-3.536 -3.536 M
3.536 3.536 L
-3.536 3.536 M
3.536 -3.536 L
S
GR
GS
[0.6 0 0 0.6 93.696 56.37659] CT
0.929 0.694 0.125 RC
10.0 ML
0.833 LW
N
-3.536 -3.536 M
3.536 3.536 L
-3.536 3.536 M
3.536 -3.536 L
S
GR
GS
[0.6 0 0 0.6 96.954 53.72826] CT
0.929 0.694 0.125 RC
10.0 ML
0.833 LW
N
-3.536 -3.536 M
3.536 3.536 L
-3.536 3.536 M
3.536 -3.536 L
S
GR
GS
[0.6 0 0 0.6 100.212 61.58232] CT
0.929 0.694 0.125 RC
10.0 ML
0.833 LW
N
-3.536 -3.536 M
3.536 3.536 L
-3.536 3.536 M
3.536 -3.536 L
S
GR
GS
[0.6 0 0 0.6 103.47 63.7191] CT
0.929 0.694 0.125 RC
10.0 ML
0.833 LW
N
-3.536 -3.536 M
3.536 3.536 L
-3.536 3.536 M
3.536 -3.536 L
S
GR
GS
[0.6 0 0 0.6 106.728 60.09131] CT
0.929 0.694 0.125 RC
10.0 ML
0.833 LW
N
-3.536 -3.536 M
3.536 3.536 L
-3.536 3.536 M
3.536 -3.536 L
S
GR
GS
[0.6 0 0 0.6 109.986 67.64092] CT
0.929 0.694 0.125 RC
10.0 ML
0.833 LW
N
-3.536 -3.536 M
3.536 3.536 L
-3.536 3.536 M
3.536 -3.536 L
S
GR
GS
[0.6 0 0 0.6 113.244 59.40298] CT
0.929 0.694 0.125 RC
10.0 ML
0.833 LW
N
-3.536 -3.536 M
3.536 3.536 L
-3.536 3.536 M
3.536 -3.536 L
S
GR
GS
[0.6 0 0 0.6 116.502 71.45269] CT
0.929 0.694 0.125 RC
10.0 ML
0.833 LW
N
-3.536 -3.536 M
3.536 3.536 L
-3.536 3.536 M
3.536 -3.536 L
S
GR
GS
[0.6 0 0 0.6 119.76 60.49632] CT
0.929 0.694 0.125 RC
10.0 ML
0.833 LW
N
-3.536 -3.536 M
3.536 3.536 L
-3.536 3.536 M
3.536 -3.536 L
S
GR
GS
[0.6 0 0 0.6 123.018 64.64055] CT
0.929 0.694 0.125 RC
10.0 ML
0.833 LW
N
-3.536 -3.536 M
3.536 3.536 L
-3.536 3.536 M
3.536 -3.536 L
S
GR
GS
[0.6 0 0 0.6 126.276 63.0499] CT
0.929 0.694 0.125 RC
10.0 ML
0.833 LW
N
-3.536 -3.536 M
3.536 3.536 L
-3.536 3.536 M
3.536 -3.536 L
S
GR
GS
[0.6 0 0 0.6 129.534 66.26732] CT
0.929 0.694 0.125 RC
10.0 ML
0.833 LW
N
-3.536 -3.536 M
3.536 3.536 L
-3.536 3.536 M
3.536 -3.536 L
S
GR
GS
[0.6 0 0 0.6 132.792 71.51836] CT
0.929 0.694 0.125 RC
10.0 ML
0.833 LW
N
-3.536 -3.536 M
3.536 3.536 L
-3.536 3.536 M
3.536 -3.536 L
S
GR
GS
[0.6 0 0 0.6 136.05 73.33906] CT
0.929 0.694 0.125 RC
10.0 ML
0.833 LW
N
-3.536 -3.536 M
3.536 3.536 L
-3.536 3.536 M
3.536 -3.536 L
S
GR
GS
[0.6 0 0 0.6 139.308 66.56763] CT
0.929 0.694 0.125 RC
10.0 ML
0.833 LW
N
-3.536 -3.536 M
3.536 3.536 L
-3.536 3.536 M
3.536 -3.536 L
S
GR
GS
[0.6 0 0 0.6 142.566 70.23491] CT
0.929 0.694 0.125 RC
10.0 ML
0.833 LW
N
-3.536 -3.536 M
3.536 3.536 L
-3.536 3.536 M
3.536 -3.536 L
S
GR
GS
[0.6 0 0 0.6 145.824 72.33312] CT
0.929 0.694 0.125 RC
10.0 ML
0.833 LW
N
-3.536 -3.536 M
3.536 3.536 L
-3.536 3.536 M
3.536 -3.536 L
S
GR
GS
[0.6 0 0 0.6 149.082 69.9623] CT
0.929 0.694 0.125 RC
10.0 ML
0.833 LW
N
-3.536 -3.536 M
3.536 3.536 L
-3.536 3.536 M
3.536 -3.536 L
S
GR
GS
[0.6 0 0 0.6 152.34 73.86331] CT
0.929 0.694 0.125 RC
10.0 ML
0.833 LW
N
-3.536 -3.536 M
3.536 3.536 L
-3.536 3.536 M
3.536 -3.536 L
S
GR
GS
[0.6 0 0 0.6 155.59799 76.95124] CT
0.929 0.694 0.125 RC
10.0 ML
0.833 LW
N
-3.536 -3.536 M
3.536 3.536 L
-3.536 3.536 M
3.536 -3.536 L
S
GR
GS
[0.6 0 0 0.6 158.85601 73.43197] CT
0.929 0.694 0.125 RC
10.0 ML
0.833 LW
N
-3.536 -3.536 M
3.536 3.536 L
-3.536 3.536 M
3.536 -3.536 L
S
GR
GS
[0.6 0 0 0.6 162.114 68.55656] CT
0.929 0.694 0.125 RC
10.0 ML
0.833 LW
N
-3.536 -3.536 M
3.536 3.536 L
-3.536 3.536 M
3.536 -3.536 L
S
GR
GS
[0.6 0 0 0.6 165.372 73.32957] CT
0.929 0.694 0.125 RC
10.0 ML
0.833 LW
N
-3.536 -3.536 M
3.536 3.536 L
-3.536 3.536 M
3.536 -3.536 L
S
GR
GS
[0.6 0 0 0.6 168.62999 85.26204] CT
0.929 0.694 0.125 RC
10.0 ML
0.833 LW
N
-3.536 -3.536 M
3.536 3.536 L
-3.536 3.536 M
3.536 -3.536 L
S
GR
GS
[0.6 0 0 0.6 171.88801 81.89171] CT
0.929 0.694 0.125 RC
10.0 ML
0.833 LW
N
-3.536 -3.536 M
3.536 3.536 L
-3.536 3.536 M
3.536 -3.536 L
S
GR
GS
[0.6 0 0 0.6 175.146 82.81438] CT
0.929 0.694 0.125 RC
10.0 ML
0.833 LW
N
-3.536 -3.536 M
3.536 3.536 L
-3.536 3.536 M
3.536 -3.536 L
S
GR
GS
[0.6 0 0 0.6 178.404 69.05294] CT
0.929 0.694 0.125 RC
10.0 ML
0.833 LW
N
-3.536 -3.536 M
3.536 3.536 L
-3.536 3.536 M
3.536 -3.536 L
S
GR
GS
[0.6 0 0 0.6 181.66199 73.92316] CT
0.929 0.694 0.125 RC
10.0 ML
0.833 LW
N
-3.536 -3.536 M
3.536 3.536 L
-3.536 3.536 M
3.536 -3.536 L
S
GR
GS
[0.6 0 0 0.6 184.92001 88.26639] CT
0.929 0.694 0.125 RC
10.0 ML
0.833 LW
N
-3.536 -3.536 M
3.536 3.536 L
-3.536 3.536 M
3.536 -3.536 L
S
GR
GS
[0.6 0 0 0.6 188.178 76.1051] CT
0.929 0.694 0.125 RC
10.0 ML
0.833 LW
N
-3.536 -3.536 M
3.536 3.536 L
-3.536 3.536 M
3.536 -3.536 L
S
GR
GS
[0.6 0 0 0.6 191.436 88.65013] CT
0.929 0.694 0.125 RC
10.0 ML
0.833 LW
N
-3.536 -3.536 M
3.536 3.536 L
-3.536 3.536 M
3.536 -3.536 L
S
GR
GS
[0.6 0 0 0.6 194.69399 85.09796] CT
0.929 0.694 0.125 RC
10.0 ML
0.833 LW
N
-3.536 -3.536 M
3.536 3.536 L
-3.536 3.536 M
3.536 -3.536 L
S
GR
GS
[0.6 0 0 0.6 197.95201 90.07301] CT
0.929 0.694 0.125 RC
10.0 ML
0.833 LW
N
-3.536 -3.536 M
3.536 3.536 L
-3.536 3.536 M
3.536 -3.536 L
S
GR
GS
[0.6 0 0 0.6 201.21 86.26201] CT
0.929 0.694 0.125 RC
10.0 ML
0.833 LW
N
-3.536 -3.536 M
3.536 3.536 L
-3.536 3.536 M
3.536 -3.536 L
S
GR
GS
[0.6 0 0 0.6 204.468 84.87677] CT
0.929 0.694 0.125 RC
10.0 ML
0.833 LW
N
-3.536 -3.536 M
3.536 3.536 L
-3.536 3.536 M
3.536 -3.536 L
S
GR
GS
[0.6 0 0 0.6 207.72599 98.01157] CT
0.929 0.694 0.125 RC
10.0 ML
0.833 LW
N
-3.536 -3.536 M
3.536 3.536 L
-3.536 3.536 M
3.536 -3.536 L
S
GR
GS
[0.6 0 0 0.6 210.98401 89.28535] CT
0.929 0.694 0.125 RC
10.0 ML
0.833 LW
N
-3.536 -3.536 M
3.536 3.536 L
-3.536 3.536 M
3.536 -3.536 L
S
GR
GS
[0.6 0 0 0.6 214.242 86.33273] CT
0.929 0.694 0.125 RC
10.0 ML
0.833 LW
N
-3.536 -3.536 M
3.536 3.536 L
-3.536 3.536 M
3.536 -3.536 L
S
GR
GS
[0.6 0 0 0.6 217.5 101.32618] CT
0.929 0.694 0.125 RC
10.0 ML
0.833 LW
N
-3.536 -3.536 M
3.536 3.536 L
-3.536 3.536 M
3.536 -3.536 L
S
GR
GS
[0.6 0 0 0.6 220.758 85.97348] CT
0.929 0.694 0.125 RC
10.0 ML
0.833 LW
N
-3.536 -3.536 M
3.536 3.536 L
-3.536 3.536 M
3.536 -3.536 L
S
GR
GS
[0.6 0 0 0.6 224.01599 87.37571] CT
0.929 0.694 0.125 RC
10.0 ML
0.833 LW
N
-3.536 -3.536 M
3.536 3.536 L
-3.536 3.536 M
3.536 -3.536 L
S
GR
GS
[0.6 0 0 0.6 227.27401 96.43071] CT
0.929 0.694 0.125 RC
10.0 ML
0.833 LW
N
-3.536 -3.536 M
3.536 3.536 L
-3.536 3.536 M
3.536 -3.536 L
S
GR
GS
[0.6 0 0 0.6 230.532 88.53717] CT
0.929 0.694 0.125 RC
10.0 ML
0.833 LW
N
-3.536 -3.536 M
3.536 3.536 L
-3.536 3.536 M
3.536 -3.536 L
S
GR
GS
[0.6 0 0 0.6 233.79 97.11507] CT
0.929 0.694 0.125 RC
10.0 ML
0.833 LW
N
-3.536 -3.536 M
3.536 3.536 L
-3.536 3.536 M
3.536 -3.536 L
S
GR
GS
[0.6 0 0 0.6 237.04799 80.72061] CT
0.929 0.694 0.125 RC
10.0 ML
0.833 LW
N
-3.536 -3.536 M
3.536 3.536 L
-3.536 3.536 M
3.536 -3.536 L
S
GR
GS
[0.6 0 0 0.6 240.30601 92.47445] CT
0.929 0.694 0.125 RC
10.0 ML
0.833 LW
N
-3.536 -3.536 M
3.536 3.536 L
-3.536 3.536 M
3.536 -3.536 L
S
GR
GS
[0.6 0 0 0.6 243.564 94.61231] CT
0.929 0.694 0.125 RC
10.0 ML
0.833 LW
N
-3.536 -3.536 M
3.536 3.536 L
-3.536 3.536 M
3.536 -3.536 L
S
GR
GS
[0.6 0 0 0.6 246.822 98.16953] CT
0.929 0.694 0.125 RC
10.0 ML
0.833 LW
N
-3.536 -3.536 M
3.536 3.536 L
-3.536 3.536 M
3.536 -3.536 L
S
GR
GS
[0.6 0 0 0.6 250.07999 94.80609] CT
0.929 0.694 0.125 RC
10.0 ML
0.833 LW
N
-3.536 -3.536 M
3.536 3.536 L
-3.536 3.536 M
3.536 -3.536 L
S
GR
GS
[0.6 0 0 0.6 253.33801 110.14991] CT
0.929 0.694 0.125 RC
10.0 ML
0.833 LW
N
-3.536 -3.536 M
3.536 3.536 L
-3.536 3.536 M
3.536 -3.536 L
S
GR
GS
[0.6 0 0 0.6 256.596 101.56879] CT
0.929 0.694 0.125 RC
10.0 ML
0.833 LW
N
-3.536 -3.536 M
3.536 3.536 L
-3.536 3.536 M
3.536 -3.536 L
S
GR
GS
[0.6 0 0 0.6 259.854 103.87196] CT
0.929 0.694 0.125 RC
10.0 ML
0.833 LW
N
-3.536 -3.536 M
3.536 3.536 L
-3.536 3.536 M
3.536 -3.536 L
S
GR
GS
[0.6 0 0 0.6 263.11199 90.79319] CT
0.929 0.694 0.125 RC
10.0 ML
0.833 LW
N
-3.536 -3.536 M
3.536 3.536 L
-3.536 3.536 M
3.536 -3.536 L
S
GR
GS
[0.6 0 0 0.6 266.37001 101.80987] CT
0.929 0.694 0.125 RC
10.0 ML
0.833 LW
N
-3.536 -3.536 M
3.536 3.536 L
-3.536 3.536 M
3.536 -3.536 L
S
GR
GS
[0.6 0 0 0.6 269.628 102.45366] CT
0.929 0.694 0.125 RC
10.0 ML
0.833 LW
N
-3.536 -3.536 M
3.536 3.536 L
-3.536 3.536 M
3.536 -3.536 L
S
GR
GS
[0.6 0 0 0.6 272.886 89.85658] CT
0.929 0.694 0.125 RC
10.0 ML
0.833 LW
N
-3.536 -3.536 M
3.536 3.536 L
-3.536 3.536 M
3.536 -3.536 L
S
GR
GS
[0.6 0 0 0.6 276.14399 93.09742] CT
0.929 0.694 0.125 RC
10.0 ML
0.833 LW
N
-3.536 -3.536 M
3.536 3.536 L
-3.536 3.536 M
3.536 -3.536 L
S
GR
GS
[0.6 0 0 0.6 279.40201 88.83671] CT
0.929 0.694 0.125 RC
10.0 ML
0.833 LW
N
-3.536 -3.536 M
3.536 3.536 L
-3.536 3.536 M
3.536 -3.536 L
S
GR
GS
[0.6 0 0 0.6 282.66 113.25667] CT
0.929 0.694 0.125 RC
10.0 ML
0.833 LW
N
-3.536 -3.536 M
3.536 3.536 L
-3.536 3.536 M
3.536 -3.536 L
S
GR
GS
[0.6 0 0 0.6 285.918 101.32052] CT
0.929 0.694 0.125 RC
10.0 ML
0.833 LW
N
-3.536 -3.536 M
3.536 3.536 L
-3.536 3.536 M
3.536 -3.536 L
S
GR
GS
[0.6 0 0 0.6 289.17599 109.00835] CT
0.929 0.694 0.125 RC
10.0 ML
0.833 LW
N
-3.536 -3.536 M
3.536 3.536 L
-3.536 3.536 M
3.536 -3.536 L
S
GR
GS
[0.6 0 0 0.6 292.43401 92.34664] CT
0.929 0.694 0.125 RC
10.0 ML
0.833 LW
N
-3.536 -3.536 M
3.536 3.536 L
-3.536 3.536 M
3.536 -3.536 L
S
GR
GS
[0.6 0 0 0.6 295.692 97.91865] CT
0.929 0.694 0.125 RC
10.0 ML
0.833 LW
N
-3.536 -3.536 M
3.536 3.536 L
-3.536 3.536 M
3.536 -3.536 L
S
GR
GS
[0.6 0 0 0.6 298.95 111.9677] CT
0.929 0.694 0.125 RC
10.0 ML
0.833 LW
N
-3.536 -3.536 M
3.536 3.536 L
-3.536 3.536 M
3.536 -3.536 L
S
GR
GS
[0.6 0 0 0.6 302.208 113.18427] CT
0.929 0.694 0.125 RC
10.0 ML
0.833 LW
N
-3.536 -3.536 M
3.536 3.536 L
-3.536 3.536 M
3.536 -3.536 L
S
GR
GS
[0.6 0 0 0.6 305.46599 109.5127] CT
0.929 0.694 0.125 RC
10.0 ML
0.833 LW
N
-3.536 -3.536 M
3.536 3.536 L
-3.536 3.536 M
3.536 -3.536 L
S
GR
GS
[0.6 0 0 0.6 308.72399 107.81981] CT
0.929 0.694 0.125 RC
10.0 ML
0.833 LW
N
-3.536 -3.536 M
3.536 3.536 L
-3.536 3.536 M
3.536 -3.536 L
S
GR
GS
[0.6 0 0 0.6 311.98198 114.49281] CT
0.929 0.694 0.125 RC
10.0 ML
0.833 LW
N
-3.536 -3.536 M
3.536 3.536 L
-3.536 3.536 M
3.536 -3.536 L
S
GR
GS
[0.6 0 0 0.6 315.24001 108.36471] CT
0.929 0.694 0.125 RC
10.0 ML
0.833 LW
N
-3.536 -3.536 M
3.536 3.536 L
-3.536 3.536 M
3.536 -3.536 L
S
GR
GS
[0.6 0 0 0.6 318.49801 122.09416] CT
0.929 0.694 0.125 RC
10.0 ML
0.833 LW
N
-3.536 -3.536 M
3.536 3.536 L
-3.536 3.536 M
3.536 -3.536 L
S
GR
GS
[0.6 0 0 0.6 321.75601 105.13535] CT
0.929 0.694 0.125 RC
10.0 ML
0.833 LW
N
-3.536 -3.536 M
3.536 3.536 L
-3.536 3.536 M
3.536 -3.536 L
S
GR
GS
[0.6 0 0 0.6 325.014 106.94151] CT
0.929 0.694 0.125 RC
10.0 ML
0.833 LW
N
-3.536 -3.536 M
3.536 3.536 L
-3.536 3.536 M
3.536 -3.536 L
S
GR
GS
[0.6 0 0 0.6 328.272 109.40724] CT
0.929 0.694 0.125 RC
10.0 ML
0.833 LW
N
-3.536 -3.536 M
3.536 3.536 L
-3.536 3.536 M
3.536 -3.536 L
S
GR
GS
[0.6 0 0 0.6 331.52999 109.38948] CT
0.929 0.694 0.125 RC
10.0 ML
0.833 LW
N
-3.536 -3.536 M
3.536 3.536 L
-3.536 3.536 M
3.536 -3.536 L
S
GR
GS
[0.6 0 0 0.6 334.78799 121.06893] CT
0.929 0.694 0.125 RC
10.0 ML
0.833 LW
N
-3.536 -3.536 M
3.536 3.536 L
-3.536 3.536 M
3.536 -3.536 L
S
GR
GS
[0.6 0 0 0.6 338.04598 111.66418] CT
0.929 0.694 0.125 RC
10.0 ML
0.833 LW
N
-3.536 -3.536 M
3.536 3.536 L
-3.536 3.536 M
3.536 -3.536 L
S
GR
GS
[0.6 0 0 0.6 341.30402 112.8913] CT
0.929 0.694 0.125 RC
10.0 ML
0.833 LW
N
-3.536 -3.536 M
3.536 3.536 L
-3.536 3.536 M
3.536 -3.536 L
S
GR
GS
[0.6 0 0 0.6 344.56201 116.10352] CT
0.929 0.694 0.125 RC
10.0 ML
0.833 LW
N
-3.536 -3.536 M
3.536 3.536 L
-3.536 3.536 M
3.536 -3.536 L
S
GR
GS
[0.6 0 0 0.6 347.82001 107.01147] CT
0.929 0.694 0.125 RC
10.0 ML
0.833 LW
N
-3.536 -3.536 M
3.536 3.536 L
-3.536 3.536 M
3.536 -3.536 L
S
GR
GS
[0.6 0 0 0.6 351.078 121.63251] CT
0.929 0.694 0.125 RC
10.0 ML
0.833 LW
N
-3.536 -3.536 M
3.536 3.536 L
-3.536 3.536 M
3.536 -3.536 L
S
GR
GS
[0.6 0 0 0.6 354.336 119.24027] CT
0.929 0.694 0.125 RC
10.0 ML
0.833 LW
N
-3.536 -3.536 M
3.536 3.536 L
-3.536 3.536 M
3.536 -3.536 L
S
GR
GS
[0.6 0 0 0.6 357.59399 119.27975] CT
0.929 0.694 0.125 RC
10.0 ML
0.833 LW
N
-3.536 -3.536 M
3.536 3.536 L
-3.536 3.536 M
3.536 -3.536 L
S
GR
GS
[0.6 0 0 0.6 360.85199 116.48418] CT
0.929 0.694 0.125 RC
10.0 ML
0.833 LW
N
-3.536 -3.536 M
3.536 3.536 L
-3.536 3.536 M
3.536 -3.536 L
S
GR
GS
[0.6 0 0 0.6 364.10999 95.19778] CT
0.929 0.694 0.125 RC
10.0 ML
0.833 LW
N
-3.536 -3.536 M
3.536 3.536 L
-3.536 3.536 M
3.536 -3.536 L
S
GR
GS
[0.6 0 0 0.6 367.36802 117.14022] CT
0.929 0.694 0.125 RC
10.0 ML
0.833 LW
N
-3.536 -3.536 M
3.536 3.536 L
-3.536 3.536 M
3.536 -3.536 L
S
GR
GS
[0.6 0 0 0.6 370.62601 119.96411] CT
0.929 0.694 0.125 RC
10.0 ML
0.833 LW
N
-3.536 -3.536 M
3.536 3.536 L
-3.536 3.536 M
3.536 -3.536 L
S
GR
GS
[0.6 0 0 0.6 373.88401 131.45743] CT
0.929 0.694 0.125 RC
10.0 ML
0.833 LW
N
-3.536 -3.536 M
3.536 3.536 L
-3.536 3.536 M
3.536 -3.536 L
S
GR
GS
[0.6 0 0 0.6 377.142 116.38683] CT
0.929 0.694 0.125 RC
10.0 ML
0.833 LW
N
-3.536 -3.536 M
3.536 3.536 L
-3.536 3.536 M
3.536 -3.536 L
S
GR
GS
[0.6 0 0 0.6 380.4 112.58869] CT
0.929 0.694 0.125 RC
10.0 ML
0.833 LW
N
-3.536 -3.536 M
3.536 3.536 L
-3.536 3.536 M
3.536 -3.536 L
S
GR
GS
[0.6 0 0 0.6 0 0] CT
0.494 0.184 0.557 RC
1 LJ
0.833 LW
N
96.43 76.824 M
101.86 81.224 L
107.29 79.177 L
112.72 77.998 L
118.15 106.66 L
123.58 99.324 L
129.01 86.585 L
134.44 97.118 L
139.87 121.588 L
145.3 103.432 L
150.73 99.724 L
156.16 113.362 L
161.59 133.511 L
167.02 103.492 L
172.45 113.903 L
177.88 111.868 L
183.31 105.704 L
188.74 135.62 L
194.17 139.76 L
199.6 114.574 L
205.03 155.934 L
210.46 135.275 L
215.89 114.902 L
221.32 139.685 L
226.75 133.624 L
232.18 157.895 L
237.61 129.431 L
243.04 180.4 L
248.47 147.932 L
253.9 154.457 L
259.33 168.324 L
264.76 179.235 L
270.19 156.252 L
275.62 196.602 L
281.05 203.685 L
286.48 195.469 L
291.91 177.672 L
297.34 172.993 L
302.77 184.501 L
308.2 186.661 L
313.63 192.225 L
319.06 158.36 L
324.49 199.186 L
329.92 202.121 L
335.35 188.872 L
340.78 213.421 L
346.21 201.453 L
351.64 206.577 L
357.07 180.549 L
362.5 203.606 L
367.93 199.858 L
373.36 219.683 L
378.79 190.999 L
384.22 211.56 L
389.65 199.958 L
395.08 188.756 L
400.51 197.223 L
405.94 209.878 L
411.37 209.674 L
416.8 224.553 L
422.23 232.556 L
427.66 205.83 L
433.09 226.454 L
438.52 210.735 L
443.95 229.357 L
449.38 227.4 L
454.81 227.684 L
460.24 225.082 L
465.67 202.418 L
471.1 218.322 L
476.53 235.726 L
481.96 247.49 L
487.39 233.678 L
492.82 249.13 L
498.25 207.953 L
503.68 226.159 L
509.11 230.091 L
514.54 234.199 L
519.97 260.116 L
525.4 253.551 L
530.83 258.647 L
536.26 233.562 L
541.69 243.477 L
547.12 253.248 L
552.55 255.843 L
557.98 274.574 L
563.41 245.725 L
568.84 258.402 L
574.27 246.378 L
579.7 279.439 L
585.13 252.614 L
590.56 278.994 L
595.99 254.127 L
601.42 265.964 L
606.85 271.928 L
612.28 257.747 L
617.71 267.452 L
623.14 268.556 L
628.57 256.134 L
634 273.266 L
S
GR
GS
[0.6 0 0 0.6 57.858 46.09416] CT
0.494 0.184 0.557 RC
10.0 ML
0.833 LW
N
-3.536 -3.536 M
3.536 3.536 L
-3.536 3.536 M
3.536 -3.536 L
S
GR
GS
[0.6 0 0 0.6 61.116 48.73437] CT
0.494 0.184 0.557 RC
10.0 ML
0.833 LW
N
-3.536 -3.536 M
3.536 3.536 L
-3.536 3.536 M
3.536 -3.536 L
S
GR
GS
[0.6 0 0 0.6 64.374 47.50618] CT
0.494 0.184 0.557 RC
10.0 ML
0.833 LW
N
-3.536 -3.536 M
3.536 3.536 L
-3.536 3.536 M
3.536 -3.536 L
S
GR
GS
[0.6 0 0 0.6 67.632 46.79886] CT
0.494 0.184 0.557 RC
10.0 ML
0.833 LW
N
-3.536 -3.536 M
3.536 3.536 L
-3.536 3.536 M
3.536 -3.536 L
S
GR
GS
[0.6 0 0 0.6 70.89 63.99614] CT
0.494 0.184 0.557 RC
10.0 ML
0.833 LW
N
-3.536 -3.536 M
3.536 3.536 L
-3.536 3.536 M
3.536 -3.536 L
S
GR
GS
[0.6 0 0 0.6 74.148 59.59416] CT
0.494 0.184 0.557 RC
10.0 ML
0.833 LW
N
-3.536 -3.536 M
3.536 3.536 L
-3.536 3.536 M
3.536 -3.536 L
S
GR
GS
[0.6 0 0 0.6 77.406 51.95072] CT
0.494 0.184 0.557 RC
10.0 ML
0.833 LW
N
-3.536 -3.536 M
3.536 3.536 L
-3.536 3.536 M
3.536 -3.536 L
S
GR
GS
[0.6 0 0 0.6 80.664 58.27091] CT
0.494 0.184 0.557 RC
10.0 ML
0.833 LW
N
-3.536 -3.536 M
3.536 3.536 L
-3.536 3.536 M
3.536 -3.536 L
S
GR
GS
[0.6 0 0 0.6 83.922 72.95303] CT
0.494 0.184 0.557 RC
10.0 ML
0.833 LW
N
-3.536 -3.536 M
3.536 3.536 L
-3.536 3.536 M
3.536 -3.536 L
S
GR
GS
[0.6 0 0 0.6 87.18 62.05926] CT
0.494 0.184 0.557 RC
10.0 ML
0.833 LW
N
-3.536 -3.536 M
3.536 3.536 L
-3.536 3.536 M
3.536 -3.536 L
S
GR
GS
[0.6 0 0 0.6 90.438 59.83462] CT
0.494 0.184 0.557 RC
10.0 ML
0.833 LW
N
-3.536 -3.536 M
3.536 3.536 L
-3.536 3.536 M
3.536 -3.536 L
S
GR
GS
[0.6 0 0 0.6 93.696 68.017] CT
0.494 0.184 0.557 RC
10.0 ML
0.833 LW
N
-3.536 -3.536 M
3.536 3.536 L
-3.536 3.536 M
3.536 -3.536 L
S
GR
GS
[0.6 0 0 0.6 96.954 80.10682] CT
0.494 0.184 0.557 RC
10.0 ML
0.833 LW
N
-3.536 -3.536 M
3.536 3.536 L
-3.536 3.536 M
3.536 -3.536 L
S
GR
GS
[0.6 0 0 0.6 100.212 62.09508] CT
0.494 0.184 0.557 RC
10.0 ML
0.833 LW
N
-3.536 -3.536 M
3.536 3.536 L
-3.536 3.536 M
3.536 -3.536 L
S
GR
GS
[0.6 0 0 0.6 103.47 68.34196] CT
0.494 0.184 0.557 RC
10.0 ML
0.833 LW
N
-3.536 -3.536 M
3.536 3.536 L
-3.536 3.536 M
3.536 -3.536 L
S
GR
GS
[0.6 0 0 0.6 106.728 67.12066] CT
0.494 0.184 0.557 RC
10.0 ML
0.833 LW
N
-3.536 -3.536 M
3.536 3.536 L
-3.536 3.536 M
3.536 -3.536 L
S
GR
GS
[0.6 0 0 0.6 109.986 63.42246] CT
0.494 0.184 0.557 RC
10.0 ML
0.833 LW
N
-3.536 -3.536 M
3.536 3.536 L
-3.536 3.536 M
3.536 -3.536 L
S
GR
GS
[0.6 0 0 0.6 113.244 81.3719] CT
0.494 0.184 0.557 RC
10.0 ML
0.833 LW
N
-3.536 -3.536 M
3.536 3.536 L
-3.536 3.536 M
3.536 -3.536 L
S
GR
GS
[0.6 0 0 0.6 116.502 83.85614] CT
0.494 0.184 0.557 RC
10.0 ML
0.833 LW
N
-3.536 -3.536 M
3.536 3.536 L
-3.536 3.536 M
3.536 -3.536 L
S
GR
GS
[0.6 0 0 0.6 119.76 68.74467] CT
0.494 0.184 0.557 RC
10.0 ML
0.833 LW
N
-3.536 -3.536 M
3.536 3.536 L
-3.536 3.536 M
3.536 -3.536 L
S
GR
GS
[0.6 0 0 0.6 123.018 93.56029] CT
0.494 0.184 0.557 RC
10.0 ML
0.833 LW
N
-3.536 -3.536 M
3.536 3.536 L
-3.536 3.536 M
3.536 -3.536 L
S
GR
GS
[0.6 0 0 0.6 126.276 81.16526] CT
0.494 0.184 0.557 RC
10.0 ML
0.833 LW
N
-3.536 -3.536 M
3.536 3.536 L
-3.536 3.536 M
3.536 -3.536 L
S
GR
GS
[0.6 0 0 0.6 129.534 68.94121] CT
0.494 0.184 0.557 RC
10.0 ML
0.833 LW
N
-3.536 -3.536 M
3.536 3.536 L
-3.536 3.536 M
3.536 -3.536 L
S
GR
GS
[0.6 0 0 0.6 132.792 83.81129] CT
0.494 0.184 0.557 RC
10.0 ML
0.833 LW
N
-3.536 -3.536 M
3.536 3.536 L
-3.536 3.536 M
3.536 -3.536 L
S
GR
GS
[0.6 0 0 0.6 136.05 80.17462] CT
0.494 0.184 0.557 RC
10.0 ML
0.833 LW
N
-3.536 -3.536 M
3.536 3.536 L
-3.536 3.536 M
3.536 -3.536 L
S
GR
GS
[0.6 0 0 0.6 139.308 94.73706] CT
0.494 0.184 0.557 RC
10.0 ML
0.833 LW
N
-3.536 -3.536 M
3.536 3.536 L
-3.536 3.536 M
3.536 -3.536 L
S
GR
GS
[0.6 0 0 0.6 142.566 77.6584] CT
0.494 0.184 0.557 RC
10.0 ML
0.833 LW
N
-3.536 -3.536 M
3.536 3.536 L
-3.536 3.536 M
3.536 -3.536 L
S
GR
GS
[0.6 0 0 0.6 145.824 108.24027] CT
0.494 0.184 0.557 RC
10.0 ML
0.833 LW
N
-3.536 -3.536 M
3.536 3.536 L
-3.536 3.536 M
3.536 -3.536 L
S
GR
GS
[0.6 0 0 0.6 149.082 88.75941] CT
0.494 0.184 0.557 RC
10.0 ML
0.833 LW
N
-3.536 -3.536 M
3.536 3.536 L
-3.536 3.536 M
3.536 -3.536 L
S
GR
GS
[0.6 0 0 0.6 152.34 92.67404] CT
0.494 0.184 0.557 RC
10.0 ML
0.833 LW
N
-3.536 -3.536 M
3.536 3.536 L
-3.536 3.536 M
3.536 -3.536 L
S
GR
GS
[0.6 0 0 0.6 155.59799 100.99418] CT
0.494 0.184 0.557 RC
10.0 ML
0.833 LW
N
-3.536 -3.536 M
3.536 3.536 L
-3.536 3.536 M
3.536 -3.536 L
S
GR
GS
[0.6 0 0 0.6 158.85601 107.54092] CT
0.494 0.184 0.557 RC
10.0 ML
0.833 LW
N
-3.536 -3.536 M
3.536 3.536 L
-3.536 3.536 M
3.536 -3.536 L
S
GR
GS
[0.6 0 0 0.6 162.114 93.75146] CT
0.494 0.184 0.557 RC
10.0 ML
0.833 LW
N
-3.536 -3.536 M
3.536 3.536 L
-3.536 3.536 M
3.536 -3.536 L
S
GR
GS
[0.6 0 0 0.6 165.372 117.96096] CT
0.494 0.184 0.557 RC
10.0 ML
0.833 LW
N
-3.536 -3.536 M
3.536 3.536 L
-3.536 3.536 M
3.536 -3.536 L
S
GR
GS
[0.6 0 0 0.6 168.62999 122.2108] CT
0.494 0.184 0.557 RC
10.0 ML
0.833 LW
N
-3.536 -3.536 M
3.536 3.536 L
-3.536 3.536 M
3.536 -3.536 L
S
GR
GS
[0.6 0 0 0.6 171.88801 117.28165] CT
0.494 0.184 0.557 RC
10.0 ML
0.833 LW
N
-3.536 -3.536 M
3.536 3.536 L
-3.536 3.536 M
3.536 -3.536 L
S
GR
GS
[0.6 0 0 0.6 175.146 106.6034] CT
0.494 0.184 0.557 RC
10.0 ML
0.833 LW
N
-3.536 -3.536 M
3.536 3.536 L
-3.536 3.536 M
3.536 -3.536 L
S
GR
GS
[0.6 0 0 0.6 178.404 103.79588] CT
0.494 0.184 0.557 RC
10.0 ML
0.833 LW
N
-3.536 -3.536 M
3.536 3.536 L
-3.536 3.536 M
3.536 -3.536 L
S
GR
GS
[0.6 0 0 0.6 181.66199 110.70033] CT
0.494 0.184 0.557 RC
10.0 ML
0.833 LW
N
-3.536 -3.536 M
3.536 3.536 L
-3.536 3.536 M
3.536 -3.536 L
S
GR
GS
[0.6 0 0 0.6 184.92001 111.99632] CT
0.494 0.184 0.557 RC
10.0 ML
0.833 LW
N
-3.536 -3.536 M
3.536 3.536 L
-3.536 3.536 M
3.536 -3.536 L
S
GR
GS
[0.6 0 0 0.6 188.178 115.33482] CT
0.494 0.184 0.557 RC
10.0 ML
0.833 LW
N
-3.536 -3.536 M
3.536 3.536 L
-3.536 3.536 M
3.536 -3.536 L
S
GR
GS
[0.6 0 0 0.6 191.436 95.01625] CT
0.494 0.184 0.557 RC
10.0 ML
0.833 LW
N
-3.536 -3.536 M
3.536 3.536 L
-3.536 3.536 M
3.536 -3.536 L
S
GR
GS
[0.6 0 0 0.6 194.69399 119.51135] CT
0.494 0.184 0.557 RC
10.0 ML
0.833 LW
N
-3.536 -3.536 M
3.536 3.536 L
-3.536 3.536 M
3.536 -3.536 L
S
GR
GS
[0.6 0 0 0.6 197.95201 121.27235] CT
0.494 0.184 0.557 RC
10.0 ML
0.833 LW
N
-3.536 -3.536 M
3.536 3.536 L
-3.536 3.536 M
3.536 -3.536 L
S
GR
GS
[0.6 0 0 0.6 201.21 113.32309] CT
0.494 0.184 0.557 RC
10.0 ML
0.833 LW
N
-3.536 -3.536 M
3.536 3.536 L
-3.536 3.536 M
3.536 -3.536 L
S
GR
GS
[0.6 0 0 0.6 204.468 128.05251] CT
0.494 0.184 0.557 RC
10.0 ML
0.833 LW
N
-3.536 -3.536 M
3.536 3.536 L
-3.536 3.536 M
3.536 -3.536 L
S
GR
GS
[0.6 0 0 0.6 207.72599 120.87194] CT
0.494 0.184 0.557 RC
10.0 ML
0.833 LW
N
-3.536 -3.536 M
3.536 3.536 L
-3.536 3.536 M
3.536 -3.536 L
S
GR
GS
[0.6 0 0 0.6 210.98401 123.9464] CT
0.494 0.184 0.557 RC
10.0 ML
0.833 LW
N
-3.536 -3.536 M
3.536 3.536 L
-3.536 3.536 M
3.536 -3.536 L
S
GR
GS
[0.6 0 0 0.6 214.242 108.32966] CT
0.494 0.184 0.557 RC
10.0 ML
0.833 LW
N
-3.536 -3.536 M
3.536 3.536 L
-3.536 3.536 M
3.536 -3.536 L
S
GR
GS
[0.6 0 0 0.6 217.5 122.16335] CT
0.494 0.184 0.557 RC
10.0 ML
0.833 LW
N
-3.536 -3.536 M
3.536 3.536 L
-3.536 3.536 M
3.536 -3.536 L
S
GR
GS
[0.6 0 0 0.6 220.758 119.91452] CT
0.494 0.184 0.557 RC
10.0 ML
0.833 LW
N
-3.536 -3.536 M
3.536 3.536 L
-3.536 3.536 M
3.536 -3.536 L
S
GR
GS
[0.6 0 0 0.6 224.01599 131.80979] CT
0.494 0.184 0.557 RC
10.0 ML
0.833 LW
N
-3.536 -3.536 M
3.536 3.536 L
-3.536 3.536 M
3.536 -3.536 L
S
GR
GS
[0.6 0 0 0.6 227.27401 114.59934] CT
0.494 0.184 0.557 RC
10.0 ML
0.833 LW
N
-3.536 -3.536 M
3.536 3.536 L
-3.536 3.536 M
3.536 -3.536 L
S
GR
GS
[0.6 0 0 0.6 230.532 126.93621] CT
0.494 0.184 0.557 RC
10.0 ML
0.833 LW
N
-3.536 -3.536 M
3.536 3.536 L
-3.536 3.536 M
3.536 -3.536 L
S
GR
GS
[0.6 0 0 0.6 233.79 119.97498] CT
0.494 0.184 0.557 RC
10.0 ML
0.833 LW
N
-3.536 -3.536 M
3.536 3.536 L
-3.536 3.536 M
3.536 -3.536 L
S
GR
GS
[0.6 0 0 0.6 237.04799 113.25375] CT
0.494 0.184 0.557 RC
10.0 ML
0.833 LW
N
-3.536 -3.536 M
3.536 3.536 L
-3.536 3.536 M
3.536 -3.536 L
S
GR
GS
[0.6 0 0 0.6 240.30601 118.33397] CT
0.494 0.184 0.557 RC
10.0 ML
0.833 LW
N
-3.536 -3.536 M
3.536 3.536 L
-3.536 3.536 M
3.536 -3.536 L
S
GR
GS
[0.6 0 0 0.6 243.564 125.92659] CT
0.494 0.184 0.557 RC
10.0 ML
0.833 LW
N
-3.536 -3.536 M
3.536 3.536 L
-3.536 3.536 M
3.536 -3.536 L
S
GR
GS
[0.6 0 0 0.6 246.822 125.80414] CT
0.494 0.184 0.557 RC
10.0 ML
0.833 LW
N
-3.536 -3.536 M
3.536 3.536 L
-3.536 3.536 M
3.536 -3.536 L
S
GR
GS
[0.6 0 0 0.6 250.07999 134.73195] CT
0.494 0.184 0.557 RC
10.0 ML
0.833 LW
N
-3.536 -3.536 M
3.536 3.536 L
-3.536 3.536 M
3.536 -3.536 L
S
GR
GS
[0.6 0 0 0.6 253.33801 139.53374] CT
0.494 0.184 0.557 RC
10.0 ML
0.833 LW
N
-3.536 -3.536 M
3.536 3.536 L
-3.536 3.536 M
3.536 -3.536 L
S
GR
GS
[0.6 0 0 0.6 256.596 123.49776] CT
0.494 0.184 0.557 RC
10.0 ML
0.833 LW
N
-3.536 -3.536 M
3.536 3.536 L
-3.536 3.536 M
3.536 -3.536 L
S
GR
GS
[0.6 0 0 0.6 259.854 135.87243] CT
0.494 0.184 0.557 RC
10.0 ML
0.833 LW
N
-3.536 -3.536 M
3.536 3.536 L
-3.536 3.536 M
3.536 -3.536 L
S
GR
GS
[0.6 0 0 0.6 263.11199 126.44105] CT
0.494 0.184 0.557 RC
10.0 ML
0.833 LW
N
-3.536 -3.536 M
3.536 3.536 L
-3.536 3.536 M
3.536 -3.536 L
S
GR
GS
[0.6 0 0 0.6 266.37001 137.61446] CT
0.494 0.184 0.557 RC
10.0 ML
0.833 LW
N
-3.536 -3.536 M
3.536 3.536 L
-3.536 3.536 M
3.536 -3.536 L
S
GR
GS
[0.6 0 0 0.6 269.628 136.44015] CT
0.494 0.184 0.557 RC
10.0 ML
0.833 LW
N
-3.536 -3.536 M
3.536 3.536 L
-3.536 3.536 M
3.536 -3.536 L
S
GR
GS
[0.6 0 0 0.6 272.886 136.61036] CT
0.494 0.184 0.557 RC
10.0 ML
0.833 LW
N
-3.536 -3.536 M
3.536 3.536 L
-3.536 3.536 M
3.536 -3.536 L
S
GR
GS
[0.6 0 0 0.6 276.14399 135.04926] CT
0.494 0.184 0.557 RC
10.0 ML
0.833 LW
N
-3.536 -3.536 M
3.536 3.536 L
-3.536 3.536 M
3.536 -3.536 L
S
GR
GS
[0.6 0 0 0.6 279.40201 121.45052] CT
0.494 0.184 0.557 RC
10.0 ML
0.833 LW
N
-3.536 -3.536 M
3.536 3.536 L
-3.536 3.536 M
3.536 -3.536 L
S
GR
GS
[0.6 0 0 0.6 282.66 130.99304] CT
0.494 0.184 0.557 RC
10.0 ML
0.833 LW
N
-3.536 -3.536 M
3.536 3.536 L
-3.536 3.536 M
3.536 -3.536 L
S
GR
GS
[0.6 0 0 0.6 285.918 141.43557] CT
0.494 0.184 0.557 RC
10.0 ML
0.833 LW
N
-3.536 -3.536 M
3.536 3.536 L
-3.536 3.536 M
3.536 -3.536 L
S
GR
GS
[0.6 0 0 0.6 289.17599 148.49399] CT
0.494 0.184 0.557 RC
10.0 ML
0.833 LW
N
-3.536 -3.536 M
3.536 3.536 L
-3.536 3.536 M
3.536 -3.536 L
S
GR
GS
[0.6 0 0 0.6 292.43401 140.20661] CT
0.494 0.184 0.557 RC
10.0 ML
0.833 LW
N
-3.536 -3.536 M
3.536 3.536 L
-3.536 3.536 M
3.536 -3.536 L
S
GR
GS
[0.6 0 0 0.6 295.692 149.47805] CT
0.494 0.184 0.557 RC
10.0 ML
0.833 LW
N
-3.536 -3.536 M
3.536 3.536 L
-3.536 3.536 M
3.536 -3.536 L
S
GR
GS
[0.6 0 0 0.6 298.95 124.77203] CT
0.494 0.184 0.557 RC
10.0 ML
0.833 LW
N
-3.536 -3.536 M
3.536 3.536 L
-3.536 3.536 M
3.536 -3.536 L
S
GR
GS
[0.6 0 0 0.6 302.208 135.69533] CT
0.494 0.184 0.557 RC
10.0 ML
0.833 LW
N
-3.536 -3.536 M
3.536 3.536 L
-3.536 3.536 M
3.536 -3.536 L
S
GR
GS
[0.6 0 0 0.6 305.46599 138.05468] CT
0.494 0.184 0.557 RC
10.0 ML
0.833 LW
N
-3.536 -3.536 M
3.536 3.536 L
-3.536 3.536 M
3.536 -3.536 L
S
GR
GS
[0.6 0 0 0.6 308.72399 140.51917] CT
0.494 0.184 0.557 RC
10.0 ML
0.833 LW
N
-3.536 -3.536 M
3.536 3.536 L
-3.536 3.536 M
3.536 -3.536 L
S
GR
GS
[0.6 0 0 0.6 311.98198 156.06947] CT
0.494 0.184 0.557 RC
10.0 ML
0.833 LW
N
-3.536 -3.536 M
3.536 3.536 L
-3.536 3.536 M
3.536 -3.536 L
S
GR
GS
[0.6 0 0 0.6 315.24001 152.13082] CT
0.494 0.184 0.557 RC
10.0 ML
0.833 LW
N
-3.536 -3.536 M
3.536 3.536 L
-3.536 3.536 M
3.536 -3.536 L
S
GR
GS
[0.6 0 0 0.6 318.49801 155.18828] CT
0.494 0.184 0.557 RC
10.0 ML
0.833 LW
N
-3.536 -3.536 M
3.536 3.536 L
-3.536 3.536 M
3.536 -3.536 L
S
GR
GS
[0.6 0 0 0.6 321.75601 140.13712] CT
0.494 0.184 0.557 RC
10.0 ML
0.833 LW
N
-3.536 -3.536 M
3.536 3.536 L
-3.536 3.536 M
3.536 -3.536 L
S
GR
GS
[0.6 0 0 0.6 325.014 146.08614] CT
0.494 0.184 0.557 RC
10.0 ML
0.833 LW
N
-3.536 -3.536 M
3.536 3.536 L
-3.536 3.536 M
3.536 -3.536 L
S
GR
GS
[0.6 0 0 0.6 328.272 151.94867] CT
0.494 0.184 0.557 RC
10.0 ML
0.833 LW
N
-3.536 -3.536 M
3.536 3.536 L
-3.536 3.536 M
3.536 -3.536 L
S
GR
GS
[0.6 0 0 0.6 331.52999 153.50579] CT
0.494 0.184 0.557 RC
10.0 ML
0.833 LW
N
-3.536 -3.536 M
3.536 3.536 L
-3.536 3.536 M
3.536 -3.536 L
S
GR
GS
[0.6 0 0 0.6 334.78799 164.74457] CT
0.494 0.184 0.557 RC
10.0 ML
0.833 LW
N
-3.536 -3.536 M
3.536 3.536 L
-3.536 3.536 M
3.536 -3.536 L
S
GR
GS
[0.6 0 0 0.6 338.04598 147.4351] CT
0.494 0.184 0.557 RC
10.0 ML
0.833 LW
N
-3.536 -3.536 M
3.536 3.536 L
-3.536 3.536 M
3.536 -3.536 L
S
GR
GS
[0.6 0 0 0.6 341.30402 155.04133] CT
0.494 0.184 0.557 RC
10.0 ML
0.833 LW
N
-3.536 -3.536 M
3.536 3.536 L
-3.536 3.536 M
3.536 -3.536 L
S
GR
GS
[0.6 0 0 0.6 344.56201 147.82664] CT
0.494 0.184 0.557 RC
10.0 ML
0.833 LW
N
-3.536 -3.536 M
3.536 3.536 L
-3.536 3.536 M
3.536 -3.536 L
S
GR
GS
[0.6 0 0 0.6 347.82001 167.66353] CT
0.494 0.184 0.557 RC
10.0 ML
0.833 LW
N
-3.536 -3.536 M
3.536 3.536 L
-3.536 3.536 M
3.536 -3.536 L
S
GR
GS
[0.6 0 0 0.6 351.078 151.56861] CT
0.494 0.184 0.557 RC
10.0 ML
0.833 LW
N
-3.536 -3.536 M
3.536 3.536 L
-3.536 3.536 M
3.536 -3.536 L
S
GR
GS
[0.6 0 0 0.6 354.336 167.39626] CT
0.494 0.184 0.557 RC
10.0 ML
0.833 LW
N
-3.536 -3.536 M
3.536 3.536 L
-3.536 3.536 M
3.536 -3.536 L
S
GR
GS
[0.6 0 0 0.6 357.59399 152.47644] CT
0.494 0.184 0.557 RC
10.0 ML
0.833 LW
N
-3.536 -3.536 M
3.536 3.536 L
-3.536 3.536 M
3.536 -3.536 L
S
GR
GS
[0.6 0 0 0.6 360.85199 159.57849] CT
0.494 0.184 0.557 RC
10.0 ML
0.833 LW
N
-3.536 -3.536 M
3.536 3.536 L
-3.536 3.536 M
3.536 -3.536 L
S
GR
GS
[0.6 0 0 0.6 364.10999 163.15668] CT
0.494 0.184 0.557 RC
10.0 ML
0.833 LW
N
-3.536 -3.536 M
3.536 3.536 L
-3.536 3.536 M
3.536 -3.536 L
S
GR
GS
[0.6 0 0 0.6 367.36802 154.64828] CT
0.494 0.184 0.557 RC
10.0 ML
0.833 LW
N
-3.536 -3.536 M
3.536 3.536 L
-3.536 3.536 M
3.536 -3.536 L
S
GR
GS
[0.6 0 0 0.6 370.62601 160.47147] CT
0.494 0.184 0.557 RC
10.0 ML
0.833 LW
N
-3.536 -3.536 M
3.536 3.536 L
-3.536 3.536 M
3.536 -3.536 L
S
GR
GS
[0.6 0 0 0.6 373.88401 161.13333] CT
0.494 0.184 0.557 RC
10.0 ML
0.833 LW
N
-3.536 -3.536 M
3.536 3.536 L
-3.536 3.536 M
3.536 -3.536 L
S
GR
GS
[0.6 0 0 0.6 377.142 153.68044] CT
0.494 0.184 0.557 RC
10.0 ML
0.833 LW
N
-3.536 -3.536 M
3.536 3.536 L
-3.536 3.536 M
3.536 -3.536 L
S
GR
GS
[0.6 0 0 0.6 380.4 163.9595] CT
0.494 0.184 0.557 RC
10.0 ML
0.833 LW
N
-3.536 -3.536 M
3.536 3.536 L
-3.536 3.536 M
3.536 -3.536 L
S
GR
GS
[0.6 0 0 0.6 0 0] CT
0.467 0.675 0.188 RC
1 LJ
0.833 LW
N
96.43 76.308 M
101.86 88.357 L
107.29 81.752 L
112.72 101.162 L
118.15 117.383 L
123.58 131.648 L
129.01 119.054 L
134.44 104.272 L
139.87 103.683 L
145.3 143.003 L
150.73 159.652 L
156.16 105.214 L
161.59 126.655 L
167.02 160.684 L
172.45 135.114 L
177.88 135.347 L
183.31 149.426 L
188.74 159.602 L
194.17 117.116 L
199.6 157.569 L
205.03 175.417 L
210.46 176.614 L
215.89 184.834 L
221.32 197.858 L
226.75 186.022 L
232.18 152.498 L
237.61 181.941 L
243.04 200.102 L
248.47 206.664 L
253.9 164.685 L
259.33 217.386 L
264.76 212.66 L
270.19 176.988 L
275.62 212.456 L
281.05 220.029 L
286.48 226.997 L
291.91 214.449 L
297.34 231.348 L
302.77 237.874 L
308.2 202.161 L
313.63 243.034 L
319.06 224.79 L
324.49 215.155 L
329.92 265.178 L
335.35 234.146 L
340.78 249.995 L
346.21 240.695 L
351.64 228.995 L
357.07 236.83 L
362.5 230.589 L
367.93 250.069 L
373.36 221.1 L
378.79 253.613 L
384.22 261.002 L
389.65 245.818 L
395.08 267.369 L
400.51 250.26 L
405.94 246.653 L
411.37 250.364 L
416.8 262.155 L
422.23 207.309 L
427.66 263.889 L
433.09 276.16 L
438.52 264.77 L
443.95 275.857 L
449.38 280.843 L
454.81 260.445 L
460.24 282.749 L
465.67 282.807 L
471.1 282.622 L
476.53 279.343 L
481.96 279.491 L
487.39 278.849 L
492.82 281.612 L
498.25 290.623 L
503.68 289.797 L
509.11 268.326 L
514.54 292.182 L
519.97 302.19 L
525.4 290.966 L
530.83 287.515 L
536.26 298.465 L
541.69 285.378 L
547.12 283.727 L
552.55 311.076 L
557.98 299.1 L
563.41 297.544 L
568.84 295.254 L
574.27 294.679 L
579.7 296.428 L
585.13 310.862 L
590.56 303.744 L
595.99 314.415 L
601.42 299.027 L
606.85 284.592 L
612.28 317.969 L
617.71 300.061 L
623.14 315.082 L
628.57 304.487 L
634 314.904 L
S
GR
GS
[0.6 0 0 0.6 57.858 45.78496] CT
0.467 0.675 0.188 RC
10.0 ML
0.833 LW
N
-3.536 -3.536 M
3.536 3.536 L
-3.536 3.536 M
3.536 -3.536 L
S
GR
GS
[0.6 0 0 0.6 61.116 53.01406] CT
0.467 0.675 0.188 RC
10.0 ML
0.833 LW
N
-3.536 -3.536 M
3.536 3.536 L
-3.536 3.536 M
3.536 -3.536 L
S
GR
GS
[0.6 0 0 0.6 64.374 49.05136] CT
0.467 0.675 0.188 RC
10.0 ML
0.833 LW
N
-3.536 -3.536 M
3.536 3.536 L
-3.536 3.536 M
3.536 -3.536 L
S
GR
GS
[0.6 0 0 0.6 67.632 60.69714] CT
0.467 0.675 0.188 RC
10.0 ML
0.833 LW
N
-3.536 -3.536 M
3.536 3.536 L
-3.536 3.536 M
3.536 -3.536 L
S
GR
GS
[0.6 0 0 0.6 70.89 70.42992] CT
0.467 0.675 0.188 RC
10.0 ML
0.833 LW
N
-3.536 -3.536 M
3.536 3.536 L
-3.536 3.536 M
3.536 -3.536 L
S
GR
GS
[0.6 0 0 0.6 74.148 78.98883] CT
0.467 0.675 0.188 RC
10.0 ML
0.833 LW
N
-3.536 -3.536 M
3.536 3.536 L
-3.536 3.536 M
3.536 -3.536 L
S
GR
GS
[0.6 0 0 0.6 77.406 71.43218] CT
0.467 0.675 0.188 RC
10.0 ML
0.833 LW
N
-3.536 -3.536 M
3.536 3.536 L
-3.536 3.536 M
3.536 -3.536 L
S
GR
GS
[0.6 0 0 0.6 80.664 62.563] CT
0.467 0.675 0.188 RC
10.0 ML
0.833 LW
N
-3.536 -3.536 M
3.536 3.536 L
-3.536 3.536 M
3.536 -3.536 L
S
GR
GS
[0.6 0 0 0.6 83.922 62.20957] CT
0.467 0.675 0.188 RC
10.0 ML
0.833 LW
N
-3.536 -3.536 M
3.536 3.536 L
-3.536 3.536 M
3.536 -3.536 L
S
GR
GS
[0.6 0 0 0.6 87.18 85.80159] CT
0.467 0.675 0.188 RC
10.0 ML
0.833 LW
N
-3.536 -3.536 M
3.536 3.536 L
-3.536 3.536 M
3.536 -3.536 L
S
GR
GS
[0.6 0 0 0.6 90.438 95.79136] CT
0.467 0.675 0.188 RC
10.0 ML
0.833 LW
N
-3.536 -3.536 M
3.536 3.536 L
-3.536 3.536 M
3.536 -3.536 L
S
GR
GS
[0.6 0 0 0.6 93.696 63.12842] CT
0.467 0.675 0.188 RC
10.0 ML
0.833 LW
N
-3.536 -3.536 M
3.536 3.536 L
-3.536 3.536 M
3.536 -3.536 L
S
GR
GS
[0.6 0 0 0.6 96.954 75.99321] CT
0.467 0.675 0.188 RC
10.0 ML
0.833 LW
N
-3.536 -3.536 M
3.536 3.536 L
-3.536 3.536 M
3.536 -3.536 L
S
GR
GS
[0.6 0 0 0.6 100.212 96.41051] CT
0.467 0.675 0.188 RC
10.0 ML
0.833 LW
N
-3.536 -3.536 M
3.536 3.536 L
-3.536 3.536 M
3.536 -3.536 L
S
GR
GS
[0.6 0 0 0.6 103.47 81.06853] CT
0.467 0.675 0.188 RC
10.0 ML
0.833 LW
N
-3.536 -3.536 M
3.536 3.536 L
-3.536 3.536 M
3.536 -3.536 L
S
GR
GS
[0.6 0 0 0.6 106.728 81.20827] CT
0.467 0.675 0.188 RC
10.0 ML
0.833 LW
N
-3.536 -3.536 M
3.536 3.536 L
-3.536 3.536 M
3.536 -3.536 L
S
GR
GS
[0.6 0 0 0.6 109.986 89.6553] CT
0.467 0.675 0.188 RC
10.0 ML
0.833 LW
N
-3.536 -3.536 M
3.536 3.536 L
-3.536 3.536 M
3.536 -3.536 L
S
GR
GS
[0.6 0 0 0.6 113.244 95.76121] CT
0.467 0.675 0.188 RC
10.0 ML
0.833 LW
N
-3.536 -3.536 M
3.536 3.536 L
-3.536 3.536 M
3.536 -3.536 L
S
GR
GS
[0.6 0 0 0.6 116.502 70.2695] CT
0.467 0.675 0.188 RC
10.0 ML
0.833 LW
N
-3.536 -3.536 M
3.536 3.536 L
-3.536 3.536 M
3.536 -3.536 L
S
GR
GS
[0.6 0 0 0.6 119.76 94.54159] CT
0.467 0.675 0.188 RC
10.0 ML
0.833 LW
N
-3.536 -3.536 M
3.536 3.536 L
-3.536 3.536 M
3.536 -3.536 L
S
GR
GS
[0.6 0 0 0.6 123.018 105.25015] CT
0.467 0.675 0.188 RC
10.0 ML
0.833 LW
N
-3.536 -3.536 M
3.536 3.536 L
-3.536 3.536 M
3.536 -3.536 L
S
GR
GS
[0.6 0 0 0.6 126.276 105.96818] CT
0.467 0.675 0.188 RC
10.0 ML
0.833 LW
N
-3.536 -3.536 M
3.536 3.536 L
-3.536 3.536 M
3.536 -3.536 L
S
GR
GS
[0.6 0 0 0.6 129.534 110.90038] CT
0.467 0.675 0.188 RC
10.0 ML
0.833 LW
N
-3.536 -3.536 M
3.536 3.536 L
-3.536 3.536 M
3.536 -3.536 L
S
GR
GS
[0.6 0 0 0.6 132.792 118.71465] CT
0.467 0.675 0.188 RC
10.0 ML
0.833 LW
N
-3.536 -3.536 M
3.536 3.536 L
-3.536 3.536 M
3.536 -3.536 L
S
GR
GS
[0.6 0 0 0.6 136.05 111.6132] CT
0.467 0.675 0.188 RC
10.0 ML
0.833 LW
N
-3.536 -3.536 M
3.536 3.536 L
-3.536 3.536 M
3.536 -3.536 L
S
GR
GS
[0.6 0 0 0.6 139.308 91.49866] CT
0.467 0.675 0.188 RC
10.0 ML
0.833 LW
N
-3.536 -3.536 M
3.536 3.536 L
-3.536 3.536 M
3.536 -3.536 L
S
GR
GS
[0.6 0 0 0.6 142.566 109.16432] CT
0.467 0.675 0.188 RC
10.0 ML
0.833 LW
N
-3.536 -3.536 M
3.536 3.536 L
-3.536 3.536 M
3.536 -3.536 L
S
GR
GS
[0.6 0 0 0.6 145.824 120.06146] CT
0.467 0.675 0.188 RC
10.0 ML
0.833 LW
N
-3.536 -3.536 M
3.536 3.536 L
-3.536 3.536 M
3.536 -3.536 L
S
GR
GS
[0.6 0 0 0.6 149.082 123.99859] CT
0.467 0.675 0.188 RC
10.0 ML
0.833 LW
N
-3.536 -3.536 M
3.536 3.536 L
-3.536 3.536 M
3.536 -3.536 L
S
GR
GS
[0.6 0 0 0.6 152.34 98.81117] CT
0.467 0.675 0.188 RC
10.0 ML
0.833 LW
N
-3.536 -3.536 M
3.536 3.536 L
-3.536 3.536 M
3.536 -3.536 L
S
GR
GS
[0.6 0 0 0.6 155.59799 130.43159] CT
0.467 0.675 0.188 RC
10.0 ML
0.833 LW
N
-3.536 -3.536 M
3.536 3.536 L
-3.536 3.536 M
3.536 -3.536 L
S
GR
GS
[0.6 0 0 0.6 158.85601 127.59607] CT
0.467 0.675 0.188 RC
10.0 ML
0.833 LW
N
-3.536 -3.536 M
3.536 3.536 L
-3.536 3.536 M
3.536 -3.536 L
S
GR
GS
[0.6 0 0 0.6 162.114 106.19288] CT
0.467 0.675 0.188 RC
10.0 ML
0.833 LW
N
-3.536 -3.536 M
3.536 3.536 L
-3.536 3.536 M
3.536 -3.536 L
S
GR
GS
[0.6 0 0 0.6 165.372 127.47377] CT
0.467 0.675 0.188 RC
10.0 ML
0.833 LW
N
-3.536 -3.536 M
3.536 3.536 L
-3.536 3.536 M
3.536 -3.536 L
S
GR
GS
[0.6 0 0 0.6 168.62999 132.0175] CT
0.467 0.675 0.188 RC
10.0 ML
0.833 LW
N
-3.536 -3.536 M
3.536 3.536 L
-3.536 3.536 M
3.536 -3.536 L
S
GR
GS
[0.6 0 0 0.6 171.88801 136.19846] CT
0.467 0.675 0.188 RC
10.0 ML
0.833 LW
N
-3.536 -3.536 M
3.536 3.536 L
-3.536 3.536 M
3.536 -3.536 L
S
GR
GS
[0.6 0 0 0.6 175.146 128.66967] CT
0.467 0.675 0.188 RC
10.0 ML
0.833 LW
N
-3.536 -3.536 M
3.536 3.536 L
-3.536 3.536 M
3.536 -3.536 L
S
GR
GS
[0.6 0 0 0.6 178.404 138.80882] CT
0.467 0.675 0.188 RC
10.0 ML
0.833 LW
N
-3.536 -3.536 M
3.536 3.536 L
-3.536 3.536 M
3.536 -3.536 L
S
GR
GS
[0.6 0 0 0.6 181.66199 142.72438] CT
0.467 0.675 0.188 RC
10.0 ML
0.833 LW
N
-3.536 -3.536 M
3.536 3.536 L
-3.536 3.536 M
3.536 -3.536 L
S
GR
GS
[0.6 0 0 0.6 184.92001 121.29684] CT
0.467 0.675 0.188 RC
10.0 ML
0.833 LW
N
-3.536 -3.536 M
3.536 3.536 L
-3.536 3.536 M
3.536 -3.536 L
S
GR
GS
[0.6 0 0 0.6 188.178 145.82057] CT
0.467 0.675 0.188 RC
10.0 ML
0.833 LW
N
-3.536 -3.536 M
3.536 3.536 L
-3.536 3.536 M
3.536 -3.536 L
S
GR
GS
[0.6 0 0 0.6 191.436 134.874] CT
0.467 0.675 0.188 RC
10.0 ML
0.833 LW
N
-3.536 -3.536 M
3.536 3.536 L
-3.536 3.536 M
3.536 -3.536 L
S
GR
GS
[0.6 0 0 0.6 194.69399 129.09289] CT
0.467 0.675 0.188 RC
10.0 ML
0.833 LW
N
-3.536 -3.536 M
3.536 3.536 L
-3.536 3.536 M
3.536 -3.536 L
S
GR
GS
[0.6 0 0 0.6 197.95201 159.10704] CT
0.467 0.675 0.188 RC
10.0 ML
0.833 LW
N
-3.536 -3.536 M
3.536 3.536 L
-3.536 3.536 M
3.536 -3.536 L
S
GR
GS
[0.6 0 0 0.6 201.21 140.48749] CT
0.467 0.675 0.188 RC
10.0 ML
0.833 LW
N
-3.536 -3.536 M
3.536 3.536 L
-3.536 3.536 M
3.536 -3.536 L
S
GR
GS
[0.6 0 0 0.6 204.468 149.9971] CT
0.467 0.675 0.188 RC
10.0 ML
0.833 LW
N
-3.536 -3.536 M
3.536 3.536 L
-3.536 3.536 M
3.536 -3.536 L
S
GR
GS
[0.6 0 0 0.6 207.72599 144.41727] CT
0.467 0.675 0.188 RC
10.0 ML
0.833 LW
N
-3.536 -3.536 M
3.536 3.536 L
-3.536 3.536 M
3.536 -3.536 L
S
GR
GS
[0.6 0 0 0.6 210.98401 137.39726] CT
0.467 0.675 0.188 RC
10.0 ML
0.833 LW
N
-3.536 -3.536 M
3.536 3.536 L
-3.536 3.536 M
3.536 -3.536 L
S
GR
GS
[0.6 0 0 0.6 214.242 142.09804] CT
0.467 0.675 0.188 RC
10.0 ML
0.833 LW
N
-3.536 -3.536 M
3.536 3.536 L
-3.536 3.536 M
3.536 -3.536 L
S
GR
GS
[0.6 0 0 0.6 217.5 138.35361] CT
0.467 0.675 0.188 RC
10.0 ML
0.833 LW
N
-3.536 -3.536 M
3.536 3.536 L
-3.536 3.536 M
3.536 -3.536 L
S
GR
GS
[0.6 0 0 0.6 220.758 150.04148] CT
0.467 0.675 0.188 RC
10.0 ML
0.833 LW
N
-3.536 -3.536 M
3.536 3.536 L
-3.536 3.536 M
3.536 -3.536 L
S
GR
GS
[0.6 0 0 0.6 224.01599 132.66021] CT
0.467 0.675 0.188 RC
10.0 ML
0.833 LW
N
-3.536 -3.536 M
3.536 3.536 L
-3.536 3.536 M
3.536 -3.536 L
S
GR
GS
[0.6 0 0 0.6 227.27401 152.16801] CT
0.467 0.675 0.188 RC
10.0 ML
0.833 LW
N
-3.536 -3.536 M
3.536 3.536 L
-3.536 3.536 M
3.536 -3.536 L
S
GR
GS
[0.6 0 0 0.6 230.532 156.60123] CT
0.467 0.675 0.188 RC
10.0 ML
0.833 LW
N
-3.536 -3.536 M
3.536 3.536 L
-3.536 3.536 M
3.536 -3.536 L
S
GR
GS
[0.6 0 0 0.6 233.79 147.4905] CT
0.467 0.675 0.188 RC
10.0 ML
0.833 LW
N
-3.536 -3.536 M
3.536 3.536 L
-3.536 3.536 M
3.536 -3.536 L
S
GR
GS
[0.6 0 0 0.6 237.04799 160.42126] CT
0.467 0.675 0.188 RC
10.0 ML
0.833 LW
N
-3.536 -3.536 M
3.536 3.536 L
-3.536 3.536 M
3.536 -3.536 L
S
GR
GS
[0.6 0 0 0.6 240.30601 150.15612] CT
0.467 0.675 0.188 RC
10.0 ML
0.833 LW
N
-3.536 -3.536 M
3.536 3.536 L
-3.536 3.536 M
3.536 -3.536 L
S
GR
GS
[0.6 0 0 0.6 243.564 147.99179] CT
0.467 0.675 0.188 RC
10.0 ML
0.833 LW
N
-3.536 -3.536 M
3.536 3.536 L
-3.536 3.536 M
3.536 -3.536 L
S
GR
GS
[0.6 0 0 0.6 246.822 150.21827] CT
0.467 0.675 0.188 RC
10.0 ML
0.833 LW
N
-3.536 -3.536 M
3.536 3.536 L
-3.536 3.536 M
3.536 -3.536 L
S
GR
GS
[0.6 0 0 0.6 250.07999 157.29293] CT
0.467 0.675 0.188 RC
10.0 ML
0.833 LW
N
-3.536 -3.536 M
3.536 3.536 L
-3.536 3.536 M
3.536 -3.536 L
S
GR
GS
[0.6 0 0 0.6 253.33801 124.38539] CT
0.467 0.675 0.188 RC
10.0 ML
0.833 LW
N
-3.536 -3.536 M
3.536 3.536 L
-3.536 3.536 M
3.536 -3.536 L
S
GR
GS
[0.6 0 0 0.6 256.596 158.33361] CT
0.467 0.675 0.188 RC
10.0 ML
0.833 LW
N
-3.536 -3.536 M
3.536 3.536 L
-3.536 3.536 M
3.536 -3.536 L
S
GR
GS
[0.6 0 0 0.6 259.854 165.69602] CT
0.467 0.675 0.188 RC
10.0 ML
0.833 LW
N
-3.536 -3.536 M
3.536 3.536 L
-3.536 3.536 M
3.536 -3.536 L
S
GR
GS
[0.6 0 0 0.6 263.11199 158.86214] CT
0.467 0.675 0.188 RC
10.0 ML
0.833 LW
N
-3.536 -3.536 M
3.536 3.536 L
-3.536 3.536 M
3.536 -3.536 L
S
GR
GS
[0.6 0 0 0.6 266.37001 165.51403] CT
0.467 0.675 0.188 RC
10.0 ML
0.833 LW
N
-3.536 -3.536 M
3.536 3.536 L
-3.536 3.536 M
3.536 -3.536 L
S
GR
GS
[0.6 0 0 0.6 269.628 168.50599] CT
0.467 0.675 0.188 RC
10.0 ML
0.833 LW
N
-3.536 -3.536 M
3.536 3.536 L
-3.536 3.536 M
3.536 -3.536 L
S
GR
GS
[0.6 0 0 0.6 272.886 156.26693] CT
0.467 0.675 0.188 RC
10.0 ML
0.833 LW
N
-3.536 -3.536 M
3.536 3.536 L
-3.536 3.536 M
3.536 -3.536 L
S
GR
GS
[0.6 0 0 0.6 276.14399 169.64923] CT
0.467 0.675 0.188 RC
10.0 ML
0.833 LW
N
-3.536 -3.536 M
3.536 3.536 L
-3.536 3.536 M
3.536 -3.536 L
S
GR
GS
[0.6 0 0 0.6 279.40201 169.68428] CT
0.467 0.675 0.188 RC
10.0 ML
0.833 LW
N
-3.536 -3.536 M
3.536 3.536 L
-3.536 3.536 M
3.536 -3.536 L
S
GR
GS
[0.6 0 0 0.6 282.66 169.57315] CT
0.467 0.675 0.188 RC
10.0 ML
0.833 LW
N
-3.536 -3.536 M
3.536 3.536 L
-3.536 3.536 M
3.536 -3.536 L
S
GR
GS
[0.6 0 0 0.6 285.918 167.60596] CT
0.467 0.675 0.188 RC
10.0 ML
0.833 LW
N
-3.536 -3.536 M
3.536 3.536 L
-3.536 3.536 M
3.536 -3.536 L
S
GR
GS
[0.6 0 0 0.6 289.17599 167.6946] CT
0.467 0.675 0.188 RC
10.0 ML
0.833 LW
N
-3.536 -3.536 M
3.536 3.536 L
-3.536 3.536 M
3.536 -3.536 L
S
GR
GS
[0.6 0 0 0.6 292.43401 167.30947] CT
0.467 0.675 0.188 RC
10.0 ML
0.833 LW
N
-3.536 -3.536 M
3.536 3.536 L
-3.536 3.536 M
3.536 -3.536 L
S
GR
GS
[0.6 0 0 0.6 295.692 168.96702] CT
0.467 0.675 0.188 RC
10.0 ML
0.833 LW
N
-3.536 -3.536 M
3.536 3.536 L
-3.536 3.536 M
3.536 -3.536 L
S
GR
GS
[0.6 0 0 0.6 298.95 174.37357] CT
0.467 0.675 0.188 RC
10.0 ML
0.833 LW
N
-3.536 -3.536 M
3.536 3.536 L
-3.536 3.536 M
3.536 -3.536 L
S
GR
GS
[0.6 0 0 0.6 302.208 173.87794] CT
0.467 0.675 0.188 RC
10.0 ML
0.833 LW
N
-3.536 -3.536 M
3.536 3.536 L
-3.536 3.536 M
3.536 -3.536 L
S
GR
GS
[0.6 0 0 0.6 305.46599 160.99556] CT
0.467 0.675 0.188 RC
10.0 ML
0.833 LW
N
-3.536 -3.536 M
3.536 3.536 L
-3.536 3.536 M
3.536 -3.536 L
S
GR
GS
[0.6 0 0 0.6 308.72399 175.30941] CT
0.467 0.675 0.188 RC
10.0 ML
0.833 LW
N
-3.536 -3.536 M
3.536 3.536 L
-3.536 3.536 M
3.536 -3.536 L
S
GR
GS
[0.6 0 0 0.6 311.98198 181.31384] CT
0.467 0.675 0.188 RC
10.0 ML
0.833 LW
N
-3.536 -3.536 M
3.536 3.536 L
-3.536 3.536 M
3.536 -3.536 L
S
GR
GS
[0.6 0 0 0.6 315.24001 174.57975] CT
0.467 0.675 0.188 RC
10.0 ML
0.833 LW
N
-3.536 -3.536 M
3.536 3.536 L
-3.536 3.536 M
3.536 -3.536 L
S
GR
GS
[0.6 0 0 0.6 318.49801 172.50908] CT
0.467 0.675 0.188 RC
10.0 ML
0.833 LW
N
-3.536 -3.536 M
3.536 3.536 L
-3.536 3.536 M
3.536 -3.536 L
S
GR
GS
[0.6 0 0 0.6 321.75601 179.07924] CT
0.467 0.675 0.188 RC
10.0 ML
0.833 LW
N
-3.536 -3.536 M
3.536 3.536 L
-3.536 3.536 M
3.536 -3.536 L
S
GR
GS
[0.6 0 0 0.6 325.014 171.22687] CT
0.467 0.675 0.188 RC
10.0 ML
0.833 LW
N
-3.536 -3.536 M
3.536 3.536 L
-3.536 3.536 M
3.536 -3.536 L
S
GR
GS
[0.6 0 0 0.6 328.272 170.23592] CT
0.467 0.675 0.188 RC
10.0 ML
0.833 LW
N
-3.536 -3.536 M
3.536 3.536 L
-3.536 3.536 M
3.536 -3.536 L
S
GR
GS
[0.6 0 0 0.6 331.52999 186.64568] CT
0.467 0.675 0.188 RC
10.0 ML
0.833 LW
N
-3.536 -3.536 M
3.536 3.536 L
-3.536 3.536 M
3.536 -3.536 L
S
GR
GS
[0.6 0 0 0.6 334.78799 179.46022] CT
0.467 0.675 0.188 RC
10.0 ML
0.833 LW
N
-3.536 -3.536 M
3.536 3.536 L
-3.536 3.536 M
3.536 -3.536 L
S
GR
GS
[0.6 0 0 0.6 338.04598 178.52668] CT
0.467 0.675 0.188 RC
10.0 ML
0.833 LW
N
-3.536 -3.536 M
3.536 3.536 L
-3.536 3.536 M
3.536 -3.536 L
S
GR
GS
[0.6 0 0 0.6 341.30402 177.15262] CT
0.467 0.675 0.188 RC
10.0 ML
0.833 LW
N
-3.536 -3.536 M
3.536 3.536 L
-3.536 3.536 M
3.536 -3.536 L
S
GR
GS
[0.6 0 0 0.6 344.56201 176.80761] CT
0.467 0.675 0.188 RC
10.0 ML
0.833 LW
N
-3.536 -3.536 M
3.536 3.536 L
-3.536 3.536 M
3.536 -3.536 L
S
GR
GS
[0.6 0 0 0.6 347.82001 177.85703] CT
0.467 0.675 0.188 RC
10.0 ML
0.833 LW
N
-3.536 -3.536 M
3.536 3.536 L
-3.536 3.536 M
3.536 -3.536 L
S
GR
GS
[0.6 0 0 0.6 351.078 186.51711] CT
0.467 0.675 0.188 RC
10.0 ML
0.833 LW
N
-3.536 -3.536 M
3.536 3.536 L
-3.536 3.536 M
3.536 -3.536 L
S
GR
GS
[0.6 0 0 0.6 354.336 182.24661] CT
0.467 0.675 0.188 RC
10.0 ML
0.833 LW
N
-3.536 -3.536 M
3.536 3.536 L
-3.536 3.536 M
3.536 -3.536 L
S
GR
GS
[0.6 0 0 0.6 357.59399 188.64915] CT
0.467 0.675 0.188 RC
10.0 ML
0.833 LW
N
-3.536 -3.536 M
3.536 3.536 L
-3.536 3.536 M
3.536 -3.536 L
S
GR
GS
[0.6 0 0 0.6 360.85199 179.41613] CT
0.467 0.675 0.188 RC
10.0 ML
0.833 LW
N
-3.536 -3.536 M
3.536 3.536 L
-3.536 3.536 M
3.536 -3.536 L
S
GR
GS
[0.6 0 0 0.6 364.10999 170.75543] CT
0.467 0.675 0.188 RC
10.0 ML
0.833 LW
N
-3.536 -3.536 M
3.536 3.536 L
-3.536 3.536 M
3.536 -3.536 L
S
GR
GS
[0.6 0 0 0.6 367.36802 190.78165] CT
0.467 0.675 0.188 RC
10.0 ML
0.833 LW
N
-3.536 -3.536 M
3.536 3.536 L
-3.536 3.536 M
3.536 -3.536 L
S
GR
GS
[0.6 0 0 0.6 370.62601 180.03651] CT
0.467 0.675 0.188 RC
10.0 ML
0.833 LW
N
-3.536 -3.536 M
3.536 3.536 L
-3.536 3.536 M
3.536 -3.536 L
S
GR
GS
[0.6 0 0 0.6 373.88401 189.04911] CT
0.467 0.675 0.188 RC
10.0 ML
0.833 LW
N
-3.536 -3.536 M
3.536 3.536 L
-3.536 3.536 M
3.536 -3.536 L
S
GR
GS
[0.6 0 0 0.6 377.142 182.69202] CT
0.467 0.675 0.188 RC
10.0 ML
0.833 LW
N
-3.536 -3.536 M
3.536 3.536 L
-3.536 3.536 M
3.536 -3.536 L
S
GR
GS
[0.6 0 0 0.6 380.4 188.94258] CT
0.467 0.675 0.188 RC
10.0 ML
0.833 LW
N
-3.536 -3.536 M
3.536 3.536 L
-3.536 3.536 M
3.536 -3.536 L
S
GR
GS
[0.6 0 0 0.6 0 0] CT
1 GC
N
530 163 M
530 56 L
617 56 L
617 163 L
cp
f
GR
GS
[0.6 0 0 0.6 345.6705 41.06511] CT
/Helvetica 15 F
GS
[1 0 0 1 0 0] CT
0 6 moveto 
1 -1 scale
(exact) t 
GR
GR
GS
[0.6 0 0 0.6 0 0] CT
0 0.447 0.741 RC
1 LJ
0.833 LW
N
534.986 68.442 M
572.378 68.442 L
S
GR
GS
[0.6 0 0 0.6 332.20917 41.06512] CT
0 0.447 0.741 RC
10.0 ML
0.833 LW
N
-3.536 -3.536 M
3.536 3.536 L
-3.536 3.536 M
3.536 -3.536 L
S
GR
GS
[0.6 0 0 0.6 345.6705 53.38256] CT
/Helvetica 15 F
GS
[1 0 0 1 0 0] CT
0 6 moveto 
1 -1 scale
(q = 0) t 
GR
GR
GS
[0.6 0 0 0.6 0 0] CT
0.851 0.325 0.098 RC
1 LJ
0.833 LW
N
534.986 88.971 M
572.378 88.971 L
S
GR
GS
[0.6 0 0 0.6 332.20917 53.38256] CT
0.851 0.325 0.098 RC
10.0 ML
0.833 LW
N
-3.536 -3.536 M
3.536 3.536 L
-3.536 3.536 M
3.536 -3.536 L
S
GR
GS
[0.6 0 0 0.6 345.6705 65.7] CT
/Helvetica 15 F
GS
[1 0 0 1 0 0] CT
0 6 moveto 
1 -1 scale
(q = 1) t 
GR
GR
GS
[0.6 0 0 0.6 0 0] CT
0.929 0.694 0.125 RC
1 LJ
0.833 LW
N
534.986 109.5 M
572.378 109.5 L
S
GR
GS
[0.6 0 0 0.6 332.20917 65.7] CT
0.929 0.694 0.125 RC
10.0 ML
0.833 LW
N
-3.536 -3.536 M
3.536 3.536 L
-3.536 3.536 M
3.536 -3.536 L
S
GR
GS
[0.6 0 0 0.6 345.6705 78.01744] CT
/Helvetica 15 F
GS
[1 0 0 1 0 0] CT
0 6 moveto 
1 -1 scale
(q = 2) t 
GR
GR
GS
[0.6 0 0 0.6 0 0] CT
0.494 0.184 0.557 RC
1 LJ
0.833 LW
N
534.986 130.029 M
572.378 130.029 L
S
GR
GS
[0.6 0 0 0.6 332.20917 78.01744] CT
0.494 0.184 0.557 RC
10.0 ML
0.833 LW
N
-3.536 -3.536 M
3.536 3.536 L
-3.536 3.536 M
3.536 -3.536 L
S
GR
GS
[0.6 0 0 0.6 345.6705 90.33488] CT
/Helvetica 15 F
GS
[1 0 0 1 0 0] CT
0 6 moveto 
1 -1 scale
(q = 3) t 
GR
GR
GS
[0.6 0 0 0.6 0 0] CT
0.467 0.675 0.188 RC
1 LJ
0.833 LW
N
534.986 150.558 M
572.378 150.558 L
S
GR
GS
[0.6 0 0 0.6 332.20917 90.33488] CT
0.467 0.675 0.188 RC
10.0 ML
0.833 LW
N
-3.536 -3.536 M
3.536 3.536 L
-3.536 3.536 M
3.536 -3.536 L
S
GR
GS
[0.6 0 0 0.6 0 0] CT
0.149 GC
10.0 ML
0.833 LW
N
530 163 M
530 56 L
617 56 L
617 163 L
cp
S
GR
%%Trailer
%%Pages: 1
%%EOF
